\relax 
\bbl@beforestart
\babel@aux{italian}{}
\babel@aux{italian}{}
\@writefile{toc}{\contentsline {section}{\numberline {1}Impostazioni e componenti}{1}\protected@file@percent }
\@writefile{toc}{\contentsline {section}{\numberline {2}Risultati e analisi dati}{1}\protected@file@percent }
\@writefile{toc}{\contentsline {subsection}{\numberline {2.1}Analisi teorica $i$-$V$ di un NIC}{1}\protected@file@percent }
\@writefile{lof}{\contentsline {figure}{\numberline {1}{\ignorespaces Circuito di un NIC collegato ad un carico $Z_L$}}{1}\protected@file@percent }
\newlabel{fig:niccircuit}{{1}{1}}
\newlabel{eq:niceq}{{1}{1}}
\newlabel{eq:niceq1}{{2}{1}}
\newlabel{eq:vinconditions}{{3}{2}}
\@writefile{lof}{\contentsline {figure}{\numberline {2}{\ignorespaces Comportamento atteso del NIC}}{2}\protected@file@percent }
\newlabel{fig:iv_nic}{{2}{2}}
\@writefile{toc}{\contentsline {subsection}{\numberline {2.2}Caratteristica $i$-$V$ di una resistenza connessa ad un NIC}{2}\protected@file@percent }
\@writefile{toc}{\contentsline {subsection}{\numberline {2.3}Caratteristica $i$-$V$ del \emph  {Chua's diode}}{2}\protected@file@percent }
\@writefile{lof}{\contentsline {figure}{\numberline {3}{\ignorespaces Schema di un \emph  {Chua's diode}}}{2}\protected@file@percent }
\newlabel{fig:chuadiode}{{3}{2}}
\@writefile{toc}{\contentsline {subsection}{\numberline {2.4}Analisi teorica del \emph  {Chua's circuit}}{2}\protected@file@percent }
\@writefile{lof}{\contentsline {figure}{\numberline {4}{\ignorespaces Schema di un \emph  {Chua's circuit}}}{3}\protected@file@percent }
\newlabel{fig:chuacircuit}{{4}{3}}
\newlabel{eq:diffeq}{{4}{3}}
\newlabel{eq:diffeq1}{{5}{3}}
\@writefile{lof}{\contentsline {figure}{\numberline {5}{\ignorespaces Figura XY per $R=\SI {1.52}{\kilo \ohm }$}}{3}\protected@file@percent }
\newlabel{fig:xy1}{{5}{3}}
\@writefile{lof}{\contentsline {figure}{\numberline {6}{\ignorespaces Figura XY per $R=\SI {1.28}{\kilo \ohm }$}}{4}\protected@file@percent }
\newlabel{fig:xy2}{{6}{4}}
\@writefile{lof}{\contentsline {figure}{\numberline {7}{\ignorespaces Figura XY per $R=\SI {1.85}{\kilo \ohm }$}}{4}\protected@file@percent }
\newlabel{fig:xy3}{{7}{4}}
