%!PS-Adobe-3.0 EPSF-3.0
%%Creator: (MATLAB, The Mathworks, Inc. Version 9.4.0.813654 \(R2018a\). Operating System: Windows 10)
%%Title: C:/Users/signo/Documents/MATLAB/Lab3/Exp5/Bode_plot_1b.eps
%%CreationDate: 2019-11-26T10:53:50
%%Pages: (atend)
%%BoundingBox: 0 0 420 315
%%LanguageLevel: 3
%%EndComments
%%BeginProlog
%%BeginResource: procset (Apache XML Graphics Std ProcSet) 1.2 0
%%Version: 1.2 0
%%Copyright: (Copyright 2001-2003,2010 The Apache Software Foundation. License terms: http://www.apache.org/licenses/LICENSE-2.0)
/bd{bind def}bind def
/ld{load def}bd
/GR/grestore ld
/GS/gsave ld
/RM/rmoveto ld
/C/curveto ld
/t/show ld
/L/lineto ld
/ML/setmiterlimit ld
/CT/concat ld
/f/fill ld
/N/newpath ld
/S/stroke ld
/CC/setcmykcolor ld
/A/ashow ld
/cp/closepath ld
/RC/setrgbcolor ld
/LJ/setlinejoin ld
/GC/setgray ld
/LW/setlinewidth ld
/M/moveto ld
/re {4 2 roll M
1 index 0 rlineto
0 exch rlineto
neg 0 rlineto
cp } bd
/_ctm matrix def
/_tm matrix def
/BT { _ctm currentmatrix pop matrix _tm copy pop 0 0 moveto } bd
/ET { _ctm setmatrix } bd
/iTm { _ctm setmatrix _tm concat } bd
/Tm { _tm astore pop iTm 0 0 moveto } bd
/ux 0.0 def
/uy 0.0 def
/F {
  /Tp exch def
  /Tf exch def
  Tf findfont Tp scalefont setfont
  /cf Tf def  /cs Tp def
} bd
/ULS {currentpoint /uy exch def /ux exch def} bd
/ULE {
  /Tcx currentpoint pop def
  gsave
  newpath
  cf findfont cs scalefont dup
  /FontMatrix get 0 get /Ts exch def /FontInfo get dup
  /UnderlinePosition get Ts mul /To exch def
  /UnderlineThickness get Ts mul /Tt exch def
  ux uy To add moveto  Tcx uy To add lineto
  Tt setlinewidth stroke
  grestore
} bd
/OLE {
  /Tcx currentpoint pop def
  gsave
  newpath
  cf findfont cs scalefont dup
  /FontMatrix get 0 get /Ts exch def /FontInfo get dup
  /UnderlinePosition get Ts mul /To exch def
  /UnderlineThickness get Ts mul /Tt exch def
  ux uy To add cs add moveto Tcx uy To add cs add lineto
  Tt setlinewidth stroke
  grestore
} bd
/SOE {
  /Tcx currentpoint pop def
  gsave
  newpath
  cf findfont cs scalefont dup
  /FontMatrix get 0 get /Ts exch def /FontInfo get dup
  /UnderlinePosition get Ts mul /To exch def
  /UnderlineThickness get Ts mul /Tt exch def
  ux uy To add cs 10 mul 26 idiv add moveto Tcx uy To add cs 10 mul 26 idiv add lineto
  Tt setlinewidth stroke
  grestore
} bd
/QT {
/Y22 exch store
/X22 exch store
/Y21 exch store
/X21 exch store
currentpoint
/Y21 load 2 mul add 3 div exch
/X21 load 2 mul add 3 div exch
/X21 load 2 mul /X22 load add 3 div
/Y21 load 2 mul /Y22 load add 3 div
/X22 load /Y22 load curveto
} bd
/SSPD {
dup length /d exch dict def
{
/v exch def
/k exch def
currentpagedevice k known {
/cpdv currentpagedevice k get def
v cpdv ne {
/upd false def
/nullv v type /nulltype eq def
/nullcpdv cpdv type /nulltype eq def
nullv nullcpdv or
{
/upd true def
} {
/sametype v type cpdv type eq def
sametype {
v type /arraytype eq {
/vlen v length def
/cpdvlen cpdv length def
vlen cpdvlen eq {
0 1 vlen 1 sub {
/i exch def
/obj v i get def
/cpdobj cpdv i get def
obj cpdobj ne {
/upd true def
exit
} if
} for
} {
/upd true def
} ifelse
} {
v type /dicttype eq {
v {
/dv exch def
/dk exch def
/cpddv cpdv dk get def
dv cpddv ne {
/upd true def
exit
} if
} forall
} {
/upd true def
} ifelse
} ifelse
} if
} ifelse
upd true eq {
d k v put
} if
} if
} if
} forall
d length 0 gt {
d setpagedevice
} if
} bd
/RE { % /NewFontName [NewEncodingArray] /FontName RE -
  findfont dup length dict begin
  {
    1 index /FID ne
    {def} {pop pop} ifelse
  } forall
  /Encoding exch def
  /FontName 1 index def
  currentdict definefont pop
  end
} bind def
%%EndResource
%%BeginResource: procset (Apache XML Graphics EPS ProcSet) 1.0 0
%%Version: 1.0 0
%%Copyright: (Copyright 2002-2003 The Apache Software Foundation. License terms: http://www.apache.org/licenses/LICENSE-2.0)
/BeginEPSF { %def
/b4_Inc_state save def         % Save state for cleanup
/dict_count countdictstack def % Count objects on dict stack
/op_count count 1 sub def      % Count objects on operand stack
userdict begin                 % Push userdict on dict stack
/showpage { } def              % Redefine showpage, { } = null proc
0 setgray 0 setlinecap         % Prepare graphics state
1 setlinewidth 0 setlinejoin
10 setmiterlimit [ ] 0 setdash newpath
/languagelevel where           % If level not equal to 1 then
{pop languagelevel             % set strokeadjust and
1 ne                           % overprint to their defaults.
{false setstrokeadjust false setoverprint
} if
} if
} bd
/EndEPSF { %def
count op_count sub {pop} repeat            % Clean up stacks
countdictstack dict_count sub {end} repeat
b4_Inc_state restore
} bd
%%EndResource
%FOPBeginFontDict
%%IncludeResource: font Courier-Oblique
%%IncludeResource: font Courier-BoldOblique
%%IncludeResource: font Courier-Bold
%%IncludeResource: font ZapfDingbats
%%IncludeResource: font Symbol
%%IncludeResource: font Helvetica
%%IncludeResource: font Helvetica-Oblique
%%IncludeResource: font Helvetica-Bold
%%IncludeResource: font Helvetica-BoldOblique
%%IncludeResource: font Times-Roman
%%IncludeResource: font Times-Italic
%%IncludeResource: font Times-Bold
%%IncludeResource: font Times-BoldItalic
%%IncludeResource: font Courier
%FOPEndFontDict
%%BeginResource: encoding WinAnsiEncoding
/WinAnsiEncoding [
/.notdef /.notdef /.notdef /.notdef /.notdef
/.notdef /.notdef /.notdef /.notdef /.notdef
/.notdef /.notdef /.notdef /.notdef /.notdef
/.notdef /.notdef /.notdef /.notdef /.notdef
/.notdef /.notdef /.notdef /.notdef /.notdef
/.notdef /.notdef /.notdef /.notdef /.notdef
/.notdef /.notdef /space /exclam /quotedbl
/numbersign /dollar /percent /ampersand /quotesingle
/parenleft /parenright /asterisk /plus /comma
/hyphen /period /slash /zero /one
/two /three /four /five /six
/seven /eight /nine /colon /semicolon
/less /equal /greater /question /at
/A /B /C /D /E
/F /G /H /I /J
/K /L /M /N /O
/P /Q /R /S /T
/U /V /W /X /Y
/Z /bracketleft /backslash /bracketright /asciicircum
/underscore /quoteleft /a /b /c
/d /e /f /g /h
/i /j /k /l /m
/n /o /p /q /r
/s /t /u /v /w
/x /y /z /braceleft /bar
/braceright /asciitilde /bullet /Euro /bullet
/quotesinglbase /florin /quotedblbase /ellipsis /dagger
/daggerdbl /circumflex /perthousand /Scaron /guilsinglleft
/OE /bullet /Zcaron /bullet /bullet
/quoteleft /quoteright /quotedblleft /quotedblright /bullet
/endash /emdash /asciitilde /trademark /scaron
/guilsinglright /oe /bullet /zcaron /Ydieresis
/space /exclamdown /cent /sterling /currency
/yen /brokenbar /section /dieresis /copyright
/ordfeminine /guillemotleft /logicalnot /sfthyphen /registered
/macron /degree /plusminus /twosuperior /threesuperior
/acute /mu /paragraph /middot /cedilla
/onesuperior /ordmasculine /guillemotright /onequarter /onehalf
/threequarters /questiondown /Agrave /Aacute /Acircumflex
/Atilde /Adieresis /Aring /AE /Ccedilla
/Egrave /Eacute /Ecircumflex /Edieresis /Igrave
/Iacute /Icircumflex /Idieresis /Eth /Ntilde
/Ograve /Oacute /Ocircumflex /Otilde /Odieresis
/multiply /Oslash /Ugrave /Uacute /Ucircumflex
/Udieresis /Yacute /Thorn /germandbls /agrave
/aacute /acircumflex /atilde /adieresis /aring
/ae /ccedilla /egrave /eacute /ecircumflex
/edieresis /igrave /iacute /icircumflex /idieresis
/eth /ntilde /ograve /oacute /ocircumflex
/otilde /odieresis /divide /oslash /ugrave
/uacute /ucircumflex /udieresis /yacute /thorn
/ydieresis
] def
%%EndResource
%FOPBeginFontReencode
/Courier-Oblique findfont
dup length dict begin
  {1 index /FID ne {def} {pop pop} ifelse} forall
  /Encoding WinAnsiEncoding def
  currentdict
end
/Courier-Oblique exch definefont pop
/Courier-BoldOblique findfont
dup length dict begin
  {1 index /FID ne {def} {pop pop} ifelse} forall
  /Encoding WinAnsiEncoding def
  currentdict
end
/Courier-BoldOblique exch definefont pop
/Courier-Bold findfont
dup length dict begin
  {1 index /FID ne {def} {pop pop} ifelse} forall
  /Encoding WinAnsiEncoding def
  currentdict
end
/Courier-Bold exch definefont pop
/Helvetica findfont
dup length dict begin
  {1 index /FID ne {def} {pop pop} ifelse} forall
  /Encoding WinAnsiEncoding def
  currentdict
end
/Helvetica exch definefont pop
/Helvetica-Oblique findfont
dup length dict begin
  {1 index /FID ne {def} {pop pop} ifelse} forall
  /Encoding WinAnsiEncoding def
  currentdict
end
/Helvetica-Oblique exch definefont pop
/Helvetica-Bold findfont
dup length dict begin
  {1 index /FID ne {def} {pop pop} ifelse} forall
  /Encoding WinAnsiEncoding def
  currentdict
end
/Helvetica-Bold exch definefont pop
/Helvetica-BoldOblique findfont
dup length dict begin
  {1 index /FID ne {def} {pop pop} ifelse} forall
  /Encoding WinAnsiEncoding def
  currentdict
end
/Helvetica-BoldOblique exch definefont pop
/Times-Roman findfont
dup length dict begin
  {1 index /FID ne {def} {pop pop} ifelse} forall
  /Encoding WinAnsiEncoding def
  currentdict
end
/Times-Roman exch definefont pop
/Times-Italic findfont
dup length dict begin
  {1 index /FID ne {def} {pop pop} ifelse} forall
  /Encoding WinAnsiEncoding def
  currentdict
end
/Times-Italic exch definefont pop
/Times-Bold findfont
dup length dict begin
  {1 index /FID ne {def} {pop pop} ifelse} forall
  /Encoding WinAnsiEncoding def
  currentdict
end
/Times-Bold exch definefont pop
/Times-BoldItalic findfont
dup length dict begin
  {1 index /FID ne {def} {pop pop} ifelse} forall
  /Encoding WinAnsiEncoding def
  currentdict
end
/Times-BoldItalic exch definefont pop
/Courier findfont
dup length dict begin
  {1 index /FID ne {def} {pop pop} ifelse} forall
  /Encoding WinAnsiEncoding def
  currentdict
end
/Courier exch definefont pop
%FOPEndFontReencode
%%EndProlog
%%Page: 1 1
%%PageBoundingBox: 0 0 420 315
%%BeginPageSetup
[1 0 0 -1 0 315] CT
%%EndPageSetup
GS
[0.6 0 0 0.6 0 0] CT
1 GC
N
0 0 700 525 re
f
GR
GS
[0.6 0 0 0.6 0 0] CT
1 GC
N
0 0 700 525 re
f
GR
GS
[0.6 0 0 0.6 0 0] CT
0.149 GC
2 setlinecap
1 LJ
0.833 LW
N
105 289 M
595 289 L
S
GR
GS
[0.6 0 0 0.6 0 0] CT
0.149 GC
2 setlinecap
1 LJ
0.833 LW
N
595 289 M
595 42 L
S
GR
GS
[0.6 0 0 0.6 0 0] CT
0.149 GC
2 setlinecap
1 LJ
0.833 LW
N
595 206.546 M
590.1 206.546 L
S
GR
GS
[0.6 0 0 0.6 0 0] CT
0.149 GC
2 setlinecap
1 LJ
0.833 LW
N
595 42.355 M
590.1 42.355 L
S
GR
GS
[0.6 0 0 0.6 360.40001 123.92762] CT
0.149 GC
/Helvetica 15.833 F
GS
[1 0 0 1 0 0] CT
0 6 moveto 
1 -1 scale
(-40) t 
GR
GR
GS
[0.6 0 0 0.6 360.40001 25.41286] CT
0.149 GC
/Helvetica 15.833 F
GS
[1 0 0 1 0 0] CT
0 6 moveto 
1 -1 scale
(0) t 
GR
GR
GS
[0 -0.6 0.6 0 376.70002 99.29993] CT
0.149 GC
/Helvetica 17.417 F
GS
[1 0 0 1 0 0] CT
-30 18 moveto 
1 -1 scale
(|H| \(dB\)) t 
GR
GR
GS
[0.6 0 0 0.6 0 0] CT
1 GC
N
105 289 M
595 289 L
595 42 L
105 42 L
cp
f
GR
GS
[0.6 0 0 0.6 0 0] CT
0.775 GC
[1 3] 0 setdash
2 LJ
0.833 LW
N
154.168 289 M
154.168 42 L
S
GR
GS
[0.6 0 0 0.6 0 0] CT
0.775 GC
[1 3] 0 setdash
2 LJ
0.833 LW
N
182.93 289 M
182.93 42 L
S
GR
GS
[0.6 0 0 0.6 0 0] CT
0.775 GC
[1 3] 0 setdash
2 LJ
0.833 LW
N
203.336 289 M
203.336 42 L
S
GR
GS
[0.6 0 0 0.6 0 0] CT
0.775 GC
[1 3] 0 setdash
2 LJ
0.833 LW
N
219.165 289 M
219.165 42 L
S
GR
GS
[0.6 0 0 0.6 0 0] CT
0.775 GC
[1 3] 0 setdash
2 LJ
0.833 LW
N
232.098 289 M
232.098 42 L
S
GR
GS
[0.6 0 0 0.6 0 0] CT
0.775 GC
[1 3] 0 setdash
2 LJ
0.833 LW
N
243.033 289 M
243.033 42 L
S
GR
GS
[0.6 0 0 0.6 0 0] CT
0.775 GC
[1 3] 0 setdash
2 LJ
0.833 LW
N
252.505 289 M
252.505 42 L
S
GR
GS
[0.6 0 0 0.6 0 0] CT
0.775 GC
[1 3] 0 setdash
2 LJ
0.833 LW
N
260.86 289 M
260.86 42 L
S
GR
GS
[0.6 0 0 0.6 0 0] CT
0.775 GC
[1 3] 0 setdash
2 LJ
0.833 LW
N
317.502 289 M
317.502 42 L
S
GR
GS
[0.6 0 0 0.6 0 0] CT
0.775 GC
[1 3] 0 setdash
2 LJ
0.833 LW
N
346.263 289 M
346.263 42 L
S
GR
GS
[0.6 0 0 0.6 0 0] CT
0.775 GC
[1 3] 0 setdash
2 LJ
0.833 LW
N
366.67 289 M
366.67 42 L
S
GR
GS
[0.6 0 0 0.6 0 0] CT
0.775 GC
[1 3] 0 setdash
2 LJ
0.833 LW
N
382.498 289 M
382.498 42 L
S
GR
GS
[0.6 0 0 0.6 0 0] CT
0.775 GC
[1 3] 0 setdash
2 LJ
0.833 LW
N
395.431 289 M
395.431 42 L
S
GR
GS
[0.6 0 0 0.6 0 0] CT
0.775 GC
[1 3] 0 setdash
2 LJ
0.833 LW
N
406.366 289 M
406.366 42 L
S
GR
GS
[0.6 0 0 0.6 0 0] CT
0.775 GC
[1 3] 0 setdash
2 LJ
0.833 LW
N
415.838 289 M
415.838 42 L
S
GR
GS
[0.6 0 0 0.6 0 0] CT
0.775 GC
[1 3] 0 setdash
2 LJ
0.833 LW
N
424.193 289 M
424.193 42 L
S
GR
GS
[0.6 0 0 0.6 0 0] CT
0.775 GC
[1 3] 0 setdash
2 LJ
0.833 LW
N
480.835 289 M
480.835 42 L
S
GR
GS
[0.6 0 0 0.6 0 0] CT
0.775 GC
[1 3] 0 setdash
2 LJ
0.833 LW
N
509.596 289 M
509.596 42 L
S
GR
GS
[0.6 0 0 0.6 0 0] CT
0.775 GC
[1 3] 0 setdash
2 LJ
0.833 LW
N
530.003 289 M
530.003 42 L
S
GR
GS
[0.6 0 0 0.6 0 0] CT
0.775 GC
[1 3] 0 setdash
2 LJ
0.833 LW
N
545.832 289 M
545.832 42 L
S
GR
GS
[0.6 0 0 0.6 0 0] CT
0.775 GC
[1 3] 0 setdash
2 LJ
0.833 LW
N
558.765 289 M
558.765 42 L
S
GR
GS
[0.6 0 0 0.6 0 0] CT
0.775 GC
[1 3] 0 setdash
2 LJ
0.833 LW
N
569.699 289 M
569.699 42 L
S
GR
GS
[0.6 0 0 0.6 0 0] CT
0.775 GC
[1 3] 0 setdash
2 LJ
0.833 LW
N
579.171 289 M
579.171 42 L
S
GR
GS
[0.6 0 0 0.6 0 0] CT
0.775 GC
[1 3] 0 setdash
2 LJ
0.833 LW
N
587.526 289 M
587.526 42 L
S
GR
GS
[0.6 0 0 0.6 0 0] CT
0.873 GC
1 LJ
0.833 LW
N
105 289 M
105 42 L
S
GR
GS
[0.6 0 0 0.6 0 0] CT
0.873 GC
1 LJ
0.833 LW
N
268.333 289 M
268.333 42 L
S
GR
GS
[0.6 0 0 0.6 0 0] CT
0.873 GC
1 LJ
0.833 LW
N
431.667 289 M
431.667 42 L
S
GR
GS
[0.6 0 0 0.6 0 0] CT
0.873 GC
1 LJ
0.833 LW
N
595 289 M
595 42 L
S
GR
GS
[0.6 0 0 0.6 0 0] CT
0.775 GC
[1 3] 0 setdash
2 LJ
0.833 LW
N
595 288.642 M
105 288.642 L
S
GR
GS
[0.6 0 0 0.6 0 0] CT
0.775 GC
[1 3] 0 setdash
2 LJ
0.833 LW
N
595 263.928 M
105 263.928 L
S
GR
GS
[0.6 0 0 0.6 0 0] CT
0.775 GC
[1 3] 0 setdash
2 LJ
0.833 LW
N
595 249.472 M
105 249.472 L
S
GR
GS
[0.6 0 0 0.6 0 0] CT
0.775 GC
[1 3] 0 setdash
2 LJ
0.833 LW
N
595 239.215 M
105 239.215 L
S
GR
GS
[0.6 0 0 0.6 0 0] CT
0.775 GC
[1 3] 0 setdash
2 LJ
0.833 LW
N
595 231.259 M
105 231.259 L
S
GR
GS
[0.6 0 0 0.6 0 0] CT
0.775 GC
[1 3] 0 setdash
2 LJ
0.833 LW
N
595 224.759 M
105 224.759 L
S
GR
GS
[0.6 0 0 0.6 0 0] CT
0.775 GC
[1 3] 0 setdash
2 LJ
0.833 LW
N
595 219.263 M
105 219.263 L
S
GR
GS
[0.6 0 0 0.6 0 0] CT
0.775 GC
[1 3] 0 setdash
2 LJ
0.833 LW
N
595 214.502 M
105 214.502 L
S
GR
GS
[0.6 0 0 0.6 0 0] CT
0.775 GC
[1 3] 0 setdash
2 LJ
0.833 LW
N
595 210.303 M
105 210.303 L
S
GR
GS
[0.6 0 0 0.6 0 0] CT
0.775 GC
[1 3] 0 setdash
2 LJ
0.833 LW
N
595 181.833 M
105 181.833 L
S
GR
GS
[0.6 0 0 0.6 0 0] CT
0.775 GC
[1 3] 0 setdash
2 LJ
0.833 LW
N
595 167.376 M
105 167.376 L
S
GR
GS
[0.6 0 0 0.6 0 0] CT
0.775 GC
[1 3] 0 setdash
2 LJ
0.833 LW
N
595 157.12 M
105 157.12 L
S
GR
GS
[0.6 0 0 0.6 0 0] CT
0.775 GC
[1 3] 0 setdash
2 LJ
0.833 LW
N
595 149.164 M
105 149.164 L
S
GR
GS
[0.6 0 0 0.6 0 0] CT
0.775 GC
[1 3] 0 setdash
2 LJ
0.833 LW
N
595 142.663 M
105 142.663 L
S
GR
GS
[0.6 0 0 0.6 0 0] CT
0.775 GC
[1 3] 0 setdash
2 LJ
0.833 LW
N
595 137.167 M
105 137.167 L
S
GR
GS
[0.6 0 0 0.6 0 0] CT
0.775 GC
[1 3] 0 setdash
2 LJ
0.833 LW
N
595 132.406 M
105 132.406 L
S
GR
GS
[0.6 0 0 0.6 0 0] CT
0.775 GC
[1 3] 0 setdash
2 LJ
0.833 LW
N
595 128.207 M
105 128.207 L
S
GR
GS
[0.6 0 0 0.6 0 0] CT
0.775 GC
[1 3] 0 setdash
2 LJ
0.833 LW
N
595 124.45 M
105 124.45 L
S
GR
GS
[0.6 0 0 0.6 0 0] CT
0.775 GC
[1 3] 0 setdash
2 LJ
0.833 LW
N
595 99.737 M
105 99.737 L
S
GR
GS
[0.6 0 0 0.6 0 0] CT
0.775 GC
[1 3] 0 setdash
2 LJ
0.833 LW
N
595 85.281 M
105 85.281 L
S
GR
GS
[0.6 0 0 0.6 0 0] CT
0.775 GC
[1 3] 0 setdash
2 LJ
0.833 LW
N
595 75.024 M
105 75.024 L
S
GR
GS
[0.6 0 0 0.6 0 0] CT
0.775 GC
[1 3] 0 setdash
2 LJ
0.833 LW
N
595 67.068 M
105 67.068 L
S
GR
GS
[0.6 0 0 0.6 0 0] CT
0.775 GC
[1 3] 0 setdash
2 LJ
0.833 LW
N
595 60.568 M
105 60.568 L
S
GR
GS
[0.6 0 0 0.6 0 0] CT
0.775 GC
[1 3] 0 setdash
2 LJ
0.833 LW
N
595 55.072 M
105 55.072 L
S
GR
GS
[0.6 0 0 0.6 0 0] CT
0.775 GC
[1 3] 0 setdash
2 LJ
0.833 LW
N
595 50.311 M
105 50.311 L
S
GR
GS
[0.6 0 0 0.6 0 0] CT
0.775 GC
[1 3] 0 setdash
2 LJ
0.833 LW
N
595 46.111 M
105 46.111 L
S
GR
GS
[0.6 0 0 0.6 0 0] CT
0.873 GC
1 LJ
0.833 LW
N
595 206.546 M
105 206.546 L
S
GR
GS
[0.6 0 0 0.6 0 0] CT
0.873 GC
1 LJ
0.833 LW
N
595 42.355 M
105 42.355 L
S
GR
GS
[0.6 0 0 0.6 0 0] CT
0.149 GC
2 setlinecap
1 LJ
0.833 LW
N
105 289 M
595 289 L
S
GR
GS
[0.6 0 0 0.6 0 0] CT
0.149 GC
2 setlinecap
1 LJ
0.833 LW
N
105 42 M
595 42 L
S
GR
GS
[0.6 0 0 0.6 0 0] CT
0.149 GC
2 setlinecap
1 LJ
0.833 LW
N
105 289 M
105 284.1 L
S
GR
GS
[0.6 0 0 0.6 0 0] CT
0.149 GC
2 setlinecap
1 LJ
0.833 LW
N
268.333 289 M
268.333 284.1 L
S
GR
GS
[0.6 0 0 0.6 0 0] CT
0.149 GC
2 setlinecap
1 LJ
0.833 LW
N
431.667 289 M
431.667 284.1 L
S
GR
GS
[0.6 0 0 0.6 0 0] CT
0.149 GC
2 setlinecap
1 LJ
0.833 LW
N
595 289 M
595 284.1 L
S
GR
GS
[0.6 0 0 0.6 0 0] CT
0.149 GC
2 setlinecap
1 LJ
0.833 LW
N
105 42 M
105 46.9 L
S
GR
GS
[0.6 0 0 0.6 0 0] CT
0.149 GC
2 setlinecap
1 LJ
0.833 LW
N
268.333 42 M
268.333 46.9 L
S
GR
GS
[0.6 0 0 0.6 0 0] CT
0.149 GC
2 setlinecap
1 LJ
0.833 LW
N
431.667 42 M
431.667 46.9 L
S
GR
GS
[0.6 0 0 0.6 0 0] CT
0.149 GC
2 setlinecap
1 LJ
0.833 LW
N
595 42 M
595 46.9 L
S
GR
GS
[0.6 0 0 0.6 0 0] CT
0.149 GC
2 setlinecap
1 LJ
0.833 LW
N
105 289 M
105 286.55 L
S
GR
GS
[0.6 0 0 0.6 0 0] CT
0.149 GC
2 setlinecap
1 LJ
0.833 LW
N
154.168 289 M
154.168 286.55 L
S
GR
GS
[0.6 0 0 0.6 0 0] CT
0.149 GC
2 setlinecap
1 LJ
0.833 LW
N
182.93 289 M
182.93 286.55 L
S
GR
GS
[0.6 0 0 0.6 0 0] CT
0.149 GC
2 setlinecap
1 LJ
0.833 LW
N
203.336 289 M
203.336 286.55 L
S
GR
GS
[0.6 0 0 0.6 0 0] CT
0.149 GC
2 setlinecap
1 LJ
0.833 LW
N
219.165 289 M
219.165 286.55 L
S
GR
GS
[0.6 0 0 0.6 0 0] CT
0.149 GC
2 setlinecap
1 LJ
0.833 LW
N
232.098 289 M
232.098 286.55 L
S
GR
GS
[0.6 0 0 0.6 0 0] CT
0.149 GC
2 setlinecap
1 LJ
0.833 LW
N
243.033 289 M
243.033 286.55 L
S
GR
GS
[0.6 0 0 0.6 0 0] CT
0.149 GC
2 setlinecap
1 LJ
0.833 LW
N
252.505 289 M
252.505 286.55 L
S
GR
GS
[0.6 0 0 0.6 0 0] CT
0.149 GC
2 setlinecap
1 LJ
0.833 LW
N
260.86 289 M
260.86 286.55 L
S
GR
GS
[0.6 0 0 0.6 0 0] CT
0.149 GC
2 setlinecap
1 LJ
0.833 LW
N
268.333 289 M
268.333 286.55 L
S
GR
GS
[0.6 0 0 0.6 0 0] CT
0.149 GC
2 setlinecap
1 LJ
0.833 LW
N
317.502 289 M
317.502 286.55 L
S
GR
GS
[0.6 0 0 0.6 0 0] CT
0.149 GC
2 setlinecap
1 LJ
0.833 LW
N
346.263 289 M
346.263 286.55 L
S
GR
GS
[0.6 0 0 0.6 0 0] CT
0.149 GC
2 setlinecap
1 LJ
0.833 LW
N
366.67 289 M
366.67 286.55 L
S
GR
GS
[0.6 0 0 0.6 0 0] CT
0.149 GC
2 setlinecap
1 LJ
0.833 LW
N
382.498 289 M
382.498 286.55 L
S
GR
GS
[0.6 0 0 0.6 0 0] CT
0.149 GC
2 setlinecap
1 LJ
0.833 LW
N
395.431 289 M
395.431 286.55 L
S
GR
GS
[0.6 0 0 0.6 0 0] CT
0.149 GC
2 setlinecap
1 LJ
0.833 LW
N
406.366 289 M
406.366 286.55 L
S
GR
GS
[0.6 0 0 0.6 0 0] CT
0.149 GC
2 setlinecap
1 LJ
0.833 LW
N
415.838 289 M
415.838 286.55 L
S
GR
GS
[0.6 0 0 0.6 0 0] CT
0.149 GC
2 setlinecap
1 LJ
0.833 LW
N
424.193 289 M
424.193 286.55 L
S
GR
GS
[0.6 0 0 0.6 0 0] CT
0.149 GC
2 setlinecap
1 LJ
0.833 LW
N
431.667 289 M
431.667 286.55 L
S
GR
GS
[0.6 0 0 0.6 0 0] CT
0.149 GC
2 setlinecap
1 LJ
0.833 LW
N
480.835 289 M
480.835 286.55 L
S
GR
GS
[0.6 0 0 0.6 0 0] CT
0.149 GC
2 setlinecap
1 LJ
0.833 LW
N
509.596 289 M
509.596 286.55 L
S
GR
GS
[0.6 0 0 0.6 0 0] CT
0.149 GC
2 setlinecap
1 LJ
0.833 LW
N
530.003 289 M
530.003 286.55 L
S
GR
GS
[0.6 0 0 0.6 0 0] CT
0.149 GC
2 setlinecap
1 LJ
0.833 LW
N
545.832 289 M
545.832 286.55 L
S
GR
GS
[0.6 0 0 0.6 0 0] CT
0.149 GC
2 setlinecap
1 LJ
0.833 LW
N
558.765 289 M
558.765 286.55 L
S
GR
GS
[0.6 0 0 0.6 0 0] CT
0.149 GC
2 setlinecap
1 LJ
0.833 LW
N
569.699 289 M
569.699 286.55 L
S
GR
GS
[0.6 0 0 0.6 0 0] CT
0.149 GC
2 setlinecap
1 LJ
0.833 LW
N
579.171 289 M
579.171 286.55 L
S
GR
GS
[0.6 0 0 0.6 0 0] CT
0.149 GC
2 setlinecap
1 LJ
0.833 LW
N
587.526 289 M
587.526 286.55 L
S
GR
GS
[0.6 0 0 0.6 0 0] CT
0.149 GC
2 setlinecap
1 LJ
0.833 LW
N
595 289 M
595 286.55 L
S
GR
GS
[0.6 0 0 0.6 0 0] CT
0.149 GC
2 setlinecap
1 LJ
0.833 LW
N
105 42 M
105 44.45 L
S
GR
GS
[0.6 0 0 0.6 0 0] CT
0.149 GC
2 setlinecap
1 LJ
0.833 LW
N
154.168 42 M
154.168 44.45 L
S
GR
GS
[0.6 0 0 0.6 0 0] CT
0.149 GC
2 setlinecap
1 LJ
0.833 LW
N
182.93 42 M
182.93 44.45 L
S
GR
GS
[0.6 0 0 0.6 0 0] CT
0.149 GC
2 setlinecap
1 LJ
0.833 LW
N
203.336 42 M
203.336 44.45 L
S
GR
GS
[0.6 0 0 0.6 0 0] CT
0.149 GC
2 setlinecap
1 LJ
0.833 LW
N
219.165 42 M
219.165 44.45 L
S
GR
GS
[0.6 0 0 0.6 0 0] CT
0.149 GC
2 setlinecap
1 LJ
0.833 LW
N
232.098 42 M
232.098 44.45 L
S
GR
GS
[0.6 0 0 0.6 0 0] CT
0.149 GC
2 setlinecap
1 LJ
0.833 LW
N
243.033 42 M
243.033 44.45 L
S
GR
GS
[0.6 0 0 0.6 0 0] CT
0.149 GC
2 setlinecap
1 LJ
0.833 LW
N
252.505 42 M
252.505 44.45 L
S
GR
GS
[0.6 0 0 0.6 0 0] CT
0.149 GC
2 setlinecap
1 LJ
0.833 LW
N
260.86 42 M
260.86 44.45 L
S
GR
GS
[0.6 0 0 0.6 0 0] CT
0.149 GC
2 setlinecap
1 LJ
0.833 LW
N
268.333 42 M
268.333 44.45 L
S
GR
GS
[0.6 0 0 0.6 0 0] CT
0.149 GC
2 setlinecap
1 LJ
0.833 LW
N
317.502 42 M
317.502 44.45 L
S
GR
GS
[0.6 0 0 0.6 0 0] CT
0.149 GC
2 setlinecap
1 LJ
0.833 LW
N
346.263 42 M
346.263 44.45 L
S
GR
GS
[0.6 0 0 0.6 0 0] CT
0.149 GC
2 setlinecap
1 LJ
0.833 LW
N
366.67 42 M
366.67 44.45 L
S
GR
GS
[0.6 0 0 0.6 0 0] CT
0.149 GC
2 setlinecap
1 LJ
0.833 LW
N
382.498 42 M
382.498 44.45 L
S
GR
GS
[0.6 0 0 0.6 0 0] CT
0.149 GC
2 setlinecap
1 LJ
0.833 LW
N
395.431 42 M
395.431 44.45 L
S
GR
GS
[0.6 0 0 0.6 0 0] CT
0.149 GC
2 setlinecap
1 LJ
0.833 LW
N
406.366 42 M
406.366 44.45 L
S
GR
GS
[0.6 0 0 0.6 0 0] CT
0.149 GC
2 setlinecap
1 LJ
0.833 LW
N
415.838 42 M
415.838 44.45 L
S
GR
GS
[0.6 0 0 0.6 0 0] CT
0.149 GC
2 setlinecap
1 LJ
0.833 LW
N
424.193 42 M
424.193 44.45 L
S
GR
GS
[0.6 0 0 0.6 0 0] CT
0.149 GC
2 setlinecap
1 LJ
0.833 LW
N
431.667 42 M
431.667 44.45 L
S
GR
GS
[0.6 0 0 0.6 0 0] CT
0.149 GC
2 setlinecap
1 LJ
0.833 LW
N
480.835 42 M
480.835 44.45 L
S
GR
GS
[0.6 0 0 0.6 0 0] CT
0.149 GC
2 setlinecap
1 LJ
0.833 LW
N
509.596 42 M
509.596 44.45 L
S
GR
GS
[0.6 0 0 0.6 0 0] CT
0.149 GC
2 setlinecap
1 LJ
0.833 LW
N
530.003 42 M
530.003 44.45 L
S
GR
GS
[0.6 0 0 0.6 0 0] CT
0.149 GC
2 setlinecap
1 LJ
0.833 LW
N
545.832 42 M
545.832 44.45 L
S
GR
GS
[0.6 0 0 0.6 0 0] CT
0.149 GC
2 setlinecap
1 LJ
0.833 LW
N
558.765 42 M
558.765 44.45 L
S
GR
GS
[0.6 0 0 0.6 0 0] CT
0.149 GC
2 setlinecap
1 LJ
0.833 LW
N
569.699 42 M
569.699 44.45 L
S
GR
GS
[0.6 0 0 0.6 0 0] CT
0.149 GC
2 setlinecap
1 LJ
0.833 LW
N
579.171 42 M
579.171 44.45 L
S
GR
GS
[0.6 0 0 0.6 0 0] CT
0.149 GC
2 setlinecap
1 LJ
0.833 LW
N
587.526 42 M
587.526 44.45 L
S
GR
GS
[0.6 0 0 0.6 0 0] CT
0.149 GC
2 setlinecap
1 LJ
0.833 LW
N
595 42 M
595 44.45 L
S
GR
GS
[0.6 0 0 0.6 0 0] CT
0.149 GC
2 setlinecap
1 LJ
0.833 LW
N
105 289 M
105 42 L
S
GR
GS
[0.6 0 0 0.6 0 0] CT
0.149 GC
2 setlinecap
1 LJ
0.833 LW
N
595 289 M
595 42 L
S
GR
GS
[0.6 0 0 0.6 0 0] CT
0.149 GC
2 setlinecap
1 LJ
0.833 LW
N
105 206.546 M
109.9 206.546 L
S
GR
GS
[0.6 0 0 0.6 0 0] CT
0.149 GC
2 setlinecap
1 LJ
0.833 LW
N
105 42.355 M
109.9 42.355 L
S
GR
GS
[0.6 0 0 0.6 0 0] CT
0.149 GC
2 setlinecap
1 LJ
0.833 LW
N
595 206.546 M
590.1 206.546 L
S
GR
GS
[0.6 0 0 0.6 0 0] CT
0.149 GC
2 setlinecap
1 LJ
0.833 LW
N
595 42.355 M
590.1 42.355 L
S
GR
GS
[0.6 0 0 0.6 0 0] CT
0.149 GC
2 setlinecap
1 LJ
0.833 LW
N
105 288.642 M
107.45 288.642 L
S
GR
GS
[0.6 0 0 0.6 0 0] CT
0.149 GC
2 setlinecap
1 LJ
0.833 LW
N
105 263.928 M
107.45 263.928 L
S
GR
GS
[0.6 0 0 0.6 0 0] CT
0.149 GC
2 setlinecap
1 LJ
0.833 LW
N
105 249.472 M
107.45 249.472 L
S
GR
GS
[0.6 0 0 0.6 0 0] CT
0.149 GC
2 setlinecap
1 LJ
0.833 LW
N
105 239.215 M
107.45 239.215 L
S
GR
GS
[0.6 0 0 0.6 0 0] CT
0.149 GC
2 setlinecap
1 LJ
0.833 LW
N
105 231.259 M
107.45 231.259 L
S
GR
GS
[0.6 0 0 0.6 0 0] CT
0.149 GC
2 setlinecap
1 LJ
0.833 LW
N
105 224.759 M
107.45 224.759 L
S
GR
GS
[0.6 0 0 0.6 0 0] CT
0.149 GC
2 setlinecap
1 LJ
0.833 LW
N
105 219.263 M
107.45 219.263 L
S
GR
GS
[0.6 0 0 0.6 0 0] CT
0.149 GC
2 setlinecap
1 LJ
0.833 LW
N
105 214.502 M
107.45 214.502 L
S
GR
GS
[0.6 0 0 0.6 0 0] CT
0.149 GC
2 setlinecap
1 LJ
0.833 LW
N
105 210.303 M
107.45 210.303 L
S
GR
GS
[0.6 0 0 0.6 0 0] CT
0.149 GC
2 setlinecap
1 LJ
0.833 LW
N
105 206.546 M
107.45 206.546 L
S
GR
GS
[0.6 0 0 0.6 0 0] CT
0.149 GC
2 setlinecap
1 LJ
0.833 LW
N
105 181.833 M
107.45 181.833 L
S
GR
GS
[0.6 0 0 0.6 0 0] CT
0.149 GC
2 setlinecap
1 LJ
0.833 LW
N
105 167.376 M
107.45 167.376 L
S
GR
GS
[0.6 0 0 0.6 0 0] CT
0.149 GC
2 setlinecap
1 LJ
0.833 LW
N
105 157.12 M
107.45 157.12 L
S
GR
GS
[0.6 0 0 0.6 0 0] CT
0.149 GC
2 setlinecap
1 LJ
0.833 LW
N
105 149.164 M
107.45 149.164 L
S
GR
GS
[0.6 0 0 0.6 0 0] CT
0.149 GC
2 setlinecap
1 LJ
0.833 LW
N
105 142.663 M
107.45 142.663 L
S
GR
GS
[0.6 0 0 0.6 0 0] CT
0.149 GC
2 setlinecap
1 LJ
0.833 LW
N
105 137.167 M
107.45 137.167 L
S
GR
GS
[0.6 0 0 0.6 0 0] CT
0.149 GC
2 setlinecap
1 LJ
0.833 LW
N
105 132.406 M
107.45 132.406 L
S
GR
GS
[0.6 0 0 0.6 0 0] CT
0.149 GC
2 setlinecap
1 LJ
0.833 LW
N
105 128.207 M
107.45 128.207 L
S
GR
GS
[0.6 0 0 0.6 0 0] CT
0.149 GC
2 setlinecap
1 LJ
0.833 LW
N
105 124.45 M
107.45 124.45 L
S
GR
GS
[0.6 0 0 0.6 0 0] CT
0.149 GC
2 setlinecap
1 LJ
0.833 LW
N
105 99.737 M
107.45 99.737 L
S
GR
GS
[0.6 0 0 0.6 0 0] CT
0.149 GC
2 setlinecap
1 LJ
0.833 LW
N
105 85.281 M
107.45 85.281 L
S
GR
GS
[0.6 0 0 0.6 0 0] CT
0.149 GC
2 setlinecap
1 LJ
0.833 LW
N
105 75.024 M
107.45 75.024 L
S
GR
GS
[0.6 0 0 0.6 0 0] CT
0.149 GC
2 setlinecap
1 LJ
0.833 LW
N
105 67.068 M
107.45 67.068 L
S
GR
GS
[0.6 0 0 0.6 0 0] CT
0.149 GC
2 setlinecap
1 LJ
0.833 LW
N
105 60.568 M
107.45 60.568 L
S
GR
GS
[0.6 0 0 0.6 0 0] CT
0.149 GC
2 setlinecap
1 LJ
0.833 LW
N
105 55.072 M
107.45 55.072 L
S
GR
GS
[0.6 0 0 0.6 0 0] CT
0.149 GC
2 setlinecap
1 LJ
0.833 LW
N
105 50.311 M
107.45 50.311 L
S
GR
GS
[0.6 0 0 0.6 0 0] CT
0.149 GC
2 setlinecap
1 LJ
0.833 LW
N
105 46.111 M
107.45 46.111 L
S
GR
GS
[0.6 0 0 0.6 0 0] CT
0.149 GC
2 setlinecap
1 LJ
0.833 LW
N
105 42.355 M
107.45 42.355 L
S
GR
GS
[0.6 0 0 0.6 0 0] CT
0.149 GC
2 setlinecap
1 LJ
0.833 LW
N
595 288.642 M
592.55 288.642 L
S
GR
GS
[0.6 0 0 0.6 0 0] CT
0.149 GC
2 setlinecap
1 LJ
0.833 LW
N
595 263.928 M
592.55 263.928 L
S
GR
GS
[0.6 0 0 0.6 0 0] CT
0.149 GC
2 setlinecap
1 LJ
0.833 LW
N
595 249.472 M
592.55 249.472 L
S
GR
GS
[0.6 0 0 0.6 0 0] CT
0.149 GC
2 setlinecap
1 LJ
0.833 LW
N
595 239.215 M
592.55 239.215 L
S
GR
GS
[0.6 0 0 0.6 0 0] CT
0.149 GC
2 setlinecap
1 LJ
0.833 LW
N
595 231.259 M
592.55 231.259 L
S
GR
GS
[0.6 0 0 0.6 0 0] CT
0.149 GC
2 setlinecap
1 LJ
0.833 LW
N
595 224.759 M
592.55 224.759 L
S
GR
GS
[0.6 0 0 0.6 0 0] CT
0.149 GC
2 setlinecap
1 LJ
0.833 LW
N
595 219.263 M
592.55 219.263 L
S
GR
GS
[0.6 0 0 0.6 0 0] CT
0.149 GC
2 setlinecap
1 LJ
0.833 LW
N
595 214.502 M
592.55 214.502 L
S
GR
GS
[0.6 0 0 0.6 0 0] CT
0.149 GC
2 setlinecap
1 LJ
0.833 LW
N
595 210.303 M
592.55 210.303 L
S
GR
GS
[0.6 0 0 0.6 0 0] CT
0.149 GC
2 setlinecap
1 LJ
0.833 LW
N
595 206.546 M
592.55 206.546 L
S
GR
GS
[0.6 0 0 0.6 0 0] CT
0.149 GC
2 setlinecap
1 LJ
0.833 LW
N
595 181.833 M
592.55 181.833 L
S
GR
GS
[0.6 0 0 0.6 0 0] CT
0.149 GC
2 setlinecap
1 LJ
0.833 LW
N
595 167.376 M
592.55 167.376 L
S
GR
GS
[0.6 0 0 0.6 0 0] CT
0.149 GC
2 setlinecap
1 LJ
0.833 LW
N
595 157.12 M
592.55 157.12 L
S
GR
GS
[0.6 0 0 0.6 0 0] CT
0.149 GC
2 setlinecap
1 LJ
0.833 LW
N
595 149.164 M
592.55 149.164 L
S
GR
GS
[0.6 0 0 0.6 0 0] CT
0.149 GC
2 setlinecap
1 LJ
0.833 LW
N
595 142.663 M
592.55 142.663 L
S
GR
GS
[0.6 0 0 0.6 0 0] CT
0.149 GC
2 setlinecap
1 LJ
0.833 LW
N
595 137.167 M
592.55 137.167 L
S
GR
GS
[0.6 0 0 0.6 0 0] CT
0.149 GC
2 setlinecap
1 LJ
0.833 LW
N
595 132.406 M
592.55 132.406 L
S
GR
GS
[0.6 0 0 0.6 0 0] CT
0.149 GC
2 setlinecap
1 LJ
0.833 LW
N
595 128.207 M
592.55 128.207 L
S
GR
GS
[0.6 0 0 0.6 0 0] CT
0.149 GC
2 setlinecap
1 LJ
0.833 LW
N
595 124.45 M
592.55 124.45 L
S
GR
GS
[0.6 0 0 0.6 0 0] CT
0.149 GC
2 setlinecap
1 LJ
0.833 LW
N
595 99.737 M
592.55 99.737 L
S
GR
GS
[0.6 0 0 0.6 0 0] CT
0.149 GC
2 setlinecap
1 LJ
0.833 LW
N
595 85.281 M
592.55 85.281 L
S
GR
GS
[0.6 0 0 0.6 0 0] CT
0.149 GC
2 setlinecap
1 LJ
0.833 LW
N
595 75.024 M
592.55 75.024 L
S
GR
GS
[0.6 0 0 0.6 0 0] CT
0.149 GC
2 setlinecap
1 LJ
0.833 LW
N
595 67.068 M
592.55 67.068 L
S
GR
GS
[0.6 0 0 0.6 0 0] CT
0.149 GC
2 setlinecap
1 LJ
0.833 LW
N
595 60.568 M
592.55 60.568 L
S
GR
GS
[0.6 0 0 0.6 0 0] CT
0.149 GC
2 setlinecap
1 LJ
0.833 LW
N
595 55.072 M
592.55 55.072 L
S
GR
GS
[0.6 0 0 0.6 0 0] CT
0.149 GC
2 setlinecap
1 LJ
0.833 LW
N
595 50.311 M
592.55 50.311 L
S
GR
GS
[0.6 0 0 0.6 0 0] CT
0.149 GC
2 setlinecap
1 LJ
0.833 LW
N
595 46.111 M
592.55 46.111 L
S
GR
GS
[0.6 0 0 0.6 0 0] CT
0.149 GC
2 setlinecap
1 LJ
0.833 LW
N
595 42.355 M
592.55 42.355 L
S
GR
GS
[0.6 0 0 0.6 41.4 129] CT
0.149 GC
/Helvetica 15.833 F
GS
[1 0 0 1 0 0] CT
0 0 moveto 
1 -1 scale
(10) t 
GR
GR
GS
[0.6 0 0 0.6 52.2 124.8] CT
0.149 GC
/Helvetica 12.667 F
GS
[1 0 0 1 0 0] CT
0 0 moveto 
1 -1 scale
(-2) t 
GR
GR
GS
[0.6 0 0 0.6 43.8 30] CT
0.149 GC
/Helvetica 15.833 F
GS
[1 0 0 1 0 0] CT
0 0 moveto 
1 -1 scale
(10) t 
GR
GR
GS
[0.6 0 0 0.6 54.6 25.8] CT
0.149 GC
/Helvetica 12.667 F
GS
[1 0 0 1 0 0] CT
0 0 moveto 
1 -1 scale
(0) t 
GR
GR
GS
[0 -0.6 0.6 0 39.1 99.29993] CT
0.149 GC
/Helvetica 17.417 F
GS
[1 0 0 1 0 0] CT
-11 -4 moveto 
1 -1 scale
(|H|) t 
GR
GR
GS
[0.6 0 0 0.6 0 0] CT
0 1 0 RC
1 LJ
3.333 LW
N
105 42.498 M
154.168 42.923 L
203.336 44.577 L
219.165 45.768 L
232.098 47.173 L
243.033 48.764 L
260.86 52.403 L
275.094 56.484 L
297.095 65.319 L
333.33 87.141 L
357.198 105.779 L
389.259 134.234 L
411.26 155.075 L
444.6 187.658 L
469.307 212.189 L
S
GR
GS
[0.6 0 0 0.6 63 27.60009] CT
0 0 1 RC
N
4.889 0 M
4.889 -2.7 2.7 -4.889 0 -4.889 C
-2.7 -4.889 -4.889 -2.7 -4.889 0 C
-4.889 2.7 -2.7 4.889 0 4.889 C
2.7 4.889 4.889 2.7 4.889 0 C
cp
f
GR
GS
[0.6 0 0 0.6 63 27.60009] CT
0 0 1 RC
10.0 ML
3.333 LW
N
4.889 0 M
4.889 -2.7 2.7 -4.889 0 -4.889 C
-2.7 -4.889 -4.889 -2.7 -4.889 0 C
-4.889 2.7 -2.7 4.889 0 4.889 C
2.7 4.889 4.889 2.7 4.889 0 C
cp
S
GR
GS
[0.6 0 0 0.6 92.50094 27.8276] CT
0 0 1 RC
N
/f1109158639{4.889 0 M
4.889 -2.7 2.7 -4.889 0 -4.889 C
-2.7 -4.889 -4.889 -2.7 -4.889 0 C
-4.889 2.7 -2.7 4.889 0 4.889 C
2.7 4.889 4.889 2.7 4.889 0 C
cp}def
f1109158639
f
GR
GS
[0.6 0 0 0.6 92.50094 27.8276] CT
0 0 1 RC
10.0 ML
3.333 LW
N
4.889 0 M
4.889 -2.7 2.7 -4.889 0 -4.889 C
-2.7 -4.889 -4.889 -2.7 -4.889 0 C
-4.889 2.7 -2.7 4.889 0 4.889 C
2.7 4.889 4.889 2.7 4.889 0 C
cp
S
GR
GS
[0.6 0 0 0.6 122.00188 28.91203] CT
0 0 1 RC
N
f1109158639
f
GR
GS
[0.6 0 0 0.6 122.00188 28.91203] CT
0 0 1 RC
10.0 ML
3.333 LW
N
4.889 0 M
4.889 -2.7 2.7 -4.889 0 -4.889 C
-2.7 -4.889 -4.889 -2.7 -4.889 0 C
-4.889 2.7 -2.7 4.889 0 4.889 C
2.7 4.889 4.889 2.7 4.889 0 C
cp
S
GR
GS
[0.6 0 0 0.6 131.49906 29.57303] CT
0 0 1 RC
N
f1109158639
f
GR
GS
[0.6 0 0 0.6 131.49906 29.57303] CT
0 0 1 RC
10.0 ML
3.333 LW
N
4.889 0 M
4.889 -2.7 2.7 -4.889 0 -4.889 C
-2.7 -4.889 -4.889 -2.7 -4.889 0 C
-4.889 2.7 -2.7 4.889 0 4.889 C
2.7 4.889 4.889 2.7 4.889 0 C
cp
S
GR
GS
[0.6 0 0 0.6 139.25882 30.34844] CT
0 0 1 RC
N
f1109158639
f
GR
GS
[0.6 0 0 0.6 139.25882 30.34844] CT
0 0 1 RC
10.0 ML
3.333 LW
N
4.889 0 M
4.889 -2.7 2.7 -4.889 0 -4.889 C
-2.7 -4.889 -4.889 -2.7 -4.889 0 C
-4.889 2.7 -2.7 4.889 0 4.889 C
2.7 4.889 4.889 2.7 4.889 0 C
cp
S
GR
GS
[0.6 0 0 0.6 145.81961 31.22183] CT
0 0 1 RC
N
f1109158639
f
GR
GS
[0.6 0 0 0.6 145.81961 31.22183] CT
0 0 1 RC
10.0 ML
3.333 LW
N
4.889 0 M
4.889 -2.7 2.7 -4.889 0 -4.889 C
-2.7 -4.889 -4.889 -2.7 -4.889 0 C
-4.889 2.7 -2.7 4.889 0 4.889 C
2.7 4.889 4.889 2.7 4.889 0 C
cp
S
GR
GS
[0.6 0 0 0.6 156.51577 33.23803] CT
0 0 1 RC
N
f1109158639
f
GR
GS
[0.6 0 0 0.6 156.51577 33.23803] CT
0 0 1 RC
10.0 ML
3.333 LW
N
4.889 0 M
4.889 -2.7 2.7 -4.889 0 -4.889 C
-2.7 -4.889 -4.889 -2.7 -4.889 0 C
-4.889 2.7 -2.7 4.889 0 4.889 C
2.7 4.889 4.889 2.7 4.889 0 C
cp
S
GR
GS
[0.6 0 0 0.6 165.05649 35.49359] CT
0 0 1 RC
N
f1109158639
f
GR
GS
[0.6 0 0 0.6 165.05649 35.49359] CT
0 0 1 RC
10.0 ML
3.333 LW
N
4.889 0 M
4.889 -2.7 2.7 -4.889 0 -4.889 C
-2.7 -4.889 -4.889 -2.7 -4.889 0 C
-4.889 2.7 -2.7 4.889 0 4.889 C
2.7 4.889 4.889 2.7 4.889 0 C
cp
S
GR
GS
[0.6 0 0 0.6 178.25695 40.38116] CT
0 0 1 RC
N
f1109158639
f
GR
GS
[0.6 0 0 0.6 178.25695 40.38116] CT
0 0 1 RC
10.0 ML
3.333 LW
N
4.889 0 M
4.889 -2.7 2.7 -4.889 0 -4.889 C
-2.7 -4.889 -4.889 -2.7 -4.889 0 C
-4.889 2.7 -2.7 4.889 0 4.889 C
2.7 4.889 4.889 2.7 4.889 0 C
cp
S
GR
GS
[0.6 0 0 0.6 199.99812 52.99956] CT
0 0 1 RC
N
f1109158639
f
GR
GS
[0.6 0 0 0.6 199.99812 52.99956] CT
0 0 1 RC
10.0 ML
3.333 LW
N
4.889 0 M
4.889 -2.7 2.7 -4.889 0 -4.889 C
-2.7 -4.889 -4.889 -2.7 -4.889 0 C
-4.889 2.7 -2.7 4.889 0 4.889 C
2.7 4.889 4.889 2.7 4.889 0 C
cp
S
GR
GS
[0.6 0 0 0.6 214.31867 63.71865] CT
0 0 1 RC
N
f1109158639
f
GR
GS
[0.6 0 0 0.6 214.31867 63.71865] CT
0 0 1 RC
10.0 ML
3.333 LW
N
4.889 0 M
4.889 -2.7 2.7 -4.889 0 -4.889 C
-2.7 -4.889 -4.889 -2.7 -4.889 0 C
-4.889 2.7 -2.7 4.889 0 4.889 C
2.7 4.889 4.889 2.7 4.889 0 C
cp
S
GR
GS
[0.6 0 0 0.6 233.55555 80.59845] CT
0 0 1 RC
N
f1109158639
f
GR
GS
[0.6 0 0 0.6 233.55555 80.59845] CT
0 0 1 RC
10.0 ML
3.333 LW
N
4.889 0 M
4.889 -2.7 2.7 -4.889 0 -4.889 C
-2.7 -4.889 -4.889 -2.7 -4.889 0 C
-4.889 2.7 -2.7 4.889 0 4.889 C
2.7 4.889 4.889 2.7 4.889 0 C
cp
S
GR
GS
[0.6 0 0 0.6 246.75601 93.04069] CT
0 0 1 RC
N
f1109158639
f
GR
GS
[0.6 0 0 0.6 246.75601 93.04069] CT
0 0 1 RC
10.0 ML
3.333 LW
N
4.889 0 M
4.889 -2.7 2.7 -4.889 0 -4.889 C
-2.7 -4.889 -4.889 -2.7 -4.889 0 C
-4.889 2.7 -2.7 4.889 0 4.889 C
2.7 4.889 4.889 2.7 4.889 0 C
cp
S
GR
GS
[0.6 0 0 0.6 266.75977 112.46855] CT
0 0 1 RC
N
f1109158639
f
GR
GS
[0.6 0 0 0.6 266.75977 112.46855] CT
0 0 1 RC
10.0 ML
3.333 LW
N
4.889 0 M
4.889 -2.7 2.7 -4.889 0 -4.889 C
-2.7 -4.889 -4.889 -2.7 -4.889 0 C
-4.889 2.7 -2.7 4.889 0 4.889 C
2.7 4.889 4.889 2.7 4.889 0 C
cp
S
GR
GS
[0.6 0 0 0.6 281.58398 127.28986] CT
0 0 1 RC
N
f1109158639
f
GR
GS
[0.6 0 0 0.6 281.58398 127.28986] CT
0 0 1 RC
10.0 ML
3.333 LW
N
4.889 0 M
4.889 -2.7 2.7 -4.889 0 -4.889 C
-2.7 -4.889 -4.889 -2.7 -4.889 0 C
-4.889 2.7 -2.7 4.889 0 4.889 C
2.7 4.889 4.889 2.7 4.889 0 C
cp
S
GR
GS
[0.6 0 0 0.6 0 0] CT
1 GC
N
/f889764968{105 451 M
595 451 L
595 304 L
105 304 L
cp}def
f889764968
f
GR
GS
[0.6 0 0 0.6 0 0] CT
0.775 GC
[1 3] 0 setdash
2 LJ
0.833 LW
N
154.168 451 M
154.168 304 L
S
GR
GS
[0.6 0 0 0.6 0 0] CT
0.775 GC
[1 3] 0 setdash
2 LJ
0.833 LW
N
182.93 451 M
182.93 304 L
S
GR
GS
[0.6 0 0 0.6 0 0] CT
0.775 GC
[1 3] 0 setdash
2 LJ
0.833 LW
N
203.336 451 M
203.336 304 L
S
GR
GS
[0.6 0 0 0.6 0 0] CT
0.775 GC
[1 3] 0 setdash
2 LJ
0.833 LW
N
219.165 451 M
219.165 304 L
S
GR
GS
[0.6 0 0 0.6 0 0] CT
0.775 GC
[1 3] 0 setdash
2 LJ
0.833 LW
N
232.098 451 M
232.098 304 L
S
GR
GS
[0.6 0 0 0.6 0 0] CT
0.775 GC
[1 3] 0 setdash
2 LJ
0.833 LW
N
243.033 451 M
243.033 304 L
S
GR
GS
[0.6 0 0 0.6 0 0] CT
0.775 GC
[1 3] 0 setdash
2 LJ
0.833 LW
N
252.505 451 M
252.505 304 L
S
GR
GS
[0.6 0 0 0.6 0 0] CT
0.775 GC
[1 3] 0 setdash
2 LJ
0.833 LW
N
260.86 451 M
260.86 304 L
S
GR
GS
[0.6 0 0 0.6 0 0] CT
0.775 GC
[1 3] 0 setdash
2 LJ
0.833 LW
N
317.502 451 M
317.502 304 L
S
GR
GS
[0.6 0 0 0.6 0 0] CT
0.775 GC
[1 3] 0 setdash
2 LJ
0.833 LW
N
346.263 451 M
346.263 304 L
S
GR
GS
[0.6 0 0 0.6 0 0] CT
0.775 GC
[1 3] 0 setdash
2 LJ
0.833 LW
N
366.67 451 M
366.67 304 L
S
GR
GS
[0.6 0 0 0.6 0 0] CT
0.775 GC
[1 3] 0 setdash
2 LJ
0.833 LW
N
382.498 451 M
382.498 304 L
S
GR
GS
[0.6 0 0 0.6 0 0] CT
0.775 GC
[1 3] 0 setdash
2 LJ
0.833 LW
N
395.431 451 M
395.431 304 L
S
GR
GS
[0.6 0 0 0.6 0 0] CT
0.775 GC
[1 3] 0 setdash
2 LJ
0.833 LW
N
406.366 451 M
406.366 304 L
S
GR
GS
[0.6 0 0 0.6 0 0] CT
0.775 GC
[1 3] 0 setdash
2 LJ
0.833 LW
N
415.838 451 M
415.838 304 L
S
GR
GS
[0.6 0 0 0.6 0 0] CT
0.775 GC
[1 3] 0 setdash
2 LJ
0.833 LW
N
424.193 451 M
424.193 304 L
S
GR
GS
[0.6 0 0 0.6 0 0] CT
0.775 GC
[1 3] 0 setdash
2 LJ
0.833 LW
N
480.835 451 M
480.835 304 L
S
GR
GS
[0.6 0 0 0.6 0 0] CT
0.775 GC
[1 3] 0 setdash
2 LJ
0.833 LW
N
509.596 451 M
509.596 304 L
S
GR
GS
[0.6 0 0 0.6 0 0] CT
0.775 GC
[1 3] 0 setdash
2 LJ
0.833 LW
N
530.003 451 M
530.003 304 L
S
GR
GS
[0.6 0 0 0.6 0 0] CT
0.775 GC
[1 3] 0 setdash
2 LJ
0.833 LW
N
545.832 451 M
545.832 304 L
S
GR
GS
[0.6 0 0 0.6 0 0] CT
0.775 GC
[1 3] 0 setdash
2 LJ
0.833 LW
N
558.765 451 M
558.765 304 L
S
GR
GS
[0.6 0 0 0.6 0 0] CT
0.775 GC
[1 3] 0 setdash
2 LJ
0.833 LW
N
569.699 451 M
569.699 304 L
S
GR
GS
[0.6 0 0 0.6 0 0] CT
0.775 GC
[1 3] 0 setdash
2 LJ
0.833 LW
N
579.171 451 M
579.171 304 L
S
GR
GS
[0.6 0 0 0.6 0 0] CT
0.775 GC
[1 3] 0 setdash
2 LJ
0.833 LW
N
587.526 451 M
587.526 304 L
S
GR
GS
[0.6 0 0 0.6 0 0] CT
0.873 GC
1 LJ
0.833 LW
N
105 451 M
105 304 L
S
GR
GS
[0.6 0 0 0.6 0 0] CT
0.873 GC
1 LJ
0.833 LW
N
268.333 451 M
268.333 304 L
S
GR
GS
[0.6 0 0 0.6 0 0] CT
0.873 GC
1 LJ
0.833 LW
N
431.667 451 M
431.667 304 L
S
GR
GS
[0.6 0 0 0.6 0 0] CT
0.873 GC
1 LJ
0.833 LW
N
595 451 M
595 304 L
S
GR
GS
[0.6 0 0 0.6 0 0] CT
0.873 GC
1 LJ
0.833 LW
N
595 430.583 M
105 430.583 L
S
GR
GS
[0.6 0 0 0.6 0 0] CT
0.873 GC
1 LJ
0.833 LW
N
595 389.75 M
105 389.75 L
S
GR
GS
[0.6 0 0 0.6 0 0] CT
0.873 GC
1 LJ
0.833 LW
N
595 348.917 M
105 348.917 L
S
GR
GS
[0.6 0 0 0.6 0 0] CT
0.873 GC
1 LJ
0.833 LW
N
595 308.083 M
105 308.083 L
S
GR
GS
[0.6 0 0 0.6 0 0] CT
0.149 GC
2 setlinecap
1 LJ
0.833 LW
N
105 451 M
595 451 L
S
GR
GS
[0.6 0 0 0.6 0 0] CT
0.149 GC
2 setlinecap
1 LJ
0.833 LW
N
105 304 M
595 304 L
S
GR
GS
[0.6 0 0 0.6 0 0] CT
0.149 GC
2 setlinecap
1 LJ
0.833 LW
N
105 451 M
105 446.1 L
S
GR
GS
[0.6 0 0 0.6 0 0] CT
0.149 GC
2 setlinecap
1 LJ
0.833 LW
N
268.333 451 M
268.333 446.1 L
S
GR
GS
[0.6 0 0 0.6 0 0] CT
0.149 GC
2 setlinecap
1 LJ
0.833 LW
N
431.667 451 M
431.667 446.1 L
S
GR
GS
[0.6 0 0 0.6 0 0] CT
0.149 GC
2 setlinecap
1 LJ
0.833 LW
N
595 451 M
595 446.1 L
S
GR
GS
[0.6 0 0 0.6 0 0] CT
0.149 GC
2 setlinecap
1 LJ
0.833 LW
N
105 304 M
105 308.9 L
S
GR
GS
[0.6 0 0 0.6 0 0] CT
0.149 GC
2 setlinecap
1 LJ
0.833 LW
N
268.333 304 M
268.333 308.9 L
S
GR
GS
[0.6 0 0 0.6 0 0] CT
0.149 GC
2 setlinecap
1 LJ
0.833 LW
N
431.667 304 M
431.667 308.9 L
S
GR
GS
[0.6 0 0 0.6 0 0] CT
0.149 GC
2 setlinecap
1 LJ
0.833 LW
N
595 304 M
595 308.9 L
S
GR
GS
[0.6 0 0 0.6 0 0] CT
0.149 GC
2 setlinecap
1 LJ
0.833 LW
N
105 451 M
105 448.55 L
S
GR
GS
[0.6 0 0 0.6 0 0] CT
0.149 GC
2 setlinecap
1 LJ
0.833 LW
N
154.168 451 M
154.168 448.55 L
S
GR
GS
[0.6 0 0 0.6 0 0] CT
0.149 GC
2 setlinecap
1 LJ
0.833 LW
N
182.93 451 M
182.93 448.55 L
S
GR
GS
[0.6 0 0 0.6 0 0] CT
0.149 GC
2 setlinecap
1 LJ
0.833 LW
N
203.336 451 M
203.336 448.55 L
S
GR
GS
[0.6 0 0 0.6 0 0] CT
0.149 GC
2 setlinecap
1 LJ
0.833 LW
N
219.165 451 M
219.165 448.55 L
S
GR
GS
[0.6 0 0 0.6 0 0] CT
0.149 GC
2 setlinecap
1 LJ
0.833 LW
N
232.098 451 M
232.098 448.55 L
S
GR
GS
[0.6 0 0 0.6 0 0] CT
0.149 GC
2 setlinecap
1 LJ
0.833 LW
N
243.033 451 M
243.033 448.55 L
S
GR
GS
[0.6 0 0 0.6 0 0] CT
0.149 GC
2 setlinecap
1 LJ
0.833 LW
N
252.505 451 M
252.505 448.55 L
S
GR
GS
[0.6 0 0 0.6 0 0] CT
0.149 GC
2 setlinecap
1 LJ
0.833 LW
N
260.86 451 M
260.86 448.55 L
S
GR
GS
[0.6 0 0 0.6 0 0] CT
0.149 GC
2 setlinecap
1 LJ
0.833 LW
N
268.333 451 M
268.333 448.55 L
S
GR
GS
[0.6 0 0 0.6 0 0] CT
0.149 GC
2 setlinecap
1 LJ
0.833 LW
N
317.502 451 M
317.502 448.55 L
S
GR
GS
[0.6 0 0 0.6 0 0] CT
0.149 GC
2 setlinecap
1 LJ
0.833 LW
N
346.263 451 M
346.263 448.55 L
S
GR
GS
[0.6 0 0 0.6 0 0] CT
0.149 GC
2 setlinecap
1 LJ
0.833 LW
N
366.67 451 M
366.67 448.55 L
S
GR
GS
[0.6 0 0 0.6 0 0] CT
0.149 GC
2 setlinecap
1 LJ
0.833 LW
N
382.498 451 M
382.498 448.55 L
S
GR
GS
[0.6 0 0 0.6 0 0] CT
0.149 GC
2 setlinecap
1 LJ
0.833 LW
N
395.431 451 M
395.431 448.55 L
S
GR
GS
[0.6 0 0 0.6 0 0] CT
0.149 GC
2 setlinecap
1 LJ
0.833 LW
N
406.366 451 M
406.366 448.55 L
S
GR
GS
[0.6 0 0 0.6 0 0] CT
0.149 GC
2 setlinecap
1 LJ
0.833 LW
N
415.838 451 M
415.838 448.55 L
S
GR
GS
[0.6 0 0 0.6 0 0] CT
0.149 GC
2 setlinecap
1 LJ
0.833 LW
N
424.193 451 M
424.193 448.55 L
S
GR
GS
[0.6 0 0 0.6 0 0] CT
0.149 GC
2 setlinecap
1 LJ
0.833 LW
N
431.667 451 M
431.667 448.55 L
S
GR
GS
[0.6 0 0 0.6 0 0] CT
0.149 GC
2 setlinecap
1 LJ
0.833 LW
N
480.835 451 M
480.835 448.55 L
S
GR
GS
[0.6 0 0 0.6 0 0] CT
0.149 GC
2 setlinecap
1 LJ
0.833 LW
N
509.596 451 M
509.596 448.55 L
S
GR
GS
[0.6 0 0 0.6 0 0] CT
0.149 GC
2 setlinecap
1 LJ
0.833 LW
N
530.003 451 M
530.003 448.55 L
S
GR
GS
[0.6 0 0 0.6 0 0] CT
0.149 GC
2 setlinecap
1 LJ
0.833 LW
N
545.832 451 M
545.832 448.55 L
S
GR
GS
[0.6 0 0 0.6 0 0] CT
0.149 GC
2 setlinecap
1 LJ
0.833 LW
N
558.765 451 M
558.765 448.55 L
S
GR
GS
[0.6 0 0 0.6 0 0] CT
0.149 GC
2 setlinecap
1 LJ
0.833 LW
N
569.699 451 M
569.699 448.55 L
S
GR
GS
[0.6 0 0 0.6 0 0] CT
0.149 GC
2 setlinecap
1 LJ
0.833 LW
N
579.171 451 M
579.171 448.55 L
S
GR
GS
[0.6 0 0 0.6 0 0] CT
0.149 GC
2 setlinecap
1 LJ
0.833 LW
N
587.526 451 M
587.526 448.55 L
S
GR
GS
[0.6 0 0 0.6 0 0] CT
0.149 GC
2 setlinecap
1 LJ
0.833 LW
N
595 451 M
595 448.55 L
S
GR
GS
[0.6 0 0 0.6 0 0] CT
0.149 GC
2 setlinecap
1 LJ
0.833 LW
N
105 304 M
105 306.45 L
S
GR
GS
[0.6 0 0 0.6 0 0] CT
0.149 GC
2 setlinecap
1 LJ
0.833 LW
N
154.168 304 M
154.168 306.45 L
S
GR
GS
[0.6 0 0 0.6 0 0] CT
0.149 GC
2 setlinecap
1 LJ
0.833 LW
N
182.93 304 M
182.93 306.45 L
S
GR
GS
[0.6 0 0 0.6 0 0] CT
0.149 GC
2 setlinecap
1 LJ
0.833 LW
N
203.336 304 M
203.336 306.45 L
S
GR
GS
[0.6 0 0 0.6 0 0] CT
0.149 GC
2 setlinecap
1 LJ
0.833 LW
N
219.165 304 M
219.165 306.45 L
S
GR
GS
[0.6 0 0 0.6 0 0] CT
0.149 GC
2 setlinecap
1 LJ
0.833 LW
N
232.098 304 M
232.098 306.45 L
S
GR
GS
[0.6 0 0 0.6 0 0] CT
0.149 GC
2 setlinecap
1 LJ
0.833 LW
N
243.033 304 M
243.033 306.45 L
S
GR
GS
[0.6 0 0 0.6 0 0] CT
0.149 GC
2 setlinecap
1 LJ
0.833 LW
N
252.505 304 M
252.505 306.45 L
S
GR
GS
[0.6 0 0 0.6 0 0] CT
0.149 GC
2 setlinecap
1 LJ
0.833 LW
N
260.86 304 M
260.86 306.45 L
S
GR
GS
[0.6 0 0 0.6 0 0] CT
0.149 GC
2 setlinecap
1 LJ
0.833 LW
N
268.333 304 M
268.333 306.45 L
S
GR
GS
[0.6 0 0 0.6 0 0] CT
0.149 GC
2 setlinecap
1 LJ
0.833 LW
N
317.502 304 M
317.502 306.45 L
S
GR
GS
[0.6 0 0 0.6 0 0] CT
0.149 GC
2 setlinecap
1 LJ
0.833 LW
N
346.263 304 M
346.263 306.45 L
S
GR
GS
[0.6 0 0 0.6 0 0] CT
0.149 GC
2 setlinecap
1 LJ
0.833 LW
N
366.67 304 M
366.67 306.45 L
S
GR
GS
[0.6 0 0 0.6 0 0] CT
0.149 GC
2 setlinecap
1 LJ
0.833 LW
N
382.498 304 M
382.498 306.45 L
S
GR
GS
[0.6 0 0 0.6 0 0] CT
0.149 GC
2 setlinecap
1 LJ
0.833 LW
N
395.431 304 M
395.431 306.45 L
S
GR
GS
[0.6 0 0 0.6 0 0] CT
0.149 GC
2 setlinecap
1 LJ
0.833 LW
N
406.366 304 M
406.366 306.45 L
S
GR
GS
[0.6 0 0 0.6 0 0] CT
0.149 GC
2 setlinecap
1 LJ
0.833 LW
N
415.838 304 M
415.838 306.45 L
S
GR
GS
[0.6 0 0 0.6 0 0] CT
0.149 GC
2 setlinecap
1 LJ
0.833 LW
N
424.193 304 M
424.193 306.45 L
S
GR
GS
[0.6 0 0 0.6 0 0] CT
0.149 GC
2 setlinecap
1 LJ
0.833 LW
N
431.667 304 M
431.667 306.45 L
S
GR
GS
[0.6 0 0 0.6 0 0] CT
0.149 GC
2 setlinecap
1 LJ
0.833 LW
N
480.835 304 M
480.835 306.45 L
S
GR
GS
[0.6 0 0 0.6 0 0] CT
0.149 GC
2 setlinecap
1 LJ
0.833 LW
N
509.596 304 M
509.596 306.45 L
S
GR
GS
[0.6 0 0 0.6 0 0] CT
0.149 GC
2 setlinecap
1 LJ
0.833 LW
N
530.003 304 M
530.003 306.45 L
S
GR
GS
[0.6 0 0 0.6 0 0] CT
0.149 GC
2 setlinecap
1 LJ
0.833 LW
N
545.832 304 M
545.832 306.45 L
S
GR
GS
[0.6 0 0 0.6 0 0] CT
0.149 GC
2 setlinecap
1 LJ
0.833 LW
N
558.765 304 M
558.765 306.45 L
S
GR
GS
[0.6 0 0 0.6 0 0] CT
0.149 GC
2 setlinecap
1 LJ
0.833 LW
N
569.699 304 M
569.699 306.45 L
S
GR
GS
[0.6 0 0 0.6 0 0] CT
0.149 GC
2 setlinecap
1 LJ
0.833 LW
N
579.171 304 M
579.171 306.45 L
S
GR
GS
[0.6 0 0 0.6 0 0] CT
0.149 GC
2 setlinecap
1 LJ
0.833 LW
N
587.526 304 M
587.526 306.45 L
S
GR
GS
[0.6 0 0 0.6 0 0] CT
0.149 GC
2 setlinecap
1 LJ
0.833 LW
N
595 304 M
595 306.45 L
S
GR
GS
[0.6 0 0 0.6 55.8 284.4] CT
0.149 GC
/Helvetica 14.167 F
GS
[1 0 0 1 0 0] CT
0 0 moveto 
1 -1 scale
(10) t 
GR
GR
GS
[0.6 0 0 0.6 65.4 280.2] CT
0.149 GC
/Helvetica 11.333 F
GS
[1 0 0 1 0 0] CT
0 0 moveto 
1 -1 scale
(1) t 
GR
GR
GS
[0.6 0 0 0.6 153.6 284.4] CT
0.149 GC
/Helvetica 14.167 F
GS
[1 0 0 1 0 0] CT
0 0 moveto 
1 -1 scale
(10) t 
GR
GR
GS
[0.6 0 0 0.6 163.2 280.2] CT
0.149 GC
/Helvetica 11.333 F
GS
[1 0 0 1 0 0] CT
0 0 moveto 
1 -1 scale
(2) t 
GR
GR
GS
[0.6 0 0 0.6 252 284.4] CT
0.149 GC
/Helvetica 14.167 F
GS
[1 0 0 1 0 0] CT
0 0 moveto 
1 -1 scale
(10) t 
GR
GR
GS
[0.6 0 0 0.6 261.6 280.2] CT
0.149 GC
/Helvetica 11.333 F
GS
[1 0 0 1 0 0] CT
0 0 moveto 
1 -1 scale
(3) t 
GR
GR
GS
[0.6 0 0 0.6 349.8 284.4] CT
0.149 GC
/Helvetica 14.167 F
GS
[1 0 0 1 0 0] CT
0 0 moveto 
1 -1 scale
(10) t 
GR
GR
GS
[0.6 0 0 0.6 359.4 280.2] CT
0.149 GC
/Helvetica 11.333 F
GS
[1 0 0 1 0 0] CT
0 0 moveto 
1 -1 scale
(4) t 
GR
GR
GS
[0.6 0 0 0.6 210.00015 286.85001] CT
0.149 GC
/Helvetica 15.583 F
GS
[1 0 0 1 0 0] CT
-19.5 16 moveto 
1 -1 scale
(f \(Hz\)) t 
GR
GR
GS
[0.6 0 0 0.6 0 0] CT
0.149 GC
2 setlinecap
1 LJ
0.833 LW
N
105 451 M
105 304 L
S
GR
GS
[0.6 0 0 0.6 0 0] CT
0.149 GC
2 setlinecap
1 LJ
0.833 LW
N
595 451 M
595 304 L
S
GR
GS
[0.6 0 0 0.6 0 0] CT
0.149 GC
2 setlinecap
1 LJ
0.833 LW
N
105 430.583 M
109.9 430.583 L
S
GR
GS
[0.6 0 0 0.6 0 0] CT
0.149 GC
2 setlinecap
1 LJ
0.833 LW
N
105 389.75 M
109.9 389.75 L
S
GR
GS
[0.6 0 0 0.6 0 0] CT
0.149 GC
2 setlinecap
1 LJ
0.833 LW
N
105 348.917 M
109.9 348.917 L
S
GR
GS
[0.6 0 0 0.6 0 0] CT
0.149 GC
2 setlinecap
1 LJ
0.833 LW
N
105 308.083 M
109.9 308.083 L
S
GR
GS
[0.6 0 0 0.6 0 0] CT
0.149 GC
2 setlinecap
1 LJ
0.833 LW
N
595 430.583 M
590.1 430.583 L
S
GR
GS
[0.6 0 0 0.6 0 0] CT
0.149 GC
2 setlinecap
1 LJ
0.833 LW
N
595 389.75 M
590.1 389.75 L
S
GR
GS
[0.6 0 0 0.6 0 0] CT
0.149 GC
2 setlinecap
1 LJ
0.833 LW
N
595 348.917 M
590.1 348.917 L
S
GR
GS
[0.6 0 0 0.6 0 0] CT
0.149 GC
2 setlinecap
1 LJ
0.833 LW
N
595 308.083 M
590.1 308.083 L
S
GR
GS
[0.6 0 0 0.6 60.8 258.35001] CT
0.149 GC
/Helvetica 14.167 F
GS
[1 0 0 1 0 0] CT
-29 5.5 moveto 
1 -1 scale
(-150) t 
GR
GR
GS
[0.6 0 0 0.6 60.8 233.85] CT
0.149 GC
/Helvetica 14.167 F
GS
[1 0 0 1 0 0] CT
-29 5.5 moveto 
1 -1 scale
(-100) t 
GR
GR
GS
[0.6 0 0 0.6 60.8 209.34999] CT
0.149 GC
/Helvetica 14.167 F
GS
[1 0 0 1 0 0] CT
-21 5.5 moveto 
1 -1 scale
(-50) t 
GR
GR
GS
[0.6 0 0 0.6 60.8 184.85001] CT
0.149 GC
/Helvetica 14.167 F
GS
[1 0 0 1 0 0] CT
-8 5.5 moveto 
1 -1 scale
(0) t 
GR
GR
GS
[0 -0.6 0.6 0 39.6 241.8] CT
0.149 GC
N
3.109 3.125 M
3.828 0.234 L
3.016 0.234 2.313 -0.148 QT
1.609 -0.531 1.18 -1.211 QT
0.75 -1.891 0.75 -2.688 QT
0.75 -3.563 1.18 -4.352 QT
1.609 -5.141 2.359 -5.781 QT
3.109 -6.422 3.969 -6.773 QT
4.828 -7.125 5.672 -7.125 QT
6.625 -11.016 L
6.656 -11.109 6.75 -11.109 QT
6.953 -11.109 L
7.016 -11.109 7.055 -11.055 QT
7.094 -11 7.094 -10.953 QT
6.125 -7.125 L
6.734 -7.125 7.297 -6.906 QT
7.859 -6.688 8.289 -6.289 QT
8.719 -5.891 8.961 -5.359 QT
9.203 -4.828 9.203 -4.219 QT
9.203 -3.344 8.773 -2.555 QT
8.344 -1.766 7.617 -1.133 QT
6.891 -0.5 6 -0.133 QT
5.109 0.234 4.297 0.234 QT
3.563 3.188 L
3.531 3.281 3.422 3.281 QT
3.234 3.281 L
3.172 3.281 3.141 3.227 QT
3.109 3.172 3.109 3.125 QT
cp
3.922 -0.203 M
5.563 -6.703 L
5.156 -6.703 4.711 -6.539 QT
4.266 -6.375 3.867 -6.125 QT
3.469 -5.875 3.156 -5.563 QT
2.766 -5.172 2.469 -4.641 QT
2.172 -4.109 2.016 -3.516 QT
1.859 -2.922 1.859 -2.359 QT
1.859 -1.75 2.117 -1.258 QT
2.375 -0.766 2.844 -0.484 QT
3.313 -0.203 3.922 -0.203 QT
cp
4.406 -0.203 M
5 -0.203 5.68 -0.547 QT
6.359 -0.891 6.797 -1.344 QT
7.406 -1.938 7.75 -2.805 QT
8.094 -3.672 8.094 -4.547 QT
8.094 -5.141 7.836 -5.641 QT
7.578 -6.141 7.109 -6.422 QT
6.641 -6.703 6.031 -6.703 QT
4.406 -0.203 L
cp
f
GR
GS
[0 -0.6 0.6 0 39.6 235.8] CT
0.149 GC
/Helvetica 15.583 F
GS
[1 0 0 1 0 0] CT
0 0 moveto 
1 -1 scale
( \(deg\)) t 
GR
GR
GS
[0.6 0 0 0.6 0 0] CT
0 1 0 RC
1 LJ
3.333 LW
N
105 314.008 M
154.168 319.886 L
203.336 331.324 L
219.165 336.81 L
232.098 342.098 L
243.033 347.169 L
260.86 356.605 L
275.094 365.07 L
297.095 379.23 L
333.33 402.408 L
357.198 415.458 L
389.259 428.945 L
411.26 435.684 L
444.6 442.852 L
469.307 446.425 L
S
GR
GS
[0.6 0 0 0.6 63 188.23099] CT
0 0 1 RC
N
f1109158639
f
GR
GS
[0.6 0 0 0.6 63 188.23099] CT
0 0 1 RC
10.0 ML
3.333 LW
N
4.889 0 M
4.889 -2.7 2.7 -4.889 0 -4.889 C
-2.7 -4.889 -4.889 -2.7 -4.889 0 C
-4.889 2.7 -2.7 4.889 0 4.889 C
2.7 4.889 4.889 2.7 4.889 0 C
cp
S
GR
GS
[0.6 0 0 0.6 92.50094 191.661] CT
0 0 1 RC
N
f1109158639
f
GR
GS
[0.6 0 0 0.6 92.50094 191.661] CT
0 0 1 RC
10.0 ML
3.333 LW
N
4.889 0 M
4.889 -2.7 2.7 -4.889 0 -4.889 C
-2.7 -4.889 -4.889 -2.7 -4.889 0 C
-4.889 2.7 -2.7 4.889 0 4.889 C
2.7 4.889 4.889 2.7 4.889 0 C
cp
S
GR
GS
[0.6 0 0 0.6 122.00188 198.129] CT
0 0 1 RC
N
f1109158639
f
GR
GS
[0.6 0 0 0.6 122.00188 198.129] CT
0 0 1 RC
10.0 ML
3.333 LW
N
4.889 0 M
4.889 -2.7 2.7 -4.889 0 -4.889 C
-2.7 -4.889 -4.889 -2.7 -4.889 0 C
-4.889 2.7 -2.7 4.889 0 4.889 C
2.7 4.889 4.889 2.7 4.889 0 C
cp
S
GR
GS
[0.6 0 0 0.6 131.49906 201.16701] CT
0 0 1 RC
N
f1109158639
f
GR
GS
[0.6 0 0 0.6 131.49906 201.16701] CT
0 0 1 RC
10.0 ML
3.333 LW
N
4.889 0 M
4.889 -2.7 2.7 -4.889 0 -4.889 C
-2.7 -4.889 -4.889 -2.7 -4.889 0 C
-4.889 2.7 -2.7 4.889 0 4.889 C
2.7 4.889 4.889 2.7 4.889 0 C
cp
S
GR
GS
[0.6 0 0 0.6 139.25882 204.205] CT
0 0 1 RC
N
f1109158639
f
GR
GS
[0.6 0 0 0.6 139.25882 204.205] CT
0 0 1 RC
10.0 ML
3.333 LW
N
4.889 0 M
4.889 -2.7 2.7 -4.889 0 -4.889 C
-2.7 -4.889 -4.889 -2.7 -4.889 0 C
-4.889 2.7 -2.7 4.889 0 4.889 C
2.7 4.889 4.889 2.7 4.889 0 C
cp
S
GR
GS
[0.6 0 0 0.6 145.81961 207.096] CT
0 0 1 RC
N
f1109158639
f
GR
GS
[0.6 0 0 0.6 145.81961 207.096] CT
0 0 1 RC
10.0 ML
3.333 LW
N
4.889 0 M
4.889 -2.7 2.7 -4.889 0 -4.889 C
-2.7 -4.889 -4.889 -2.7 -4.889 0 C
-4.889 2.7 -2.7 4.889 0 4.889 C
2.7 4.889 4.889 2.7 4.889 0 C
cp
S
GR
GS
[0.6 0 0 0.6 156.51577 212.38801] CT
0 0 1 RC
N
f1109158639
f
GR
GS
[0.6 0 0 0.6 156.51577 212.38801] CT
0 0 1 RC
10.0 ML
3.333 LW
N
4.889 0 M
4.889 -2.7 2.7 -4.889 0 -4.889 C
-2.7 -4.889 -4.889 -2.7 -4.889 0 C
-4.889 2.7 -2.7 4.889 0 4.889 C
2.7 4.889 4.889 2.7 4.889 0 C
cp
S
GR
GS
[0.6 0 0 0.6 165.05649 217.435] CT
0 0 1 RC
N
f1109158639
f
GR
GS
[0.6 0 0 0.6 165.05649 217.435] CT
0 0 1 RC
10.0 ML
3.333 LW
N
4.889 0 M
4.889 -2.7 2.7 -4.889 0 -4.889 C
-2.7 -4.889 -4.889 -2.7 -4.889 0 C
-4.889 2.7 -2.7 4.889 0 4.889 C
2.7 4.889 4.889 2.7 4.889 0 C
cp
S
GR
GS
[0.6 0 0 0.6 178.25695 225.91199] CT
0 0 1 RC
N
f1109158639
f
GR
GS
[0.6 0 0 0.6 178.25695 225.91199] CT
0 0 1 RC
10.0 ML
3.333 LW
N
4.889 0 M
4.889 -2.7 2.7 -4.889 0 -4.889 C
-2.7 -4.889 -4.889 -2.7 -4.889 0 C
-4.889 2.7 -2.7 4.889 0 4.889 C
2.7 4.889 4.889 2.7 4.889 0 C
cp
S
GR
GS
[0.6 0 0 0.6 199.99812 239.82801] CT
0 0 1 RC
N
f1109158639
f
GR
GS
[0.6 0 0 0.6 199.99812 239.82801] CT
0 0 1 RC
10.0 ML
3.333 LW
N
4.889 0 M
4.889 -2.7 2.7 -4.889 0 -4.889 C
-2.7 -4.889 -4.889 -2.7 -4.889 0 C
-4.889 2.7 -2.7 4.889 0 4.889 C
2.7 4.889 4.889 2.7 4.889 0 C
cp
S
GR
GS
[0.6 0 0 0.6 214.31867 247.864] CT
0 0 1 RC
N
f1109158639
f
GR
GS
[0.6 0 0 0.6 214.31867 247.864] CT
0 0 1 RC
10.0 ML
3.333 LW
N
4.889 0 M
4.889 -2.7 2.7 -4.889 0 -4.889 C
-2.7 -4.889 -4.889 -2.7 -4.889 0 C
-4.889 2.7 -2.7 4.889 0 4.889 C
2.7 4.889 4.889 2.7 4.889 0 C
cp
S
GR
GS
[0.6 0 0 0.6 233.55555 256.19399] CT
0 0 1 RC
N
f1109158639
f
GR
GS
[0.6 0 0 0.6 233.55555 256.19399] CT
0 0 1 RC
10.0 ML
3.333 LW
N
4.889 0 M
4.889 -2.7 2.7 -4.889 0 -4.889 C
-2.7 -4.889 -4.889 -2.7 -4.889 0 C
-4.889 2.7 -2.7 4.889 0 4.889 C
2.7 4.889 4.889 2.7 4.889 0 C
cp
S
GR
GS
[0.6 0 0 0.6 246.75601 260.457] CT
0 0 1 RC
N
f1109158639
f
GR
GS
[0.6 0 0 0.6 246.75601 260.457] CT
0 0 1 RC
10.0 ML
3.333 LW
N
4.889 0 M
4.889 -2.7 2.7 -4.889 0 -4.889 C
-2.7 -4.889 -4.889 -2.7 -4.889 0 C
-4.889 2.7 -2.7 4.889 0 4.889 C
2.7 4.889 4.889 2.7 4.889 0 C
cp
S
GR
GS
[0.6 0 0 0.6 266.75977 265.063] CT
0 0 1 RC
N
f1109158639
f
GR
GS
[0.6 0 0 0.6 266.75977 265.063] CT
0 0 1 RC
10.0 ML
3.333 LW
N
4.889 0 M
4.889 -2.7 2.7 -4.889 0 -4.889 C
-2.7 -4.889 -4.889 -2.7 -4.889 0 C
-4.889 2.7 -2.7 4.889 0 4.889 C
2.7 4.889 4.889 2.7 4.889 0 C
cp
S
GR
GS
[0.6 0 0 0.6 281.58398 267.26799] CT
0 0 1 RC
N
f1109158639
f
GR
GS
[0.6 0 0 0.6 281.58398 267.26799] CT
0 0 1 RC
10.0 ML
3.333 LW
N
4.889 0 M
4.889 -2.7 2.7 -4.889 0 -4.889 C
-2.7 -4.889 -4.889 -2.7 -4.889 0 C
-4.889 2.7 -2.7 4.889 0 4.889 C
2.7 4.889 4.889 2.7 4.889 0 C
cp
S
GR
%%Trailer
%%Pages: 1
%%EOF
