x-axis,1,2
second,Volt,Volt
-200.000E-06,-58.275179E-03,-8.107598E-03
-193.400E-06,-59.100876E-03,-8.097858E-03
-186.800E-06,-58.707043E-03,-8.401659E-03
-180.200E-06,-59.267367E-03,-8.161540E-03
-173.600E-06,-59.529781E-03,-8.287219E-03
-167.000E-06,-58.000510E-03,-8.219041E-03
-160.400E-06,-59.211166E-03,-8.443895E-03
-153.800E-06,-59.528514E-03,-8.392575E-03
-147.200E-06,-59.774025E-03,-8.541853E-03
-140.600E-06,-59.308356E-03,-8.112655E-03
-134.000E-06,-58.963964E-03,-8.286938E-03
-127.400E-06,-58.340254E-03,-8.394073E-03
-120.800E-06,-60.049117E-03,-8.402034E-03
-114.200E-06,-58.770428E-03,-8.287874E-03
-107.600E-06,-59.251732E-03,-8.144028E-03
-101.000E-06,-59.244971E-03,-8.416643E-03
-94.400E-06,-57.511600E-03,-8.171093E-03
-87.800E-06,-57.808665E-03,-8.240675E-03
-81.200E-06,-59.739375E-03,-8.247605E-03
-74.600E-06,-58.676195E-03,-8.437433E-03
-68.000E-06,-58.543509E-03,-8.371691E-03
-61.400E-06,-58.706620E-03,-8.435279E-03
-54.800E-06,-59.197221E-03,-8.384896E-03
-48.200E-06,-58.835081E-03,-8.265492E-03
-41.600E-06,-59.715289E-03,-8.201529E-03
-35.000E-06,-58.243486E-03,-8.114622E-03
-28.400E-06,-59.853045E-03,-8.095330E-03
-21.800E-06,-57.948112E-03,-8.148336E-03
-15.200E-06,-58.210526E-03,-8.125298E-03
-8.600E-06,-58.718875E-03,-8.159667E-03
-2.000E-06,+2.071483421E+00,-8.072479E-03
+4.600E-06,+5.016247722E+00,-7.687203E-03
+11.200E-06,+5.020193234E+00,-7.332456E-03
+17.800E-06,+5.024024652E+00,-6.976492E-03
+24.400E-06,+5.028220747E+00,-6.325999E-03
+31.000E-06,+5.030841087E+00,-5.210065E-03
+37.600E-06,+5.032921386E+00,-4.237883E-03
+44.200E-06,+5.034461222E+00,-2.790803E-03
+50.800E-06,+5.036940847E+00,-1.211020E-03
+57.400E-06,+5.037891201E+00,+538.457E-06
+64.000E-06,+5.039520621E+00,+2.685104E-03
+70.600E-06,+5.040401674E+00,+4.713471E-03
+77.200E-06,+5.040769730E+00,+7.209245E-03
+83.800E-06,+5.041513026E+00,+9.841093E-03
+90.400E-06,+5.041816429E+00,+12.662957E-03
+97.000E-06,+5.042020107E+00,+15.649551E-03
+103.600E-06,+5.040994958E+00,+18.922715E-03
+110.200E-06,+5.041447528E+00,+21.762653E-03
+116.800E-06,+5.040447311E+00,+25.150444E-03
+123.400E-06,+5.041283994E+00,+28.855803E-03
+130.000E-06,+5.041500349E+00,+32.475659E-03
+136.600E-06,+5.042117297E+00,+36.296956E-03
+143.200E-06,+5.042218291E+00,+40.284295E-03
+149.800E-06,+5.043528250E+00,+44.359384E-03
+156.400E-06,+5.042840310E+00,+48.726568E-03
+163.000E-06,+5.041753889E+00,+53.525385E-03
+169.600E-06,+5.042725794E+00,+58.390786E-03
+176.200E-06,+5.042305762E+00,+63.189978E-03
+182.800E-06,+5.042094056E+00,+68.293532E-03
+189.400E-06,+5.041814739E+00,+74.041773E-03
+196.000E-06,+5.041593314E+00,+79.768943E-03
+202.600E-06,+5.041939819E+00,+85.509598E-03
+209.200E-06,+5.043507967E+00,+90.838287E-03
+215.800E-06,+5.042777348E+00,+96.365327E-03
+222.400E-06,+5.042842000E+00,+102.658612E-03
+229.000E-06,+5.042637055E+00,+108.592092E-03
+235.600E-06,+5.041884885E+00,+114.844077E-03
+242.200E-06,+5.041738254E+00,+120.961206E-03
+248.800E-06,+5.041274698E+00,+127.617666E-03
+255.400E-06,+5.040269410E+00,+134.098625E-03
+262.000E-06,+5.039472026E+00,+140.845176E-03
+268.600E-06,+5.042040813E+00,+147.946098E-03
+275.200E-06,+5.041180043E+00,+154.921717E-03
+281.800E-06,+5.041194833E+00,+161.984525E-03
+288.400E-06,+5.040679301E+00,+168.824725E-03
+295.000E-06,+5.040433366E+00,+176.242560E-03
+301.600E-06,+5.040811142E+00,+183.486112E-03
+308.200E-06,+5.041025383E+00,+191.248204E-03
+314.800E-06,+5.041454712E+00,+199.038204E-03
+321.400E-06,+5.040749869E+00,+206.595015E-03
+328.000E-06,+5.040612957E+00,+214.381082E-03
+334.600E-06,+5.041098910E+00,+222.573215E-03
+341.200E-06,+5.040262649E+00,+230.549766E-03
+347.800E-06,+5.039588232E+00,+238.933601E-03
+354.400E-06,+5.040059394E+00,+247.388048E-03
+361.000E-06,+5.040915093E+00,+255.689658E-03
+367.600E-06,+5.039311450E+00,+264.048301E-03
+374.200E-06,+5.040583800E+00,+272.483831E-03
+380.800E-06,+5.041499926E+00,+281.369537E-03
+387.400E-06,+5.039447939E+00,+290.396373E-03
+394.000E-06,+5.041084120E+00,+299.126901E-03
+400.600E-06,+5.040776914E+00,+307.917552E-03
+407.200E-06,+5.041379917E+00,+316.897844E-03
+413.800E-06,+5.041005100E+00,+325.940788E-03
+420.400E-06,+5.040701274E+00,+335.392702E-03
+427.000E-06,+5.039877690E+00,+344.841713E-03
+433.600E-06,+5.039115801E+00,+354.673659E-03
+440.200E-06,+5.039382864E+00,+364.232802E-03
+446.800E-06,+5.041255260E+00,+373.799157E-03
+453.400E-06,+5.040354346E+00,+383.037923E-03
+460.000E-06,+5.040475623E+00,+392.794294E-03
+466.600E-06,+5.039505408E+00,+403.191511E-03
+473.200E-06,+5.040217857E+00,+412.889351E-03
+479.800E-06,+5.039649926E+00,+422.898108E-03
+486.400E-06,+5.040977211E+00,+433.327916E-03
+493.000E-06,+5.038850851E+00,+443.002904E-03
+499.600E-06,+5.040131653E+00,+452.702804E-03
+506.200E-06,+5.038973819E+00,+463.505245E-03
+512.800E-06,+5.040427028E+00,+473.954814E-03
+519.400E-06,+5.039884874E+00,+484.464786E-03
+526.000E-06,+5.041048202E+00,+495.114484E-03
+532.600E-06,+5.040213631E+00,+505.471058E-03
+539.200E-06,+5.040484920E+00,+516.031414E-03
+545.800E-06,+5.041267514E+00,+526.244891E-03
+552.400E-06,+5.041057076E+00,+536.604929E-03
+559.000E-06,+5.038419833E+00,+547.114621E-03
+565.600E-06,+5.037157624E+00,+557.814235E-03
+572.200E-06,+5.036440950E+00,+568.400345E-03
+578.800E-06,+5.036566875E+00,+578.883721E-03
+585.400E-06,+4.181783216E+00,+589.390790E-03
+592.000E-06,-36.434784E-03,+599.995536E-03
+598.600E-06,-40.731449E-03,+610.668834E-03
+605.200E-06,-44.671467E-03,+621.415367E-03
+611.800E-06,-47.153628E-03,+631.735417E-03
+618.400E-06,-49.674242E-03,+642.206712E-03
+625.000E-06,-51.926104E-03,+652.574898E-03
+631.600E-06,-54.579827E-03,+662.466968E-03
+638.200E-06,-56.327143E-03,+671.844805E-03
+644.800E-06,-57.255524E-03,+681.532717E-03
+651.400E-06,-57.438495E-03,+691.149830E-03
+658.000E-06,-58.406175E-03,+700.024110E-03
+664.600E-06,-58.913678E-03,+709.045234E-03
+671.200E-06,-59.228491E-03,+718.431686E-03
+677.800E-06,-59.913050E-03,+727.622598E-03
+684.400E-06,-60.163210E-03,+736.126960E-03
+691.000E-06,-59.337936E-03,+744.778541E-03
+697.600E-06,-60.332659E-03,+753.080245E-03
+704.200E-06,-60.557465E-03,+761.202328E-03
+710.800E-06,-61.185400E-03,+769.552168E-03
+717.400E-06,-60.900590E-03,+777.530311E-03
+724.000E-06,-61.351469E-03,+785.437654E-03
+730.600E-06,-61.275407E-03,+792.966183E-03
+737.200E-06,-61.430067E-03,+800.452757E-03
+743.800E-06,-60.578171E-03,+807.578216E-03
+750.400E-06,-60.352098E-03,+814.517686E-03
+757.000E-06,-60.903548E-03,+821.630127E-03
+763.600E-06,-61.231038E-03,+828.784243E-03
+770.200E-06,-61.199768E-03,+835.875895E-03
+776.800E-06,-60.684236E-03,+842.610739E-03
+783.400E-06,-61.578811E-03,+849.244067E-03
+790.000E-06,-60.694377E-03,+855.477135E-03
+796.600E-06,-60.528308E-03,+861.597448E-03
+803.200E-06,-61.746147E-03,+867.673277E-03
+809.800E-06,-62.146741E-03,+873.510860E-03
+816.400E-06,-62.087582E-03,+879.413249E-03
+823.000E-06,-61.313438E-03,+885.196984E-03
+829.600E-06,-61.272027E-03,+891.072964E-03
+836.200E-06,-60.626766E-03,+896.671645E-03
+842.800E-06,-60.571410E-03,+902.353301E-03
+849.400E-06,-59.272860E-03,+907.855898E-03
+856.000E-06,-60.616202E-03,+912.895864E-03
+862.600E-06,-60.663107E-03,+918.090165E-03
+869.200E-06,-60.442950E-03,+923.228557E-03
+875.800E-06,-60.046159E-03,+928.251759E-03
+882.400E-06,-60.804245E-03,+933.090284E-03
+889.000E-06,-59.908402E-03,+937.906988E-03
+895.600E-06,-58.181369E-03,+942.580220E-03
+902.200E-06,-58.777189E-03,+947.148751E-03
+908.800E-06,-58.106575E-03,+951.593664E-03
+915.400E-06,-59.275396E-03,+955.826460E-03
+922.000E-06,-59.175247E-03,+959.981713E-03
+928.600E-06,-59.720359E-03,+963.899658E-03
+935.200E-06,-58.908185E-03,+967.996848E-03
+941.800E-06,-59.547529E-03,+971.701083E-03
+948.400E-06,-60.672826E-03,+975.311574E-03
+955.000E-06,-59.965448E-03,+979.106930E-03
+961.600E-06,-61.120325E-03,+982.653552E-03
+968.200E-06,-60.595919E-03,+986.431770E-03
+974.800E-06,-61.681917E-03,+990.145557E-03
+981.400E-06,-60.463655E-03,+993.195927E-03
+988.000E-06,-61.007077E-03,+996.536612E-03
+994.600E-06,-61.114832E-03,+999.524424E-03
+1.001200E-03,-61.155398E-03,+1.002588467E+00
+1.007800E-03,-60.917493E-03,+1.005817709E+00
+1.014400E-03,-59.766842E-03,+1.008848880E+00
+1.021000E-03,-60.005592E-03,+1.011663908E+00
+1.027600E-03,-60.186451E-03,+1.014446907E+00
+1.034200E-03,-59.733459E-03,+1.017037268E+00
+1.040800E-03,-59.001995E-03,+1.019785897E+00
+1.047400E-03,-59.926995E-03,+1.022375134E+00
+1.054000E-03,-59.149893E-03,+1.024840472E+00
+1.060600E-03,-59.809098E-03,+1.027332126E+00
+1.067200E-03,-59.813324E-03,+1.029601735E+00
+1.073800E-03,-60.031369E-03,+1.031748663E+00
+1.080400E-03,-59.299905E-03,+1.034057887E+00
+1.087000E-03,-59.160458E-03,+1.035919275E+00
+1.093600E-03,-59.403856E-03,+1.037929849E+00
+1.100200E-03,-59.410617E-03,+1.039997736E+00
+1.106800E-03,-57.799368E-03,+1.041491642E+00
+1.113400E-03,-58.510126E-03,+1.043518978E+00
+1.120000E-03,-60.155604E-03,+1.045067014E+00
+1.126600E-03,-59.305821E-03,+1.046657660E+00
+1.133200E-03,-59.452874E-03,+1.048176664E+00
+1.139800E-03,-59.379770E-03,+1.049681808E+00
+1.146400E-03,-58.371102E-03,+1.051348873E+00
+1.153000E-03,-59.458368E-03,+1.052467711E+00
+1.159600E-03,-58.520691E-03,+1.053722528E+00
+1.166200E-03,-58.842687E-03,+1.055155093E+00
+1.172800E-03,-58.287433E-03,+1.056529220E+00
+1.179400E-03,-58.274756E-03,+1.057581941E+00
+1.186000E-03,-59.618943E-03,+1.058950168E+00
+1.192600E-03,-60.302657E-03,+1.059582868E+00
+1.199200E-03,-59.083128E-03,+1.060877487E+00
+1.205800E-03,-58.589569E-03,+1.061632868E+00
+1.212400E-03,-58.350396E-03,+1.062445938E+00
+1.219000E-03,-58.657602E-03,+1.063187366E+00
+1.225600E-03,-57.815848E-03,+1.063940593E+00
+1.232200E-03,-57.547095E-03,+1.064412402E+00
+1.238800E-03,-58.225739E-03,+1.065208428E+00
+1.245400E-03,-59.308356E-03,+1.065715636E+00
+1.252000E-03,-57.962479E-03,+1.066210858E+00
+1.258600E-03,-57.040014E-03,+1.066679857E+00
+1.265200E-03,-59.156654E-03,+1.067036196E+00
+1.271800E-03,-57.814580E-03,+1.067412295E+00
+1.278400E-03,-59.340894E-03,+1.067740351E+00
+1.285000E-03,-58.634361E-03,+1.067894218E+00
+1.291600E-03,-58.486040E-03,+1.067871367E+00
+1.298200E-03,-58.401104E-03,+1.068123473E+00
+1.304800E-03,-58.112490E-03,+1.068457055E+00
+1.311400E-03,-59.643030E-03,+1.068270785E+00
+1.318000E-03,-58.469560E-03,+1.068086201E+00
+1.324600E-03,-58.592527E-03,+1.068039375E+00
+1.331200E-03,-58.753103E-03,+1.068082642E+00
+1.337800E-03,-58.344903E-03,+1.067881294E+00
+1.344400E-03,-57.556814E-03,+1.067555111E+00
+1.351000E-03,-58.258276E-03,+1.067248501E+00
+1.357600E-03,-58.238416E-03,+1.067263578E+00
+1.364200E-03,-57.757956E-03,+1.066685196E+00
+1.370800E-03,-58.097701E-03,+1.066391322E+00
+1.377400E-03,-57.626961E-03,+1.066139403E+00
+1.384000E-03,-58.492801E-03,+1.065569823E+00
+1.390600E-03,-56.751401E-03,+1.064972710E+00
+1.397200E-03,-57.721193E-03,+1.064627048E+00
+1.403800E-03,-57.258904E-03,+1.063904912E+00
+1.410400E-03,-57.255101E-03,+1.063306582E+00
+1.417000E-03,-58.266728E-03,+1.062831027E+00
+1.423600E-03,-56.676184E-03,+1.062033316E+00
+1.430200E-03,-57.708093E-03,+1.061254147E+00
+1.436800E-03,-57.673020E-03,+1.060654787E+00
+1.443400E-03,-58.256163E-03,+1.059680358E+00
+1.450000E-03,-57.937125E-03,+1.058744606E+00
+1.456600E-03,-58.143338E-03,+1.057925449E+00
+1.463200E-03,-58.370257E-03,+1.057023318E+00
+1.469800E-03,-57.756689E-03,+1.056033250E+00
+1.476400E-03,-58.251515E-03,+1.054906077E+00
+1.483000E-03,-58.235035E-03,+1.053714661E+00
+1.489600E-03,-57.122838E-03,+1.052687882E+00
+1.496200E-03,-59.086508E-03,+1.051975579E+00
+1.502800E-03,-57.066636E-03,+1.050646685E+00
+1.509400E-03,-58.789443E-03,+1.049539460E+00
+1.516000E-03,-58.228696E-03,+1.048427647E+00
+1.522600E-03,-58.734510E-03,+1.047232953E+00
+1.529200E-03,-59.334555E-03,+1.045959967E+00
+1.535800E-03,-57.632876E-03,+1.044740363E+00
+1.542400E-03,-58.905227E-03,+1.043559154E+00
+1.549000E-03,-57.884304E-03,+1.042154965E+00
+1.555600E-03,-57.538221E-03,+1.040752368E+00
+1.562200E-03,-57.876275E-03,+1.039454940E+00
+1.568800E-03,-58.282363E-03,+1.038161726E+00
+1.575400E-03,-57.542870E-03,+1.036667258E+00
+1.582000E-03,-58.617458E-03,+1.035302121E+00
+1.588600E-03,-58.442093E-03,+1.033804470E+00
+1.595200E-03,-58.732397E-03,+1.032355984E+00
+1.601800E-03,-58.395611E-03,+1.030839789E+00
+1.608400E-03,-57.304964E-03,+1.029173567E+00
+1.615000E-03,-58.169537E-03,+1.027512309E+00
+1.621600E-03,-58.259544E-03,+1.025903682E+00
+1.628200E-03,-59.232294E-03,+1.024273983E+00
+1.634800E-03,-57.702178E-03,+1.022481708E+00
+1.641400E-03,-58.022906E-03,+1.020910541E+00
+1.648000E-03,-59.323146E-03,+1.019019652E+00
+1.654600E-03,-58.305181E-03,+1.017134851E+00
+1.661200E-03,-57.260595E-03,+1.015587190E+00
+1.667800E-03,-58.527874E-03,+1.013944006E+00
+1.674400E-03,-58.768738E-03,+1.012006105E+00
+1.681000E-03,-58.357580E-03,+1.010203435E+00
+1.687600E-03,-57.658653E-03,+1.008470347E+00
+1.694200E-03,-59.499357E-03,+1.006361816E+00
+1.700800E-03,-58.796627E-03,+1.004647364E+00
+1.707400E-03,-58.999459E-03,+1.002694198E+00
+1.714000E-03,-57.620199E-03,+1.000766786E+00
+1.720600E-03,-59.604153E-03,+998.928435E-03
+1.727200E-03,-59.802760E-03,+997.102914E-03
+1.733800E-03,-57.729644E-03,+995.030438E-03
+1.740400E-03,-56.973671E-03,+992.995235E-03
+1.747000E-03,-57.708939E-03,+991.055742E-03
+1.753600E-03,-58.671547E-03,+989.136571E-03
+1.760200E-03,-58.437867E-03,+986.883819E-03
+1.766800E-03,-58.956358E-03,+984.874931E-03
+1.773400E-03,-57.881769E-03,+982.693728E-03
+1.780000E-03,-58.085024E-03,+980.691958E-03
+1.786600E-03,-58.934384E-03,+978.679792E-03
+1.793200E-03,-58.211371E-03,+976.518349E-03
+1.799800E-03,-57.458779E-03,+974.434822E-03
+1.806400E-03,-58.025019E-03,+971.903086E-03
+1.813000E-03,-58.915368E-03,+970.246697E-03
+1.819600E-03,-57.341305E-03,+967.954237E-03
+1.826200E-03,-55.641316E-03,+965.879888E-03
+1.832800E-03,-55.083105E-03,+963.674429E-03
+1.839400E-03,-55.813724E-03,+961.611505E-03
+1.846000E-03,-56.644069E-03,+959.390313E-03
+1.852600E-03,-55.188324E-03,+957.278223E-03
+1.859200E-03,-56.809293E-03,+955.200596E-03
+1.865800E-03,-55.491305E-03,+952.985491E-03
+1.872400E-03,-56.098534E-03,+950.598726E-03
+1.879000E-03,-56.489832E-03,+948.409374E-03
+1.885600E-03,-56.502086E-03,+946.060069E-03
+1.892200E-03,-57.159178E-03,+943.711138E-03
+1.898800E-03,-55.558916E-03,+941.385994E-03
+1.905400E-03,-56.596319E-03,+938.983683E-03
+1.912000E-03,-55.957397E-03,+936.830948E-03
+1.918600E-03,-56.182203E-03,+934.143472E-03
+1.925200E-03,-56.943247E-03,+931.800067E-03
+1.931800E-03,-56.495748E-03,+929.254658E-03
+1.938400E-03,-57.410606E-03,+926.864334E-03
+1.945000E-03,-56.806757E-03,+924.532353E-03
+1.951600E-03,-57.368772E-03,+921.914834E-03
+1.958200E-03,-57.355250E-03,+919.541273E-03
+1.964800E-03,-58.134041E-03,+917.158441E-03
+1.971400E-03,-57.328205E-03,+914.626798E-03
+1.978000E-03,-58.237148E-03,+912.343797E-03
+1.984600E-03,-56.825350E-03,+909.836316E-03
+1.991200E-03,-57.151995E-03,+907.447116E-03
+1.997800E-03,-57.250876E-03,+904.909948E-03
+2.004400E-03,-56.975784E-03,+902.728745E-03
+2.011000E-03,-58.091362E-03,+900.128082E-03
+2.017600E-03,-57.601184E-03,+897.355291E-03
+2.024200E-03,-58.384201E-03,+894.876842E-03
+2.030800E-03,-57.272004E-03,+892.260634E-03
+2.037400E-03,-57.460469E-03,+889.841652E-03
+2.044000E-03,-57.713164E-03,+887.368260E-03
+2.050600E-03,-57.162982E-03,+884.692772E-03
+2.057200E-03,-58.244754E-03,+882.048094E-03
+2.063800E-03,-58.903537E-03,+879.518512E-03
+2.070400E-03,-57.836131E-03,+877.217155E-03
+2.077000E-03,-57.875853E-03,+874.598606E-03
+2.083600E-03,-59.003262E-03,+872.058254E-03
+2.090200E-03,-57.954028E-03,+869.519681E-03
+2.096800E-03,-58.062205E-03,+867.041420E-03
+2.103400E-03,-58.409133E-03,+864.473909E-03
+2.110000E-03,-57.715277E-03,+862.049028E-03
+2.116600E-03,-56.815631E-03,+859.652055E-03
+2.123200E-03,-57.606677E-03,+857.249743E-03
+2.129800E-03,-56.939443E-03,+854.570321E-03
+2.136400E-03,-56.743372E-03,+852.122589E-03
+2.143000E-03,-57.708939E-03,+849.602466E-03
+2.149600E-03,-56.658014E-03,+846.916863E-03
+2.156200E-03,-58.130238E-03,+844.355253E-03
+2.162800E-03,-57.473991E-03,+841.892537E-03
+2.169400E-03,-57.689501E-03,+839.337669E-03
+2.176000E-03,-57.366659E-03,+836.690931E-03
+2.182600E-03,-58.284053E-03,+833.894821E-03
+2.189200E-03,-56.807602E-03,+831.033250E-03
+2.195800E-03,-57.311303E-03,+828.523147E-03
+2.202400E-03,-57.484555E-03,+825.833798E-03
+2.209000E-03,-58.691408E-03,+823.221710E-03
+2.215600E-03,-58.325042E-03,+820.395445E-03
+2.222200E-03,-58.263770E-03,+817.704410E-03
+2.228800E-03,-58.041077E-03,+815.287302E-03
+2.235400E-03,-58.604781E-03,+812.652926E-03
+2.242000E-03,-57.905432E-03,+810.140201E-03
+2.248600E-03,-59.287650E-03,+807.566416E-03
+2.255200E-03,-58.994389E-03,+805.196320E-03
+2.261800E-03,-58.228696E-03,+802.427462E-03
+2.268400E-03,-58.273489E-03,+800.068979E-03
+2.275000E-03,-57.472301E-03,+797.196356E-03
+2.281600E-03,-58.265037E-03,+794.699833E-03
+2.288200E-03,-58.205455E-03,+792.225692E-03
+2.294800E-03,-57.905432E-03,+789.433421E-03
+2.301400E-03,-58.483927E-03,+786.965742E-03
+2.308000E-03,-57.827257E-03,+784.256727E-03
+2.314600E-03,-58.178834E-03,+781.615888E-03
+2.321200E-03,-58.070234E-03,+779.025340E-03
+2.327800E-03,-58.163199E-03,+776.354815E-03
+2.334400E-03,-58.552806E-03,+773.443890E-03
+2.341000E-03,-56.134875E-03,+770.944370E-03
+2.347600E-03,-57.396239E-03,+768.235729E-03
+2.354200E-03,-57.288062E-03,+765.633287E-03
+2.360800E-03,-57.714009E-03,+762.796626E-03
+2.367400E-03,-58.063473E-03,+760.382328E-03
+2.374000E-03,-56.491945E-03,+757.804329E-03
+2.380600E-03,-57.566533E-03,+755.250398E-03
+2.387200E-03,-56.085012E-03,+752.794050E-03
+2.393800E-03,-56.981700E-03,+750.022289E-03
+2.400400E-03,-56.696467E-03,+747.135338E-03
+2.407000E-03,-56.918738E-03,+744.534114E-03
+2.413600E-03,-57.712742E-03,+741.847855E-03
+2.420200E-03,-57.589352E-03,+738.991809E-03
+2.426800E-03,-58.238838E-03,+736.482081E-03
+2.433400E-03,-56.622940E-03,+734.318671E-03
+2.440000E-03,-58.254051E-03,+731.568730E-03
+2.446600E-03,-57.501458E-03,+728.875635E-03
+2.453200E-03,-58.345325E-03,+726.073719E-03
+2.459800E-03,-57.709361E-03,+723.506958E-03
+2.466400E-03,-58.255318E-03,+720.829596E-03
+2.473000E-03,-57.751195E-03,+718.340190E-03
+2.479600E-03,-57.703868E-03,+715.376446E-03
+2.486200E-03,-59.408505E-03,+712.743568E-03
+2.492800E-03,-58.919172E-03,+710.145435E-03
+2.499400E-03,-58.482237E-03,+707.236008E-03
+2.506000E-03,-57.254679E-03,+704.655106E-03
+2.512600E-03,-56.960149E-03,+702.216083E-03
+2.519200E-03,-57.738941E-03,+699.807404E-03
+2.525800E-03,-56.936485E-03,+697.158980E-03
+2.532400E-03,-57.694994E-03,+694.828779E-03
+2.539000E-03,-57.753308E-03,+692.223059E-03
+2.545600E-03,-58.325887E-03,+689.625862E-03
+2.552200E-03,-57.382717E-03,+686.993265E-03
+2.558800E-03,-58.696479E-03,+684.369003E-03
+2.565400E-03,-59.279622E-03,+681.545453E-03
+2.572000E-03,-58.974528E-03,+679.017932E-03
+2.578600E-03,-59.111862E-03,+676.420079E-03
+2.585200E-03,-58.856632E-03,+674.042584E-03
+2.591800E-03,-58.062205E-03,+671.467301E-03
+2.598400E-03,-58.624220E-03,+669.131107E-03
+2.605000E-03,-57.662456E-03,+666.596655E-03
+2.611600E-03,-58.292927E-03,+664.206705E-03
+2.618200E-03,-58.302646E-03,+661.547137E-03
+2.624800E-03,-59.114820E-03,+659.263386E-03
+2.631400E-03,-58.249402E-03,+656.573382E-03
+2.638000E-03,-57.478639E-03,+654.084069E-03
+2.644600E-03,-58.117561E-03,+651.637368E-03
+2.651200E-03,-58.321661E-03,+649.128389E-03
+2.657800E-03,-57.574140E-03,+646.450465E-03
+2.664400E-03,-57.297358E-03,+643.908896E-03
+2.671000E-03,-59.270325E-03,+641.149122E-03
+2.677600E-03,-58.632671E-03,+638.729860E-03
+2.684200E-03,-57.707671E-03,+635.959597E-03
+2.690800E-03,-59.338358E-03,+633.469723E-03
+2.697400E-03,-58.276024E-03,+631.138773E-03
+2.704000E-03,-58.370257E-03,+628.603759E-03
+2.710600E-03,-58.083756E-03,+626.122781E-03
+2.717200E-03,-57.276652E-03,+623.735547E-03
+2.723800E-03,-59.039181E-03,+621.233967E-03
+2.730400E-03,-58.303068E-03,+618.731075E-03
+2.737000E-03,-59.084395E-03,+616.183887E-03
+2.743600E-03,-57.969663E-03,+613.735406E-03
+2.750200E-03,-58.548580E-03,+611.169862E-03
+2.756800E-03,-58.052063E-03,+608.677366E-03
+2.763400E-03,-59.069606E-03,+606.286667E-03
+2.770000E-03,-57.271581E-03,+604.054798E-03
+2.776600E-03,-58.226161E-03,+601.452076E-03
+2.783200E-03,-58.065585E-03,+599.142852E-03
+2.789800E-03,-58.333916E-03,+596.738106E-03
+2.796400E-03,-58.948329E-03,+594.404159E-03
+2.803000E-03,-57.512445E-03,+591.927115E-03
+2.809600E-03,-58.609430E-03,+589.460185E-03
+2.816200E-03,-57.973043E-03,+587.242926E-03
+2.822800E-03,-56.792813E-03,+584.935950E-03
+2.829400E-03,-56.928034E-03,+582.609401E-03
+2.836000E-03,-58.892127E-03,+580.320594E-03
+2.842600E-03,-58.878183E-03,+577.863590E-03
+2.849200E-03,-59.416111E-03,+575.658881E-03
+2.855800E-03,-59.570770E-03,+573.263031E-03
+2.862400E-03,-59.440197E-03,+570.900240E-03
+2.869000E-03,-58.759019E-03,+568.832072E-03
+2.875600E-03,-57.537376E-03,+566.350438E-03
+2.882200E-03,-59.725853E-03,+564.240034E-03
+2.888800E-03,-58.954245E-03,+562.063045E-03
+2.895400E-03,-57.487513E-03,+559.714301E-03
+2.902000E-03,-57.442721E-03,+557.448906E-03
+2.908600E-03,-57.524699E-03,+555.113741E-03
+2.915200E-03,-57.926983E-03,+553.011859E-03
+2.921800E-03,-56.652520E-03,+550.950809E-03
+2.928400E-03,-57.158756E-03,+548.623979E-03
+2.935000E-03,-56.584909E-03,+546.415523E-03
+2.941600E-03,-55.858094E-03,+544.211282E-03
+2.948200E-03,-54.719274E-03,+542.008632E-03
+2.954800E-03,-55.243681E-03,+539.798116E-03
+2.961400E-03,-54.308539E-03,+537.308054E-03
+2.968000E-03,-54.962251E-03,+535.042191E-03
+2.974600E-03,-56.001766E-03,+533.007924E-03
+2.981200E-03,-55.528914E-03,+530.506531E-03
+2.987800E-03,-55.439752E-03,+528.351081E-03
+2.994400E-03,-54.348683E-03,+526.316252E-03
+3.001000E-03,-54.022038E-03,+524.184870E-03
+3.007600E-03,-56.396022E-03,+522.290704E-03
+3.014200E-03,-55.990780E-03,+519.961533E-03
+3.020800E-03,-55.555113E-03,+517.855624E-03
+3.027400E-03,-56.745485E-03,+515.756551E-03
+3.034000E-03,-55.710195E-03,+513.467556E-03
+3.040600E-03,-55.911337E-03,+511.130425E-03
+3.047200E-03,-55.648923E-03,+509.017586E-03
+3.053800E-03,-56.859578E-03,+506.815592E-03
+3.060400E-03,-58.341522E-03,+504.580446E-03
+3.067000E-03,-57.339192E-03,+502.665958E-03
+3.073600E-03,-56.347427E-03,+500.587582E-03
+3.080200E-03,-57.740631E-03,+498.324060E-03
+3.086800E-03,-57.157488E-03,+496.325942E-03
+3.093400E-03,-57.509487E-03,+493.963993E-03
+3.100000E-03,-57.250453E-03,+492.016540E-03
+3.106600E-03,-57.695416E-03,+489.864743E-03
+3.113200E-03,-57.164249E-03,+487.833754E-03
+3.119800E-03,-58.119674E-03,+485.534925E-03
+3.126400E-03,-56.396022E-03,+483.199761E-03
+3.133000E-03,-57.482865E-03,+481.182632E-03
+3.139600E-03,-56.644491E-03,+479.250725E-03
+3.146200E-03,-56.087125E-03,+477.099957E-03
+3.152800E-03,-56.187696E-03,+474.873240E-03
+3.159400E-03,-57.141853E-03,+472.949386E-03
+3.166000E-03,-56.941979E-03,+470.706936E-03
+3.172600E-03,-56.073603E-03,+468.709567E-03
+3.179200E-03,-56.927189E-03,+466.555147E-03
+3.185800E-03,-56.834224E-03,+464.264747E-03
+3.192400E-03,-56.513073E-03,+462.266442E-03
+3.199000E-03,-56.667310E-03,+460.092169E-03
+3.205600E-03,-55.929930E-03,+457.994314E-03
+3.212200E-03,-56.424334E-03,+455.889622E-03
+3.218800E-03,-57.434692E-03,+453.912388E-03
+3.225400E-03,-56.718863E-03,+451.856582E-03
+3.232000E-03,-58.044880E-03,+449.961573E-03
+3.238600E-03,-56.835069E-03,+447.906235E-03
+3.245200E-03,-56.065152E-03,+445.994181E-03
+3.251800E-03,-56.228263E-03,+443.919270E-03
+3.258400E-03,-57.117767E-03,+442.219428E-03
+3.265000E-03,-57.493429E-03,+440.103967E-03
+3.271600E-03,-57.296935E-03,+438.277509E-03
+3.278200E-03,-56.859578E-03,+436.395330E-03
+3.284800E-03,-57.502303E-03,+434.437856E-03
+3.291400E-03,-57.205661E-03,+432.464462E-03
+3.298000E-03,-56.356723E-03,+430.645778E-03
+3.304600E-03,-56.275168E-03,+428.698325E-03
+3.311200E-03,-56.649985E-03,+426.842742E-03
+3.317800E-03,-57.184110E-03,+424.701621E-03
+3.324400E-03,-57.345108E-03,+422.750234E-03
+3.331000E-03,-56.360949E-03,+420.728236E-03
+3.337600E-03,-56.189809E-03,+418.818430E-03
+3.344200E-03,-58.075305E-03,+416.784631E-03
+3.350800E-03,-57.181997E-03,+414.952087E-03
+3.357400E-03,-55.829359E-03,+413.009691E-03
+3.364000E-03,-57.550476E-03,+411.157199E-03
+3.370600E-03,-57.262285E-03,+409.357432E-03
+3.377200E-03,-58.253628E-03,+407.513368E-03
+3.383800E-03,-57.312570E-03,+405.701989E-03
+3.390400E-03,-59.230604E-03,+403.661354E-03
+3.397000E-03,-56.960994E-03,+402.095618E-03
+3.403600E-03,-55.994160E-03,+400.008627E-03
+3.410200E-03,-57.637947E-03,+398.189193E-03
+3.416800E-03,-57.541602E-03,+396.350936E-03
+3.423400E-03,-57.373843E-03,+394.451432E-03
+3.430000E-03,-58.232922E-03,+392.649136E-03
+3.436600E-03,-56.970291E-03,+390.907713E-03
+3.443200E-03,-57.531883E-03,+389.049134E-03
+3.449800E-03,-58.562525E-03,+387.244872E-03
+3.456400E-03,-57.675133E-03,+385.231395E-03
+3.463000E-03,-58.038541E-03,+383.769705E-03
+3.469600E-03,-57.607945E-03,+381.737873E-03
+3.476200E-03,-57.556814E-03,+380.252489E-03
+3.482800E-03,-57.182842E-03,+378.504698E-03
+3.489400E-03,-57.488358E-03,+376.819278E-03
+3.496000E-03,-58.594217E-03,+375.243334E-03
+3.502600E-03,-58.690140E-03,+373.669171E-03
+3.509200E-03,-57.487513E-03,+371.622917E-03
+3.515800E-03,-58.563370E-03,+369.877186E-03
+3.522400E-03,-57.304542E-03,+368.199070E-03
+3.529000E-03,-58.418852E-03,+366.378887E-03
+3.535600E-03,-59.622746E-03,+364.585208E-03
+3.542200E-03,-56.327566E-03,+363.115838E-03
+3.548800E-03,-59.192573E-03,+361.127179E-03
+3.555400E-03,-58.482237E-03,+359.467887E-03
+3.562000E-03,-57.586394E-03,+357.791644E-03
+3.568600E-03,-58.859590E-03,+356.177398E-03
+3.575200E-03,-57.986565E-03,+354.515016E-03
+3.581800E-03,-59.613027E-03,+352.700546E-03
+3.588400E-03,-58.744651E-03,+350.897501E-03
+3.595000E-03,-59.923192E-03,+349.160386E-03
+3.601600E-03,-58.774231E-03,+347.385062E-03
+3.608200E-03,-58.334761E-03,+345.773344E-03
+3.614800E-03,-58.497449E-03,+344.120982E-03
+3.621400E-03,-58.022061E-03,+342.273828E-03
+3.628000E-03,-58.873112E-03,+340.665857E-03
+3.634600E-03,-59.358219E-03,+339.039623E-03
+3.641200E-03,-58.066431E-03,+337.475480E-03
+3.647800E-03,-56.934373E-03,+335.705493E-03
+3.654400E-03,-57.235241E-03,+334.265343E-03
+3.661000E-03,-58.190665E-03,+332.669546E-03
+3.667600E-03,-56.394754E-03,+330.998360E-03
+3.674200E-03,-56.923808E-03,+329.439367E-03
+3.680800E-03,-56.844788E-03,+327.947335E-03
+3.687400E-03,-55.997963E-03,+326.187462E-03
+3.694000E-03,-55.807385E-03,+324.576307E-03
+3.700600E-03,-56.403628E-03,+323.234676E-03
+3.707200E-03,-56.849859E-03,+321.673810E-03
+3.713800E-03,-56.598854E-03,+320.249018E-03
+3.720400E-03,-57.132557E-03,+318.591693E-03
+3.727000E-03,-57.178617E-03,+317.074468E-03
+3.733600E-03,-56.154736E-03,+315.593205E-03
+3.740200E-03,-57.316374E-03,+314.146873E-03
+3.746800E-03,-56.884932E-03,+312.823598E-03
+3.753400E-03,-56.816476E-03,+311.199518E-03
+3.760000E-03,-56.785629E-03,+309.775850E-03
+3.766600E-03,-56.942401E-03,+308.283536E-03
+3.773200E-03,-56.138678E-03,+306.780827E-03
+3.779800E-03,-58.559144E-03,+305.369614E-03
+3.786400E-03,-57.558927E-03,+303.797792E-03
+3.793000E-03,-57.436383E-03,+302.590080E-03
+3.799600E-03,-58.226584E-03,+300.958883E-03
+3.806200E-03,-57.545405E-03,+299.565932E-03
+3.812800E-03,-57.880078E-03,+298.204167E-03
+3.819400E-03,-58.283208E-03,+296.606403E-03
+3.826000E-03,-58.336451E-03,+295.332200E-03
+3.832600E-03,-58.443361E-03,+293.980361E-03
+3.839200E-03,-57.624425E-03,+292.552292E-03
+3.845800E-03,-56.742527E-03,+290.964923E-03
+3.852400E-03,-57.091990E-03,+289.613178E-03
+3.859000E-03,-58.300533E-03,+288.132851E-03
+3.865600E-03,-58.227429E-03,+286.761440E-03
+3.872200E-03,-56.627589E-03,+285.391058E-03
+3.878800E-03,-57.296090E-03,+283.769788E-03
+3.885400E-03,-57.208196E-03,+282.458219E-03
+3.892000E-03,-57.130021E-03,+280.946613E-03
+3.898600E-03,-57.220451E-03,+279.768683E-03
+3.905200E-03,-57.486668E-03,+278.215590E-03
+3.911800E-03,-58.430684E-03,+276.903833E-03
+3.918400E-03,-58.439135E-03,+275.540569E-03
+3.925000E-03,-57.905432E-03,+273.940652E-03
+3.931600E-03,-58.148409E-03,+272.786227E-03
+3.938200E-03,-58.498294E-03,+271.312644E-03
+3.944800E-03,-58.130661E-03,+269.919599E-03
+3.951400E-03,-58.715917E-03,+268.516159E-03
+3.958000E-03,-58.585766E-03,+267.379996E-03
+3.964600E-03,-58.992276E-03,+265.998096E-03
+3.971200E-03,-57.234818E-03,+264.782518E-03
+3.977800E-03,-57.830638E-03,+263.565348E-03
+3.984400E-03,-57.876275E-03,+262.307909E-03
+3.991000E-03,-59.519640E-03,+260.886769E-03
+3.997600E-03,-57.861063E-03,+259.657237E-03
+4.004200E-03,-58.637319E-03,+258.377041E-03
+4.010800E-03,-58.874379E-03,+257.201545E-03
+4.017400E-03,-58.949174E-03,+256.158564E-03
+4.024000E-03,-58.480124E-03,+254.654825E-03
+4.030600E-03,-60.561268E-03,+253.352715E-03
+4.037200E-03,-59.241591E-03,+252.308142E-03
+4.043800E-03,-59.010869E-03,+250.966417E-03
+4.050400E-03,-58.537593E-03,+249.792045E-03
+4.057000E-03,-58.820291E-03,+248.361541E-03
+4.063600E-03,-59.680638E-03,+247.237271E-03
+4.070200E-03,-59.224265E-03,+246.011392E-03
+4.076800E-03,-59.512034E-03,+244.655620E-03
+4.083400E-03,-58.880295E-03,+243.461394E-03
+4.090000E-03,-58.623797E-03,+242.228398E-03
+4.096600E-03,-58.978754E-03,+240.860170E-03
+4.103200E-03,-58.499562E-03,+239.785817E-03
+4.109800E-03,-57.563998E-03,+238.699569E-03
+4.116400E-03,-59.762616E-03,+237.172792E-03
+4.123000E-03,-59.223843E-03,+236.192182E-03
+4.129600E-03,-59.033265E-03,+235.048153E-03
+4.136200E-03,-58.478856E-03,+233.537484E-03
+4.142800E-03,-58.562525E-03,+232.576166E-03
+4.149400E-03,-57.980227E-03,+231.124684E-03
+4.156000E-03,-59.021010E-03,+230.155031E-03
+4.162600E-03,-58.051641E-03,+229.174608E-03
+4.169200E-03,-56.658436E-03,+227.803478E-03
+4.175800E-03,-57.621467E-03,+226.789622E-03
+4.182400E-03,-59.418224E-03,+225.454734E-03
+4.189000E-03,-57.440608E-03,+224.539305E-03
+4.195600E-03,-57.958676E-03,+223.127811E-03
+4.202200E-03,-56.288690E-03,+222.045310E-03
+4.208800E-03,-57.299048E-03,+220.809410E-03
+4.215400E-03,-58.233767E-03,+219.670999E-03
+4.222000E-03,-58.230809E-03,+218.290972E-03
+4.228600E-03,-57.784578E-03,+217.166703E-03
+4.235200E-03,-58.678308E-03,+216.297537E-03
+4.241800E-03,-57.971353E-03,+214.859634E-03
+4.248400E-03,-58.576892E-03,+213.972861E-03
+4.255000E-03,-58.201230E-03,+212.967434E-03
+4.261600E-03,-58.679998E-03,+211.678715E-03
+4.268200E-03,-59.061577E-03,+210.692206E-03
+4.274800E-03,-59.020165E-03,+209.774060E-03
+4.281400E-03,-57.907968E-03,+208.713848E-03
+4.288000E-03,-58.412513E-03,+207.557738E-03
+4.294600E-03,-58.677886E-03,+206.634910E-03
+4.301200E-03,-57.702600E-03,+205.435908E-03
+4.307800E-03,-58.510549E-03,+204.256198E-03
+4.314400E-03,-58.272644E-03,+203.544271E-03
+4.321000E-03,-58.606894E-03,+202.341897E-03
+4.327600E-03,-58.299688E-03,+201.312215E-03
+4.334200E-03,-57.355672E-03,+200.412987E-03
+4.340800E-03,-58.628868E-03,+199.204433E-03
+4.347400E-03,-58.157705E-03,+198.062932E-03
+4.354000E-03,-58.021638E-03,+197.333023E-03
+4.360600E-03,-59.524288E-03,+196.347825E-03
+4.367200E-03,-57.935012E-03,+195.308684E-03
+4.373800E-03,-58.200384E-03,+194.276098E-03
+4.380400E-03,-58.696479E-03,+193.215979E-03
+4.387000E-03,-59.752052E-03,+192.327427E-03
+4.393600E-03,-59.231026E-03,+191.375662E-03
+4.400200E-03,-58.405330E-03,+190.486267E-03
+4.406800E-03,-59.557671E-03,+189.308524E-03
+4.413400E-03,-59.465551E-03,+188.183318E-03
+4.420000E-03,-58.391385E-03,+187.375212E-03
+4.426600E-03,-58.359270E-03,+186.361543E-03
+4.433200E-03,-59.280889E-03,+185.171532E-03
+4.439800E-03,-58.871421E-03,+184.297964E-03
+4.446400E-03,-59.874174E-03,+183.191676E-03
+4.453000E-03,-59.027349E-03,+182.069935E-03
+4.459600E-03,-58.917059E-03,+181.378798E-03
+4.466200E-03,-59.123694E-03,+180.473108E-03
+4.472800E-03,-58.626755E-03,+179.409431E-03
+4.479400E-03,-58.415894E-03,+178.546539E-03
+4.486000E-03,-57.607522E-03,+177.519010E-03
+4.492600E-03,-58.225316E-03,+176.611167E-03
+4.499200E-03,-57.884727E-03,+175.592535E-03
+4.505800E-03,-58.669012E-03,+174.767010E-03
+4.512400E-03,-58.668589E-03,+173.930714E-03
+4.519000E-03,-58.767470E-03,+172.847277E-03
+4.525600E-03,-59.524288E-03,+172.018380E-03
+4.532200E-03,-58.941990E-03,+170.984202E-03
+4.538800E-03,-59.410195E-03,+170.262348E-03
+4.545400E-03,-59.183699E-03,+169.449746E-03
+4.552000E-03,-59.132991E-03,+168.497699E-03
+4.558600E-03,-59.784590E-03,+167.768259E-03
+4.565200E-03,-59.559361E-03,+166.702990E-03
+4.571800E-03,-58.476321E-03,+165.715824E-03
+4.578400E-03,-60.644937E-03,+165.024968E-03
+4.585000E-03,-58.866773E-03,+164.278764E-03
+4.591600E-03,-59.444000E-03,+163.407537E-03
+4.598200E-03,-59.782477E-03,+162.490610E-03
+4.604800E-03,-59.862765E-03,+161.740098E-03
+4.611400E-03,-59.649791E-03,+160.992396E-03
+4.618000E-03,-61.391613E-03,+160.128193E-03
+4.624600E-03,-60.410834E-03,+159.378992E-03
+4.631200E-03,-60.731563E-03,+158.414584E-03
+4.637800E-03,-60.445908E-03,+157.864483E-03
+4.644400E-03,-60.017847E-03,+156.820004E-03
+4.651000E-03,-59.992915E-03,+155.983241E-03
+4.657600E-03,-60.331392E-03,+155.132243E-03
+4.664200E-03,-59.596547E-03,+154.468638E-03
+4.670800E-03,-58.808882E-03,+153.551523E-03
+4.677400E-03,-60.461965E-03,+152.834445E-03
+4.684000E-03,-60.523237E-03,+152.086462E-03
+4.690600E-03,-59.710640E-03,+150.854495E-03
+4.697200E-03,-60.239272E-03,+150.134326E-03
+4.703800E-03,-59.569503E-03,+149.181249E-03
+4.710400E-03,-60.209270E-03,+148.373705E-03
+4.717000E-03,-60.628879E-03,+147.810400E-03
+4.723600E-03,-60.902280E-03,+146.837563E-03
+4.730200E-03,-60.175464E-03,+146.039477E-03
+4.736800E-03,-61.229770E-03,+145.281848E-03
+4.743400E-03,-61.367950E-03,+144.499682E-03
+4.750000E-03,-61.169765E-03,+143.649995E-03
+4.756600E-03,-61.563176E-03,+142.674536E-03
+4.763200E-03,-60.975384E-03,+142.101772E-03
+4.769800E-03,-61.318932E-03,+141.327005E-03
+4.776400E-03,-60.925944E-03,+140.543716E-03
+4.783000E-03,-60.288712E-03,+139.770073E-03
+4.789600E-03,-60.369845E-03,+138.875247E-03
+4.796200E-03,-61.316396E-03,+138.276823E-03
+4.802800E-03,-60.944114E-03,+137.408874E-03
+4.809400E-03,-60.671559E-03,+136.602828E-03
+4.816000E-03,-59.864032E-03,+135.902793E-03
+4.822600E-03,-60.506335E-03,+135.257544E-03
+4.829200E-03,-59.997141E-03,+134.386880E-03
+4.835800E-03,-60.681278E-03,+133.761016E-03
+4.842400E-03,-59.905021E-03,+132.983159E-03
+4.849000E-03,-59.908402E-03,+132.238266E-03
+4.855600E-03,-59.853468E-03,+131.430254E-03
+4.862200E-03,-59.571193E-03,+131.063613E-03
+4.868800E-03,-59.390757E-03,+130.124116E-03
+4.875400E-03,-57.905432E-03,+129.428858E-03
+4.882000E-03,-58.232922E-03,+128.821912E-03
+4.888600E-03,-58.578160E-03,+128.081702E-03
+4.895200E-03,-58.397301E-03,+127.378764E-03
+4.901800E-03,-58.107420E-03,+126.770507E-03
+4.908400E-03,-59.248352E-03,+126.116736E-03
+4.915000E-03,-59.204827E-03,+125.404621E-03
+4.921600E-03,-57.562308E-03,+124.963342E-03
+4.928200E-03,-59.257225E-03,+123.846565E-03
+4.934800E-03,-57.996284E-03,+123.519070E-03
+4.941400E-03,-58.486885E-03,+122.669852E-03
+4.948000E-03,-57.011702E-03,+122.064123E-03
+4.954600E-03,-57.249185E-03,+121.121067E-03
+4.961200E-03,-57.834864E-03,+120.451001E-03
+4.967800E-03,-57.956141E-03,+120.026578E-03
+4.974400E-03,-57.482020E-03,+119.410361E-03
+4.981000E-03,-58.391385E-03,+118.792926E-03
+4.987600E-03,-57.686120E-03,+118.069667E-03
+4.994200E-03,-57.940083E-03,+117.294806E-03
+5.000800E-03,-57.827680E-03,+116.463381E-03
+5.007400E-03,-58.063473E-03,+115.897734E-03
+5.014000E-03,-59.046364E-03,+115.482864E-03
+5.020600E-03,-58.173340E-03,+114.797440E-03
+5.027200E-03,-58.312365E-03,+114.212127E-03
+5.033800E-03,-57.896559E-03,+113.525484E-03
+5.040400E-03,-58.578160E-03,+112.864221E-03
+5.047000E-03,-58.801275E-03,+112.254278E-03
+5.053600E-03,-58.510972E-03,+111.535608E-03
+5.060200E-03,-59.821353E-03,+111.252691E-03
+5.066800E-03,-58.729016E-03,+110.248949E-03
+5.073400E-03,-58.557454E-03,+109.839418E-03
+5.080000E-03,-57.715277E-03,+109.104827E-03
+5.086600E-03,-58.431106E-03,+108.678344E-03
+5.093200E-03,-58.089249E-03,+108.007997E-03
+5.099800E-03,-58.268418E-03,+107.346547E-03
+5.106400E-03,-58.835926E-03,+106.677885E-03
+5.113000E-03,-58.974528E-03,+106.143611E-03
+5.119600E-03,-58.325887E-03,+105.794484E-03
+5.126200E-03,-58.246444E-03,+104.924849E-03
+5.132800E-03,-58.750990E-03,+104.443769E-03
+5.139400E-03,-57.948957E-03,+103.911181E-03
+5.146000E-03,-57.943464E-03,+103.176309E-03
+5.152600E-03,-57.889797E-03,+102.768744E-03
+5.159200E-03,-58.704930E-03,+102.232316E-03
+5.165800E-03,-57.700065E-03,+101.671821E-03
+5.172400E-03,-59.348077E-03,+100.846857E-03
+5.179000E-03,-58.890014E-03,+100.323260E-03
+5.185600E-03,-59.228913E-03,+99.844333E-03
+5.192200E-03,-58.650841E-03,+99.135402E-03
+5.198800E-03,-58.715917E-03,+98.660596E-03
+5.205400E-03,-58.749722E-03,+97.952321E-03
+5.212000E-03,-59.306243E-03,+97.449139E-03
+5.218600E-03,-59.435971E-03,+97.043353E-03
+5.225200E-03,-58.102771E-03,+96.356243E-03
+5.231800E-03,-60.517321E-03,+95.715957E-03
+5.238400E-03,-58.677886E-03,+95.396798E-03
+5.245000E-03,-57.968818E-03,+95.047951E-03
+5.251600E-03,-58.176721E-03,+94.366647E-03
+5.258200E-03,-59.286805E-03,+93.786391E-03
+5.264800E-03,-57.618932E-03,+93.210912E-03
+5.271400E-03,-58.722255E-03,+92.744815E-03
+5.278000E-03,-59.147781E-03,+92.133561E-03
+5.284600E-03,-58.947906E-03,+91.678422E-03
+5.291200E-03,-59.269480E-03,+90.950480E-03
+5.297800E-03,-58.469137E-03,+90.722629E-03
+5.304400E-03,-58.229119E-03,+90.055654E-03
+5.311000E-03,-58.387159E-03,+89.617652E-03
+5.317600E-03,-58.619571E-03,+89.161202E-03
+5.324200E-03,-58.202075E-03,+88.520542E-03
+5.330800E-03,-59.829382E-03,+87.979713E-03
+5.337400E-03,-58.484350E-03,+87.465574E-03
+5.344000E-03,-58.615346E-03,+87.058196E-03
+5.350600E-03,-57.762605E-03,+86.309651E-03
+5.357200E-03,-59.367516E-03,+85.996766E-03
+5.363800E-03,-57.970930E-03,+85.549962E-03
+5.370400E-03,-58.158128E-03,+85.188847E-03
+5.377000E-03,-57.468075E-03,+84.609247E-03
+5.383600E-03,-59.440620E-03,+84.205428E-03
+5.390200E-03,-58.191933E-03,+83.513541E-03
+5.396800E-03,-59.198911E-03,+82.992472E-03
+5.403400E-03,-58.923397E-03,+82.622929E-03
+5.410000E-03,-57.673020E-03,+82.089123E-03
+5.416600E-03,-58.514352E-03,+81.709279E-03
+5.423200E-03,-58.333493E-03,+81.228011E-03
+5.429800E-03,-59.158345E-03,+80.580327E-03
+5.436400E-03,-60.226172E-03,+80.176321E-03
+5.443000E-03,-58.780147E-03,+79.948751E-03
+5.449600E-03,-59.607534E-03,+79.312867E-03
+5.456200E-03,-59.892344E-03,+78.914386E-03
+5.462800E-03,-59.282580E-03,+78.348084E-03
+5.469400E-03,-58.718875E-03,+77.817557E-03
+5.476000E-03,-58.499140E-03,+77.589706E-03
+5.482600E-03,-59.344274E-03,+76.914864E-03
+5.489200E-03,-59.679793E-03,+76.670718E-03
+5.495800E-03,-58.473363E-03,+75.972650E-03
+5.502400E-03,-59.738530E-03,+75.587280E-03
+5.509000E-03,-60.033059E-03,+74.972187E-03
+5.515600E-03,-59.424985E-03,+74.562187E-03
+5.522200E-03,-60.180535E-03,+73.845295E-03
+5.528800E-03,-59.504005E-03,+73.408699E-03
+5.535400E-03,-59.787125E-03,+73.002351E-03
+5.542000E-03,-59.302018E-03,+72.625784E-03
+5.548600E-03,-59.287650E-03,+71.991024E-03
+5.555200E-03,-59.410617E-03,+71.479320E-03
+5.561800E-03,-59.708950E-03,+71.226371E-03
+5.568400E-03,-58.783527E-03,+70.611652E-03
+5.575000E-03,-57.261017E-03,+70.228342E-03
+5.581600E-03,-58.464489E-03,+69.761965E-03
+5.588200E-03,-58.364341E-03,+69.214674E-03
+5.594800E-03,-58.424768E-03,+68.793155E-03
+5.601400E-03,-59.873751E-03,+68.611942E-03
+5.608000E-03,-59.283002E-03,+68.123089E-03
+5.614600E-03,-58.712114E-03,+67.571396E-03
+5.621200E-03,-59.476115E-03,+67.311892E-03
+5.627800E-03,-58.494491E-03,+66.786421E-03
+5.634400E-03,-58.274756E-03,+66.450499E-03
+5.641000E-03,-57.930786E-03,+66.027200E-03
+5.647600E-03,-58.079108E-03,+65.470638E-03
+5.654200E-03,-57.659076E-03,+65.191092E-03
+5.660800E-03,-57.918532E-03,+64.781373E-03
+5.667400E-03,-57.677246E-03,+64.255622E-03
+5.674000E-03,-58.294194E-03,+64.045097E-03
+5.680600E-03,-58.682534E-03,+63.374843E-03
+5.687200E-03,-59.638804E-03,+63.131634E-03
+5.693800E-03,-60.198283E-03,+62.817625E-03
+5.700400E-03,-58.996079E-03,+62.406220E-03
+5.707000E-03,-59.654861E-03,+61.990882E-03
+5.713600E-03,-59.371741E-03,+61.630892E-03
+5.720200E-03,-59.040448E-03,+61.150279E-03
+5.726800E-03,-59.289763E-03,+61.008774E-03
+5.733400E-03,-58.551115E-03,+60.551481E-03
+5.740000E-03,-58.961851E-03,+60.107111E-03
+5.746600E-03,-58.740848E-03,+59.748619E-03
+5.753200E-03,-59.360332E-03,+59.558322E-03
+5.759800E-03,-57.132134E-03,+59.026015E-03
+5.766400E-03,-59.185389E-03,+58.851826E-03
+5.773000E-03,-58.759019E-03,+58.349300E-03
+5.779600E-03,-58.759864E-03,+57.924316E-03
+5.786200E-03,-57.897826E-03,+57.731490E-03
+5.792800E-03,-58.935229E-03,+57.459718E-03
+5.799400E-03,-58.745919E-03,+56.797424E-03
+5.806000E-03,-58.826629E-03,+56.683265E-03
+5.812600E-03,-59.940940E-03,+56.122020E-03
+5.819200E-03,-59.450761E-03,+55.846314E-03
+5.825800E-03,-59.285960E-03,+55.409718E-03
+5.832400E-03,-59.159612E-03,+55.097956E-03
+5.839000E-03,-58.425190E-03,+54.816351E-03
+5.845600E-03,-59.067493E-03,+54.454206E-03
+5.852200E-03,-58.418429E-03,+54.154338E-03
+5.858800E-03,-59.164261E-03,+53.708377E-03
+5.865400E-03,-59.154964E-03,+53.468726E-03
+5.872000E-03,-58.507591E-03,+52.977063E-03
+5.878600E-03,-59.035378E-03,+52.617073E-03
+5.885200E-03,-58.929736E-03,+52.335279E-03
+5.891800E-03,-58.708733E-03,+52.080083E-03
+5.898400E-03,-58.736200E-03,+51.707918E-03
+5.905000E-03,-58.444206E-03,+51.535789E-03
+5.911600E-03,-58.569708E-03,+50.962931E-03
+5.918200E-03,-59.538233E-03,+50.558176E-03
+5.924800E-03,-57.411451E-03,+50.527271E-03
+5.931400E-03,-58.374482E-03,+50.122141E-03
+5.938000E-03,-59.240745E-03,+49.847278E-03
+5.944600E-03,-58.684647E-03,+49.297552E-03
+5.951200E-03,-59.067493E-03,+49.100606E-03
+5.957800E-03,-58.901846E-03,+48.699597E-03
+5.964400E-03,-59.623591E-03,+48.402164E-03
+5.971000E-03,-58.788598E-03,+48.126458E-03
+5.977600E-03,-58.443361E-03,+47.729756E-03
+5.984200E-03,-59.150739E-03,+47.638541E-03
+5.990800E-03,-58.448009E-03,+47.317603E-03
+5.997400E-03,-58.648728E-03,+46.845606E-03
+6.004000E-03,-58.321661E-03,+46.567653E-03
+6.010600E-03,-59.380615E-03,+46.308148E-03
+6.017200E-03,-59.086508E-03,+45.876609E-03
+6.023800E-03,-58.307717E-03,+45.712159E-03
+6.030400E-03,-58.810572E-03,+45.387475E-03
+6.037000E-03,-58.890014E-03,+45.139957E-03
+6.043600E-03,-59.312159E-03,+44.879423E-03
+6.050200E-03,-59.443155E-03,+44.716940E-03
+6.056800E-03,-59.077634E-03,+44.244195E-03
+6.063400E-03,-58.210949E-03,+43.935524E-03
+6.070000E-03,-59.025236E-03,+43.631723E-03
+6.076600E-03,-58.718875E-03,+43.361917E-03
+6.083200E-03,-58.974950E-03,+43.134254E-03
+6.089800E-03,-57.378913E-03,+42.838975E-03
+6.096400E-03,-59.292721E-03,+42.601853E-03
+6.103000E-03,-58.737890E-03,+42.245234E-03
+6.109600E-03,-57.529347E-03,+41.871383E-03
+6.116200E-03,-56.911977E-03,+41.779138E-03
+6.122800E-03,-57.281723E-03,+41.674437E-03
+6.129400E-03,-57.228902E-03,+41.366328E-03
+6.136000E-03,-58.340677E-03,+40.949585E-03
+6.142600E-03,-58.674505E-03,+40.634172E-03
+6.149200E-03,-58.038964E-03,+40.375229E-03
+6.155800E-03,-58.551115E-03,+40.375510E-03
+6.162400E-03,-57.763027E-03,+40.103457E-03
+6.169000E-03,-58.970302E-03,+39.741499E-03
+6.175600E-03,-59.738952E-03,+39.412038E-03
+6.182200E-03,-59.832340E-03,+39.283644E-03
+6.188800E-03,-59.192573E-03,+38.899304E-03
+6.195400E-03,-58.881986E-03,+38.872708E-03
+6.202000E-03,-58.516042E-03,+38.492207E-03
+6.208600E-03,-58.679153E-03,+38.141769E-03
+6.215200E-03,-59.356529E-03,+37.783838E-03
+6.221800E-03,-59.183699E-03,+37.809124E-03
+6.228400E-03,-59.530204E-03,+37.349208E-03
+6.235000E-03,-58.877337E-03,+37.247130E-03
+6.241600E-03,-59.714866E-03,+37.037541E-03
+6.248200E-03,-59.282157E-03,+36.609092E-03
+6.254800E-03,-58.156015E-03,+36.424695E-03
+6.261400E-03,-59.181163E-03,+36.241047E-03
+6.268000E-03,-57.711051E-03,+36.060115E-03
+6.274600E-03,-58.322506E-03,+35.749572E-03
+6.281200E-03,-58.399836E-03,+35.622301E-03
+6.287800E-03,-59.557671E-03,+35.300519E-03
+6.294400E-03,-58.627600E-03,+35.123802E-03
+6.301000E-03,-59.980238E-03,+34.846879E-03
+6.307600E-03,-59.313004E-03,+34.640474E-03
+6.314200E-03,-60.463655E-03,+34.573327E-03
+6.320800E-03,-60.269697E-03,+34.243210E-03
+6.327400E-03,-59.696696E-03,+33.979398E-03
+6.334000E-03,-60.400693E-03,+33.711840E-03
+6.340600E-03,-59.317653E-03,+33.585787E-03
+6.347200E-03,-58.651686E-03,+33.510492E-03
+6.353800E-03,-58.361383E-03,+33.175693E-03
+6.360400E-03,-58.213484E-03,+33.108827E-03
+6.367000E-03,-57.935012E-03,+32.819823E-03
+6.373600E-03,-58.699014E-03,+32.576239E-03
+6.380200E-03,-59.067493E-03,+32.297068E-03
+6.386800E-03,-58.330113E-03,+32.092911E-03
+6.393400E-03,-58.277714E-03,+31.872740E-03
+6.400000E-03,-58.634361E-03,+31.422096E-03
+6.406600E-03,-58.718875E-03,+31.342306E-03
+6.413200E-03,-59.098340E-03,+31.132998E-03
+6.419800E-03,-58.907762E-03,+31.026049E-03
+6.426400E-03,-59.064535E-03,+30.831632E-03
+6.433000E-03,-58.235035E-03,+30.527269E-03
+6.439600E-03,-59.262296E-03,+30.264768E-03
+6.446200E-03,-58.066431E-03,+30.046189E-03
+6.452800E-03,-58.055021E-03,+30.011819E-03
+6.459400E-03,-59.397518E-03,+29.843343E-03
+6.466000E-03,-58.296307E-03,+29.467150E-03
+6.472600E-03,-59.677257E-03,+29.438213E-03
+6.479200E-03,-59.098763E-03,+29.120832E-03
+6.485800E-03,-58.396456E-03,+28.894949E-03
+6.492400E-03,-59.069606E-03,+28.756253E-03
+6.499000E-03,-59.777406E-03,+28.538610E-03
+6.505600E-03,-60.086725E-03,+28.262623E-03
+6.512200E-03,-60.055455E-03,+28.188078E-03
+6.518800E-03,-58.665209E-03,+27.947678E-03
+6.525400E-03,-58.814797E-03,+27.850095E-03
+6.532000E-03,-59.422449E-03,+27.804393E-03
+6.538600E-03,-59.591899E-03,+27.507148E-03
+6.545200E-03,-59.689089E-03,+27.326591E-03
+6.551800E-03,-59.168486E-03,+27.133672E-03
+6.558400E-03,-58.368144E-03,+26.912751E-03
+6.565000E-03,-58.803388E-03,+26.704473E-03
+6.571600E-03,-58.226584E-03,+26.558192E-03
+6.578200E-03,-58.186440E-03,+26.402452E-03
+6.584800E-03,-57.967127E-03,+26.348510E-03
+6.591400E-03,-58.952554E-03,+26.196796E-03
+6.598000E-03,-58.524494E-03,+25.706164E-03
+6.604600E-03,-58.756483E-03,+25.571495E-03
+6.611200E-03,-57.721616E-03,+25.372301E-03
+6.617800E-03,-57.091990E-03,+25.328192E-03
+6.624400E-03,-57.874162E-03,+24.938608E-03
+6.631000E-03,-57.337079E-03,+24.879234E-03
+6.637600E-03,-58.734510E-03,+24.728738E-03
+6.644200E-03,-57.823877E-03,+24.573560E-03
+6.650800E-03,-57.169743E-03,+24.444978E-03
+6.657400E-03,-58.183904E-03,+24.260488E-03
+6.664000E-03,-57.918109E-03,+23.995177E-03
+6.670600E-03,-57.895713E-03,+23.890570E-03
+6.677200E-03,-57.082694E-03,+23.646799E-03
+6.683800E-03,-57.497232E-03,+23.362196E-03
+6.690400E-03,-58.254051E-03,+23.466054E-03
+6.697000E-03,-58.750567E-03,+23.360230E-03
+6.703600E-03,-58.919172E-03,+23.104939E-03
+6.710200E-03,-58.432374E-03,+22.981977E-03
+6.716800E-03,-58.708733E-03,+22.601008E-03
+6.723400E-03,-57.763450E-03,+22.503612E-03
+6.730000E-03,-57.271581E-03,+22.300579E-03
+6.736600E-03,-57.108470E-03,+22.183704E-03
+6.743200E-03,-57.440608E-03,+21.825118E-03
+6.749800E-03,-57.353559E-03,+21.638005E-03
+6.756400E-03,-57.907123E-03,+21.638192E-03
+6.763000E-03,-58.021638E-03,+21.543418E-03
+6.769600E-03,-57.324402E-03,+21.356212E-03
+6.776200E-03,-56.870988E-03,+21.092961E-03
+6.782800E-03,-57.946844E-03,+21.021694E-03
+6.789400E-03,-57.044240E-03,+21.000154E-03
+6.796000E-03,-58.883676E-03,+20.734750E-03
+6.802600E-03,-56.727737E-03,+20.701317E-03
+6.809200E-03,-58.340677E-03,+20.420273E-03
+6.815800E-03,-57.790072E-03,+20.344510E-03
+6.822400E-03,-58.346170E-03,+20.062623E-03
+6.829000E-03,-58.192778E-03,+20.147096E-03
+6.835600E-03,-59.237787E-03,+19.789633E-03
+6.842200E-03,-57.470188E-03,+19.785887E-03
+6.848800E-03,-58.338987E-03,+19.572084E-03
+6.855400E-03,-59.831917E-03,+19.341424E-03
+6.862000E-03,-58.748454E-03,+19.304245E-03
+6.868600E-03,-57.128754E-03,+19.122939E-03
+6.875200E-03,-57.632454E-03,+19.015897E-03
+6.881800E-03,-57.582168E-03,+18.816328E-03
+6.888400E-03,-57.950647E-03,+18.671545E-03
+6.895000E-03,-57.715277E-03,+18.538188E-03
+6.901600E-03,-57.158333E-03,+18.450718E-03
+6.908200E-03,-58.039386E-03,+18.280556E-03
+6.914800E-03,-58.435755E-03,+18.218373E-03
+6.921400E-03,-58.604359E-03,+17.929462E-03
+6.928000E-03,-57.666682E-03,+17.817550E-03
+6.934600E-03,-58.527452E-03,+17.567411E-03
+6.941200E-03,-59.498089E-03,+17.597192E-03
+6.947800E-03,-58.843109E-03,+17.158628E-03
+6.954400E-03,-58.586188E-03,+17.183071E-03
+6.961000E-03,-57.436383E-03,+17.124540E-03
+6.967600E-03,-57.526812E-03,+17.137464E-03
+6.974200E-03,-57.091990E-03,+16.866628E-03
+6.980800E-03,-57.583014E-03,+16.750408E-03
+6.987400E-03,-58.045725E-03,+16.671929E-03
+6.994000E-03,-58.002623E-03,+16.502235E-03
+7.000600E-03,-58.852829E-03,+16.439677E-03
+7.007200E-03,-57.373420E-03,+16.268297E-03
+7.013800E-03,-58.625065E-03,+15.906808E-03
+7.020400E-03,-58.325464E-03,+15.822148E-03
+7.027000E-03,-57.244115E-03,+15.951573E-03
+7.033600E-03,-57.873317E-03,+15.663130E-03
+7.040200E-03,-56.565049E-03,+15.457100E-03
+7.046800E-03,-57.688233E-03,+15.414583E-03
+7.053400E-03,-58.021638E-03,+15.172872E-03
+7.060000E-03,-57.905432E-03,+14.979485E-03
+7.066600E-03,-57.800213E-03,+15.076881E-03
+7.073200E-03,-56.920005E-03,+14.834796E-03
+7.079800E-03,-57.611326E-03,+14.802767E-03
+7.086400E-03,-57.673443E-03,+14.581472E-03
+7.093000E-03,-57.987833E-03,+14.443807E-03
+7.099600E-03,-57.010012E-03,+14.435284E-03
+7.106200E-03,-55.836543E-03,+14.314850E-03
+7.112800E-03,-56.767459E-03,+14.147498E-03
+7.119400E-03,-57.650202E-03,+13.875070E-03
+7.126000E-03,-58.456883E-03,+14.081849E-03
+7.132600E-03,-56.320382E-03,+14.011986E-03
+7.139200E-03,-56.030501E-03,+13.491760E-03
+7.145800E-03,-56.949585E-03,+13.725604E-03
+7.152400E-03,-56.723511E-03,+13.407475E-03
+7.159000E-03,-57.896981E-03,+13.307363E-03
+7.165600E-03,-58.272644E-03,+13.145161E-03
+7.172200E-03,-58.089249E-03,+12.963293E-03
+7.178800E-03,-58.225739E-03,+12.913752E-03
+7.185400E-03,-56.971559E-03,+12.659866E-03
+7.192000E-03,-56.918738E-03,+12.865803E-03
+7.198600E-03,-57.192984E-03,+12.616038E-03
+7.205200E-03,-57.051424E-03,+12.509184E-03
+7.211800E-03,-57.566956E-03,+12.343142E-03
+7.218400E-03,-57.281300E-03,+12.273185E-03
+7.225000E-03,-58.053331E-03,+12.174665E-03
+7.231600E-03,-57.999665E-03,+11.997480E-03
+7.238200E-03,-57.611326E-03,+11.924620E-03
+7.244800E-03,-58.718875E-03,+11.732450E-03
+7.251400E-03,-56.980010E-03,+11.799316E-03
+7.258000E-03,-58.177988E-03,+11.564067E-03
+7.264600E-03,-57.539912E-03,+11.385757E-03
+7.271200E-03,-57.218760E-03,+11.379764E-03
+7.277800E-03,-56.643224E-03,+11.224305E-03
+7.284400E-03,-58.046570E-03,+11.156221E-03
+7.291000E-03,-58.925933E-03,+11.019960E-03
+7.297600E-03,-55.796821E-03,+10.856728E-03
+7.304200E-03,-57.674711E-03,+10.777219E-03
+7.310800E-03,-57.607522E-03,+10.752683E-03
+7.317400E-03,-57.508642E-03,+10.718407E-03
+7.324000E-03,-58.630136E-03,+10.465552E-03
+7.330600E-03,-57.762605E-03,+10.339967E-03
+7.337200E-03,-58.214752E-03,+10.048809E-03
+7.343800E-03,-58.112490E-03,+10.111554E-03
+7.350400E-03,-58.021638E-03,+10.161283E-03
+7.357000E-03,-58.256163E-03,+9.860572E-03
+7.363600E-03,-58.310675E-03,+9.863101E-03
+7.370200E-03,-58.240528E-03,+9.630755E-03
+7.376800E-03,-58.753948E-03,+9.612119E-03
+7.383400E-03,-57.944309E-03,+9.508448E-03
+7.390000E-03,-58.444206E-03,+9.491591E-03
+7.396600E-03,-57.468075E-03,+9.384081E-03
+7.403200E-03,-57.990791E-03,+9.276196E-03
+7.409800E-03,-58.653377E-03,+9.194908E-03
+7.416400E-03,-58.139535E-03,+9.147146E-03
+7.423000E-03,-58.351241E-03,+8.821057E-03
+7.429600E-03,-58.031780E-03,+8.752786E-03
+7.436200E-03,-57.586394E-03,+8.540106E-03
+7.442800E-03,-58.112490E-03,+8.660166E-03
+7.449400E-03,-56.834647E-03,+8.576255E-03
+7.456000E-03,-57.208196E-03,+8.421639E-03
+7.462600E-03,-57.004519E-03,+8.384647E-03
+7.469200E-03,-57.924448E-03,+8.238740E-03
+7.475800E-03,-57.389055E-03,+8.071388E-03
+7.482400E-03,-57.673020E-03,+8.091054E-03
+7.489000E-03,-57.618087E-03,+8.020348E-03
+7.495600E-03,-57.539067E-03,+8.028215E-03
+7.502200E-03,-58.321661E-03,+7.718140E-03
+7.508800E-03,-58.455193E-03,+7.787441E-03
+7.515400E-03,-57.605832E-03,+7.566052E-03
+7.522000E-03,-58.006849E-03,+7.573169E-03
+7.528600E-03,-57.769366E-03,+7.421925E-03
+7.535200E-03,-57.397506E-03,+7.324903E-03
+7.541800E-03,-57.900362E-03,+7.247267E-03
+7.548400E-03,-57.948534E-03,+7.123368E-03
+7.555000E-03,-58.898466E-03,+7.042642E-03
+7.561600E-03,-58.591682E-03,+6.996379E-03
+7.568200E-03,-57.753731E-03,+6.776769E-03
+7.574800E-03,-56.834224E-03,+6.752327E-03
+7.581400E-03,-59.292299E-03,+6.649780E-03
+7.588000E-03,-57.831483E-03,+6.705970E-03
+7.594600E-03,-58.213062E-03,+6.363023E-03
+7.601200E-03,-57.151995E-03,+6.470721E-03
+7.607800E-03,-57.996284E-03,+6.546296E-03
+7.614400E-03,-56.784784E-03,+6.427174E-03
+7.621000E-03,-57.415254E-03,+6.238188E-03
+7.627600E-03,-58.034738E-03,+6.208313E-03
+7.634200E-03,-57.921067E-03,+6.052761E-03
+7.640800E-03,-57.917687E-03,+5.931109E-03
+7.647400E-03,-56.991419E-03,+5.917062E-03
+7.654000E-03,-56.853240E-03,+5.934293E-03
+7.660600E-03,-58.397723E-03,+5.958080E-03
+7.667200E-03,-58.592527E-03,+5.715808E-03
+7.673800E-03,-57.352714E-03,+5.612231E-03
+7.680400E-03,-58.247712E-03,+5.541899E-03
+7.687000E-03,-58.376595E-03,+5.458083E-03
+7.693600E-03,-58.330535E-03,+5.245403E-03
+7.700200E-03,-58.391808E-03,+5.299346E-03
+7.706800E-03,-57.880078E-03,+5.416502E-03
+7.713400E-03,-57.645131E-03,+5.150349E-03
+7.720000E-03,-57.725841E-03,+4.972975E-03
+7.726600E-03,-57.811200E-03,+4.817142E-03
+7.733200E-03,-58.426035E-03,+4.941415E-03
+7.739800E-03,-57.484133E-03,+4.927836E-03
+7.746400E-03,-58.017413E-03,+4.821543E-03
+7.753000E-03,-56.472929E-03,+4.610081E-03
+7.759600E-03,-56.592938E-03,+4.683690E-03
+7.766200E-03,-57.328205E-03,+4.344771E-03
+7.772800E-03,-56.842253E-03,+4.629560E-03
+7.779400E-03,-56.695622E-03,+4.486931E-03
+7.786000E-03,-57.018041E-03,+4.281838E-03
+7.792600E-03,-56.057968E-03,+4.370243E-03
+7.799200E-03,-57.424973E-03,+4.239976E-03
+7.805800E-03,-58.280250E-03,+4.082457E-03
+7.812400E-03,-58.420542E-03,+4.125910E-03
+7.819000E-03,-57.208196E-03,+3.939079E-03
+7.825600E-03,-56.214740E-03,+3.939266E-03
+7.832200E-03,-56.472506E-03,+3.910796E-03
+7.838800E-03,-57.188758E-03,+3.835876E-03
+7.845400E-03,-57.228480E-03,+3.836719E-03
+7.852000E-03,-58.034316E-03,+3.768167E-03
+7.858600E-03,-57.717390E-03,+3.511753E-03
+7.865200E-03,-57.462159E-03,+3.530109E-03
+7.871800E-03,-56.794080E-03,+3.378583E-03
+7.878400E-03,-58.508014E-03,+3.204487E-03
+7.885000E-03,-57.799791E-03,+3.270885E-03
+7.891600E-03,-57.163827E-03,+3.121045E-03
+7.898200E-03,-57.929096E-03,+3.104750E-03
+7.904800E-03,-57.066636E-03,+3.138745E-03
+7.911400E-03,-57.790494E-03,+3.069163E-03
+7.918000E-03,-57.609635E-03,+3.043784E-03
+7.924600E-03,-58.038964E-03,+2.865006E-03
+7.931200E-03,-57.211999E-03,+2.955753E-03
+7.937800E-03,-58.038964E-03,+2.795424E-03
+7.944400E-03,-58.299688E-03,+2.909490E-03
+7.951000E-03,-59.365403E-03,+2.711794E-03
+7.957600E-03,-56.988884E-03,+2.631724E-03
+7.964200E-03,-57.707671E-03,+2.661692E-03
+7.970800E-03,-58.511817E-03,+2.562984E-03
+7.977400E-03,-57.835286E-03,+2.611776E-03
+7.984000E-03,-57.434270E-03,+2.245417E-03
+7.990600E-03,-56.877326E-03,+2.225563E-03
+7.997200E-03,-58.156860E-03,+2.228279E-03
+8.003800E-03,-56.913244E-03,+2.204492E-03
+8.010400E-03,-57.579210E-03,+2.147834E-03
+8.017000E-03,-57.565266E-03,+1.987879E-03
+8.023600E-03,-57.789226E-03,+1.913334E-03
+8.030200E-03,-57.719080E-03,+1.930378E-03
+8.036800E-03,-57.016351E-03,+1.808727E-03
+8.043400E-03,-57.694571E-03,+1.828112E-03
+8.050000E-03,-58.285743E-03,+1.744389E-03
+8.056600E-03,-58.082488E-03,+1.796552E-03
+8.063200E-03,-58.248135E-03,+1.574508E-03
+8.069800E-03,-58.152212E-03,+1.542011E-03
+8.076400E-03,-58.490266E-03,+1.421577E-03
+8.083000E-03,-57.668795E-03,+1.502304E-03
+8.089600E-03,-57.239044E-03,+1.550065E-03
+8.096200E-03,-57.957831E-03,+1.329894E-03
+8.102800E-03,-58.453080E-03,+1.172936E-03
+8.109400E-03,-57.702178E-03,+1.189513E-03
+8.116000E-03,-57.892755E-03,+1.192322E-03
+8.122600E-03,-57.948534E-03,+1.437779E-03
+8.129200E-03,-57.473569E-03,+1.038830E-03
+8.135800E-03,-58.472518E-03,+1.106632E-03
+8.142400E-03,-57.140163E-03,+1.157952E-03
+8.149000E-03,-58.150522E-03,+1.134727E-03
+8.155600E-03,-58.612388E-03,+1.031057E-03
+8.162200E-03,-57.024379E-03,+992.098E-06
+8.168800E-03,-58.015723E-03,+964.003E-06
+8.175400E-03,-58.396878E-03,+988.446E-06
+8.182000E-03,-57.797678E-03,+972.244E-06
+8.188600E-03,-58.790711E-03,+780.168E-06
+8.195200E-03,-58.267573E-03,+873.256E-06
+8.201800E-03,-59.082705E-03,+625.177E-06
+8.208400E-03,-59.896147E-03,+612.441E-06
+8.215000E-03,-58.951287E-03,+571.422E-06
+8.221600E-03,-56.898032E-03,+691.575E-06
+8.228200E-03,-57.812890E-03,+563.275E-06
+8.234800E-03,-59.448649E-03,+507.834E-06
+8.241400E-03,-56.519411E-03,+340.387E-06
+8.248000E-03,-58.659715E-03,+248.798E-06
+8.254600E-03,-58.684647E-03,+285.883E-06
+8.261200E-03,-57.070017E-03,+223.325E-06
+8.267800E-03,-58.187285E-03,+196.073E-06
+8.274400E-03,-59.158767E-03,+180.058E-06
+8.281000E-03,-58.520268E-03,+304.519E-06
+8.287600E-03,-57.426241E-03,+156.178E-06
+8.294200E-03,-57.308767E-03,+93.619E-06
+8.300800E-03,-57.570759E-03,+61.966E-06
+8.307400E-03,-58.019526E-03,-67.084E-06
+8.314000E-03,-58.334338E-03,-161.858E-06
+8.320600E-03,-57.306654E-03,-125.896E-06
+8.327200E-03,-58.118406E-03,-168.975E-06
+8.333800E-03,-56.196570E-03,-199.880E-06
+8.340400E-03,-58.510972E-03,-257.194E-06
+8.347000E-03,-57.172278E-03,-379.594E-06
+8.353600E-03,-57.917687E-03,-434.661E-06
+8.360200E-03,-57.516248E-03,-513.233E-06
+8.366800E-03,-57.278765E-03,-281.824E-06
+8.373400E-03,-58.043189E-03,-494.035E-06
+8.380000E-03,-58.264615E-03,-313.571E-06
+8.386600E-03,-58.148831E-03,-625.519E-06
+8.393200E-03,-57.905432E-03,-624.302E-06
+8.399800E-03,-57.905432E-03,-640.597E-06
+8.406400E-03,-58.137845E-03,-869.852E-06
+8.413000E-03,-58.488575E-03,-793.059E-06
+8.419600E-03,-58.664363E-03,-595.083E-06
+8.426200E-03,-59.565700E-03,-811.040E-06
+8.432800E-03,-58.537171E-03,-902.162E-06
+8.439400E-03,-57.390745E-03,-891.017E-06
+8.446000E-03,-58.038541E-03,-1.074010E-03
+8.452600E-03,-57.381871E-03,-1.015759E-03
+8.459200E-03,-59.683173E-03,-914.617E-06
+8.465800E-03,-59.247506E-03,-967.998E-06
+8.472400E-03,-59.812902E-03,-984.012E-06
+8.479000E-03,-59.382305E-03,-1.288936E-03
+8.485600E-03,-58.888324E-03,-1.364231E-03
+8.492200E-03,-59.648100E-03,-1.272079E-03
+8.498800E-03,-58.917059E-03,-1.216826E-03
+8.505400E-03,-59.002417E-03,-1.164944E-03
+8.512000E-03,-58.754793E-03,-1.252413E-03
+8.518600E-03,-58.117984E-03,-1.245577E-03
+8.525200E-03,-58.540551E-03,-1.257095E-03
+8.531800E-03,-57.920645E-03,-1.159699E-03
+8.538400E-03,-58.785640E-03,-1.462657E-03
+8.545000E-03,-59.416111E-03,-1.519316E-03
+8.551600E-03,-58.707465E-03,-1.577191E-03
+8.558200E-03,-58.639432E-03,-1.488879E-03
+8.564800E-03,-59.793463E-03,-1.388299E-03
+8.571400E-03,-59.185812E-03,-1.720101E-03
+8.578000E-03,-58.606894E-03,-1.536173E-03
+8.584600E-03,-59.105101E-03,-1.581312E-03
+8.591200E-03,-58.651264E-03,-1.773014E-03
+8.597800E-03,-59.573728E-03,-1.755595E-03
+8.604400E-03,-59.553023E-03,-1.860483E-03
+8.611000E-03,-59.105524E-03,-1.849432E-03
+8.617600E-03,-59.487947E-03,-1.759153E-03
+8.624200E-03,-59.681483E-03,-1.890170E-03
+8.630800E-03,-60.694377E-03,-1.955163E-03
+8.637400E-03,-59.001572E-03,-1.952447E-03
+8.644000E-03,-58.822404E-03,-1.932781E-03
+8.650600E-03,-58.960161E-03,-1.993934E-03
+8.657200E-03,-59.096650E-03,-2.021093E-03
+8.663800E-03,-58.316591E-03,-1.964996E-03
+8.670400E-03,-58.947061E-03,-2.111465E-03
+8.677000E-03,-59.147781E-03,-2.209985E-03
+8.683600E-03,-59.127075E-03,-2.169996E-03
+8.690200E-03,-58.748454E-03,-2.263272E-03
+8.696800E-03,-58.168269E-03,-2.050967E-03
+8.703400E-03,-58.391808E-03,-2.292491E-03
+8.710000E-03,-58.127280E-03,-2.287246E-03
+8.716600E-03,-59.482454E-03,-2.364508E-03
+8.723200E-03,-59.208630E-03,-2.280410E-03
+8.729800E-03,-58.737045E-03,-2.325081E-03
+8.736400E-03,-59.295257E-03,-2.364508E-03
+8.743000E-03,-58.543509E-03,-2.475951E-03
+8.749600E-03,-57.898671E-03,-2.355423E-03
+8.756200E-03,-57.429199E-03,-2.350366E-03
+8.762800E-03,-59.066225E-03,-2.651358E-03
+8.769400E-03,-58.415894E-03,-2.726465E-03
+8.776000E-03,-58.701972E-03,-2.725060E-03
+8.782600E-03,-58.836348E-03,-2.657632E-03
+8.789200E-03,-58.902691E-03,-2.577468E-03
+8.795800E-03,-57.880078E-03,-2.667934E-03
+8.802400E-03,-59.902908E-03,-2.771230E-03
+8.809000E-03,-59.122426E-03,-2.727870E-03
+8.815600E-03,-58.370257E-03,-2.590391E-03
+8.822200E-03,-58.670702E-03,-2.521184E-03
+8.828800E-03,-59.164261E-03,-2.957500E-03
+8.835400E-03,-58.095165E-03,-2.844370E-03
+8.842000E-03,-58.820291E-03,-2.853829E-03
+8.848600E-03,-59.431323E-03,-2.672897E-03
+8.855200E-03,-58.718875E-03,-2.750814E-03
+8.861800E-03,-58.142915E-03,-2.849334E-03
+8.868400E-03,-59.226801E-03,-2.874338E-03
+8.875000E-03,-58.106152E-03,-3.034105E-03
+8.881600E-03,-58.265037E-03,-3.137121E-03
+8.888200E-03,-57.923180E-03,-2.914795E-03
+8.894800E-03,-57.408071E-03,-2.931090E-03
+8.901400E-03,-59.413153E-03,-3.136559E-03
+8.908000E-03,-57.497655E-03,-2.931090E-03
+8.914600E-03,-57.204816E-03,-3.173457E-03
+8.921200E-03,-56.934795E-03,-3.176173E-03
+8.927800E-03,-57.397929E-03,-3.275067E-03
+8.934400E-03,-59.094537E-03,-3.157817E-03
+8.941000E-03,-58.034316E-03,-3.237326E-03
+8.947600E-03,-58.195314E-03,-3.230583E-03
+8.954200E-03,-57.556814E-03,-3.266264E-03
+8.960800E-03,-58.136999E-03,-3.185725E-03
+8.967400E-03,-58.258276E-03,-3.410672E-03
+8.974000E-03,-58.370257E-03,-3.347833E-03
+8.980600E-03,-59.264409E-03,-3.311497E-03
+8.987200E-03,-58.486463E-03,-3.461150E-03
+8.993800E-03,-57.823454E-03,-3.581865E-03
+9.000400E-03,-58.947061E-03,-3.327792E-03
+9.007000E-03,-58.784373E-03,-3.574935E-03
+9.013600E-03,-58.429839E-03,-3.596287E-03
+9.020200E-03,-58.540551E-03,-3.386885E-03
+9.026800E-03,-58.481392E-03,-3.664464E-03
+9.033400E-03,-58.043189E-03,-3.529140E-03
+9.040000E-03,-58.391385E-03,-3.720092E-03
+9.046600E-03,-58.298420E-03,-3.703703E-03
+9.053200E-03,-57.930364E-03,-3.719999E-03
+9.059800E-03,-58.333916E-03,-3.681977E-03
+9.066400E-03,-57.787959E-03,-3.678980E-03
+9.073000E-03,-58.433642E-03,-3.492523E-03
+9.079600E-03,-57.358630E-03,-3.679448E-03
+9.086200E-03,-58.134041E-03,-3.651353E-03
+9.092800E-03,-58.835081E-03,-3.722059E-03
+9.099400E-03,-58.673237E-03,-3.790611E-03
+9.106000E-03,-59.270325E-03,-3.986058E-03
+9.112600E-03,-59.259338E-03,-3.742475E-03
+9.119200E-03,-58.401527E-03,-3.902804E-03
+9.125800E-03,-57.519206E-03,-3.860942E-03
+9.132400E-03,-59.444423E-03,-3.893251E-03
+9.139000E-03,-57.858950E-03,-3.721965E-03
+9.145600E-03,-58.718875E-03,-3.951408E-03
+9.152200E-03,-58.699437E-03,-4.047118E-03
+9.158800E-03,-58.027554E-03,-3.980720E-03
+9.165400E-03,-58.529142E-03,-4.023144E-03
+9.172000E-03,-58.966077E-03,-3.972479E-03
+9.178600E-03,-57.997130E-03,-4.024268E-03
+9.185200E-03,-57.419057E-03,-4.015745E-03
+9.191800E-03,-59.623169E-03,-4.185158E-03
+9.198400E-03,-58.996501E-03,-3.997484E-03
+9.205000E-03,-58.539284E-03,-4.155565E-03
+9.211600E-03,-58.414626E-03,-4.060604E-03
+9.218200E-03,-59.403011E-03,-4.249777E-03
+9.224800E-03,-57.604142E-03,-4.133464E-03
+9.231400E-03,-57.909658E-03,-4.168021E-03
+9.238000E-03,-58.000510E-03,-4.076431E-03
+9.244600E-03,-57.738096E-03,-4.358879E-03
+9.251200E-03,-57.279610E-03,-4.140675E-03
+9.257800E-03,-58.445051E-03,-4.240693E-03
+9.264400E-03,-57.623157E-03,-4.368244E-03
+9.271000E-03,-58.190665E-03,-4.177573E-03
+9.277600E-03,-58.254051E-03,-4.370117E-03
+9.284200E-03,-59.119469E-03,-4.247623E-03
+9.290800E-03,-57.646821E-03,-4.327600E-03
+9.297400E-03,-58.718875E-03,-4.394654E-03
+9.304000E-03,-58.917481E-03,-4.486618E-03
+9.310600E-03,-58.602669E-03,-4.186938E-03
+9.317200E-03,-56.811828E-03,-4.429117E-03
+9.323800E-03,-58.259966E-03,-4.392781E-03
+9.330400E-03,-58.557876E-03,-4.439699E-03
+9.337000E-03,-59.054816E-03,-4.473039E-03
+9.343600E-03,-57.937548E-03,-4.446161E-03
+9.350200E-03,-58.281095E-03,-4.508064E-03
+9.356800E-03,-57.319754E-03,-4.308402E-03
+9.363400E-03,-58.159395E-03,-4.605554E-03
+9.370000E-03,-58.824516E-03,-4.766632E-03
+9.376600E-03,-57.999242E-03,-4.687216E-03
+9.383200E-03,-58.443783E-03,-4.697331E-03
+9.389800E-03,-58.032625E-03,-4.852134E-03
+9.396400E-03,-58.948751E-03,-4.579332E-03
+9.403000E-03,-56.950430E-03,-4.617260E-03
+9.409600E-03,-57.280033E-03,-4.836120E-03
+9.416200E-03,-57.657808E-03,-4.705572E-03
+9.422800E-03,-58.195314E-03,-4.851666E-03
+9.429400E-03,-57.909658E-03,-4.785362E-03
+9.436000E-03,-59.149893E-03,-4.590570E-03
+9.442600E-03,-57.176926E-03,-4.917596E-03
+9.449200E-03,-57.404268E-03,-4.818420E-03
+9.455800E-03,-57.533151E-03,-4.928459E-03
+9.462400E-03,-58.276024E-03,-4.913662E-03
+9.469000E-03,-57.973043E-03,-4.775060E-03
+9.475600E-03,-57.063678E-03,-4.953651E-03
+9.482200E-03,-58.457728E-03,-4.914131E-03
+9.488800E-03,-57.582168E-03,-4.920405E-03
+9.495400E-03,-57.532305E-03,-5.062753E-03
+9.502000E-03,-58.063895E-03,-5.120161E-03
+9.508600E-03,-58.365608E-03,-5.096093E-03
+9.515200E-03,-57.959521E-03,-5.165675E-03
+9.521800E-03,-57.723728E-03,-4.923121E-03
+9.528400E-03,-57.739786E-03,-5.145446E-03
+9.535000E-03,-57.915997E-03,-5.056947E-03
+9.541600E-03,-59.504427E-03,-5.295567E-03
+9.548200E-03,-58.846913E-03,-5.147226E-03
+9.554800E-03,-57.912616E-03,-5.139453E-03
+9.561400E-03,-57.787114E-03,-5.300063E-03
+9.568000E-03,-56.240517E-03,-5.214279E-03
+9.574600E-03,-59.511611E-03,-5.099745E-03
+9.581200E-03,-58.336029E-03,-5.138516E-03
+9.587800E-03,-57.571604E-03,-5.164270E-03
+9.594400E-03,-57.604564E-03,-5.238815E-03
+9.601000E-03,-58.279405E-03,-5.251739E-03
+9.607600E-03,-56.855775E-03,-5.468258E-03
+9.614200E-03,-56.791967E-03,-5.168203E-03
+9.620800E-03,-58.086291E-03,-5.208847E-03
+9.627400E-03,-58.273911E-03,-5.202760E-03
+9.634000E-03,-58.042767E-03,-5.227858E-03
+9.640600E-03,-59.274128E-03,-5.102274E-03
+9.647200E-03,-58.399836E-03,-5.349884E-03
+9.653800E-03,-58.554919E-03,-5.164083E-03
+9.660400E-03,-57.923603E-03,-5.351945E-03
+9.667000E-03,-57.425818E-03,-5.359905E-03
+9.673600E-03,-58.602669E-03,-5.304839E-03
+9.680200E-03,-58.002623E-03,-5.278898E-03
+9.686800E-03,-60.168703E-03,-5.358687E-03
+9.693400E-03,-58.135732E-03,-5.264663E-03
+9.700000E-03,-58.275179E-03,-5.384722E-03
+9.706600E-03,-58.010652E-03,-5.221958E-03
+9.713200E-03,-57.850921E-03,-5.376387E-03
+9.719800E-03,-56.884932E-03,-5.316545E-03
+9.726400E-03,-57.908813E-03,-5.505718E-03
+9.733000E-03,-58.446319E-03,-5.614633E-03
+9.739600E-03,-57.973888E-03,-5.526134E-03
+9.746200E-03,-57.171010E-03,-5.498226E-03
+9.752800E-03,-57.056072E-03,-5.377417E-03
+9.759400E-03,-58.231232E-03,-5.362059E-03
+9.766000E-03,-56.466591E-03,-5.559848E-03
+9.772600E-03,-58.224048E-03,-5.403452E-03
+9.779200E-03,-58.205455E-03,-5.616787E-03
+9.785800E-03,-58.074037E-03,-5.517705E-03
+9.792400E-03,-58.532522E-03,-5.522481E-03
+9.799000E-03,-60.007705E-03,-5.586538E-03
+9.805600E-03,-57.887685E-03,-5.419185E-03
+9.812200E-03,-58.670702E-03,-5.388562E-03
+9.818800E-03,-58.160241E-03,-5.654715E-03
+9.825400E-03,-57.911771E-03,-5.618941E-03
+9.832000E-03,-59.458368E-03,-5.648347E-03
+9.838600E-03,-58.192778E-03,-5.709782E-03
+9.845200E-03,-57.440608E-03,-5.755015E-03
+9.851800E-03,-57.597381E-03,-5.648722E-03
+9.858400E-03,-56.145017E-03,-5.795471E-03
+9.865000E-03,-57.261017E-03,-5.782735E-03
+9.871600E-03,-57.484978E-03,-5.822911E-03
+9.878200E-03,-58.034738E-03,-5.730104E-03
+9.884800E-03,-57.487936E-03,-5.716524E-03
+9.891400E-03,-58.371947E-03,-5.738158E-03
+9.898000E-03,-57.377223E-03,-5.674101E-03
+9.904600E-03,-58.257431E-03,-5.746586E-03
+9.911200E-03,-58.463644E-03,-5.688429E-03
+9.917800E-03,-58.013610E-03,-5.872639E-03
+9.924400E-03,-58.395188E-03,-5.830216E-03
+9.931000E-03,-59.692892E-03,-5.823005E-03
+9.937600E-03,-57.334966E-03,-5.741435E-03
+9.944200E-03,-56.941134E-03,-5.738251E-03
+9.950800E-03,-58.189398E-03,-5.858498E-03
+9.957400E-03,-59.089466E-03,-5.701821E-03
+9.964000E-03,-57.770211E-03,-5.777584E-03
+9.970600E-03,-58.808459E-03,-5.970222E-03
+9.977200E-03,-57.760492E-03,-5.909912E-03
+9.983800E-03,-58.418007E-03,-6.049263E-03
+9.990400E-03,-58.553651E-03,-5.938381E-03
+9.997000E-03,-57.869514E-03,-5.945686E-03
+10.003600E-03,-58.770850E-03,-5.993073E-03
+10.010200E-03,-58.464912E-03,-6.015549E-03
+10.016800E-03,-59.441465E-03,-5.869268E-03
+10.023400E-03,-59.226801E-03,-5.944281E-03
+10.030000E-03,-58.750567E-03,-5.843608E-03
+10.036600E-03,-58.895930E-03,-5.887904E-03
+10.043200E-03,-60.179690E-03,-6.067525E-03
+10.049800E-03,-58.497449E-03,-6.076234E-03
+10.056400E-03,-56.977474E-03,-5.841922E-03
+10.063000E-03,-58.915368E-03,-5.939599E-03
+10.069600E-03,-59.269057E-03,-6.023041E-03
+10.076200E-03,-58.374060E-03,-6.021543E-03
+10.082800E-03,-59.010024E-03,-6.069491E-03
+10.089400E-03,-58.208413E-03,-5.944281E-03
+10.096000E-03,-58.672392E-03,-6.146565E-03
+10.102600E-03,-59.461748E-03,-6.150311E-03
+10.109200E-03,-57.157911E-03,-6.150311E-03
+10.115800E-03,-58.925088E-03,-6.047296E-03
+10.122400E-03,-58.096010E-03,-5.917591E-03
+10.129000E-03,-59.312582E-03,-5.998598E-03
+10.135600E-03,-56.983813E-03,-6.047296E-03
+10.142200E-03,-58.273066E-03,-6.051604E-03
+10.148800E-03,-59.048055E-03,-6.003375E-03
+10.155400E-03,-58.021638E-03,-6.037838E-03
+10.162000E-03,-57.419480E-03,-6.105359E-03
+10.168600E-03,-58.637742E-03,-6.216054E-03
+10.175200E-03,-58.089249E-03,-6.201819E-03
+10.181800E-03,-58.531677E-03,-6.125682E-03
+10.188400E-03,-57.739786E-03,-6.063498E-03
+10.195000E-03,-58.602669E-03,-6.358683E-03
+10.201600E-03,-58.752257E-03,-6.231225E-03
+10.208200E-03,-58.106997E-03,-6.163984E-03
+10.214800E-03,-59.201869E-03,-6.316072E-03
+10.221400E-03,-57.325670E-03,-6.201257E-03
+10.228000E-03,-57.630764E-03,-6.429389E-03
+10.234600E-03,-58.489843E-03,-6.220736E-03
+10.241200E-03,-58.141648E-03,-6.293221E-03
+10.247800E-03,-59.067493E-03,-6.407849E-03
+10.254400E-03,-58.397301E-03,-6.176065E-03
+10.261000E-03,-58.685069E-03,-6.383968E-03
+10.267600E-03,-59.343007E-03,-6.456173E-03
+10.274200E-03,-58.387582E-03,-6.588875E-03
+10.280800E-03,-58.149254E-03,-6.279080E-03
+10.287400E-03,-58.133619E-03,-6.351004E-03
+10.294000E-03,-58.554073E-03,-6.230851E-03
+10.300600E-03,-57.968395E-03,-6.195732E-03
+10.307200E-03,-58.137845E-03,-6.382095E-03
+10.313800E-03,-57.905432E-03,-6.408505E-03
+10.320400E-03,-58.396878E-03,-6.258758E-03
+10.327000E-03,-58.630136E-03,-6.399889E-03
+10.333600E-03,-58.286166E-03,-6.366175E-03
+10.340200E-03,-57.111006E-03,-6.230570E-03
+10.346800E-03,-59.127920E-03,-6.237687E-03
+10.353400E-03,-58.484350E-03,-6.422646E-03
+10.360000E-03,-58.497027E-03,-6.325905E-03
+10.366600E-03,-57.197210E-03,-6.520698E-03
+10.373200E-03,-57.416945E-03,-6.468815E-03
+10.379800E-03,-58.076150E-03,-6.493164E-03
+10.386400E-03,-57.440608E-03,-6.228697E-03
+10.393000E-03,-58.427303E-03,-6.265969E-03
+10.399600E-03,-58.493224E-03,-6.510864E-03
+10.406200E-03,-57.965437E-03,-6.539147E-03
+10.412800E-03,-57.881346E-03,-6.645252E-03
+10.419400E-03,-58.529987E-03,-6.562372E-03
+10.426000E-03,-58.710423E-03,-6.487920E-03
+10.432600E-03,-57.337502E-03,-6.630081E-03
+10.439200E-03,-58.269686E-03,-6.805675E-03
+10.445800E-03,-58.021638E-03,-6.470782E-03
+10.452400E-03,-57.017618E-03,-6.681869E-03
+10.459000E-03,-58.427303E-03,-6.680371E-03
+10.465600E-03,-59.111862E-03,-6.600113E-03
+10.472200E-03,-58.534635E-03,-6.532310E-03
+10.478800E-03,-58.891705E-03,-6.453082E-03
+10.485400E-03,-58.692253E-03,-6.520791E-03
+10.492000E-03,-58.566750E-03,-6.613879E-03
+10.498600E-03,-58.562947E-03,-6.669788E-03
+10.505200E-03,-57.364969E-03,-6.477338E-03
+10.511800E-03,-58.844800E-03,-6.796403E-03
+10.518400E-03,-58.144183E-03,-6.577637E-03
+10.525000E-03,-58.602669E-03,-6.611538E-03
+10.531600E-03,-57.008744E-03,-6.534183E-03
+10.538200E-03,-57.973043E-03,-6.635700E-03
+10.544800E-03,-57.230170E-03,-6.518918E-03
+10.551400E-03,-58.256586E-03,-6.536993E-03
+10.558000E-03,-58.251938E-03,-6.518356E-03
+10.564600E-03,-58.486463E-03,-6.828994E-03
+10.571200E-03,-58.085446E-03,-6.700225E-03
+10.577800E-03,-58.220668E-03,-6.650590E-03
+10.584400E-03,-57.720771E-03,-6.629051E-03
+10.591000E-03,-58.249825E-03,-6.612006E-03
+10.597600E-03,-57.861063E-03,-6.823094E-03
+10.604200E-03,-58.715494E-03,-6.643473E-03
+10.610800E-03,-58.511817E-03,-6.857089E-03
+10.617400E-03,-57.977691E-03,-6.733377E-03
+10.624000E-03,-58.917481E-03,-6.588126E-03
+10.630600E-03,-57.959521E-03,-6.609946E-03
+10.637200E-03,-59.086931E-03,-6.839201E-03
+10.643800E-03,-59.118201E-03,-6.806705E-03
+10.650400E-03,-58.093052E-03,-6.624274E-03
+10.657000E-03,-57.711051E-03,-6.893893E-03
+10.663600E-03,-58.033893E-03,-6.576607E-03
+10.670200E-03,-58.618726E-03,-6.882187E-03
+10.676800E-03,-58.158128E-03,-6.627365E-03
+10.683400E-03,-57.485823E-03,-6.840887E-03
+10.690000E-03,-57.947689E-03,-6.932290E-03
+10.696600E-03,-57.523432E-03,-6.828525E-03
+10.703200E-03,-58.529142E-03,-6.776549E-03
+10.709800E-03,-59.256380E-03,-6.775613E-03
+10.716400E-03,-59.183699E-03,-6.640289E-03
+10.723000E-03,-58.404062E-03,-6.828338E-03
+10.729600E-03,-59.224688E-03,-6.819909E-03
+10.736200E-03,-58.966499E-03,-6.868046E-03
+10.742800E-03,-58.685492E-03,-6.845663E-03
+10.749400E-03,-58.511394E-03,-6.887993E-03
+10.756000E-03,-58.731552E-03,-7.047947E-03
+10.762600E-03,-58.254051E-03,-6.832927E-03
+10.769200E-03,-58.618304E-03,-6.882561E-03
+10.775800E-03,-58.358847E-03,-6.879939E-03
+10.782400E-03,-58.745074E-03,-6.826184E-03
+10.789000E-03,-58.382934E-03,-6.876100E-03
+10.795600E-03,-57.931209E-03,-6.932945E-03
+10.802200E-03,-59.512456E-03,-6.847817E-03
+10.808800E-03,-59.004953E-03,-6.799119E-03
+10.815400E-03,-59.440620E-03,-6.845663E-03
+10.822000E-03,-59.648523E-03,-6.871417E-03
+10.828600E-03,-59.263141E-03,-6.902602E-03
+10.835200E-03,-58.499985E-03,-6.821689E-03
+10.841800E-03,-57.476104E-03,-6.655366E-03
+10.848400E-03,-58.303491E-03,-7.051693E-03
+10.855000E-03,-59.880935E-03,-6.899512E-03
+10.861600E-03,-59.172712E-03,-6.894736E-03
+10.868200E-03,-58.548157E-03,-6.916088E-03
+10.874800E-03,-59.321878E-03,-6.891552E-03
+10.881400E-03,-59.880090E-03,-6.845757E-03
+10.888000E-03,-59.088621E-03,-7.164073E-03
+10.894600E-03,-58.592527E-03,-6.974432E-03
+10.901200E-03,-59.195108E-03,-6.912155E-03
+10.907800E-03,-57.790494E-03,-7.000186E-03
+10.914400E-03,-58.434487E-03,-7.067333E-03
+10.921000E-03,-59.162570E-03,-6.779640E-03
+10.927600E-03,-58.876915E-03,-7.158174E-03
+10.934200E-03,-58.852406E-03,-6.948678E-03
+10.940800E-03,-58.227006E-03,-6.985857E-03
+10.947400E-03,-58.137845E-03,-7.134293E-03
+10.954000E-03,-57.954028E-03,-7.157518E-03
+10.960600E-03,-58.227429E-03,-7.037740E-03
+10.967200E-03,-58.670279E-03,-7.064617E-03
+10.973800E-03,-58.461109E-03,-6.980051E-03
+10.980400E-03,-58.164466E-03,-7.179994E-03
+10.987000E-03,-57.527235E-03,-6.995503E-03
+10.993600E-03,-57.517093E-03,-7.089996E-03
+11.000200E-03,-58.075727E-03,-7.254727E-03
+11.006800E-03,-57.607522E-03,-7.027063E-03
+11.013400E-03,-58.084178E-03,-6.918148E-03
+11.020000E-03,-58.201230E-03,-6.911218E-03
+11.026600E-03,-57.280033E-03,-7.035773E-03
+11.033200E-03,-57.416945E-03,-7.067989E-03
+11.039800E-03,-57.495120E-03,-6.918898E-03
+11.046400E-03,-57.443989E-03,-7.026033E-03
+11.053000E-03,-58.839306E-03,-6.935567E-03
+11.059600E-03,-56.907328E-03,-7.170629E-03
+11.066200E-03,-58.149254E-03,-7.124740E-03
+11.072800E-03,-58.179256E-03,-7.215394E-03
+11.079400E-03,-58.625487E-03,-7.181399E-03
+11.086000E-03,-57.776549E-03,-7.199660E-03
+11.092600E-03,-57.659921E-03,-7.157893E-03
+11.099200E-03,-58.321661E-03,-7.231970E-03
+11.105800E-03,-57.479062E-03,-7.223448E-03
+11.112400E-03,-57.390323E-03,-7.185332E-03
+11.119000E-03,-58.334338E-03,-7.257724E-03
+11.125600E-03,-58.406597E-03,-7.220170E-03
+11.132200E-03,-58.825362E-03,-7.203968E-03
+11.138800E-03,-57.707248E-03,-7.288441E-03
+11.145400E-03,-57.491739E-03,-7.001122E-03
+11.152000E-03,-57.875853E-03,-7.145343E-03
+11.158600E-03,-58.426881E-03,-7.157424E-03
+11.165200E-03,-57.454130E-03,-7.171472E-03
+11.171800E-03,-57.885149E-03,-7.378626E-03
+11.178400E-03,-58.486463E-03,-7.283477E-03
+11.185000E-03,-57.535686E-03,-7.257724E-03
+11.191600E-03,-58.713381E-03,-7.051693E-03
+11.198200E-03,-57.839089E-03,-6.859336E-03
+11.204800E-03,-58.842264E-03,-7.174000E-03
+11.211400E-03,-58.136577E-03,-7.359615E-03
+11.218000E-03,-57.810355E-03,-7.180462E-03
+11.224600E-03,-58.458996E-03,-7.000186E-03
+11.231200E-03,-57.868247E-03,-7.219514E-03
+11.237800E-03,-58.188553E-03,-7.084846E-03
+11.244400E-03,-57.990368E-03,-7.196570E-03
+11.251000E-03,-58.767470E-03,-6.975369E-03
+11.257600E-03,-58.080375E-03,-7.186830E-03
+11.264200E-03,-58.850716E-03,-7.250419E-03
+11.270800E-03,-59.726275E-03,-7.065835E-03
+11.277400E-03,-59.039181E-03,-7.164448E-03
+11.284000E-03,-59.162570E-03,-7.238057E-03
+11.290600E-03,-59.317653E-03,-7.002153E-03
+11.297200E-03,-59.115243E-03,-7.523690E-03
+11.303800E-03,-57.763872E-03,-7.159672E-03
+11.310400E-03,-57.838244E-03,-7.283946E-03
+11.317000E-03,-57.875853E-03,-7.286755E-03
+11.323600E-03,-58.365608E-03,-7.023224E-03
+11.330200E-03,-58.432374E-03,-7.269711E-03
+11.336800E-03,-58.380398E-03,-7.342758E-03
+11.343400E-03,-58.645770E-03,-7.134667E-03
+11.350000E-03,-57.842047E-03,-7.192168E-03
+11.356600E-03,-57.380181E-03,-7.106853E-03
+11.363200E-03,-58.486463E-03,-7.257724E-03
+11.369800E-03,-57.487936E-03,-7.317285E-03
+11.376400E-03,-58.481392E-03,-7.309044E-03
+11.383000E-03,-58.782260E-03,-7.279263E-03
+11.389600E-03,-58.499985E-03,-7.257724E-03
+11.396200E-03,-58.827474E-03,-7.244425E-03
+11.402800E-03,-58.220668E-03,-7.257724E-03
+11.409400E-03,-58.561257E-03,-7.242552E-03
+11.416000E-03,-57.383562E-03,-7.406627E-03
+11.422600E-03,-58.372792E-03,-7.248171E-03
+11.429200E-03,-58.287011E-03,-7.360739E-03
+11.435800E-03,-58.665631E-03,-7.395015E-03
+11.442400E-03,-58.186017E-03,-7.262125E-03
+11.449000E-03,-58.315323E-03,-7.336390E-03
+11.455600E-03,-59.049745E-03,-7.352872E-03
+11.462200E-03,-60.558310E-03,-7.358585E-03
+11.468800E-03,-58.687605E-03,-7.213146E-03
+11.475400E-03,-58.573934E-03,-7.283946E-03
+11.482000E-03,-57.759647E-03,-7.471714E-03
+11.488600E-03,-57.969663E-03,-7.178777E-03
+11.495200E-03,-58.486463E-03,-7.119964E-03
+11.501800E-03,-57.910503E-03,-7.208464E-03
+11.508400E-03,-58.977063E-03,-7.324964E-03
+11.515000E-03,-58.285743E-03,-7.339667E-03
+11.521600E-03,-58.336874E-03,-7.287130E-03
+11.528200E-03,-57.686120E-03,-7.307920E-03
+11.534800E-03,-58.156015E-03,-7.342196E-03
+11.541400E-03,-57.907968E-03,-7.283009E-03
+11.548000E-03,-58.503365E-03,-7.347628E-03
+11.554600E-03,-58.291659E-03,-7.403162E-03
+11.561200E-03,-58.156860E-03,-7.349969E-03
+11.567800E-03,-58.502520E-03,-7.404848E-03
+11.574400E-03,-57.645976E-03,-7.303706E-03
+11.581000E-03,-59.054816E-03,-7.387429E-03
+11.587600E-03,-58.848180E-03,-7.209119E-03
+11.594200E-03,-57.724996E-03,-7.404567E-03
+11.600800E-03,-57.558505E-03,-7.386492E-03
+11.607400E-03,-58.784795E-03,-7.412246E-03
+11.614000E-03,-58.746342E-03,-7.557404E-03
+11.620600E-03,-58.799585E-03,-7.291344E-03
+11.627200E-03,-57.615129E-03,-7.360739E-03
+11.633800E-03,-60.119263E-03,-7.306609E-03
+11.640400E-03,-57.909658E-03,-7.417678E-03
+11.647000E-03,-58.427303E-03,-7.513856E-03
+11.653600E-03,-57.477372E-03,-7.365140E-03
+11.660200E-03,-59.175670E-03,-7.383496E-03
+11.666800E-03,-58.299688E-03,-7.585780E-03
+11.673400E-03,-58.301378E-03,-7.731312E-03
+11.680000E-03,-58.497027E-03,-7.601888E-03
+11.686600E-03,-58.104462E-03,-7.419645E-03
+11.693200E-03,-57.690768E-03,-7.485574E-03
+11.699800E-03,-58.308562E-03,-7.360739E-03
+11.706400E-03,-60.339843E-03,-7.259035E-03
+11.713000E-03,-59.477383E-03,-7.489976E-03
+11.719600E-03,-59.344274E-03,-7.542513E-03
+11.726200E-03,-58.782682E-03,-7.461225E-03
+11.732800E-03,-58.628023E-03,-7.288815E-03
+11.739400E-03,-59.003262E-03,-7.483046E-03
+11.746000E-03,-58.568863E-03,-7.389302E-03
+11.752600E-03,-58.383356E-03,-7.650679E-03
+11.759200E-03,-59.317230E-03,-7.337701E-03
+11.765800E-03,-58.344057E-03,-7.400446E-03
+11.772400E-03,-58.179679E-03,-7.654706E-03
+11.779000E-03,-59.403434E-03,-7.454857E-03
+11.785600E-03,-57.789226E-03,-7.380405E-03
+11.792200E-03,-58.757328E-03,-7.513107E-03
+11.798800E-03,-58.662251E-03,-7.618276E-03
+11.805400E-03,-58.922552E-03,-7.432100E-03
+11.812000E-03,-57.856837E-03,-7.571920E-03
+11.818600E-03,-56.347427E-03,-7.547102E-03
+11.825200E-03,-58.343212E-03,-7.535021E-03
+11.831800E-03,-57.652737E-03,-7.386492E-03
+11.838400E-03,-58.019526E-03,-7.386492E-03
+11.845000E-03,-57.673020E-03,-7.634665E-03
+11.851600E-03,-58.071501E-03,-7.496906E-03
+11.858200E-03,-57.808242E-03,-7.387803E-03
+11.864800E-03,-57.495120E-03,-7.564334E-03
+11.871400E-03,-58.483505E-03,-7.670252E-03
+11.878000E-03,-59.266099E-03,-7.618276E-03
+11.884600E-03,-58.548157E-03,-7.609941E-03
+11.891200E-03,-58.130238E-03,-7.492036E-03
+11.897800E-03,-59.923614E-03,-7.544855E-03
+11.904400E-03,-58.841419E-03,-7.638973E-03
+11.911000E-03,-58.993543E-03,-7.638411E-03
+11.917600E-03,-58.746342E-03,-7.299117E-03
+11.924200E-03,-57.674711E-03,-7.599453E-03
+11.930800E-03,-58.538016E-03,-7.618089E-03
+11.937400E-03,-58.898888E-03,-7.624083E-03
+11.944000E-03,-58.254051E-03,-7.479206E-03
+11.950600E-03,-59.371741E-03,-7.503274E-03
+11.957200E-03,-59.454564E-03,-7.455232E-03
+11.963800E-03,-58.753103E-03,-7.446241E-03
+11.970400E-03,-58.875647E-03,-7.405878E-03
+11.977000E-03,-59.675990E-03,-7.805108E-03
+11.983600E-03,-58.810572E-03,-7.624364E-03
+11.990200E-03,-58.397301E-03,-7.390707E-03
+11.996800E-03,-58.905649E-03,-7.423484E-03
+12.003400E-03,-58.736200E-03,-7.535302E-03
+12.010000E-03,-58.676618E-03,-7.470777E-03
+12.016600E-03,-58.115448E-03,-7.614530E-03
+12.023200E-03,-58.259966E-03,-7.345755E-03
+12.029800E-03,-57.996284E-03,-7.396981E-03
+12.036400E-03,-57.903742E-03,-7.360551E-03
+12.043000E-03,-59.688667E-03,-7.506364E-03
+12.049600E-03,-58.862548E-03,-7.420581E-03
+12.056200E-03,-59.693315E-03,-7.600764E-03
+12.062800E-03,-59.740643E-03,-7.680741E-03
+12.069400E-03,-58.971993E-03,-7.619213E-03
+12.076000E-03,-58.374482E-03,-7.512452E-03
+12.082600E-03,-57.511177E-03,-7.695819E-03
+12.089200E-03,-59.152429E-03,-7.581753E-03
+12.095800E-03,-57.982340E-03,-7.477895E-03
+12.102400E-03,-59.245394E-03,-7.453078E-03
+12.109000E-03,-59.244971E-03,-7.406159E-03
+12.115600E-03,-58.718875E-03,-7.574823E-03
+12.122200E-03,-59.290186E-03,-7.390800E-03
+12.128800E-03,-58.826207E-03,-7.630825E-03
+12.135400E-03,-58.839306E-03,-7.474617E-03
+12.142000E-03,-58.114603E-03,-7.497936E-03
+12.148600E-03,-58.434487E-03,-7.433598E-03
+12.155200E-03,-58.637742E-03,-7.509268E-03
+12.161800E-03,-58.087559E-03,-7.515261E-03
+12.168400E-03,-58.299265E-03,-7.494284E-03
+12.175000E-03,-59.637959E-03,-7.536332E-03
+12.181600E-03,-60.014044E-03,-7.425732E-03
+12.188200E-03,-59.642607E-03,-7.650867E-03
+12.194800E-03,-56.932260E-03,-7.728502E-03
+12.201400E-03,-57.673866E-03,-7.516572E-03
+12.208000E-03,-58.232922E-03,-7.540547E-03
+12.214600E-03,-57.607945E-03,-7.653863E-03
+12.221200E-03,-58.321661E-03,-7.585124E-03
+12.227800E-03,-58.262079E-03,-7.640190E-03
+12.234400E-03,-58.343212E-03,-7.711177E-03
+12.241000E-03,-57.996284E-03,-7.568642E-03
+12.247600E-03,-57.148192E-03,-7.537831E-03
+12.254200E-03,-57.704290E-03,-7.596362E-03
+12.260800E-03,-57.493007E-03,-7.718201E-03
+12.267400E-03,-57.344263E-03,-7.720823E-03
+12.274000E-03,-57.911771E-03,-7.704434E-03
+12.280600E-03,-58.584921E-03,-7.711458E-03
+12.287200E-03,-58.457728E-03,-7.487447E-03
+12.293800E-03,-58.718875E-03,-7.934907E-03
+12.300400E-03,-57.599494E-03,-7.726723E-03
+12.307000E-03,-57.324402E-03,-7.753601E-03
+12.313600E-03,-58.622529E-03,-7.531182E-03
+12.320200E-03,-57.816271E-03,-7.510485E-03
+12.326800E-03,-59.309624E-03,-7.816440E-03
+12.333400E-03,-57.018886E-03,-7.500465E-03
+12.340000E-03,-57.525122E-03,-7.672125E-03
+12.346600E-03,-57.700487E-03,-7.637849E-03
+12.353200E-03,-57.403845E-03,-7.654800E-03
+12.359800E-03,-57.898249E-03,-7.523315E-03
+12.366400E-03,-57.443566E-03,-7.438562E-03
+12.373000E-03,-57.476527E-03,-7.669784E-03
+12.379600E-03,-58.066008E-03,-7.670533E-03
+12.386200E-03,-58.962696E-03,-7.756972E-03
+12.392800E-03,-58.446319E-03,-7.491287E-03
+12.399400E-03,-58.741693E-03,-7.556655E-03
+12.406000E-03,-58.416739E-03,-7.458135E-03
+12.412600E-03,-58.122210E-03,-7.782913E-03
+12.419200E-03,-58.335606E-03,-7.519101E-03
+12.425800E-03,-58.679576E-03,-7.566581E-03
+12.432400E-03,-59.231871E-03,-7.550755E-03
+12.439000E-03,-59.464706E-03,-7.665101E-03
+12.445600E-03,-57.859373E-03,-7.764932E-03
+12.452200E-03,-58.554496E-03,-7.648338E-03
+12.458800E-03,-57.760914E-03,-7.720636E-03
+12.465400E-03,-58.137845E-03,-7.607881E-03
+12.472000E-03,-58.602669E-03,-7.727379E-03
+12.478600E-03,-57.640905E-03,-7.798553E-03
+12.485200E-03,-58.035161E-03,-7.930880E-03
+12.491800E-03,-56.698157E-03,-7.448114E-03
+12.498400E-03,-57.995862E-03,-7.484731E-03
+12.505000E-03,-57.261017E-03,-7.412246E-03
+12.511600E-03,-57.457088E-03,-7.477239E-03
+12.518200E-03,-58.011074E-03,-7.635883E-03
+12.524800E-03,-58.664363E-03,-7.711645E-03
+12.531400E-03,-56.865917E-03,-7.490257E-03
+12.538000E-03,-58.173763E-03,-7.643562E-03
+12.544600E-03,-59.614295E-03,-7.769802E-03
+12.551200E-03,-59.243703E-03,-7.655643E-03
+12.557800E-03,-58.859167E-03,-7.480330E-03
+12.564400E-03,-60.069823E-03,-7.695069E-03
+12.571000E-03,-60.983836E-03,-7.523690E-03
+12.577600E-03,-58.353354E-03,-7.463754E-03
+12.584200E-03,-59.235675E-03,-7.688233E-03
+12.590800E-03,-58.821981E-03,-7.446709E-03
+12.597400E-03,-57.675133E-03,-7.483233E-03
+12.604000E-03,-59.018897E-03,-7.748450E-03
+12.610600E-03,-59.524288E-03,-7.764932E-03
+12.617200E-03,-58.108687E-03,-7.671938E-03
+12.623800E-03,-59.152429E-03,-7.639067E-03
+12.630400E-03,-59.340471E-03,-7.669784E-03
+12.637000E-03,-59.059041E-03,-7.687577E-03
+12.643600E-03,-58.647038E-03,-7.634197E-03
+12.650200E-03,-59.853891E-03,-7.718295E-03
+12.656800E-03,-60.183916E-03,-7.645154E-03
+12.663400E-03,-59.530204E-03,-7.629702E-03
+12.670000E-03,-59.838678E-03,-7.669784E-03
+12.676600E-03,-60.290403E-03,-7.767929E-03
+12.683200E-03,-59.929530E-03,-7.679242E-03
+12.689800E-03,-59.419914E-03,-7.653676E-03
+12.696400E-03,-60.576903E-03,-7.387710E-03
+12.703000E-03,-58.311097E-03,-7.734402E-03
+12.709600E-03,-58.814375E-03,-7.644779E-03
+12.716200E-03,-57.568224E-03,-7.610035E-03
+12.722800E-03,-58.435755E-03,-7.537175E-03
+12.729400E-03,-58.696056E-03,-7.711177E-03
+12.736000E-03,-59.428788E-03,-7.678212E-03
+12.742600E-03,-59.212433E-03,-7.707993E-03
+12.749200E-03,-58.332226E-03,-7.721291E-03
+12.755800E-03,-59.092847E-03,-7.712582E-03
+12.762400E-03,-57.951492E-03,-7.679992E-03
+12.769000E-03,-59.122426E-03,-7.615467E-03
+12.775600E-03,-58.539706E-03,-7.699471E-03
+12.782200E-03,-59.319765E-03,-7.727753E-03
+12.788800E-03,-59.909247E-03,-7.747701E-03
+12.795400E-03,-59.422449E-03,-7.762872E-03
+12.802000E-03,-59.604153E-03,-7.706776E-03
+12.808600E-03,-58.790711E-03,-7.681303E-03
+12.815200E-03,-58.424345E-03,-7.902130E-03
+12.821800E-03,-57.860218E-03,-7.773923E-03
+12.828400E-03,-58.346593E-03,-7.690293E-03
+12.835000E-03,-59.268212E-03,-7.721291E-03
+12.841600E-03,-58.104462E-03,-7.788719E-03
+12.848200E-03,-58.321661E-03,-7.791716E-03
+12.854800E-03,-59.386954E-03,-7.779261E-03
+12.861400E-03,-58.946216E-03,-7.773735E-03
+12.868000E-03,-58.410400E-03,-7.686641E-03
+12.874600E-03,-57.642173E-03,-7.616029E-03
+12.881200E-03,-58.711268E-03,-7.707150E-03
+12.887800E-03,-58.594640E-03,-7.859238E-03
+12.894400E-03,-58.789443E-03,-7.514325E-03
+12.901000E-03,-59.149893E-03,-7.868322E-03
+12.907600E-03,-58.093475E-03,-7.827771E-03
+12.914200E-03,-58.836771E-03,-7.821216E-03
+12.920800E-03,-59.235252E-03,-7.669784E-03
+12.927400E-03,-58.372369E-03,-7.731499E-03
+12.934000E-03,-60.030946E-03,-7.730188E-03
+12.940600E-03,-59.344274E-03,-7.766899E-03
+12.947200E-03,-58.805924E-03,-7.672031E-03
+12.953800E-03,-58.928891E-03,-7.650305E-03
+12.960400E-03,-58.629290E-03,-7.761936E-03
+12.967000E-03,-57.463850E-03,-7.669784E-03
+12.973600E-03,-57.688233E-03,-7.825992E-03
+12.980200E-03,-57.843315E-03,-7.780010E-03
+12.986800E-03,-58.294617E-03,-7.620524E-03
+12.993400E-03,,
