%!PS-Adobe-3.0 EPSF-3.0
%%Creator: (MATLAB, The Mathworks, Inc. Version 9.4.0.813654 \(R2018a\). Operating System: Windows 10)
%%Title: C:/Users/signo/Documents/MATLAB/Lab3/Exp5/Zout_1a.eps
%%CreationDate: 2019-11-26T10:40:51
%%Pages: (atend)
%%BoundingBox: 0 0 470 297
%%LanguageLevel: 3
%%EndComments
%%BeginProlog
%%BeginResource: procset (Apache XML Graphics Std ProcSet) 1.2 0
%%Version: 1.2 0
%%Copyright: (Copyright 2001-2003,2010 The Apache Software Foundation. License terms: http://www.apache.org/licenses/LICENSE-2.0)
/bd{bind def}bind def
/ld{load def}bd
/GR/grestore ld
/GS/gsave ld
/RM/rmoveto ld
/C/curveto ld
/t/show ld
/L/lineto ld
/ML/setmiterlimit ld
/CT/concat ld
/f/fill ld
/N/newpath ld
/S/stroke ld
/CC/setcmykcolor ld
/A/ashow ld
/cp/closepath ld
/RC/setrgbcolor ld
/LJ/setlinejoin ld
/GC/setgray ld
/LW/setlinewidth ld
/M/moveto ld
/re {4 2 roll M
1 index 0 rlineto
0 exch rlineto
neg 0 rlineto
cp } bd
/_ctm matrix def
/_tm matrix def
/BT { _ctm currentmatrix pop matrix _tm copy pop 0 0 moveto } bd
/ET { _ctm setmatrix } bd
/iTm { _ctm setmatrix _tm concat } bd
/Tm { _tm astore pop iTm 0 0 moveto } bd
/ux 0.0 def
/uy 0.0 def
/F {
  /Tp exch def
  /Tf exch def
  Tf findfont Tp scalefont setfont
  /cf Tf def  /cs Tp def
} bd
/ULS {currentpoint /uy exch def /ux exch def} bd
/ULE {
  /Tcx currentpoint pop def
  gsave
  newpath
  cf findfont cs scalefont dup
  /FontMatrix get 0 get /Ts exch def /FontInfo get dup
  /UnderlinePosition get Ts mul /To exch def
  /UnderlineThickness get Ts mul /Tt exch def
  ux uy To add moveto  Tcx uy To add lineto
  Tt setlinewidth stroke
  grestore
} bd
/OLE {
  /Tcx currentpoint pop def
  gsave
  newpath
  cf findfont cs scalefont dup
  /FontMatrix get 0 get /Ts exch def /FontInfo get dup
  /UnderlinePosition get Ts mul /To exch def
  /UnderlineThickness get Ts mul /Tt exch def
  ux uy To add cs add moveto Tcx uy To add cs add lineto
  Tt setlinewidth stroke
  grestore
} bd
/SOE {
  /Tcx currentpoint pop def
  gsave
  newpath
  cf findfont cs scalefont dup
  /FontMatrix get 0 get /Ts exch def /FontInfo get dup
  /UnderlinePosition get Ts mul /To exch def
  /UnderlineThickness get Ts mul /Tt exch def
  ux uy To add cs 10 mul 26 idiv add moveto Tcx uy To add cs 10 mul 26 idiv add lineto
  Tt setlinewidth stroke
  grestore
} bd
/QT {
/Y22 exch store
/X22 exch store
/Y21 exch store
/X21 exch store
currentpoint
/Y21 load 2 mul add 3 div exch
/X21 load 2 mul add 3 div exch
/X21 load 2 mul /X22 load add 3 div
/Y21 load 2 mul /Y22 load add 3 div
/X22 load /Y22 load curveto
} bd
/SSPD {
dup length /d exch dict def
{
/v exch def
/k exch def
currentpagedevice k known {
/cpdv currentpagedevice k get def
v cpdv ne {
/upd false def
/nullv v type /nulltype eq def
/nullcpdv cpdv type /nulltype eq def
nullv nullcpdv or
{
/upd true def
} {
/sametype v type cpdv type eq def
sametype {
v type /arraytype eq {
/vlen v length def
/cpdvlen cpdv length def
vlen cpdvlen eq {
0 1 vlen 1 sub {
/i exch def
/obj v i get def
/cpdobj cpdv i get def
obj cpdobj ne {
/upd true def
exit
} if
} for
} {
/upd true def
} ifelse
} {
v type /dicttype eq {
v {
/dv exch def
/dk exch def
/cpddv cpdv dk get def
dv cpddv ne {
/upd true def
exit
} if
} forall
} {
/upd true def
} ifelse
} ifelse
} if
} ifelse
upd true eq {
d k v put
} if
} if
} if
} forall
d length 0 gt {
d setpagedevice
} if
} bd
/RE { % /NewFontName [NewEncodingArray] /FontName RE -
  findfont dup length dict begin
  {
    1 index /FID ne
    {def} {pop pop} ifelse
  } forall
  /Encoding exch def
  /FontName 1 index def
  currentdict definefont pop
  end
} bind def
%%EndResource
%%BeginResource: procset (Apache XML Graphics EPS ProcSet) 1.0 0
%%Version: 1.0 0
%%Copyright: (Copyright 2002-2003 The Apache Software Foundation. License terms: http://www.apache.org/licenses/LICENSE-2.0)
/BeginEPSF { %def
/b4_Inc_state save def         % Save state for cleanup
/dict_count countdictstack def % Count objects on dict stack
/op_count count 1 sub def      % Count objects on operand stack
userdict begin                 % Push userdict on dict stack
/showpage { } def              % Redefine showpage, { } = null proc
0 setgray 0 setlinecap         % Prepare graphics state
1 setlinewidth 0 setlinejoin
10 setmiterlimit [ ] 0 setdash newpath
/languagelevel where           % If level not equal to 1 then
{pop languagelevel             % set strokeadjust and
1 ne                           % overprint to their defaults.
{false setstrokeadjust false setoverprint
} if
} if
} bd
/EndEPSF { %def
count op_count sub {pop} repeat            % Clean up stacks
countdictstack dict_count sub {end} repeat
b4_Inc_state restore
} bd
%%EndResource
%FOPBeginFontDict
%%IncludeResource: font Courier-Oblique
%%IncludeResource: font Courier-BoldOblique
%%IncludeResource: font Courier-Bold
%%IncludeResource: font ZapfDingbats
%%IncludeResource: font Symbol
%%IncludeResource: font Helvetica
%%IncludeResource: font Helvetica-Oblique
%%IncludeResource: font Helvetica-Bold
%%IncludeResource: font Helvetica-BoldOblique
%%IncludeResource: font Times-Roman
%%IncludeResource: font Times-Italic
%%IncludeResource: font Times-Bold
%%IncludeResource: font Times-BoldItalic
%%IncludeResource: font Courier
%FOPEndFontDict
%%BeginResource: encoding WinAnsiEncoding
/WinAnsiEncoding [
/.notdef /.notdef /.notdef /.notdef /.notdef
/.notdef /.notdef /.notdef /.notdef /.notdef
/.notdef /.notdef /.notdef /.notdef /.notdef
/.notdef /.notdef /.notdef /.notdef /.notdef
/.notdef /.notdef /.notdef /.notdef /.notdef
/.notdef /.notdef /.notdef /.notdef /.notdef
/.notdef /.notdef /space /exclam /quotedbl
/numbersign /dollar /percent /ampersand /quotesingle
/parenleft /parenright /asterisk /plus /comma
/hyphen /period /slash /zero /one
/two /three /four /five /six
/seven /eight /nine /colon /semicolon
/less /equal /greater /question /at
/A /B /C /D /E
/F /G /H /I /J
/K /L /M /N /O
/P /Q /R /S /T
/U /V /W /X /Y
/Z /bracketleft /backslash /bracketright /asciicircum
/underscore /quoteleft /a /b /c
/d /e /f /g /h
/i /j /k /l /m
/n /o /p /q /r
/s /t /u /v /w
/x /y /z /braceleft /bar
/braceright /asciitilde /bullet /Euro /bullet
/quotesinglbase /florin /quotedblbase /ellipsis /dagger
/daggerdbl /circumflex /perthousand /Scaron /guilsinglleft
/OE /bullet /Zcaron /bullet /bullet
/quoteleft /quoteright /quotedblleft /quotedblright /bullet
/endash /emdash /asciitilde /trademark /scaron
/guilsinglright /oe /bullet /zcaron /Ydieresis
/space /exclamdown /cent /sterling /currency
/yen /brokenbar /section /dieresis /copyright
/ordfeminine /guillemotleft /logicalnot /sfthyphen /registered
/macron /degree /plusminus /twosuperior /threesuperior
/acute /mu /paragraph /middot /cedilla
/onesuperior /ordmasculine /guillemotright /onequarter /onehalf
/threequarters /questiondown /Agrave /Aacute /Acircumflex
/Atilde /Adieresis /Aring /AE /Ccedilla
/Egrave /Eacute /Ecircumflex /Edieresis /Igrave
/Iacute /Icircumflex /Idieresis /Eth /Ntilde
/Ograve /Oacute /Ocircumflex /Otilde /Odieresis
/multiply /Oslash /Ugrave /Uacute /Ucircumflex
/Udieresis /Yacute /Thorn /germandbls /agrave
/aacute /acircumflex /atilde /adieresis /aring
/ae /ccedilla /egrave /eacute /ecircumflex
/edieresis /igrave /iacute /icircumflex /idieresis
/eth /ntilde /ograve /oacute /ocircumflex
/otilde /odieresis /divide /oslash /ugrave
/uacute /ucircumflex /udieresis /yacute /thorn
/ydieresis
] def
%%EndResource
%FOPBeginFontReencode
/Courier-Oblique findfont
dup length dict begin
  {1 index /FID ne {def} {pop pop} ifelse} forall
  /Encoding WinAnsiEncoding def
  currentdict
end
/Courier-Oblique exch definefont pop
/Courier-BoldOblique findfont
dup length dict begin
  {1 index /FID ne {def} {pop pop} ifelse} forall
  /Encoding WinAnsiEncoding def
  currentdict
end
/Courier-BoldOblique exch definefont pop
/Courier-Bold findfont
dup length dict begin
  {1 index /FID ne {def} {pop pop} ifelse} forall
  /Encoding WinAnsiEncoding def
  currentdict
end
/Courier-Bold exch definefont pop
/Helvetica findfont
dup length dict begin
  {1 index /FID ne {def} {pop pop} ifelse} forall
  /Encoding WinAnsiEncoding def
  currentdict
end
/Helvetica exch definefont pop
/Helvetica-Oblique findfont
dup length dict begin
  {1 index /FID ne {def} {pop pop} ifelse} forall
  /Encoding WinAnsiEncoding def
  currentdict
end
/Helvetica-Oblique exch definefont pop
/Helvetica-Bold findfont
dup length dict begin
  {1 index /FID ne {def} {pop pop} ifelse} forall
  /Encoding WinAnsiEncoding def
  currentdict
end
/Helvetica-Bold exch definefont pop
/Helvetica-BoldOblique findfont
dup length dict begin
  {1 index /FID ne {def} {pop pop} ifelse} forall
  /Encoding WinAnsiEncoding def
  currentdict
end
/Helvetica-BoldOblique exch definefont pop
/Times-Roman findfont
dup length dict begin
  {1 index /FID ne {def} {pop pop} ifelse} forall
  /Encoding WinAnsiEncoding def
  currentdict
end
/Times-Roman exch definefont pop
/Times-Italic findfont
dup length dict begin
  {1 index /FID ne {def} {pop pop} ifelse} forall
  /Encoding WinAnsiEncoding def
  currentdict
end
/Times-Italic exch definefont pop
/Times-Bold findfont
dup length dict begin
  {1 index /FID ne {def} {pop pop} ifelse} forall
  /Encoding WinAnsiEncoding def
  currentdict
end
/Times-Bold exch definefont pop
/Times-BoldItalic findfont
dup length dict begin
  {1 index /FID ne {def} {pop pop} ifelse} forall
  /Encoding WinAnsiEncoding def
  currentdict
end
/Times-BoldItalic exch definefont pop
/Courier findfont
dup length dict begin
  {1 index /FID ne {def} {pop pop} ifelse} forall
  /Encoding WinAnsiEncoding def
  currentdict
end
/Courier exch definefont pop
%FOPEndFontReencode
%%EndProlog
%%Page: 1 1
%%PageBoundingBox: 0 0 470 297
%%BeginPageSetup
[1 0 0 -1 0 297] CT
%%EndPageSetup
GS
[0.60077 0 0 0.6 0 0] CT
1 GC
N
0 0 782 495 re
f
GR
GS
[0.60077 0 0 0.6 0 0] CT
1 GC
N
0 0 782 495 re
f
GR
GS
[0.60077 0 0 0.6 0 0] CT
0.149 GC
2 setlinecap
1 LJ
0.833 LW
N
117 272 M
666 272 L
S
GR
GS
[0.60077 0 0 0.6 0 0] CT
0.149 GC
2 setlinecap
1 LJ
0.833 LW
N
666 272 M
666 40 L
S
GR
GS
[0.60077 0 0 0.6 0 0] CT
0.149 GC
2 setlinecap
1 LJ
0.833 LW
N
666 213.873 M
660.51 213.873 L
S
GR
GS
[0.60077 0 0 0.6 0 0] CT
0.149 GC
2 setlinecap
1 LJ
0.833 LW
N
666 98.124 M
660.51 98.124 L
S
GR
GS
[0.60077 0 0 0.6 403.51537 128.32384] CT
0.149 GC
/Helvetica 15.833 F
GS
[1 0 0 1 0 0] CT
0 6 moveto 
1 -1 scale
(80) t 
GR
GR
GS
[0.60077 0 0 0.6 403.51537 58.87465] CT
0.149 GC
/Helvetica 15.833 F
GS
[1 0 0 1 0 0] CT
0 6 moveto 
1 -1 scale
(120) t 
GR
GR
GS
[0 -0.6 0.60077 0 433.15321 117.6] CT
0.149 GC
/Helvetica 17.417 F
GS
[1 0 0 1 0 0] CT
0 0 moveto 
1 -1 scale
(|Z) t 
GR
GR
GS
[0 -0.6 0.60077 0 437.95935 108] CT
0.149 GC
/Helvetica 13.933 F
GS
[1 0 0 1 0 0] CT
0 0 moveto 
1 -1 scale
(out) t 
GR
GR
GS
[0 -0.6 0.60077 0 433.15321 96] CT
0.149 GC
/Helvetica 17.417 F
GS
[1 0 0 1 0 0] CT
0 0 moveto 
1 -1 scale
(| \(dB\)) t 
GR
GR
GS
[0.60077 0 0 0.6 0 0] CT
1 GC
N
117 272 M
666 272 L
666 40 L
117 40 L
cp
f
GR
GS
[0.60077 0 0 0.6 0 0] CT
0.775 GC
[1 3] 0 setdash
2 LJ
0.833 LW
N
172.088 272 M
172.088 40 L
S
GR
GS
[0.60077 0 0 0.6 0 0] CT
0.775 GC
[1 3] 0 setdash
2 LJ
0.833 LW
N
204.313 272 M
204.313 40 L
S
GR
GS
[0.60077 0 0 0.6 0 0] CT
0.775 GC
[1 3] 0 setdash
2 LJ
0.833 LW
N
227.177 272 M
227.177 40 L
S
GR
GS
[0.60077 0 0 0.6 0 0] CT
0.775 GC
[1 3] 0 setdash
2 LJ
0.833 LW
N
244.912 272 M
244.912 40 L
S
GR
GS
[0.60077 0 0 0.6 0 0] CT
0.775 GC
[1 3] 0 setdash
2 LJ
0.833 LW
N
259.402 272 M
259.402 40 L
S
GR
GS
[0.60077 0 0 0.6 0 0] CT
0.775 GC
[1 3] 0 setdash
2 LJ
0.833 LW
N
271.653 272 M
271.653 40 L
S
GR
GS
[0.60077 0 0 0.6 0 0] CT
0.775 GC
[1 3] 0 setdash
2 LJ
0.833 LW
N
282.265 272 M
282.265 40 L
S
GR
GS
[0.60077 0 0 0.6 0 0] CT
0.775 GC
[1 3] 0 setdash
2 LJ
0.833 LW
N
291.626 272 M
291.626 40 L
S
GR
GS
[0.60077 0 0 0.6 0 0] CT
0.775 GC
[1 3] 0 setdash
2 LJ
0.833 LW
N
355.089 272 M
355.089 40 L
S
GR
GS
[0.60077 0 0 0.6 0 0] CT
0.775 GC
[1 3] 0 setdash
2 LJ
0.833 LW
N
387.313 272 M
387.313 40 L
S
GR
GS
[0.60077 0 0 0.6 0 0] CT
0.775 GC
[1 3] 0 setdash
2 LJ
0.833 LW
N
410.177 272 M
410.177 40 L
S
GR
GS
[0.60077 0 0 0.6 0 0] CT
0.775 GC
[1 3] 0 setdash
2 LJ
0.833 LW
N
427.911 272 M
427.911 40 L
S
GR
GS
[0.60077 0 0 0.6 0 0] CT
0.775 GC
[1 3] 0 setdash
2 LJ
0.833 LW
N
442.402 272 M
442.402 40 L
S
GR
GS
[0.60077 0 0 0.6 0 0] CT
0.775 GC
[1 3] 0 setdash
2 LJ
0.833 LW
N
454.653 272 M
454.653 40 L
S
GR
GS
[0.60077 0 0 0.6 0 0] CT
0.775 GC
[1 3] 0 setdash
2 LJ
0.833 LW
N
465.265 272 M
465.265 40 L
S
GR
GS
[0.60077 0 0 0.6 0 0] CT
0.775 GC
[1 3] 0 setdash
2 LJ
0.833 LW
N
474.626 272 M
474.626 40 L
S
GR
GS
[0.60077 0 0 0.6 0 0] CT
0.775 GC
[1 3] 0 setdash
2 LJ
0.833 LW
N
538.089 272 M
538.089 40 L
S
GR
GS
[0.60077 0 0 0.6 0 0] CT
0.775 GC
[1 3] 0 setdash
2 LJ
0.833 LW
N
570.313 272 M
570.313 40 L
S
GR
GS
[0.60077 0 0 0.6 0 0] CT
0.775 GC
[1 3] 0 setdash
2 LJ
0.833 LW
N
593.177 272 M
593.177 40 L
S
GR
GS
[0.60077 0 0 0.6 0 0] CT
0.775 GC
[1 3] 0 setdash
2 LJ
0.833 LW
N
610.911 272 M
610.911 40 L
S
GR
GS
[0.60077 0 0 0.6 0 0] CT
0.775 GC
[1 3] 0 setdash
2 LJ
0.833 LW
N
625.402 272 M
625.402 40 L
S
GR
GS
[0.60077 0 0 0.6 0 0] CT
0.775 GC
[1 3] 0 setdash
2 LJ
0.833 LW
N
637.653 272 M
637.653 40 L
S
GR
GS
[0.60077 0 0 0.6 0 0] CT
0.775 GC
[1 3] 0 setdash
2 LJ
0.833 LW
N
648.265 272 M
648.265 40 L
S
GR
GS
[0.60077 0 0 0.6 0 0] CT
0.775 GC
[1 3] 0 setdash
2 LJ
0.833 LW
N
657.626 272 M
657.626 40 L
S
GR
GS
[0.60077 0 0 0.6 0 0] CT
0.873 GC
1 LJ
0.833 LW
N
117 272 M
117 40 L
S
GR
GS
[0.60077 0 0 0.6 0 0] CT
0.873 GC
1 LJ
0.833 LW
N
300 272 M
300 40 L
S
GR
GS
[0.60077 0 0 0.6 0 0] CT
0.873 GC
1 LJ
0.833 LW
N
483 272 M
483 40 L
S
GR
GS
[0.60077 0 0 0.6 0 0] CT
0.873 GC
1 LJ
0.833 LW
N
666 272 M
666 40 L
S
GR
GS
[0.60077 0 0 0.6 0 0] CT
0.775 GC
[1 3] 0 setdash
2 LJ
0.833 LW
N
666 271.747 M
117 271.747 L
S
GR
GS
[0.60077 0 0 0.6 0 0] CT
0.775 GC
[1 3] 0 setdash
2 LJ
0.833 LW
N
666 254.325 M
117 254.325 L
S
GR
GS
[0.60077 0 0 0.6 0 0] CT
0.775 GC
[1 3] 0 setdash
2 LJ
0.833 LW
N
666 244.134 M
117 244.134 L
S
GR
GS
[0.60077 0 0 0.6 0 0] CT
0.775 GC
[1 3] 0 setdash
2 LJ
0.833 LW
N
666 236.904 M
117 236.904 L
S
GR
GS
[0.60077 0 0 0.6 0 0] CT
0.775 GC
[1 3] 0 setdash
2 LJ
0.833 LW
N
666 231.295 M
117 231.295 L
S
GR
GS
[0.60077 0 0 0.6 0 0] CT
0.775 GC
[1 3] 0 setdash
2 LJ
0.833 LW
N
666 226.712 M
117 226.712 L
S
GR
GS
[0.60077 0 0 0.6 0 0] CT
0.775 GC
[1 3] 0 setdash
2 LJ
0.833 LW
N
666 222.838 M
117 222.838 L
S
GR
GS
[0.60077 0 0 0.6 0 0] CT
0.775 GC
[1 3] 0 setdash
2 LJ
0.833 LW
N
666 219.482 M
117 219.482 L
S
GR
GS
[0.60077 0 0 0.6 0 0] CT
0.775 GC
[1 3] 0 setdash
2 LJ
0.833 LW
N
666 216.521 M
117 216.521 L
S
GR
GS
[0.60077 0 0 0.6 0 0] CT
0.775 GC
[1 3] 0 setdash
2 LJ
0.833 LW
N
666 196.451 M
117 196.451 L
S
GR
GS
[0.60077 0 0 0.6 0 0] CT
0.775 GC
[1 3] 0 setdash
2 LJ
0.833 LW
N
666 186.26 M
117 186.26 L
S
GR
GS
[0.60077 0 0 0.6 0 0] CT
0.775 GC
[1 3] 0 setdash
2 LJ
0.833 LW
N
666 179.029 M
117 179.029 L
S
GR
GS
[0.60077 0 0 0.6 0 0] CT
0.775 GC
[1 3] 0 setdash
2 LJ
0.833 LW
N
666 173.421 M
117 173.421 L
S
GR
GS
[0.60077 0 0 0.6 0 0] CT
0.775 GC
[1 3] 0 setdash
2 LJ
0.833 LW
N
666 168.838 M
117 168.838 L
S
GR
GS
[0.60077 0 0 0.6 0 0] CT
0.775 GC
[1 3] 0 setdash
2 LJ
0.833 LW
N
666 164.964 M
117 164.964 L
S
GR
GS
[0.60077 0 0 0.6 0 0] CT
0.775 GC
[1 3] 0 setdash
2 LJ
0.833 LW
N
666 161.607 M
117 161.607 L
S
GR
GS
[0.60077 0 0 0.6 0 0] CT
0.775 GC
[1 3] 0 setdash
2 LJ
0.833 LW
N
666 158.647 M
117 158.647 L
S
GR
GS
[0.60077 0 0 0.6 0 0] CT
0.775 GC
[1 3] 0 setdash
2 LJ
0.833 LW
N
666 155.999 M
117 155.999 L
S
GR
GS
[0.60077 0 0 0.6 0 0] CT
0.775 GC
[1 3] 0 setdash
2 LJ
0.833 LW
N
666 138.577 M
117 138.577 L
S
GR
GS
[0.60077 0 0 0.6 0 0] CT
0.775 GC
[1 3] 0 setdash
2 LJ
0.833 LW
N
666 128.386 M
117 128.386 L
S
GR
GS
[0.60077 0 0 0.6 0 0] CT
0.775 GC
[1 3] 0 setdash
2 LJ
0.833 LW
N
666 121.155 M
117 121.155 L
S
GR
GS
[0.60077 0 0 0.6 0 0] CT
0.775 GC
[1 3] 0 setdash
2 LJ
0.833 LW
N
666 115.546 M
117 115.546 L
S
GR
GS
[0.60077 0 0 0.6 0 0] CT
0.775 GC
[1 3] 0 setdash
2 LJ
0.833 LW
N
666 110.964 M
117 110.964 L
S
GR
GS
[0.60077 0 0 0.6 0 0] CT
0.775 GC
[1 3] 0 setdash
2 LJ
0.833 LW
N
666 107.089 M
117 107.089 L
S
GR
GS
[0.60077 0 0 0.6 0 0] CT
0.775 GC
[1 3] 0 setdash
2 LJ
0.833 LW
N
666 103.733 M
117 103.733 L
S
GR
GS
[0.60077 0 0 0.6 0 0] CT
0.775 GC
[1 3] 0 setdash
2 LJ
0.833 LW
N
666 100.773 M
117 100.773 L
S
GR
GS
[0.60077 0 0 0.6 0 0] CT
0.775 GC
[1 3] 0 setdash
2 LJ
0.833 LW
N
666 80.703 M
117 80.703 L
S
GR
GS
[0.60077 0 0 0.6 0 0] CT
0.775 GC
[1 3] 0 setdash
2 LJ
0.833 LW
N
666 70.511 M
117 70.511 L
S
GR
GS
[0.60077 0 0 0.6 0 0] CT
0.775 GC
[1 3] 0 setdash
2 LJ
0.833 LW
N
666 63.281 M
117 63.281 L
S
GR
GS
[0.60077 0 0 0.6 0 0] CT
0.775 GC
[1 3] 0 setdash
2 LJ
0.833 LW
N
666 57.672 M
117 57.672 L
S
GR
GS
[0.60077 0 0 0.6 0 0] CT
0.775 GC
[1 3] 0 setdash
2 LJ
0.833 LW
N
666 53.089 M
117 53.089 L
S
GR
GS
[0.60077 0 0 0.6 0 0] CT
0.775 GC
[1 3] 0 setdash
2 LJ
0.833 LW
N
666 49.215 M
117 49.215 L
S
GR
GS
[0.60077 0 0 0.6 0 0] CT
0.775 GC
[1 3] 0 setdash
2 LJ
0.833 LW
N
666 45.859 M
117 45.859 L
S
GR
GS
[0.60077 0 0 0.6 0 0] CT
0.775 GC
[1 3] 0 setdash
2 LJ
0.833 LW
N
666 42.898 M
117 42.898 L
S
GR
GS
[0.60077 0 0 0.6 0 0] CT
0.775 GC
[1 3] 0 setdash
2 LJ
0.833 LW
N
666 40.25 M
117 40.25 L
S
GR
GS
[0.60077 0 0 0.6 0 0] CT
0.873 GC
1 LJ
0.833 LW
N
666 213.873 M
117 213.873 L
S
GR
GS
[0.60077 0 0 0.6 0 0] CT
0.873 GC
1 LJ
0.833 LW
N
666 98.124 M
117 98.124 L
S
GR
GS
[0.60077 0 0 0.6 0 0] CT
0.149 GC
2 setlinecap
1 LJ
0.833 LW
N
117 272 M
666 272 L
S
GR
GS
[0.60077 0 0 0.6 0 0] CT
0.149 GC
2 setlinecap
1 LJ
0.833 LW
N
117 40 M
666 40 L
S
GR
GS
[0.60077 0 0 0.6 0 0] CT
0.149 GC
2 setlinecap
1 LJ
0.833 LW
N
117 272 M
117 266.51 L
S
GR
GS
[0.60077 0 0 0.6 0 0] CT
0.149 GC
2 setlinecap
1 LJ
0.833 LW
N
300 272 M
300 266.51 L
S
GR
GS
[0.60077 0 0 0.6 0 0] CT
0.149 GC
2 setlinecap
1 LJ
0.833 LW
N
483 272 M
483 266.51 L
S
GR
GS
[0.60077 0 0 0.6 0 0] CT
0.149 GC
2 setlinecap
1 LJ
0.833 LW
N
666 272 M
666 266.51 L
S
GR
GS
[0.60077 0 0 0.6 0 0] CT
0.149 GC
2 setlinecap
1 LJ
0.833 LW
N
117 40 M
117 45.49 L
S
GR
GS
[0.60077 0 0 0.6 0 0] CT
0.149 GC
2 setlinecap
1 LJ
0.833 LW
N
300 40 M
300 45.49 L
S
GR
GS
[0.60077 0 0 0.6 0 0] CT
0.149 GC
2 setlinecap
1 LJ
0.833 LW
N
483 40 M
483 45.49 L
S
GR
GS
[0.60077 0 0 0.6 0 0] CT
0.149 GC
2 setlinecap
1 LJ
0.833 LW
N
666 40 M
666 45.49 L
S
GR
GS
[0.60077 0 0 0.6 0 0] CT
0.149 GC
2 setlinecap
1 LJ
0.833 LW
N
117 272 M
117 269.255 L
S
GR
GS
[0.60077 0 0 0.6 0 0] CT
0.149 GC
2 setlinecap
1 LJ
0.833 LW
N
172.088 272 M
172.088 269.255 L
S
GR
GS
[0.60077 0 0 0.6 0 0] CT
0.149 GC
2 setlinecap
1 LJ
0.833 LW
N
204.313 272 M
204.313 269.255 L
S
GR
GS
[0.60077 0 0 0.6 0 0] CT
0.149 GC
2 setlinecap
1 LJ
0.833 LW
N
227.177 272 M
227.177 269.255 L
S
GR
GS
[0.60077 0 0 0.6 0 0] CT
0.149 GC
2 setlinecap
1 LJ
0.833 LW
N
244.912 272 M
244.912 269.255 L
S
GR
GS
[0.60077 0 0 0.6 0 0] CT
0.149 GC
2 setlinecap
1 LJ
0.833 LW
N
259.402 272 M
259.402 269.255 L
S
GR
GS
[0.60077 0 0 0.6 0 0] CT
0.149 GC
2 setlinecap
1 LJ
0.833 LW
N
271.653 272 M
271.653 269.255 L
S
GR
GS
[0.60077 0 0 0.6 0 0] CT
0.149 GC
2 setlinecap
1 LJ
0.833 LW
N
282.265 272 M
282.265 269.255 L
S
GR
GS
[0.60077 0 0 0.6 0 0] CT
0.149 GC
2 setlinecap
1 LJ
0.833 LW
N
291.626 272 M
291.626 269.255 L
S
GR
GS
[0.60077 0 0 0.6 0 0] CT
0.149 GC
2 setlinecap
1 LJ
0.833 LW
N
300 272 M
300 269.255 L
S
GR
GS
[0.60077 0 0 0.6 0 0] CT
0.149 GC
2 setlinecap
1 LJ
0.833 LW
N
355.089 272 M
355.089 269.255 L
S
GR
GS
[0.60077 0 0 0.6 0 0] CT
0.149 GC
2 setlinecap
1 LJ
0.833 LW
N
387.313 272 M
387.313 269.255 L
S
GR
GS
[0.60077 0 0 0.6 0 0] CT
0.149 GC
2 setlinecap
1 LJ
0.833 LW
N
410.177 272 M
410.177 269.255 L
S
GR
GS
[0.60077 0 0 0.6 0 0] CT
0.149 GC
2 setlinecap
1 LJ
0.833 LW
N
427.911 272 M
427.911 269.255 L
S
GR
GS
[0.60077 0 0 0.6 0 0] CT
0.149 GC
2 setlinecap
1 LJ
0.833 LW
N
442.402 272 M
442.402 269.255 L
S
GR
GS
[0.60077 0 0 0.6 0 0] CT
0.149 GC
2 setlinecap
1 LJ
0.833 LW
N
454.653 272 M
454.653 269.255 L
S
GR
GS
[0.60077 0 0 0.6 0 0] CT
0.149 GC
2 setlinecap
1 LJ
0.833 LW
N
465.265 272 M
465.265 269.255 L
S
GR
GS
[0.60077 0 0 0.6 0 0] CT
0.149 GC
2 setlinecap
1 LJ
0.833 LW
N
474.626 272 M
474.626 269.255 L
S
GR
GS
[0.60077 0 0 0.6 0 0] CT
0.149 GC
2 setlinecap
1 LJ
0.833 LW
N
483 272 M
483 269.255 L
S
GR
GS
[0.60077 0 0 0.6 0 0] CT
0.149 GC
2 setlinecap
1 LJ
0.833 LW
N
538.089 272 M
538.089 269.255 L
S
GR
GS
[0.60077 0 0 0.6 0 0] CT
0.149 GC
2 setlinecap
1 LJ
0.833 LW
N
570.313 272 M
570.313 269.255 L
S
GR
GS
[0.60077 0 0 0.6 0 0] CT
0.149 GC
2 setlinecap
1 LJ
0.833 LW
N
593.177 272 M
593.177 269.255 L
S
GR
GS
[0.60077 0 0 0.6 0 0] CT
0.149 GC
2 setlinecap
1 LJ
0.833 LW
N
610.911 272 M
610.911 269.255 L
S
GR
GS
[0.60077 0 0 0.6 0 0] CT
0.149 GC
2 setlinecap
1 LJ
0.833 LW
N
625.402 272 M
625.402 269.255 L
S
GR
GS
[0.60077 0 0 0.6 0 0] CT
0.149 GC
2 setlinecap
1 LJ
0.833 LW
N
637.653 272 M
637.653 269.255 L
S
GR
GS
[0.60077 0 0 0.6 0 0] CT
0.149 GC
2 setlinecap
1 LJ
0.833 LW
N
648.265 272 M
648.265 269.255 L
S
GR
GS
[0.60077 0 0 0.6 0 0] CT
0.149 GC
2 setlinecap
1 LJ
0.833 LW
N
657.626 272 M
657.626 269.255 L
S
GR
GS
[0.60077 0 0 0.6 0 0] CT
0.149 GC
2 setlinecap
1 LJ
0.833 LW
N
666 272 M
666 269.255 L
S
GR
GS
[0.60077 0 0 0.6 0 0] CT
0.149 GC
2 setlinecap
1 LJ
0.833 LW
N
117 40 M
117 42.745 L
S
GR
GS
[0.60077 0 0 0.6 0 0] CT
0.149 GC
2 setlinecap
1 LJ
0.833 LW
N
172.088 40 M
172.088 42.745 L
S
GR
GS
[0.60077 0 0 0.6 0 0] CT
0.149 GC
2 setlinecap
1 LJ
0.833 LW
N
204.313 40 M
204.313 42.745 L
S
GR
GS
[0.60077 0 0 0.6 0 0] CT
0.149 GC
2 setlinecap
1 LJ
0.833 LW
N
227.177 40 M
227.177 42.745 L
S
GR
GS
[0.60077 0 0 0.6 0 0] CT
0.149 GC
2 setlinecap
1 LJ
0.833 LW
N
244.912 40 M
244.912 42.745 L
S
GR
GS
[0.60077 0 0 0.6 0 0] CT
0.149 GC
2 setlinecap
1 LJ
0.833 LW
N
259.402 40 M
259.402 42.745 L
S
GR
GS
[0.60077 0 0 0.6 0 0] CT
0.149 GC
2 setlinecap
1 LJ
0.833 LW
N
271.653 40 M
271.653 42.745 L
S
GR
GS
[0.60077 0 0 0.6 0 0] CT
0.149 GC
2 setlinecap
1 LJ
0.833 LW
N
282.265 40 M
282.265 42.745 L
S
GR
GS
[0.60077 0 0 0.6 0 0] CT
0.149 GC
2 setlinecap
1 LJ
0.833 LW
N
291.626 40 M
291.626 42.745 L
S
GR
GS
[0.60077 0 0 0.6 0 0] CT
0.149 GC
2 setlinecap
1 LJ
0.833 LW
N
300 40 M
300 42.745 L
S
GR
GS
[0.60077 0 0 0.6 0 0] CT
0.149 GC
2 setlinecap
1 LJ
0.833 LW
N
355.089 40 M
355.089 42.745 L
S
GR
GS
[0.60077 0 0 0.6 0 0] CT
0.149 GC
2 setlinecap
1 LJ
0.833 LW
N
387.313 40 M
387.313 42.745 L
S
GR
GS
[0.60077 0 0 0.6 0 0] CT
0.149 GC
2 setlinecap
1 LJ
0.833 LW
N
410.177 40 M
410.177 42.745 L
S
GR
GS
[0.60077 0 0 0.6 0 0] CT
0.149 GC
2 setlinecap
1 LJ
0.833 LW
N
427.911 40 M
427.911 42.745 L
S
GR
GS
[0.60077 0 0 0.6 0 0] CT
0.149 GC
2 setlinecap
1 LJ
0.833 LW
N
442.402 40 M
442.402 42.745 L
S
GR
GS
[0.60077 0 0 0.6 0 0] CT
0.149 GC
2 setlinecap
1 LJ
0.833 LW
N
454.653 40 M
454.653 42.745 L
S
GR
GS
[0.60077 0 0 0.6 0 0] CT
0.149 GC
2 setlinecap
1 LJ
0.833 LW
N
465.265 40 M
465.265 42.745 L
S
GR
GS
[0.60077 0 0 0.6 0 0] CT
0.149 GC
2 setlinecap
1 LJ
0.833 LW
N
474.626 40 M
474.626 42.745 L
S
GR
GS
[0.60077 0 0 0.6 0 0] CT
0.149 GC
2 setlinecap
1 LJ
0.833 LW
N
483 40 M
483 42.745 L
S
GR
GS
[0.60077 0 0 0.6 0 0] CT
0.149 GC
2 setlinecap
1 LJ
0.833 LW
N
538.089 40 M
538.089 42.745 L
S
GR
GS
[0.60077 0 0 0.6 0 0] CT
0.149 GC
2 setlinecap
1 LJ
0.833 LW
N
570.313 40 M
570.313 42.745 L
S
GR
GS
[0.60077 0 0 0.6 0 0] CT
0.149 GC
2 setlinecap
1 LJ
0.833 LW
N
593.177 40 M
593.177 42.745 L
S
GR
GS
[0.60077 0 0 0.6 0 0] CT
0.149 GC
2 setlinecap
1 LJ
0.833 LW
N
610.911 40 M
610.911 42.745 L
S
GR
GS
[0.60077 0 0 0.6 0 0] CT
0.149 GC
2 setlinecap
1 LJ
0.833 LW
N
625.402 40 M
625.402 42.745 L
S
GR
GS
[0.60077 0 0 0.6 0 0] CT
0.149 GC
2 setlinecap
1 LJ
0.833 LW
N
637.653 40 M
637.653 42.745 L
S
GR
GS
[0.60077 0 0 0.6 0 0] CT
0.149 GC
2 setlinecap
1 LJ
0.833 LW
N
648.265 40 M
648.265 42.745 L
S
GR
GS
[0.60077 0 0 0.6 0 0] CT
0.149 GC
2 setlinecap
1 LJ
0.833 LW
N
657.626 40 M
657.626 42.745 L
S
GR
GS
[0.60077 0 0 0.6 0 0] CT
0.149 GC
2 setlinecap
1 LJ
0.833 LW
N
666 40 M
666 42.745 L
S
GR
GS
[0.60077 0 0 0.6 0 0] CT
0.149 GC
2 setlinecap
1 LJ
0.833 LW
N
117 272 M
117 40 L
S
GR
GS
[0.60077 0 0 0.6 0 0] CT
0.149 GC
2 setlinecap
1 LJ
0.833 LW
N
666 272 M
666 40 L
S
GR
GS
[0.60077 0 0 0.6 0 0] CT
0.149 GC
2 setlinecap
1 LJ
0.833 LW
N
117 213.873 M
122.49 213.873 L
S
GR
GS
[0.60077 0 0 0.6 0 0] CT
0.149 GC
2 setlinecap
1 LJ
0.833 LW
N
117 98.124 M
122.49 98.124 L
S
GR
GS
[0.60077 0 0 0.6 0 0] CT
0.149 GC
2 setlinecap
1 LJ
0.833 LW
N
666 213.873 M
660.51 213.873 L
S
GR
GS
[0.60077 0 0 0.6 0 0] CT
0.149 GC
2 setlinecap
1 LJ
0.833 LW
N
666 98.124 M
660.51 98.124 L
S
GR
GS
[0.60077 0 0 0.6 0 0] CT
0.149 GC
2 setlinecap
1 LJ
0.833 LW
N
117 271.747 M
119.745 271.747 L
S
GR
GS
[0.60077 0 0 0.6 0 0] CT
0.149 GC
2 setlinecap
1 LJ
0.833 LW
N
117 254.325 M
119.745 254.325 L
S
GR
GS
[0.60077 0 0 0.6 0 0] CT
0.149 GC
2 setlinecap
1 LJ
0.833 LW
N
117 244.134 M
119.745 244.134 L
S
GR
GS
[0.60077 0 0 0.6 0 0] CT
0.149 GC
2 setlinecap
1 LJ
0.833 LW
N
117 236.904 M
119.745 236.904 L
S
GR
GS
[0.60077 0 0 0.6 0 0] CT
0.149 GC
2 setlinecap
1 LJ
0.833 LW
N
117 231.295 M
119.745 231.295 L
S
GR
GS
[0.60077 0 0 0.6 0 0] CT
0.149 GC
2 setlinecap
1 LJ
0.833 LW
N
117 226.712 M
119.745 226.712 L
S
GR
GS
[0.60077 0 0 0.6 0 0] CT
0.149 GC
2 setlinecap
1 LJ
0.833 LW
N
117 222.838 M
119.745 222.838 L
S
GR
GS
[0.60077 0 0 0.6 0 0] CT
0.149 GC
2 setlinecap
1 LJ
0.833 LW
N
117 219.482 M
119.745 219.482 L
S
GR
GS
[0.60077 0 0 0.6 0 0] CT
0.149 GC
2 setlinecap
1 LJ
0.833 LW
N
117 216.521 M
119.745 216.521 L
S
GR
GS
[0.60077 0 0 0.6 0 0] CT
0.149 GC
2 setlinecap
1 LJ
0.833 LW
N
117 213.873 M
119.745 213.873 L
S
GR
GS
[0.60077 0 0 0.6 0 0] CT
0.149 GC
2 setlinecap
1 LJ
0.833 LW
N
117 196.451 M
119.745 196.451 L
S
GR
GS
[0.60077 0 0 0.6 0 0] CT
0.149 GC
2 setlinecap
1 LJ
0.833 LW
N
117 186.26 M
119.745 186.26 L
S
GR
GS
[0.60077 0 0 0.6 0 0] CT
0.149 GC
2 setlinecap
1 LJ
0.833 LW
N
117 179.029 M
119.745 179.029 L
S
GR
GS
[0.60077 0 0 0.6 0 0] CT
0.149 GC
2 setlinecap
1 LJ
0.833 LW
N
117 173.421 M
119.745 173.421 L
S
GR
GS
[0.60077 0 0 0.6 0 0] CT
0.149 GC
2 setlinecap
1 LJ
0.833 LW
N
117 168.838 M
119.745 168.838 L
S
GR
GS
[0.60077 0 0 0.6 0 0] CT
0.149 GC
2 setlinecap
1 LJ
0.833 LW
N
117 164.964 M
119.745 164.964 L
S
GR
GS
[0.60077 0 0 0.6 0 0] CT
0.149 GC
2 setlinecap
1 LJ
0.833 LW
N
117 161.607 M
119.745 161.607 L
S
GR
GS
[0.60077 0 0 0.6 0 0] CT
0.149 GC
2 setlinecap
1 LJ
0.833 LW
N
117 158.647 M
119.745 158.647 L
S
GR
GS
[0.60077 0 0 0.6 0 0] CT
0.149 GC
2 setlinecap
1 LJ
0.833 LW
N
117 155.999 M
119.745 155.999 L
S
GR
GS
[0.60077 0 0 0.6 0 0] CT
0.149 GC
2 setlinecap
1 LJ
0.833 LW
N
117 138.577 M
119.745 138.577 L
S
GR
GS
[0.60077 0 0 0.6 0 0] CT
0.149 GC
2 setlinecap
1 LJ
0.833 LW
N
117 128.386 M
119.745 128.386 L
S
GR
GS
[0.60077 0 0 0.6 0 0] CT
0.149 GC
2 setlinecap
1 LJ
0.833 LW
N
117 121.155 M
119.745 121.155 L
S
GR
GS
[0.60077 0 0 0.6 0 0] CT
0.149 GC
2 setlinecap
1 LJ
0.833 LW
N
117 115.546 M
119.745 115.546 L
S
GR
GS
[0.60077 0 0 0.6 0 0] CT
0.149 GC
2 setlinecap
1 LJ
0.833 LW
N
117 110.964 M
119.745 110.964 L
S
GR
GS
[0.60077 0 0 0.6 0 0] CT
0.149 GC
2 setlinecap
1 LJ
0.833 LW
N
117 107.089 M
119.745 107.089 L
S
GR
GS
[0.60077 0 0 0.6 0 0] CT
0.149 GC
2 setlinecap
1 LJ
0.833 LW
N
117 103.733 M
119.745 103.733 L
S
GR
GS
[0.60077 0 0 0.6 0 0] CT
0.149 GC
2 setlinecap
1 LJ
0.833 LW
N
117 100.773 M
119.745 100.773 L
S
GR
GS
[0.60077 0 0 0.6 0 0] CT
0.149 GC
2 setlinecap
1 LJ
0.833 LW
N
117 98.124 M
119.745 98.124 L
S
GR
GS
[0.60077 0 0 0.6 0 0] CT
0.149 GC
2 setlinecap
1 LJ
0.833 LW
N
117 80.703 M
119.745 80.703 L
S
GR
GS
[0.60077 0 0 0.6 0 0] CT
0.149 GC
2 setlinecap
1 LJ
0.833 LW
N
117 70.511 M
119.745 70.511 L
S
GR
GS
[0.60077 0 0 0.6 0 0] CT
0.149 GC
2 setlinecap
1 LJ
0.833 LW
N
117 63.281 M
119.745 63.281 L
S
GR
GS
[0.60077 0 0 0.6 0 0] CT
0.149 GC
2 setlinecap
1 LJ
0.833 LW
N
117 57.672 M
119.745 57.672 L
S
GR
GS
[0.60077 0 0 0.6 0 0] CT
0.149 GC
2 setlinecap
1 LJ
0.833 LW
N
117 53.089 M
119.745 53.089 L
S
GR
GS
[0.60077 0 0 0.6 0 0] CT
0.149 GC
2 setlinecap
1 LJ
0.833 LW
N
117 49.215 M
119.745 49.215 L
S
GR
GS
[0.60077 0 0 0.6 0 0] CT
0.149 GC
2 setlinecap
1 LJ
0.833 LW
N
117 45.859 M
119.745 45.859 L
S
GR
GS
[0.60077 0 0 0.6 0 0] CT
0.149 GC
2 setlinecap
1 LJ
0.833 LW
N
117 42.898 M
119.745 42.898 L
S
GR
GS
[0.60077 0 0 0.6 0 0] CT
0.149 GC
2 setlinecap
1 LJ
0.833 LW
N
117 40.25 M
119.745 40.25 L
S
GR
GS
[0.60077 0 0 0.6 0 0] CT
0.149 GC
2 setlinecap
1 LJ
0.833 LW
N
666 271.747 M
663.255 271.747 L
S
GR
GS
[0.60077 0 0 0.6 0 0] CT
0.149 GC
2 setlinecap
1 LJ
0.833 LW
N
666 254.325 M
663.255 254.325 L
S
GR
GS
[0.60077 0 0 0.6 0 0] CT
0.149 GC
2 setlinecap
1 LJ
0.833 LW
N
666 244.134 M
663.255 244.134 L
S
GR
GS
[0.60077 0 0 0.6 0 0] CT
0.149 GC
2 setlinecap
1 LJ
0.833 LW
N
666 236.904 M
663.255 236.904 L
S
GR
GS
[0.60077 0 0 0.6 0 0] CT
0.149 GC
2 setlinecap
1 LJ
0.833 LW
N
666 231.295 M
663.255 231.295 L
S
GR
GS
[0.60077 0 0 0.6 0 0] CT
0.149 GC
2 setlinecap
1 LJ
0.833 LW
N
666 226.712 M
663.255 226.712 L
S
GR
GS
[0.60077 0 0 0.6 0 0] CT
0.149 GC
2 setlinecap
1 LJ
0.833 LW
N
666 222.838 M
663.255 222.838 L
S
GR
GS
[0.60077 0 0 0.6 0 0] CT
0.149 GC
2 setlinecap
1 LJ
0.833 LW
N
666 219.482 M
663.255 219.482 L
S
GR
GS
[0.60077 0 0 0.6 0 0] CT
0.149 GC
2 setlinecap
1 LJ
0.833 LW
N
666 216.521 M
663.255 216.521 L
S
GR
GS
[0.60077 0 0 0.6 0 0] CT
0.149 GC
2 setlinecap
1 LJ
0.833 LW
N
666 213.873 M
663.255 213.873 L
S
GR
GS
[0.60077 0 0 0.6 0 0] CT
0.149 GC
2 setlinecap
1 LJ
0.833 LW
N
666 196.451 M
663.255 196.451 L
S
GR
GS
[0.60077 0 0 0.6 0 0] CT
0.149 GC
2 setlinecap
1 LJ
0.833 LW
N
666 186.26 M
663.255 186.26 L
S
GR
GS
[0.60077 0 0 0.6 0 0] CT
0.149 GC
2 setlinecap
1 LJ
0.833 LW
N
666 179.029 M
663.255 179.029 L
S
GR
GS
[0.60077 0 0 0.6 0 0] CT
0.149 GC
2 setlinecap
1 LJ
0.833 LW
N
666 173.421 M
663.255 173.421 L
S
GR
GS
[0.60077 0 0 0.6 0 0] CT
0.149 GC
2 setlinecap
1 LJ
0.833 LW
N
666 168.838 M
663.255 168.838 L
S
GR
GS
[0.60077 0 0 0.6 0 0] CT
0.149 GC
2 setlinecap
1 LJ
0.833 LW
N
666 164.964 M
663.255 164.964 L
S
GR
GS
[0.60077 0 0 0.6 0 0] CT
0.149 GC
2 setlinecap
1 LJ
0.833 LW
N
666 161.607 M
663.255 161.607 L
S
GR
GS
[0.60077 0 0 0.6 0 0] CT
0.149 GC
2 setlinecap
1 LJ
0.833 LW
N
666 158.647 M
663.255 158.647 L
S
GR
GS
[0.60077 0 0 0.6 0 0] CT
0.149 GC
2 setlinecap
1 LJ
0.833 LW
N
666 155.999 M
663.255 155.999 L
S
GR
GS
[0.60077 0 0 0.6 0 0] CT
0.149 GC
2 setlinecap
1 LJ
0.833 LW
N
666 138.577 M
663.255 138.577 L
S
GR
GS
[0.60077 0 0 0.6 0 0] CT
0.149 GC
2 setlinecap
1 LJ
0.833 LW
N
666 128.386 M
663.255 128.386 L
S
GR
GS
[0.60077 0 0 0.6 0 0] CT
0.149 GC
2 setlinecap
1 LJ
0.833 LW
N
666 121.155 M
663.255 121.155 L
S
GR
GS
[0.60077 0 0 0.6 0 0] CT
0.149 GC
2 setlinecap
1 LJ
0.833 LW
N
666 115.546 M
663.255 115.546 L
S
GR
GS
[0.60077 0 0 0.6 0 0] CT
0.149 GC
2 setlinecap
1 LJ
0.833 LW
N
666 110.964 M
663.255 110.964 L
S
GR
GS
[0.60077 0 0 0.6 0 0] CT
0.149 GC
2 setlinecap
1 LJ
0.833 LW
N
666 107.089 M
663.255 107.089 L
S
GR
GS
[0.60077 0 0 0.6 0 0] CT
0.149 GC
2 setlinecap
1 LJ
0.833 LW
N
666 103.733 M
663.255 103.733 L
S
GR
GS
[0.60077 0 0 0.6 0 0] CT
0.149 GC
2 setlinecap
1 LJ
0.833 LW
N
666 100.773 M
663.255 100.773 L
S
GR
GS
[0.60077 0 0 0.6 0 0] CT
0.149 GC
2 setlinecap
1 LJ
0.833 LW
N
666 98.124 M
663.255 98.124 L
S
GR
GS
[0.60077 0 0 0.6 0 0] CT
0.149 GC
2 setlinecap
1 LJ
0.833 LW
N
666 80.703 M
663.255 80.703 L
S
GR
GS
[0.60077 0 0 0.6 0 0] CT
0.149 GC
2 setlinecap
1 LJ
0.833 LW
N
666 70.511 M
663.255 70.511 L
S
GR
GS
[0.60077 0 0 0.6 0 0] CT
0.149 GC
2 setlinecap
1 LJ
0.833 LW
N
666 63.281 M
663.255 63.281 L
S
GR
GS
[0.60077 0 0 0.6 0 0] CT
0.149 GC
2 setlinecap
1 LJ
0.833 LW
N
666 57.672 M
663.255 57.672 L
S
GR
GS
[0.60077 0 0 0.6 0 0] CT
0.149 GC
2 setlinecap
1 LJ
0.833 LW
N
666 53.089 M
663.255 53.089 L
S
GR
GS
[0.60077 0 0 0.6 0 0] CT
0.149 GC
2 setlinecap
1 LJ
0.833 LW
N
666 49.215 M
663.255 49.215 L
S
GR
GS
[0.60077 0 0 0.6 0 0] CT
0.149 GC
2 setlinecap
1 LJ
0.833 LW
N
666 45.859 M
663.255 45.859 L
S
GR
GS
[0.60077 0 0 0.6 0 0] CT
0.149 GC
2 setlinecap
1 LJ
0.833 LW
N
666 42.898 M
663.255 42.898 L
S
GR
GS
[0.60077 0 0 0.6 0 0] CT
0.149 GC
2 setlinecap
1 LJ
0.833 LW
N
666 40.25 M
663.255 40.25 L
S
GR
GS
[0.60077 0 0 0.6 51.06522 133.2] CT
0.149 GC
/Helvetica 15.833 F
GS
[1 0 0 1 0 0] CT
0 0 moveto 
1 -1 scale
(10) t 
GR
GR
GS
[0.60077 0 0 0.6 61.87903 129] CT
0.149 GC
/Helvetica 12.667 F
GS
[1 0 0 1 0 0] CT
0 0 moveto 
1 -1 scale
(4) t 
GR
GR
GS
[0.60077 0 0 0.6 51.06522 63.6] CT
0.149 GC
/Helvetica 15.833 F
GS
[1 0 0 1 0 0] CT
0 0 moveto 
1 -1 scale
(10) t 
GR
GR
GS
[0.60077 0 0 0.6 61.87903 59.4] CT
0.149 GC
/Helvetica 12.667 F
GS
[1 0 0 1 0 0] CT
0 0 moveto 
1 -1 scale
(6) t 
GR
GR
GS
[0 -0.6 0.60077 0 41.45294 106.2] CT
0.149 GC
/Helvetica 17.417 F
GS
[1 0 0 1 0 0] CT
0 0 moveto 
1 -1 scale
(|Z) t 
GR
GR
GS
[0 -0.6 0.60077 0 46.25908 96.6] CT
0.149 GC
/Helvetica 13.933 F
GS
[1 0 0 1 0 0] CT
0 0 moveto 
1 -1 scale
(out) t 
GR
GR
GS
[0 -0.6 0.60077 0 41.45294 84.6] CT
0.149 GC
/Helvetica 17.417 F
GS
[1 0 0 1 0 0] CT
0 0 moveto 
1 -1 scale
(|) t 
GR
GR
GS
[0.60077 0 0 0.6 0 0] CT
1 0 0 RC
1 LJ
3.333 LW
N
117 86.986 M
172.088 104.406 L
227.177 121.823 L
244.912 127.428 L
259.402 132.006 L
271.653 135.875 L
291.626 142.18 L
307.575 147.209 L
332.225 154.972 L
372.823 167.723 L
399.564 176.108 L
435.486 187.382 L
460.136 195.135 L
497.49 206.911 L
525.172 215.652 L
S
GR
GS
[0.60077 0 0 0.6 0 0] CT
1 GC
N
117 426 M
666 426 L
666 287 L
117 287 L
cp
f
GR
GS
[0.60077 0 0 0.6 0 0] CT
0.775 GC
[1 3] 0 setdash
2 LJ
0.833 LW
N
172.088 426 M
172.088 287 L
S
GR
GS
[0.60077 0 0 0.6 0 0] CT
0.775 GC
[1 3] 0 setdash
2 LJ
0.833 LW
N
204.313 426 M
204.313 287 L
S
GR
GS
[0.60077 0 0 0.6 0 0] CT
0.775 GC
[1 3] 0 setdash
2 LJ
0.833 LW
N
227.177 426 M
227.177 287 L
S
GR
GS
[0.60077 0 0 0.6 0 0] CT
0.775 GC
[1 3] 0 setdash
2 LJ
0.833 LW
N
244.912 426 M
244.912 287 L
S
GR
GS
[0.60077 0 0 0.6 0 0] CT
0.775 GC
[1 3] 0 setdash
2 LJ
0.833 LW
N
259.402 426 M
259.402 287 L
S
GR
GS
[0.60077 0 0 0.6 0 0] CT
0.775 GC
[1 3] 0 setdash
2 LJ
0.833 LW
N
271.653 426 M
271.653 287 L
S
GR
GS
[0.60077 0 0 0.6 0 0] CT
0.775 GC
[1 3] 0 setdash
2 LJ
0.833 LW
N
282.265 426 M
282.265 287 L
S
GR
GS
[0.60077 0 0 0.6 0 0] CT
0.775 GC
[1 3] 0 setdash
2 LJ
0.833 LW
N
291.626 426 M
291.626 287 L
S
GR
GS
[0.60077 0 0 0.6 0 0] CT
0.775 GC
[1 3] 0 setdash
2 LJ
0.833 LW
N
355.089 426 M
355.089 287 L
S
GR
GS
[0.60077 0 0 0.6 0 0] CT
0.775 GC
[1 3] 0 setdash
2 LJ
0.833 LW
N
387.313 426 M
387.313 287 L
S
GR
GS
[0.60077 0 0 0.6 0 0] CT
0.775 GC
[1 3] 0 setdash
2 LJ
0.833 LW
N
410.177 426 M
410.177 287 L
S
GR
GS
[0.60077 0 0 0.6 0 0] CT
0.775 GC
[1 3] 0 setdash
2 LJ
0.833 LW
N
427.911 426 M
427.911 287 L
S
GR
GS
[0.60077 0 0 0.6 0 0] CT
0.775 GC
[1 3] 0 setdash
2 LJ
0.833 LW
N
442.402 426 M
442.402 287 L
S
GR
GS
[0.60077 0 0 0.6 0 0] CT
0.775 GC
[1 3] 0 setdash
2 LJ
0.833 LW
N
454.653 426 M
454.653 287 L
S
GR
GS
[0.60077 0 0 0.6 0 0] CT
0.775 GC
[1 3] 0 setdash
2 LJ
0.833 LW
N
465.265 426 M
465.265 287 L
S
GR
GS
[0.60077 0 0 0.6 0 0] CT
0.775 GC
[1 3] 0 setdash
2 LJ
0.833 LW
N
474.626 426 M
474.626 287 L
S
GR
GS
[0.60077 0 0 0.6 0 0] CT
0.775 GC
[1 3] 0 setdash
2 LJ
0.833 LW
N
538.089 426 M
538.089 287 L
S
GR
GS
[0.60077 0 0 0.6 0 0] CT
0.775 GC
[1 3] 0 setdash
2 LJ
0.833 LW
N
570.313 426 M
570.313 287 L
S
GR
GS
[0.60077 0 0 0.6 0 0] CT
0.775 GC
[1 3] 0 setdash
2 LJ
0.833 LW
N
593.177 426 M
593.177 287 L
S
GR
GS
[0.60077 0 0 0.6 0 0] CT
0.775 GC
[1 3] 0 setdash
2 LJ
0.833 LW
N
610.911 426 M
610.911 287 L
S
GR
GS
[0.60077 0 0 0.6 0 0] CT
0.775 GC
[1 3] 0 setdash
2 LJ
0.833 LW
N
625.402 426 M
625.402 287 L
S
GR
GS
[0.60077 0 0 0.6 0 0] CT
0.775 GC
[1 3] 0 setdash
2 LJ
0.833 LW
N
637.653 426 M
637.653 287 L
S
GR
GS
[0.60077 0 0 0.6 0 0] CT
0.775 GC
[1 3] 0 setdash
2 LJ
0.833 LW
N
648.265 426 M
648.265 287 L
S
GR
GS
[0.60077 0 0 0.6 0 0] CT
0.775 GC
[1 3] 0 setdash
2 LJ
0.833 LW
N
657.626 426 M
657.626 287 L
S
GR
GS
[0.60077 0 0 0.6 0 0] CT
0.873 GC
1 LJ
0.833 LW
N
117 426 M
117 287 L
S
GR
GS
[0.60077 0 0 0.6 0 0] CT
0.873 GC
1 LJ
0.833 LW
N
300 426 M
300 287 L
S
GR
GS
[0.60077 0 0 0.6 0 0] CT
0.873 GC
1 LJ
0.833 LW
N
483 426 M
483 287 L
S
GR
GS
[0.60077 0 0 0.6 0 0] CT
0.873 GC
1 LJ
0.833 LW
N
666 426 M
666 287 L
S
GR
GS
[0.60077 0 0 0.6 0 0] CT
0.873 GC
1 LJ
0.833 LW
N
666 426 M
117 426 L
S
GR
GS
[0.60077 0 0 0.6 0 0] CT
0.873 GC
1 LJ
0.833 LW
N
666 391.25 M
117 391.25 L
S
GR
GS
[0.60077 0 0 0.6 0 0] CT
0.873 GC
1 LJ
0.833 LW
N
666 356.5 M
117 356.5 L
S
GR
GS
[0.60077 0 0 0.6 0 0] CT
0.873 GC
1 LJ
0.833 LW
N
666 321.75 M
117 321.75 L
S
GR
GS
[0.60077 0 0 0.6 0 0] CT
0.873 GC
1 LJ
0.833 LW
N
666 287 M
117 287 L
S
GR
GS
[0.60077 0 0 0.6 0 0] CT
0.149 GC
2 setlinecap
1 LJ
0.833 LW
N
117 426 M
666 426 L
S
GR
GS
[0.60077 0 0 0.6 0 0] CT
0.149 GC
2 setlinecap
1 LJ
0.833 LW
N
117 287 M
666 287 L
S
GR
GS
[0.60077 0 0 0.6 0 0] CT
0.149 GC
2 setlinecap
1 LJ
0.833 LW
N
117 426 M
117 420.51 L
S
GR
GS
[0.60077 0 0 0.6 0 0] CT
0.149 GC
2 setlinecap
1 LJ
0.833 LW
N
300 426 M
300 420.51 L
S
GR
GS
[0.60077 0 0 0.6 0 0] CT
0.149 GC
2 setlinecap
1 LJ
0.833 LW
N
483 426 M
483 420.51 L
S
GR
GS
[0.60077 0 0 0.6 0 0] CT
0.149 GC
2 setlinecap
1 LJ
0.833 LW
N
666 426 M
666 420.51 L
S
GR
GS
[0.60077 0 0 0.6 0 0] CT
0.149 GC
2 setlinecap
1 LJ
0.833 LW
N
117 287 M
117 292.49 L
S
GR
GS
[0.60077 0 0 0.6 0 0] CT
0.149 GC
2 setlinecap
1 LJ
0.833 LW
N
300 287 M
300 292.49 L
S
GR
GS
[0.60077 0 0 0.6 0 0] CT
0.149 GC
2 setlinecap
1 LJ
0.833 LW
N
483 287 M
483 292.49 L
S
GR
GS
[0.60077 0 0 0.6 0 0] CT
0.149 GC
2 setlinecap
1 LJ
0.833 LW
N
666 287 M
666 292.49 L
S
GR
GS
[0.60077 0 0 0.6 0 0] CT
0.149 GC
2 setlinecap
1 LJ
0.833 LW
N
117 426 M
117 423.255 L
S
GR
GS
[0.60077 0 0 0.6 0 0] CT
0.149 GC
2 setlinecap
1 LJ
0.833 LW
N
172.088 426 M
172.088 423.255 L
S
GR
GS
[0.60077 0 0 0.6 0 0] CT
0.149 GC
2 setlinecap
1 LJ
0.833 LW
N
204.313 426 M
204.313 423.255 L
S
GR
GS
[0.60077 0 0 0.6 0 0] CT
0.149 GC
2 setlinecap
1 LJ
0.833 LW
N
227.177 426 M
227.177 423.255 L
S
GR
GS
[0.60077 0 0 0.6 0 0] CT
0.149 GC
2 setlinecap
1 LJ
0.833 LW
N
244.912 426 M
244.912 423.255 L
S
GR
GS
[0.60077 0 0 0.6 0 0] CT
0.149 GC
2 setlinecap
1 LJ
0.833 LW
N
259.402 426 M
259.402 423.255 L
S
GR
GS
[0.60077 0 0 0.6 0 0] CT
0.149 GC
2 setlinecap
1 LJ
0.833 LW
N
271.653 426 M
271.653 423.255 L
S
GR
GS
[0.60077 0 0 0.6 0 0] CT
0.149 GC
2 setlinecap
1 LJ
0.833 LW
N
282.265 426 M
282.265 423.255 L
S
GR
GS
[0.60077 0 0 0.6 0 0] CT
0.149 GC
2 setlinecap
1 LJ
0.833 LW
N
291.626 426 M
291.626 423.255 L
S
GR
GS
[0.60077 0 0 0.6 0 0] CT
0.149 GC
2 setlinecap
1 LJ
0.833 LW
N
300 426 M
300 423.255 L
S
GR
GS
[0.60077 0 0 0.6 0 0] CT
0.149 GC
2 setlinecap
1 LJ
0.833 LW
N
355.089 426 M
355.089 423.255 L
S
GR
GS
[0.60077 0 0 0.6 0 0] CT
0.149 GC
2 setlinecap
1 LJ
0.833 LW
N
387.313 426 M
387.313 423.255 L
S
GR
GS
[0.60077 0 0 0.6 0 0] CT
0.149 GC
2 setlinecap
1 LJ
0.833 LW
N
410.177 426 M
410.177 423.255 L
S
GR
GS
[0.60077 0 0 0.6 0 0] CT
0.149 GC
2 setlinecap
1 LJ
0.833 LW
N
427.911 426 M
427.911 423.255 L
S
GR
GS
[0.60077 0 0 0.6 0 0] CT
0.149 GC
2 setlinecap
1 LJ
0.833 LW
N
442.402 426 M
442.402 423.255 L
S
GR
GS
[0.60077 0 0 0.6 0 0] CT
0.149 GC
2 setlinecap
1 LJ
0.833 LW
N
454.653 426 M
454.653 423.255 L
S
GR
GS
[0.60077 0 0 0.6 0 0] CT
0.149 GC
2 setlinecap
1 LJ
0.833 LW
N
465.265 426 M
465.265 423.255 L
S
GR
GS
[0.60077 0 0 0.6 0 0] CT
0.149 GC
2 setlinecap
1 LJ
0.833 LW
N
474.626 426 M
474.626 423.255 L
S
GR
GS
[0.60077 0 0 0.6 0 0] CT
0.149 GC
2 setlinecap
1 LJ
0.833 LW
N
483 426 M
483 423.255 L
S
GR
GS
[0.60077 0 0 0.6 0 0] CT
0.149 GC
2 setlinecap
1 LJ
0.833 LW
N
538.089 426 M
538.089 423.255 L
S
GR
GS
[0.60077 0 0 0.6 0 0] CT
0.149 GC
2 setlinecap
1 LJ
0.833 LW
N
570.313 426 M
570.313 423.255 L
S
GR
GS
[0.60077 0 0 0.6 0 0] CT
0.149 GC
2 setlinecap
1 LJ
0.833 LW
N
593.177 426 M
593.177 423.255 L
S
GR
GS
[0.60077 0 0 0.6 0 0] CT
0.149 GC
2 setlinecap
1 LJ
0.833 LW
N
610.911 426 M
610.911 423.255 L
S
GR
GS
[0.60077 0 0 0.6 0 0] CT
0.149 GC
2 setlinecap
1 LJ
0.833 LW
N
625.402 426 M
625.402 423.255 L
S
GR
GS
[0.60077 0 0 0.6 0 0] CT
0.149 GC
2 setlinecap
1 LJ
0.833 LW
N
637.653 426 M
637.653 423.255 L
S
GR
GS
[0.60077 0 0 0.6 0 0] CT
0.149 GC
2 setlinecap
1 LJ
0.833 LW
N
648.265 426 M
648.265 423.255 L
S
GR
GS
[0.60077 0 0 0.6 0 0] CT
0.149 GC
2 setlinecap
1 LJ
0.833 LW
N
657.626 426 M
657.626 423.255 L
S
GR
GS
[0.60077 0 0 0.6 0 0] CT
0.149 GC
2 setlinecap
1 LJ
0.833 LW
N
666 426 M
666 423.255 L
S
GR
GS
[0.60077 0 0 0.6 0 0] CT
0.149 GC
2 setlinecap
1 LJ
0.833 LW
N
117 287 M
117 289.745 L
S
GR
GS
[0.60077 0 0 0.6 0 0] CT
0.149 GC
2 setlinecap
1 LJ
0.833 LW
N
172.088 287 M
172.088 289.745 L
S
GR
GS
[0.60077 0 0 0.6 0 0] CT
0.149 GC
2 setlinecap
1 LJ
0.833 LW
N
204.313 287 M
204.313 289.745 L
S
GR
GS
[0.60077 0 0 0.6 0 0] CT
0.149 GC
2 setlinecap
1 LJ
0.833 LW
N
227.177 287 M
227.177 289.745 L
S
GR
GS
[0.60077 0 0 0.6 0 0] CT
0.149 GC
2 setlinecap
1 LJ
0.833 LW
N
244.912 287 M
244.912 289.745 L
S
GR
GS
[0.60077 0 0 0.6 0 0] CT
0.149 GC
2 setlinecap
1 LJ
0.833 LW
N
259.402 287 M
259.402 289.745 L
S
GR
GS
[0.60077 0 0 0.6 0 0] CT
0.149 GC
2 setlinecap
1 LJ
0.833 LW
N
271.653 287 M
271.653 289.745 L
S
GR
GS
[0.60077 0 0 0.6 0 0] CT
0.149 GC
2 setlinecap
1 LJ
0.833 LW
N
282.265 287 M
282.265 289.745 L
S
GR
GS
[0.60077 0 0 0.6 0 0] CT
0.149 GC
2 setlinecap
1 LJ
0.833 LW
N
291.626 287 M
291.626 289.745 L
S
GR
GS
[0.60077 0 0 0.6 0 0] CT
0.149 GC
2 setlinecap
1 LJ
0.833 LW
N
300 287 M
300 289.745 L
S
GR
GS
[0.60077 0 0 0.6 0 0] CT
0.149 GC
2 setlinecap
1 LJ
0.833 LW
N
355.089 287 M
355.089 289.745 L
S
GR
GS
[0.60077 0 0 0.6 0 0] CT
0.149 GC
2 setlinecap
1 LJ
0.833 LW
N
387.313 287 M
387.313 289.745 L
S
GR
GS
[0.60077 0 0 0.6 0 0] CT
0.149 GC
2 setlinecap
1 LJ
0.833 LW
N
410.177 287 M
410.177 289.745 L
S
GR
GS
[0.60077 0 0 0.6 0 0] CT
0.149 GC
2 setlinecap
1 LJ
0.833 LW
N
427.911 287 M
427.911 289.745 L
S
GR
GS
[0.60077 0 0 0.6 0 0] CT
0.149 GC
2 setlinecap
1 LJ
0.833 LW
N
442.402 287 M
442.402 289.745 L
S
GR
GS
[0.60077 0 0 0.6 0 0] CT
0.149 GC
2 setlinecap
1 LJ
0.833 LW
N
454.653 287 M
454.653 289.745 L
S
GR
GS
[0.60077 0 0 0.6 0 0] CT
0.149 GC
2 setlinecap
1 LJ
0.833 LW
N
465.265 287 M
465.265 289.745 L
S
GR
GS
[0.60077 0 0 0.6 0 0] CT
0.149 GC
2 setlinecap
1 LJ
0.833 LW
N
474.626 287 M
474.626 289.745 L
S
GR
GS
[0.60077 0 0 0.6 0 0] CT
0.149 GC
2 setlinecap
1 LJ
0.833 LW
N
483 287 M
483 289.745 L
S
GR
GS
[0.60077 0 0 0.6 0 0] CT
0.149 GC
2 setlinecap
1 LJ
0.833 LW
N
538.089 287 M
538.089 289.745 L
S
GR
GS
[0.60077 0 0 0.6 0 0] CT
0.149 GC
2 setlinecap
1 LJ
0.833 LW
N
570.313 287 M
570.313 289.745 L
S
GR
GS
[0.60077 0 0 0.6 0 0] CT
0.149 GC
2 setlinecap
1 LJ
0.833 LW
N
593.177 287 M
593.177 289.745 L
S
GR
GS
[0.60077 0 0 0.6 0 0] CT
0.149 GC
2 setlinecap
1 LJ
0.833 LW
N
610.911 287 M
610.911 289.745 L
S
GR
GS
[0.60077 0 0 0.6 0 0] CT
0.149 GC
2 setlinecap
1 LJ
0.833 LW
N
625.402 287 M
625.402 289.745 L
S
GR
GS
[0.60077 0 0 0.6 0 0] CT
0.149 GC
2 setlinecap
1 LJ
0.833 LW
N
637.653 287 M
637.653 289.745 L
S
GR
GS
[0.60077 0 0 0.6 0 0] CT
0.149 GC
2 setlinecap
1 LJ
0.833 LW
N
648.265 287 M
648.265 289.745 L
S
GR
GS
[0.60077 0 0 0.6 0 0] CT
0.149 GC
2 setlinecap
1 LJ
0.833 LW
N
657.626 287 M
657.626 289.745 L
S
GR
GS
[0.60077 0 0 0.6 0 0] CT
0.149 GC
2 setlinecap
1 LJ
0.833 LW
N
666 287 M
666 289.745 L
S
GR
GS
[0.60077 0 0 0.6 63.08057 269.4] CT
0.149 GC
/Helvetica 14.167 F
GS
[1 0 0 1 0 0] CT
0 0 moveto 
1 -1 scale
(10) t 
GR
GR
GS
[0.60077 0 0 0.6 72.69284 265.2] CT
0.149 GC
/Helvetica 11.333 F
GS
[1 0 0 1 0 0] CT
0 0 moveto 
1 -1 scale
(1) t 
GR
GR
GS
[0.60077 0 0 0.6 173.02098 269.4] CT
0.149 GC
/Helvetica 14.167 F
GS
[1 0 0 1 0 0] CT
0 0 moveto 
1 -1 scale
(10) t 
GR
GR
GS
[0.60077 0 0 0.6 182.63326 265.2] CT
0.149 GC
/Helvetica 11.333 F
GS
[1 0 0 1 0 0] CT
0 0 moveto 
1 -1 scale
(2) t 
GR
GR
GS
[0.60077 0 0 0.6 282.96139 269.4] CT
0.149 GC
/Helvetica 14.167 F
GS
[1 0 0 1 0 0] CT
0 0 moveto 
1 -1 scale
(10) t 
GR
GR
GS
[0.60077 0 0 0.6 292.57367 265.2] CT
0.149 GC
/Helvetica 11.333 F
GS
[1 0 0 1 0 0] CT
0 0 moveto 
1 -1 scale
(3) t 
GR
GR
GS
[0.60077 0 0 0.6 392.90181 269.4] CT
0.149 GC
/Helvetica 14.167 F
GS
[1 0 0 1 0 0] CT
0 0 moveto 
1 -1 scale
(10) t 
GR
GR
GS
[0.60077 0 0 0.6 402.51408 265.2] CT
0.149 GC
/Helvetica 11.333 F
GS
[1 0 0 1 0 0] CT
0 0 moveto 
1 -1 scale
(4) t 
GR
GR
GS
[0.60077 0 0 0.6 235.20056 271.85001] CT
0.149 GC
/Helvetica 15.583 F
GS
[1 0 0 1 0 0] CT
-19.5 16 moveto 
1 -1 scale
(f \(Hz\)) t 
GR
GR
GS
[0.60077 0 0 0.6 0 0] CT
0.149 GC
2 setlinecap
1 LJ
0.833 LW
N
117 426 M
117 287 L
S
GR
GS
[0.60077 0 0 0.6 0 0] CT
0.149 GC
2 setlinecap
1 LJ
0.833 LW
N
666 426 M
666 287 L
S
GR
GS
[0.60077 0 0 0.6 0 0] CT
0.149 GC
2 setlinecap
1 LJ
0.833 LW
N
117 426 M
122.49 426 L
S
GR
GS
[0.60077 0 0 0.6 0 0] CT
0.149 GC
2 setlinecap
1 LJ
0.833 LW
N
117 391.25 M
122.49 391.25 L
S
GR
GS
[0.60077 0 0 0.6 0 0] CT
0.149 GC
2 setlinecap
1 LJ
0.833 LW
N
117 356.5 M
122.49 356.5 L
S
GR
GS
[0.60077 0 0 0.6 0 0] CT
0.149 GC
2 setlinecap
1 LJ
0.833 LW
N
117 321.75 M
122.49 321.75 L
S
GR
GS
[0.60077 0 0 0.6 0 0] CT
0.149 GC
2 setlinecap
1 LJ
0.833 LW
N
117 287 M
122.49 287 L
S
GR
GS
[0.60077 0 0 0.6 0 0] CT
0.149 GC
2 setlinecap
1 LJ
0.833 LW
N
666 426 M
660.51 426 L
S
GR
GS
[0.60077 0 0 0.6 0 0] CT
0.149 GC
2 setlinecap
1 LJ
0.833 LW
N
666 391.25 M
660.51 391.25 L
S
GR
GS
[0.60077 0 0 0.6 0 0] CT
0.149 GC
2 setlinecap
1 LJ
0.833 LW
N
666 356.5 M
660.51 356.5 L
S
GR
GS
[0.60077 0 0 0.6 0 0] CT
0.149 GC
2 setlinecap
1 LJ
0.833 LW
N
666 321.75 M
660.51 321.75 L
S
GR
GS
[0.60077 0 0 0.6 0 0] CT
0.149 GC
2 setlinecap
1 LJ
0.833 LW
N
666 287 M
660.51 287 L
S
GR
GS
[0.60077 0 0 0.6 68.08696 255.6] CT
0.149 GC
/Helvetica 14.167 F
GS
[1 0 0 1 0 0] CT
-21 5.5 moveto 
1 -1 scale
(-95) t 
GR
GR
GS
[0.60077 0 0 0.6 68.08696 234.75] CT
0.149 GC
/Helvetica 14.167 F
GS
[1 0 0 1 0 0] CT
-21 5.5 moveto 
1 -1 scale
(-90) t 
GR
GR
GS
[0.60077 0 0 0.6 68.08696 213.9] CT
0.149 GC
/Helvetica 14.167 F
GS
[1 0 0 1 0 0] CT
-21 5.5 moveto 
1 -1 scale
(-85) t 
GR
GR
GS
[0.60077 0 0 0.6 68.08696 193.05] CT
0.149 GC
/Helvetica 14.167 F
GS
[1 0 0 1 0 0] CT
-21 5.5 moveto 
1 -1 scale
(-80) t 
GR
GR
GS
[0.60077 0 0 0.6 68.08696 172.2] CT
0.149 GC
/Helvetica 14.167 F
GS
[1 0 0 1 0 0] CT
-21 5.5 moveto 
1 -1 scale
(-75) t 
GR
GR
GS
[0 -0.6 0.60077 0 51.66599 229.2] CT
0.149 GC
N
3.109 3.125 M
3.828 0.234 L
3.016 0.234 2.313 -0.148 QT
1.609 -0.531 1.18 -1.211 QT
0.75 -1.891 0.75 -2.688 QT
0.75 -3.563 1.18 -4.352 QT
1.609 -5.141 2.359 -5.781 QT
3.109 -6.422 3.969 -6.773 QT
4.828 -7.125 5.672 -7.125 QT
6.625 -11.016 L
6.656 -11.109 6.75 -11.109 QT
6.953 -11.109 L
7.016 -11.109 7.055 -11.055 QT
7.094 -11 7.094 -10.953 QT
6.125 -7.125 L
6.734 -7.125 7.297 -6.906 QT
7.859 -6.688 8.289 -6.289 QT
8.719 -5.891 8.961 -5.359 QT
9.203 -4.828 9.203 -4.219 QT
9.203 -3.344 8.773 -2.555 QT
8.344 -1.766 7.617 -1.133 QT
6.891 -0.5 6 -0.133 QT
5.109 0.234 4.297 0.234 QT
3.563 3.188 L
3.531 3.281 3.422 3.281 QT
3.234 3.281 L
3.172 3.281 3.141 3.227 QT
3.109 3.172 3.109 3.125 QT
cp
3.922 -0.203 M
5.563 -6.703 L
5.156 -6.703 4.711 -6.539 QT
4.266 -6.375 3.867 -6.125 QT
3.469 -5.875 3.156 -5.563 QT
2.766 -5.172 2.469 -4.641 QT
2.172 -4.109 2.016 -3.516 QT
1.859 -2.922 1.859 -2.359 QT
1.859 -1.75 2.117 -1.258 QT
2.375 -0.766 2.844 -0.484 QT
3.313 -0.203 3.922 -0.203 QT
cp
4.406 -0.203 M
5 -0.203 5.68 -0.547 QT
6.359 -0.891 6.797 -1.344 QT
7.406 -1.938 7.75 -2.805 QT
8.094 -3.672 8.094 -4.547 QT
8.094 -5.141 7.836 -5.641 QT
7.578 -6.141 7.109 -6.422 QT
6.641 -6.703 6.031 -6.703 QT
4.406 -0.203 L
cp
f
GR
GS
[0 -0.6 0.60077 0 51.66599 223.2] CT
0.149 GC
/Helvetica 15.583 F
GS
[1 0 0 1 0 0] CT
0 0 moveto 
1 -1 scale
( \(deg\)) t 
GR
GR
GS
[0.60077 0 0 0.6 0 0] CT
1 0 0 RC
1 LJ
3.333 LW
N
117 391.032 M
172.088 390.815 L
227.177 390.391 L
244.912 390.186 L
259.402 389.987 L
271.653 389.794 L
291.626 389.434 L
307.575 389.11 L
332.225 388.581 L
372.823 387.9 L
399.564 387.828 L
435.486 388.28 L
460.136 388.791 L
497.49 389.558 L
525.172 390.016 L
S
GR
%%Trailer
%%Pages: 1
%%EOF
