x-axis,1
second,Volt
-199.999600065,1.1809
-199.899600065,1.17462
-199.799600065,1.17085
-199.699600065,1.16583
-199.599600065,1.15829
-199.499600065,1.15327
-199.399600065,1.1495
-199.299600065,1.14447
-199.199600065,1.13819
-199.099600065,1.13191
-198.999600065,1.12814
-198.899600065,1.12186
-198.799600065,1.11432
-198.699600065,1.11055
-198.599600065,1.10553
-198.499600065,1.09925
-198.399600065,1.09296
-198.299600065,1.09045
-198.199600065,1.08543
-198.099600065,1.07915
-197.999600065,1.07286
-197.899600065,1.07035
-197.799600065,1.06533
-197.699600065,1.05905
-197.599600065,1.05276
-197.499600065,1.049
-197.399600065,1.04271
-197.299600065,1.03643
-197.199600065,1.03141
-197.099600065,1.02638
-196.999600065,1.0201
-196.899600065,1.01382
-196.799600065,1.01005
-196.699600065,1.00503
-196.599600065,0.998744
-196.499600065,0.992462
-196.399600065,0.988693
-196.299600065,0.984925
-196.199600065,0.977387
-196.099600065,0.972362
-195.999600065,0.968593
-195.899600065,0.964824
-195.799600065,0.957286
-195.699600065,0.952261
-195.599600065,0.948492
-195.499600065,0.943467
-195.399600065,0.937186
-195.299600065,0.932161
-195.199600065,0.928392
-195.099600065,0.924623
-194.999600065,0.918342
-194.899600065,0.913317
-194.799600065,0.909548
-194.699600065,0.905779
-194.599600065,0.899497
-194.499600065,0.893216
-194.399600065,0.889447
-194.299600065,0.886935
-194.199600065,0.880653
-194.099600065,0.874372
-193.999600065,0.870603
-193.899600065,0.866834
-193.799600065,0.861809
-193.699600065,0.855528
-193.599600065,0.850502
-193.499600065,0.845477
-193.399600065,0.839196
-193.299600065,0.832915
-193.199600065,0.829146
-193.099600065,0.826633
-192.999600065,0.821608
-192.899600065,0.81407
-192.799600065,0.810301
-192.699600065,0.807789
-192.599600065,0.80402
-192.499600065,0.797739
-192.399600065,0.791457
-192.299600065,0.787688
-192.199600065,0.782663
-192.099600065,0.776382
-191.999600065,0.7701
-191.899600065,0.766332
-191.799600065,0.762563
-191.699600065,0.756281
-191.599600065,0.751256
-191.499600065,0.747487
-191.399600065,0.743719
-191.299600065,0.737437
-191.199600065,0.731156
-191.099600065,0.728643
-190.999600065,0.724874
-190.899600065,0.718593
-190.799600065,0.713568
-190.699600065,0.708543
-190.599600065,0.704774
-190.499600065,0.698492
-190.399600065,0.692211
-190.299600065,0.688442
-190.199600065,0.68593
-190.099600065,0.680905
-189.999600065,0.674623
-189.899600065,0.669598
-189.799600065,0.667085
-189.699600065,0.66206
-189.599600065,0.655779
-189.499600065,0.650754
-189.399600065,0.646985
-189.299600065,0.643216
-189.199600065,0.636935
-189.099600065,0.63191
-188.999600065,0.628141
-188.899600065,0.624372
-188.799600065,0.619347
-188.699600065,0.613065
-188.599600065,0.60804
-188.499600065,0.605528
-188.399600065,0.600502
-188.299600065,0.594221
-188.199600065,0.589196
-188.099600065,0.585427
-187.999600065,0.582915
-187.899600065,0.576633
-187.799600065,0.570352
-187.699600065,0.566583
-187.599600065,0.562814
-187.499600065,0.556533
-187.399600065,0.551508
-187.299600065,0.547739
-187.199600065,0.54397
-187.099600065,0.537688
-186.999600065,0.531407
-186.899600065,0.527638
-186.799600065,0.525126
-186.699600065,0.521357
-186.599600065,0.515075
-186.499600065,0.508794
-186.399600065,0.506281
-186.299600065,0.502513
-186.199600065,0.496231
-186.099600065,0.491206
-185.999600065,0.486181
-185.899600065,0.482412
-185.799600065,0.477387
-185.699600065,0.471106
-185.599600065,0.467337
-185.499600065,0.463568
-185.399600065,0.457286
-185.299600065,0.451005
-185.199600065,0.447236
-185.099600065,0.444724
-184.999600065,0.439698
-184.899600065,0.433417
-184.799600065,0.428392
-184.699600065,0.425879
-184.599600065,0.422111
-184.499600065,0.417085
-184.399600065,0.410804
-184.299600065,0.407035
-184.199600065,0.403266
-184.099600065,0.398241
-183.999600065,0.39196
-183.899600065,0.386935
-183.799600065,0.383166
-183.699600065,0.378141
-183.599600065,0.373116
-183.499600065,0.36809
-183.399600065,0.365578
-183.299600065,0.361809
-183.199600065,0.356784
-183.099600065,0.350503
-182.999600065,0.346734
-182.899600065,0.342965
-182.799600065,0.339196
-182.699600065,0.332915
-182.599600065,0.327889
-182.499600065,0.325377
-182.399600065,0.321608
-182.299600065,0.316583
-182.199600065,0.309045
-182.099600065,0.305276
-181.999600065,0.301508
-181.899600065,0.295226
-181.799600065,0.290201
-181.699600065,0.286432
-181.599600065,0.282663
-181.499600065,0.278894
-181.399600065,0.272613
-181.299600065,0.267588
-181.199600065,0.265075
-181.099600065,0.261307
-180.999600065,0.256281
-180.899600065,0.25
-180.799600065,0.246231
-180.699600065,0.243719
-180.599600065,0.238693
-180.499600065,0.232412
-180.399600065,0.227387
-180.299600065,0.224874
-180.199600065,0.221106
-180.099600065,0.214824
-179.999600065,0.209799
-179.899600065,0.20603
-179.799600065,0.202261
-179.699600065,0.197236
-179.599600065,0.190955
-179.499600065,0.18593
-179.399600065,0.183417
-179.299600065,0.179648
-179.199600065,0.173367
-179.099600065,0.168342
-178.999600065,0.164573
-178.899600065,0.16206
-178.799600065,0.157035
-178.699600065,0.150754
-178.599600065,0.146985
-178.499600065,0.143216
-178.399600065,0.139447
-178.299600065,0.133166
-178.199600065,0.128141
-178.099600065,0.124372
-177.999600065,0.120603
-177.899600065,0.114322
-177.799600065,0.10804
-177.699600065,0.104271
-177.599600065,0.101759
-177.499600065,0.0967337
-177.399600065,0.0904523
-177.299600065,0.0854271
-177.199600065,0.0829146
-177.099600065,0.0791457
-176.999600065,0.0728643
-176.899600065,0.0678392
-176.799600065,0.0628141
-176.699600065,0.0590452
-176.599600065,0.0527638
-176.499600065,0.0477387
-176.399600065,0.0439698
-176.299600065,0.0414573
-176.199600065,0.0376884
-176.099600065,0.031407
-175.999600065,0.0263819
-175.899600065,0.0238693
-175.799600065,0.0201005
-175.699600065,0.0163317
-175.599600065,0.0100503
-175.499600065,0.00502513
-175.399600065,0.00251256
-175.299600065,-0.00251256
-175.199600065,-0.00753769
-175.099600065,-0.0125628
-174.999600065,-0.0163317
-174.899600065,-0.0188442
-174.799600065,-0.0238693
-174.699600065,-0.0301508
-174.599600065,-0.0339196
-174.499600065,-0.0376884
-174.399600065,-0.0414573
-174.299600065,-0.0464824
-174.199600065,-0.0515075
-174.099600065,-0.0552764
-173.999600065,-0.0590452
-173.899600065,-0.0628141
-173.799600065,-0.0690955
-173.699600065,-0.0741206
-173.599600065,-0.0778894
-173.499600065,-0.0816583
-173.399600065,-0.0866834
-173.299600065,-0.0929648
-173.199600065,-0.0967337
-173.099600065,-0.100503
-172.999600065,-0.105528
-172.899600065,-0.110553
-172.799600065,-0.115578
-172.699600065,-0.11809
-172.599600065,-0.123116
-172.499600065,-0.128141
-172.399600065,-0.133166
-172.299600065,-0.136935
-172.199600065,-0.140704
-172.099600065,-0.145729
-171.999600065,-0.15201
-171.899600065,-0.155779
-171.799600065,-0.159548
-171.699600065,-0.163317
-171.599600065,-0.169598
-171.499600065,-0.175879
-171.399600065,-0.178392
-171.299600065,-0.182161
-171.199600065,-0.187186
-171.099600065,-0.193467
-170.999600065,-0.197236
-170.899600065,-0.199749
-170.799600065,-0.203518
-170.699600065,-0.209799
-170.599600065,-0.214824
-170.499600065,-0.218593
-170.399600065,-0.221106
-170.299600065,-0.227387
-170.199600065,-0.232412
-170.099600065,-0.237437
-169.999600065,-0.241206
-169.899600065,-0.246231
-169.799600065,-0.252513
-169.699600065,-0.256281
-169.599600065,-0.26005
-169.499600065,-0.266332
-169.399600065,-0.271357
-169.299600065,-0.276382
-169.199600065,-0.278894
-169.099600065,-0.282663
-168.999600065,-0.288945
-168.899600065,-0.29397
-168.799600065,-0.297739
-168.699600065,-0.301508
-168.599600065,-0.306533
-168.499600065,-0.311558
-168.399600065,-0.316583
-168.299600065,-0.320352
-168.199600065,-0.324121
-168.099600065,-0.330402
-167.999600065,-0.335427
-167.899600065,-0.339196
-167.799600065,-0.344221
-167.699600065,-0.350503
-167.599600065,-0.355528
-167.499600065,-0.359296
-167.399600065,-0.363065
-167.299600065,-0.36809
-167.199600065,-0.373116
-167.099600065,-0.378141
-166.999600065,-0.380653
-166.899600065,-0.384422
-166.799600065,-0.389447
-166.699600065,-0.395729
-166.599600065,-0.399497
-166.499600065,-0.40201
-166.399600065,-0.407035
-166.299600065,-0.413317
-166.199600065,-0.417085
-166.099600065,-0.420854
-165.999600065,-0.424623
-165.899600065,-0.430905
-165.799600065,-0.43593
-165.699600065,-0.439698
-165.599600065,-0.443467
-165.499600065,-0.448492
-165.399600065,-0.454774
-165.299600065,-0.458543
-165.199600065,-0.462312
-165.099600065,-0.467337
-164.999600065,-0.473618
-164.899600065,-0.478643
-164.799600065,-0.481156
-164.699600065,-0.486181
-164.599600065,-0.491206
-164.499600065,-0.496231
-164.399600065,-0.5
-164.299600065,-0.505025
-164.199600065,-0.51005
-164.099600065,-0.516332
-163.999600065,-0.5201
-163.899600065,-0.522613
-163.799600065,-0.528894
-163.699600065,-0.535176
-163.599600065,-0.538945
-163.499600065,-0.542714
-163.399600065,-0.547739
-163.299600065,-0.55402
-163.199600065,-0.559045
-163.099600065,-0.561558
-162.999600065,-0.566583
-162.899600065,-0.572864
-162.799600065,-0.577889
-162.699600065,-0.581658
-162.599600065,-0.585427
-162.499600065,-0.591709
-162.399600065,-0.596734
-162.299600065,-0.600502
-162.199600065,-0.603015
-162.099600065,-0.609297
-161.999600065,-0.614322
-161.899600065,-0.619347
-161.799600065,-0.621859
-161.699600065,-0.626884
-161.599600065,-0.633166
-161.499600065,-0.638191
-161.399600065,-0.64196
-161.299600065,-0.646985
-161.199600065,-0.653266
-161.099600065,-0.658291
-160.999600065,-0.66206
-160.899600065,-0.665829
-160.799600065,-0.672111
-160.699600065,-0.677136
-160.599600065,-0.680905
-160.499600065,-0.683417
-160.399600065,-0.688442
-160.299600065,-0.694724
-160.199600065,-0.699749
-160.099600065,-0.702261
-159.999600065,-0.707286
-159.899600065,-0.713568
-159.799600065,-0.718593
-159.699600065,-0.722362
-159.599600065,-0.726131
-159.499600065,-0.732412
-159.399600065,-0.738693
-159.299600065,-0.742462
-159.199600065,-0.746231
-159.099600065,-0.752513
-158.999600065,-0.758794
-158.899600065,-0.761307
-158.799600065,-0.765075
-158.699600065,-0.7701
-158.599600065,-0.776382
-158.499600065,-0.780151
-158.399600065,-0.78392
-158.299600065,-0.788945
-158.199600065,-0.795226
-158.099600065,-0.800251
-157.999600065,-0.802764
-157.899600065,-0.807789
-157.799600065,-0.81407
-157.699600065,-0.819095
-157.599600065,-0.824121
-157.499600065,-0.829146
-157.399600065,-0.835427
-157.299600065,-0.840452
-157.199600065,-0.842965
-157.099600065,-0.84799
-156.999600065,-0.853015
-156.899600065,-0.859297
-156.799600065,-0.863065
-156.699600065,-0.86809
-156.599600065,-0.873116
-156.499600065,-0.879397
-156.399600065,-0.883166
-156.299600065,-0.885678
-156.199600065,-0.89196
-156.099600065,-0.898241
-155.999600065,-0.90201
-155.899600065,-0.905779
-155.799600065,-0.91206
-155.699600065,-0.918342
-155.599600065,-0.923367
-155.499600065,-0.927136
-155.399600065,-0.933417
-155.299600065,-0.939698
-155.199600065,-0.943467
-155.099600065,-0.947236
-154.999600065,-0.954774
-154.899600065,-0.959799
-154.799600065,-0.963568
-154.699600065,-0.968593
-154.599600065,-0.974874
-154.499600065,-0.979899
-154.399600065,-0.983668
-154.299600065,-0.988693
-154.199600065,-0.994975
-154.099600065,-1
-153.999600065,-1.00377
-153.899600065,-1.00879
-153.799600065,-1.01633
-153.699600065,-1.02136
-153.599600065,-1.02513
-153.499600065,-1.02889
-153.399600065,-1.03643
-153.299600065,-1.04146
-153.199600065,-1.04397
-153.099600065,-1.049
-152.999600065,-1.05653
-152.899600065,-1.06156
-152.799600065,-1.06658
-152.699600065,-1.07286
-152.599600065,-1.07915
-152.499600065,-1.08291
-152.399600065,-1.08794
-152.299600065,-1.09422
-152.199600065,-1.1005
-152.099600065,-1.10427
-151.999600065,-1.1093
-151.899600065,-1.11558
-151.799600065,-1.12186
-151.699600065,-1.12437
-151.599600065,-1.1294
-151.499600065,-1.13568
-151.399600065,-1.14196
-151.299600065,-1.14573
-151.199600065,-1.1495
-151.099600065,-1.15578
-150.999600065,-1.16206
-150.899600065,-1.16709
-150.799600065,-1.17337
-150.699600065,-1.17965
-150.599600065,-1.18467
-150.499600065,-1.18844
-150.399600065,-1.19598
-150.299600065,-1.20226
-150.199600065,-1.20477
-150.099600065,-1.20352
-149.999600065,-1.19849
-149.899600065,-1.19347
-149.799600065,-1.18844
-149.699600065,-1.18467
-149.599600065,-1.17965
-149.499600065,-1.17211
-149.399600065,-1.16709
-149.299600065,-1.16332
-149.199600065,-1.15704
-149.099600065,-1.15075
-148.999600065,-1.14447
-148.899600065,-1.1407
-148.799600065,-1.13442
-148.699600065,-1.12814
-148.599600065,-1.12437
-148.499600065,-1.1206
-148.399600065,-1.11432
-148.299600065,-1.10804
-148.199600065,-1.10427
-148.099600065,-1.09925
-147.999600065,-1.09296
-147.899600065,-1.08668
-147.799600065,-1.08291
-147.699600065,-1.07789
-147.599600065,-1.07161
-147.499600065,-1.06533
-147.399600065,-1.06156
-147.299600065,-1.05528
-147.199600065,-1.04774
-147.099600065,-1.04397
-146.999600065,-1.0402
-146.899600065,-1.03392
-146.799600065,-1.02764
-146.699600065,-1.02387
-146.599600065,-1.0201
-146.499600065,-1.01382
-146.399600065,-1.00754
-146.299600065,-1.00251
-146.199600065,-0.998744
-146.099600065,-0.991206
-145.999600065,-0.986181
-145.899600065,-0.982412
-145.799600065,-0.978643
-145.699600065,-0.972362
-145.599600065,-0.96608
-145.499600065,-0.962312
-145.399600065,-0.957286
-145.299600065,-0.951005
-145.199600065,-0.944724
-145.099600065,-0.940955
-144.999600065,-0.937186
-144.899600065,-0.930905
-144.799600065,-0.924623
-144.699600065,-0.920854
-144.599600065,-0.914573
-144.499600065,-0.908291
-144.399600065,-0.903266
-144.299600065,-0.899497
-144.199600065,-0.894472
-144.099600065,-0.888191
-143.999600065,-0.883166
-143.899600065,-0.880653
-143.799600065,-0.875628
-143.699600065,-0.869347
-143.599600065,-0.864322
-143.499600065,-0.860553
-143.399600065,-0.855528
-143.299600065,-0.849246
-143.199600065,-0.844221
-143.099600065,-0.841709
-142.999600065,-0.836683
-142.899600065,-0.830402
-142.799600065,-0.825377
-142.699600065,-0.820352
-142.599600065,-0.815327
-142.499600065,-0.809045
-142.399600065,-0.80402
-142.299600065,-0.800251
-142.199600065,-0.796482
-142.099600065,-0.790201
-141.999600065,-0.785176
-141.899600065,-0.781407
-141.799600065,-0.776382
-141.699600065,-0.7701
-141.599600065,-0.765075
-141.499600065,-0.762563
-141.399600065,-0.758794
-141.299600065,-0.753769
-141.199600065,-0.747487
-141.099600065,-0.742462
-140.999600065,-0.738693
-140.899600065,-0.733668
-140.799600065,-0.727387
-140.699600065,-0.722362
-140.599600065,-0.718593
-140.499600065,-0.713568
-140.399600065,-0.707286
-140.299600065,-0.703518
-140.199600065,-0.699749
-140.099600065,-0.694724
-139.999600065,-0.689698
-139.899600065,-0.683417
-139.799600065,-0.680905
-139.699600065,-0.677136
-139.599600065,-0.672111
-139.499600065,-0.665829
-139.399600065,-0.66206
-139.299600065,-0.658291
-139.199600065,-0.653266
-139.099600065,-0.646985
-138.999600065,-0.64196
-138.899600065,-0.638191
-138.799600065,-0.634422
-138.699600065,-0.626884
-138.599600065,-0.621859
-138.499600065,-0.619347
-138.399600065,-0.614322
-138.299600065,-0.609297
-138.199600065,-0.603015
-138.099600065,-0.600502
-137.999600065,-0.59799
-137.899600065,-0.591709
-137.799600065,-0.585427
-137.699600065,-0.581658
-137.599600065,-0.577889
-137.499600065,-0.571608
-137.399600065,-0.566583
-137.299600065,-0.561558
-137.199600065,-0.559045
-137.099600065,-0.55402
-136.999600065,-0.547739
-136.899600065,-0.542714
-136.799600065,-0.538945
-136.699600065,-0.535176
-136.599600065,-0.528894
-136.499600065,-0.522613
-136.399600065,-0.5201
-136.299600065,-0.516332
-136.199600065,-0.511307
-136.099600065,-0.505025
-135.999600065,-0.501256
-135.899600065,-0.497487
-135.799600065,-0.492462
-135.699600065,-0.486181
-135.599600065,-0.481156
-135.499600065,-0.478643
-135.399600065,-0.473618
-135.299600065,-0.467337
-135.199600065,-0.462312
-135.099600065,-0.459799
-134.999600065,-0.454774
-134.899600065,-0.449749
-134.799600065,-0.443467
-134.699600065,-0.439698
-134.599600065,-0.43593
-134.499600065,-0.430905
-134.399600065,-0.424623
-134.299600065,-0.420854
-134.199600065,-0.418342
-134.099600065,-0.413317
-133.999600065,-0.408291
-133.899600065,-0.40201
-133.799600065,-0.399497
-133.699600065,-0.395729
-133.599600065,-0.390703
-133.499600065,-0.384422
-133.399600065,-0.380653
-133.299600065,-0.378141
-133.199600065,-0.373116
-133.099600065,-0.366834
-132.999600065,-0.361809
-132.899600065,-0.359296
-132.799600065,-0.355528
-132.699600065,-0.350503
-132.599600065,-0.344221
-132.499600065,-0.339196
-132.399600065,-0.335427
-132.299600065,-0.330402
-132.199600065,-0.324121
-132.099600065,-0.320352
-131.999600065,-0.316583
-131.899600065,-0.311558
-131.799600065,-0.306533
-131.699600065,-0.300251
-131.599600065,-0.297739
-131.499600065,-0.29397
-131.399600065,-0.287688
-131.299600065,-0.282663
-131.199600065,-0.278894
-131.099600065,-0.276382
-130.999600065,-0.270101
-130.899600065,-0.265075
-130.799600065,-0.26005
-130.699600065,-0.256281
-130.599600065,-0.251256
-130.499600065,-0.244975
-130.399600065,-0.23995
-130.299600065,-0.236181
-130.199600065,-0.232412
-130.099600065,-0.226131
-129.999600065,-0.221106
-129.899600065,-0.217337
-129.799600065,-0.214824
-129.699600065,-0.208543
-129.599600065,-0.203518
-129.499600065,-0.199749
-129.399600065,-0.197236
-129.299600065,-0.193467
-129.199600065,-0.187186
-129.099600065,-0.182161
-128.999600065,-0.178392
-128.899600065,-0.174623
-128.799600065,-0.169598
-128.699600065,-0.163317
-128.599600065,-0.159548
-128.499600065,-0.155779
-128.399600065,-0.150754
-128.299600065,-0.144472
-128.199600065,-0.139447
-128.099600065,-0.136935
-127.999600065,-0.13191
-127.899600065,-0.126884
-127.799600065,-0.121859
-127.699600065,-0.11809
-127.599600065,-0.115578
-127.499600065,-0.110553
-127.399600065,-0.104271
-127.299600065,-0.0992462
-127.199600065,-0.0954774
-127.099600065,-0.0917085
-126.999600065,-0.0854271
-126.899600065,-0.080402
-126.799600065,-0.0766332
-126.699600065,-0.0728643
-126.599600065,-0.0678392
-126.499600065,-0.0615578
-126.399600065,-0.0577889
-126.299600065,-0.0552764
-126.199600065,-0.0502513
-126.099600065,-0.0452261
-125.999600065,-0.040201
-125.899600065,-0.0364322
-125.799600065,-0.0339196
-125.699600065,-0.0288945
-125.599600065,-0.0226131
-125.499600065,-0.0188442
-125.399600065,-0.0163317
-125.299600065,-0.0125628
-125.199600065,-0.00753769
-125.099600065,-0.00251256
-124.999600065,0.00251256
-124.899600065,0.00502513
-124.799600065,0.0100503
-124.699600065,0.0150754
-124.599600065,0.0201005
-124.499600065,0.0238693
-124.399600065,0.0263819
-124.299600065,0.031407
-124.199600065,0.0376884
-124.099600065,0.0414573
-123.999600065,0.0452261
-123.899600065,0.0477387
-123.799600065,0.0540201
-123.699600065,0.0603015
-123.599600065,0.0640704
-123.499600065,0.0678392
-123.399600065,0.0728643
-123.299600065,0.0791457
-123.199600065,0.0829146
-123.099600065,0.0866834
-122.999600065,0.0917085
-122.899600065,0.0979899
-122.799600065,0.101759
-122.699600065,0.105528
-122.599600065,0.109296
-122.499600065,0.114322
-122.399600065,0.120603
-122.299600065,0.124372
-122.199600065,0.126884
-122.099600065,0.133166
-121.999600065,0.139447
-121.899600065,0.143216
-121.799600065,0.145729
-121.699600065,0.150754
-121.599600065,0.157035
-121.499600065,0.16206
-121.399600065,0.164573
-121.299600065,0.168342
-121.199600065,0.173367
-121.099600065,0.179648
-120.999600065,0.183417
-120.899600065,0.18593
-120.799600065,0.190955
-120.699600065,0.197236
-120.599600065,0.202261
-120.499600065,0.20603
-120.399600065,0.208543
-120.299600065,0.214824
-120.199600065,0.221106
-120.099600065,0.224874
-119.999600065,0.227387
-119.899600065,0.232412
-119.799600065,0.238693
-119.699600065,0.243719
-119.599600065,0.246231
-119.499600065,0.25
-119.399600065,0.256281
-119.299600065,0.261307
-119.199600065,0.265075
-119.099600065,0.267588
-118.999600065,0.272613
-118.899600065,0.278894
-118.799600065,0.282663
-118.699600065,0.286432
-118.599600065,0.290201
-118.499600065,0.296482
-118.399600065,0.301508
-118.299600065,0.305276
-118.199600065,0.309045
-118.099600065,0.315327
-117.999600065,0.321608
-117.899600065,0.325377
-117.799600065,0.327889
-117.699600065,0.332915
-117.599600065,0.33794
-117.499600065,0.344221
-117.399600065,0.346734
-117.299600065,0.350503
-117.199600065,0.355528
-117.099600065,0.361809
-116.999600065,0.365578
-116.899600065,0.36809
-116.799600065,0.371859
-116.699600065,0.378141
-116.599600065,0.383166
-116.499600065,0.386935
-116.399600065,0.39196
-116.299600065,0.396985
-116.199600065,0.403266
-116.099600065,0.407035
-115.999600065,0.409548
-115.899600065,0.415829
-115.799600065,0.422111
-115.699600065,0.424623
-115.599600065,0.428392
-115.499600065,0.433417
-115.399600065,0.439698
-115.299600065,0.444724
-115.199600065,0.447236
-115.099600065,0.451005
-114.999600065,0.457286
-114.899600065,0.462312
-114.799600065,0.467337
-114.699600065,0.471106
-114.599600065,0.477387
-114.499600065,0.482412
-114.399600065,0.486181
-114.299600065,0.48995
-114.199600065,0.496231
-114.099600065,0.502513
-113.999600065,0.506281
-113.899600065,0.508794
-113.799600065,0.513819
-113.699600065,0.5201
-113.599600065,0.525126
-113.499600065,0.527638
-113.399600065,0.531407
-113.299600065,0.536432
-113.199600065,0.542714
-113.099600065,0.546482
-112.999600065,0.550251
-112.899600065,0.556533
-112.799600065,0.561558
-112.699600065,0.566583
-112.599600065,0.569095
-112.499600065,0.575377
-112.399600065,0.581658
-112.299600065,0.585427
-112.199600065,0.58794
-112.099600065,0.592965
-111.999600065,0.59799
-111.899600065,0.604271
-111.799600065,0.60804
-111.699600065,0.611809
-111.599600065,0.61809
-111.499600065,0.624372
-111.399600065,0.626884
-111.299600065,0.630653
-111.199600065,0.635678
-111.099600065,0.64196
-110.999600065,0.645729
-110.899600065,0.649498
-110.799600065,0.654523
-110.699600065,0.660804
-110.599600065,0.665829
-110.499600065,0.669598
-110.399600065,0.673367
-110.299600065,0.679648
-110.199600065,0.684673
-110.099600065,0.687186
-109.999600065,0.690955
-109.899600065,0.69598
-109.799600065,0.702261
-109.699600065,0.707286
-109.599600065,0.711055
-109.499600065,0.71608
-109.399600065,0.722362
-109.299600065,0.726131
-109.199600065,0.729899
-109.099600065,0.734925
-108.999600065,0.741206
-108.899600065,0.746231
-108.799600065,0.75
-108.699600065,0.753769
-108.599600065,0.76005
-108.499600065,0.765075
-108.399600065,0.768844
-108.299600065,0.773869
-108.199600065,0.780151
-108.099600065,0.785176
-107.999600065,0.788945
-107.899600065,0.79397
-107.799600065,0.800251
-107.699600065,0.805276
-107.599600065,0.809045
-107.499600065,0.812814
-107.399600065,0.817839
-107.299600065,0.824121
-107.199600065,0.827889
-107.099600065,0.831658
-106.999600065,0.836683
-106.899600065,0.841709
-106.799600065,0.84799
-106.699600065,0.851759
-106.599600065,0.85804
-106.499600065,0.864322
-106.399600065,0.86809
-106.299600065,0.871859
-106.199600065,0.876884
-106.099600065,0.883166
-105.999600065,0.888191
-105.899600065,0.890703
-105.799600065,0.895729
-105.699600065,0.90201
-105.599600065,0.908291
-105.499600065,0.910804
-105.399600065,0.915829
-105.299600065,0.922111
-105.199600065,0.927136
-105.099600065,0.929648
-104.999600065,0.933417
-104.899600065,0.940955
-104.799600065,0.94598
-104.699600065,0.949749
-104.599600065,0.954774
-104.499600065,0.961055
-104.399600065,0.96608
-104.299600065,0.969849
-104.199600065,0.973618
-104.099600065,0.979899
-103.999600065,0.986181
-103.899600065,0.98995
-103.799600065,0.994975
-103.699600065,1.00126
-103.599600065,1.00754
-103.499600065,1.01131
-103.399600065,1.01508
-103.299600065,1.02261
-103.199600065,1.02764
-103.099600065,1.03141
-102.999600065,1.03769
-102.899600065,1.04523
-102.799600065,1.049
-102.699600065,1.05402
-102.599600065,1.0603
-102.499600065,1.06658
-102.399600065,1.07035
-102.299600065,1.07286
-102.199600065,1.0804
-102.099600065,1.08668
-101.999600065,1.09045
-101.899600065,1.09422
-101.799600065,1.1005
-101.699600065,1.10678
-101.599600065,1.11055
-101.499600065,1.11558
-101.399600065,1.12312
-101.299600065,1.12814
-101.199600065,1.13191
-101.099600065,1.13693
-100.999600065,1.14447
-100.899600065,1.1495
-100.799600065,1.15327
-100.699600065,1.15955
-100.599600065,1.16583
-100.499600065,1.17085
-100.399600065,1.17588
-100.299600065,1.18467
-100.199600065,1.18844
-100.099600065,1.18593
-99.999600065,1.17965
-99.899600065,1.17462
-99.799600065,1.17085
-99.699600065,1.16583
-99.599600065,1.15829
-99.499600065,1.15327
-99.399600065,1.1495
-99.299600065,1.14447
-99.199600065,1.13693
-99.099600065,1.13191
-98.999600065,1.12814
-98.899600065,1.1206
-98.799600065,1.11432
-98.699600065,1.11055
-98.599600065,1.10678
-98.499600065,1.09925
-98.399600065,1.09422
-98.299600065,1.09045
-98.199600065,1.08668
-98.099600065,1.08166
-97.999600065,1.07412
-97.899600065,1.07035
-97.799600065,1.06784
-97.699600065,1.06156
-97.599600065,1.05528
-97.499600065,1.05025
-97.399600065,1.04648
-97.299600065,1.03894
-97.199600065,1.03266
-97.099600065,1.02889
-96.999600065,1.02261
-96.899600065,1.01508
-96.799600065,1.01131
-96.699600065,1.00754
-96.599600065,1.00126
-96.499600065,0.994975
-96.399600065,0.98995
-96.299600065,0.986181
-96.199600065,0.979899
-96.099600065,0.973618
-95.999600065,0.969849
-95.899600065,0.96608
-95.799600065,0.959799
-95.699600065,0.953518
-95.599600065,0.949749
-95.499600065,0.944724
-95.399600065,0.938442
-95.299600065,0.933417
-95.199600065,0.929648
-95.099600065,0.925879
-94.999600065,0.919598
-94.899600065,0.913317
-94.799600065,0.909548
-94.699600065,0.905779
-94.599600065,0.900754
-94.499600065,0.894472
-94.399600065,0.889447
-94.299600065,0.886935
-94.199600065,0.88191
-94.099600065,0.875628
-93.999600065,0.870603
-93.899600065,0.86809
-93.799600065,0.863065
-93.699600065,0.855528
-93.599600065,0.850502
-93.499600065,0.846734
-93.399600065,0.840452
-93.299600065,0.834171
-93.199600065,0.830402
-93.099600065,0.826633
-92.999600065,0.822864
-92.899600065,0.815327
-92.799600065,0.810301
-92.699600065,0.807789
-92.599600065,0.80402
-92.499600065,0.797739
-92.399600065,0.791457
-92.299600065,0.787688
-92.199600065,0.78392
-92.099600065,0.776382
-91.999600065,0.771357
-91.899600065,0.767588
-91.799600065,0.763819
-91.699600065,0.756281
-91.599600065,0.751256
-91.499600065,0.747487
-91.399600065,0.743719
-91.299600065,0.737437
-91.199600065,0.732412
-91.099600065,0.728643
-90.999600065,0.724874
-90.899600065,0.719849
-90.799600065,0.713568
-90.699600065,0.708543
-90.599600065,0.704774
-90.499600065,0.699749
-90.399600065,0.693467
-90.299600065,0.688442
-90.199600065,0.68593
-90.099600065,0.682161
-89.999600065,0.675879
-89.899600065,0.670854
-89.799600065,0.667085
-89.699600065,0.66206
-89.599600065,0.657035
-89.499600065,0.650754
-89.399600065,0.646985
-89.299600065,0.644472
-89.199600065,0.638191
-89.099600065,0.63191
-88.999600065,0.628141
-88.899600065,0.625628
-88.799600065,0.620603
-88.699600065,0.614322
-88.599600065,0.609297
-88.499600065,0.606784
-88.399600065,0.601759
-88.299600065,0.595477
-88.199600065,0.590452
-88.099600065,0.586683
-87.999600065,0.582915
-87.899600065,0.576633
-87.799600065,0.571608
-87.699600065,0.567839
-87.599600065,0.56407
-87.499600065,0.557789
-87.399600065,0.551508
-87.299600065,0.547739
-87.199600065,0.54397
-87.099600065,0.538945
-86.999600065,0.532663
-86.899600065,0.527638
-86.799600065,0.525126
-86.699600065,0.521357
-86.599600065,0.515075
-86.499600065,0.51005
-86.399600065,0.506281
-86.299600065,0.503769
-86.199600065,0.497487
-86.099600065,0.491206
-85.999600065,0.487437
-85.899600065,0.483668
-85.799600065,0.478643
-85.699600065,0.472362
-85.599600065,0.467337
-85.499600065,0.463568
-85.399600065,0.458543
-85.299600065,0.452261
-85.199600065,0.447236
-85.099600065,0.444724
-84.999600065,0.440955
-84.899600065,0.433417
-84.799600065,0.428392
-84.699600065,0.425879
-84.599600065,0.423367
-84.499600065,0.418342
-84.399600065,0.41206
-84.299600065,0.407035
-84.199600065,0.404523
-84.099600065,0.398241
-83.999600065,0.39196
-83.899600065,0.388191
-83.799600065,0.384422
-83.699600065,0.379397
-83.599600065,0.373116
-83.499600065,0.36809
-83.399600065,0.365578
-83.299600065,0.361809
-83.199600065,0.356784
-83.099600065,0.351759
-82.999600065,0.346734
-82.899600065,0.344221
-82.799600065,0.340452
-82.699600065,0.334171
-82.599600065,0.327889
-82.499600065,0.325377
-82.399600065,0.321608
-82.299600065,0.315327
-82.199600065,0.310302
-82.099600065,0.305276
-81.999600065,0.301508
-81.899600065,0.296482
-81.799600065,0.290201
-81.699600065,0.286432
-81.599600065,0.28392
-81.499600065,0.278894
-81.399600065,0.272613
-81.299600065,0.267588
-81.199600065,0.265075
-81.099600065,0.262563
-80.999600065,0.257538
-80.899600065,0.251256
-80.799600065,0.246231
-80.699600065,0.243719
-80.599600065,0.23995
-80.499600065,0.232412
-80.399600065,0.227387
-80.299600065,0.224874
-80.199600065,0.221106
-80.099600065,0.214824
-79.999600065,0.208543
-79.899600065,0.20603
-79.799600065,0.202261
-79.699600065,0.197236
-79.599600065,0.190955
-79.499600065,0.18593
-79.399600065,0.183417
-79.299600065,0.179648
-79.199600065,0.173367
-79.099600065,0.167085
-78.999600065,0.164573
-78.899600065,0.16206
-78.799600065,0.157035
-78.699600065,0.150754
-78.599600065,0.146985
-78.499600065,0.143216
-78.399600065,0.139447
-78.299600065,0.133166
-78.199600065,0.128141
-78.099600065,0.124372
-77.999600065,0.120603
-77.899600065,0.114322
-77.799600065,0.109296
-77.699600065,0.105528
-77.599600065,0.101759
-77.499600065,0.0979899
-77.399600065,0.0904523
-77.299600065,0.0866834
-77.199600065,0.0829146
-77.099600065,0.0791457
-76.999600065,0.0728643
-76.899600065,0.0678392
-76.799600065,0.0640704
-76.699600065,0.0603015
-76.599600065,0.0552764
-76.499600065,0.048995
-76.399600065,0.0452261
-76.299600065,0.0414573
-76.199600065,0.0376884
-76.099600065,0.0326633
-75.999600065,0.0263819
-75.899600065,0.0238693
-75.799600065,0.0213568
-75.699600065,0.0163317
-75.599600065,0.0100503
-75.499600065,0.00502513
-75.399600065,0.00251256
-75.299600065,-0.00251256
-75.199600065,-0.00753769
-75.099600065,-0.0125628
-74.999600065,-0.0163317
-74.899600065,-0.0188442
-74.799600065,-0.0238693
-74.699600065,-0.0301508
-74.599600065,-0.0339196
-74.499600065,-0.0376884
-74.399600065,-0.040201
-74.299600065,-0.0452261
-74.199600065,-0.0515075
-74.099600065,-0.0552764
-73.999600065,-0.0577889
-73.899600065,-0.0628141
-73.799600065,-0.0690955
-73.699600065,-0.0741206
-73.599600065,-0.0778894
-73.499600065,-0.0816583
-73.399600065,-0.0866834
-73.299600065,-0.0929648
-73.199600065,-0.0967337
-73.099600065,-0.0992462
-72.999600065,-0.104271
-72.899600065,-0.110553
-72.799600065,-0.115578
-72.699600065,-0.11809
-72.599600065,-0.121859
-72.499600065,-0.128141
-72.399600065,-0.133166
-72.299600065,-0.136935
-72.199600065,-0.140704
-72.099600065,-0.145729
-71.999600065,-0.15201
-71.899600065,-0.155779
-71.799600065,-0.159548
-71.699600065,-0.164573
-71.599600065,-0.170854
-71.499600065,-0.175879
-71.399600065,-0.178392
-71.299600065,-0.182161
-71.199600065,-0.188442
-71.099600065,-0.193467
-70.999600065,-0.197236
-70.899600065,-0.199749
-70.799600065,-0.203518
-70.699600065,-0.209799
-70.599600065,-0.214824
-70.499600065,-0.218593
-70.399600065,-0.221106
-70.299600065,-0.226131
-70.199600065,-0.232412
-70.099600065,-0.237437
-69.999600065,-0.241206
-69.899600065,-0.246231
-69.799600065,-0.252513
-69.699600065,-0.257538
-69.599600065,-0.26005
-69.499600065,-0.265075
-69.399600065,-0.271357
-69.299600065,-0.276382
-69.199600065,-0.278894
-69.099600065,-0.282663
-68.999600065,-0.288945
-68.899600065,-0.29397
-68.799600065,-0.297739
-68.699600065,-0.301508
-68.599600065,-0.306533
-68.499600065,-0.312814
-68.399600065,-0.317839
-68.299600065,-0.320352
-68.199600065,-0.324121
-68.099600065,-0.330402
-67.999600065,-0.335427
-67.899600065,-0.339196
-67.799600065,-0.344221
-67.699600065,-0.350503
-67.599600065,-0.356784
-67.499600065,-0.359296
-67.399600065,-0.363065
-67.299600065,-0.369347
-67.199600065,-0.374372
-67.099600065,-0.378141
-66.999600065,-0.380653
-66.899600065,-0.385678
-66.799600065,-0.390703
-66.699600065,-0.395729
-66.599600065,-0.399497
-66.499600065,-0.40201
-66.399600065,-0.407035
-66.299600065,-0.413317
-66.199600065,-0.418342
-66.099600065,-0.420854
-65.999600065,-0.424623
-65.899600065,-0.430905
-65.799600065,-0.43593
-65.699600065,-0.439698
-65.599600065,-0.443467
-65.499600065,-0.449749
-65.399600065,-0.454774
-65.299600065,-0.459799
-65.199600065,-0.462312
-65.099600065,-0.468593
-64.999600065,-0.474874
-64.899600065,-0.478643
-64.799600065,-0.482412
-64.699600065,-0.486181
-64.599600065,-0.492462
-64.499600065,-0.497487
-64.399600065,-0.501256
-64.299600065,-0.506281
-64.199600065,-0.512563
-64.099600065,-0.517588
-63.999600065,-0.5201
-63.899600065,-0.523869
-63.799600065,-0.530151
-63.699600065,-0.535176
-63.599600065,-0.540201
-63.499600065,-0.54397
-63.399600065,-0.548995
-63.299600065,-0.555276
-63.199600065,-0.559045
-63.099600065,-0.562814
-62.999600065,-0.567839
-62.899600065,-0.574121
-62.799600065,-0.579146
-62.699600065,-0.582915
-62.599600065,-0.586683
-62.499600065,-0.592965
-62.399600065,-0.59799
-62.299600065,-0.600502
-62.199600065,-0.604271
-62.099600065,-0.610553
-61.999600065,-0.615578
-61.899600065,-0.619347
-61.799600065,-0.623116
-61.699600065,-0.628141
-61.599600065,-0.634422
-61.499600065,-0.639447
-61.399600065,-0.643216
-61.299600065,-0.648241
-61.199600065,-0.654523
-61.099600065,-0.659548
-60.999600065,-0.66206
-60.899600065,-0.667085
-60.799600065,-0.673367
-60.699600065,-0.678392
-60.599600065,-0.682161
-60.499600065,-0.684673
-60.399600065,-0.689698
-60.299600065,-0.69598
-60.199600065,-0.699749
-60.099600065,-0.703518
-59.999600065,-0.708543
-59.899600065,-0.714824
-59.799600065,-0.719849
-59.699600065,-0.722362
-59.599600065,-0.727387
-59.499600065,-0.733668
-59.399600065,-0.73995
-59.299600065,-0.742462
-59.199600065,-0.747487
-59.099600065,-0.753769
-58.999600065,-0.758794
-58.899600065,-0.762563
-58.799600065,-0.765075
-58.699600065,-0.771357
-58.599600065,-0.776382
-58.499600065,-0.781407
-58.399600065,-0.785176
-58.299600065,-0.791457
-58.199600065,-0.797739
-58.099600065,-0.801508
-57.999600065,-0.80402
-57.899600065,-0.809045
-57.799600065,-0.815327
-57.699600065,-0.821608
-57.599600065,-0.825377
-57.499600065,-0.831658
-57.399600065,-0.83794
-57.299600065,-0.841709
-57.199600065,-0.844221
-57.099600065,-0.850502
-56.999600065,-0.856784
-56.899600065,-0.861809
-56.799600065,-0.864322
-56.699600065,-0.869347
-56.599600065,-0.876884
-56.499600065,-0.880653
-56.399600065,-0.884422
-56.299600065,-0.888191
-56.199600065,-0.894472
-56.099600065,-0.899497
-55.999600065,-0.903266
-55.899600065,-0.908291
-55.799600065,-0.914573
-55.699600065,-0.920854
-55.599600065,-0.924623
-55.499600065,-0.929648
-55.399600065,-0.93593
-55.299600065,-0.940955
-55.199600065,-0.944724
-55.099600065,-0.949749
-54.999600065,-0.957286
-54.899600065,-0.961055
-54.799600065,-0.964824
-54.699600065,-0.971106
-54.599600065,-0.977387
-54.499600065,-0.982412
-54.399600065,-0.984925
-54.299600065,-0.98995
-54.199600065,-0.997487
-54.099600065,-1.00251
-53.999600065,-1.00628
-53.899600065,-1.01131
-53.799600065,-1.01884
-53.699600065,-1.02261
-53.599600065,-1.02638
-53.499600065,-1.03266
-53.399600065,-1.03894
-53.299600065,-1.04271
-53.199600065,-1.04648
-53.099600065,-1.05151
-52.999600065,-1.05905
-52.899600065,-1.06407
-52.799600065,-1.06784
-52.699600065,-1.07412
-52.599600065,-1.0804
-52.499600065,-1.08417
-52.399600065,-1.0892
-52.299600065,-1.09673
-52.199600065,-1.10176
-52.099600065,-1.10553
-51.999600065,-1.11055
-51.899600065,-1.11809
-51.799600065,-1.12312
-51.699600065,-1.12563
-51.599600065,-1.13065
-51.499600065,-1.13819
-51.399600065,-1.14322
-51.299600065,-1.14573
-51.199600065,-1.15201
-51.099600065,-1.15955
-50.999600065,-1.16457
-50.899600065,-1.16834
-50.799600065,-1.17588
-50.699600065,-1.18216
-50.599600065,-1.18593
-50.499600065,-1.19095
-50.399600065,-1.19849
-50.299600065,-1.20352
-50.199600065,-1.20603
-50.099600065,-1.20477
-49.999600065,-1.20226
-49.899600065,-1.19598
-49.799600065,-1.1897
-49.699600065,-1.18467
-49.599600065,-1.18216
-49.499600065,-1.17588
-49.399600065,-1.16834
-49.299600065,-1.16332
-49.199600065,-1.15955
-49.099600065,-1.15201
-48.999600065,-1.14573
-48.899600065,-1.14196
-48.799600065,-1.13693
-48.699600065,-1.1294
-48.599600065,-1.12563
-48.499600065,-1.12186
-48.399600065,-1.11683
-48.299600065,-1.11055
-48.199600065,-1.10427
-48.099600065,-1.1005
-47.999600065,-1.09422
-47.899600065,-1.08794
-47.799600065,-1.08417
-47.699600065,-1.0804
-47.599600065,-1.07286
-47.499600065,-1.06658
-47.399600065,-1.06281
-47.299600065,-1.05653
-47.199600065,-1.05025
-47.099600065,-1.04523
-46.999600065,-1.04146
-46.899600065,-1.03643
-46.799600065,-1.03015
-46.699600065,-1.02513
-46.599600065,-1.02136
-46.499600065,-1.01633
-46.399600065,-1.00879
-46.299600065,-1.00377
-46.199600065,-1
-46.099600065,-0.993719
-45.999600065,-0.987437
-45.899600065,-0.983668
-45.799600065,-0.979899
-45.699600065,-0.973618
-45.599600065,-0.967337
-45.499600065,-0.962312
-45.399600065,-0.959799
-45.299600065,-0.952261
-45.199600065,-0.94598
-45.099600065,-0.942211
-44.999600065,-0.937186
-44.899600065,-0.930905
-44.799600065,-0.925879
-44.699600065,-0.922111
-44.599600065,-0.917085
-44.499600065,-0.910804
-44.399600065,-0.904523
-44.299600065,-0.900754
-44.199600065,-0.895729
-44.099600065,-0.889447
-43.999600065,-0.884422
-43.899600065,-0.88191
-43.799600065,-0.878141
-43.699600065,-0.871859
-43.599600065,-0.865578
-43.499600065,-0.861809
-43.399600065,-0.85804
-43.299600065,-0.851759
-43.199600065,-0.845477
-43.099600065,-0.841709
-42.999600065,-0.83794
-42.899600065,-0.831658
-42.799600065,-0.825377
-42.699600065,-0.821608
-42.599600065,-0.816583
-42.499600065,-0.810301
-42.399600065,-0.80402
-42.299600065,-0.801508
-42.199600065,-0.797739
-42.099600065,-0.791457
-41.999600065,-0.786432
-41.899600065,-0.781407
-41.799600065,-0.777638
-41.699600065,-0.772613
-41.599600065,-0.766332
-41.499600065,-0.762563
-41.399600065,-0.76005
-41.299600065,-0.756281
-41.199600065,-0.748744
-41.099600065,-0.743719
-40.999600065,-0.73995
-40.899600065,-0.734925
-40.799600065,-0.727387
-40.699600065,-0.723618
-40.599600065,-0.719849
-40.499600065,-0.714824
-40.399600065,-0.708543
-40.299600065,-0.703518
-40.199600065,-0.699749
-40.099600065,-0.69598
-39.999600065,-0.690955
-39.899600065,-0.684673
-39.799600065,-0.680905
-39.699600065,-0.678392
-39.599600065,-0.673367
-39.499600065,-0.667085
-39.399600065,-0.66206
-39.299600065,-0.659548
-39.199600065,-0.654523
-39.099600065,-0.648241
-38.999600065,-0.643216
-38.899600065,-0.639447
-38.799600065,-0.634422
-38.699600065,-0.628141
-38.599600065,-0.623116
-38.499600065,-0.619347
-38.399600065,-0.615578
-38.299600065,-0.609297
-38.199600065,-0.604271
-38.099600065,-0.600502
-37.999600065,-0.59799
-37.899600065,-0.592965
-37.799600065,-0.586683
-37.699600065,-0.581658
-37.599600065,-0.579146
-37.499600065,-0.574121
-37.399600065,-0.566583
-37.299600065,-0.561558
-37.199600065,-0.559045
-37.099600065,-0.55402
-36.999600065,-0.547739
-36.899600065,-0.542714
-36.799600065,-0.538945
-36.699600065,-0.535176
-36.599600065,-0.528894
-36.499600065,-0.522613
-36.399600065,-0.5201
-36.299600065,-0.516332
-36.199600065,-0.511307
-36.099600065,-0.505025
-35.999600065,-0.501256
-35.899600065,-0.497487
-35.799600065,-0.492462
-35.699600065,-0.486181
-35.599600065,-0.481156
-35.499600065,-0.478643
-35.399600065,-0.473618
-35.299600065,-0.467337
-35.199600065,-0.462312
-35.099600065,-0.458543
-34.999600065,-0.454774
-34.899600065,-0.449749
-34.799600065,-0.443467
-34.699600065,-0.439698
-34.599600065,-0.43593
-34.499600065,-0.430905
-34.399600065,-0.424623
-34.299600065,-0.420854
-34.199600065,-0.417085
-34.099600065,-0.41206
-33.999600065,-0.405779
-33.899600065,-0.40201
-33.799600065,-0.399497
-33.699600065,-0.395729
-33.599600065,-0.390703
-33.499600065,-0.384422
-33.399600065,-0.380653
-33.299600065,-0.378141
-33.199600065,-0.374372
-33.099600065,-0.36809
-32.999600065,-0.363065
-32.899600065,-0.359296
-32.799600065,-0.355528
-32.699600065,-0.350503
-32.599600065,-0.344221
-32.499600065,-0.340452
-32.399600065,-0.336683
-32.299600065,-0.330402
-32.199600065,-0.324121
-32.099600065,-0.320352
-31.999600065,-0.316583
-31.899600065,-0.312814
-31.799600065,-0.306533
-31.699600065,-0.301508
-31.599600065,-0.297739
-31.499600065,-0.29397
-31.399600065,-0.288945
-31.299600065,-0.282663
-31.199600065,-0.278894
-31.099600065,-0.276382
-30.999600065,-0.271357
-30.899600065,-0.265075
-30.799600065,-0.26005
-30.699600065,-0.256281
-30.599600065,-0.252513
-30.499600065,-0.246231
-30.399600065,-0.241206
-30.299600065,-0.237437
-30.199600065,-0.232412
-30.099600065,-0.226131
-29.999600065,-0.221106
-29.899600065,-0.218593
-29.799600065,-0.214824
-29.699600065,-0.209799
-29.599600065,-0.203518
-29.499600065,-0.199749
-29.399600065,-0.197236
-29.299600065,-0.193467
-29.199600065,-0.188442
-29.099600065,-0.182161
-28.999600065,-0.178392
-28.899600065,-0.175879
-28.799600065,-0.170854
-28.699600065,-0.164573
-28.599600065,-0.159548
-28.499600065,-0.155779
-28.399600065,-0.15201
-28.299600065,-0.145729
-28.199600065,-0.140704
-28.099600065,-0.136935
-27.999600065,-0.133166
-27.899600065,-0.128141
-27.799600065,-0.121859
-27.699600065,-0.11809
-27.599600065,-0.115578
-27.499600065,-0.110553
-27.399600065,-0.105528
-27.299600065,-0.0992462
-27.199600065,-0.0967337
-27.099600065,-0.0917085
-26.999600065,-0.0866834
-26.899600065,-0.080402
-26.799600065,-0.0778894
-26.699600065,-0.0741206
-26.599600065,-0.0690955
-26.499600065,-0.0628141
-26.399600065,-0.0577889
-26.299600065,-0.0552764
-26.199600065,-0.0515075
-26.099600065,-0.0452261
-25.999600065,-0.040201
-25.899600065,-0.0376884
-25.799600065,-0.0339196
-25.699600065,-0.0288945
-25.599600065,-0.0238693
-25.499600065,-0.0188442
-25.399600065,-0.0163317
-25.299600065,-0.0138191
-25.199600065,-0.00879397
-25.099600065,-0.00251256
-24.999600065,0.00125628
-24.899600065,0.00502513
-24.799600065,0.0100503
-24.699600065,0.0150754
-24.599600065,0.0201005
-24.499600065,0.0238693
-24.399600065,0.0263819
-24.299600065,0.0326633
-24.199600065,0.0376884
-24.099600065,0.0414573
-23.999600065,0.0439698
-23.899600065,0.0477387
-23.799600065,0.0540201
-23.699600065,0.0603015
-23.599600065,0.0640704
-23.499600065,0.0678392
-23.399600065,0.0728643
-23.299600065,0.0791457
-23.199600065,0.0829146
-23.099600065,0.0866834
-22.999600065,0.0904523
-22.899600065,0.0967337
-22.799600065,0.101759
-22.699600065,0.104271
-22.599600065,0.10804
-22.499600065,0.114322
-22.399600065,0.120603
-22.299600065,0.124372
-22.199600065,0.126884
-22.099600065,0.133166
-21.999600065,0.138191
-21.899600065,0.143216
-21.799600065,0.145729
-21.699600065,0.150754
-21.599600065,0.157035
-21.499600065,0.16206
-21.399600065,0.164573
-21.299600065,0.168342
-21.199600065,0.173367
-21.099600065,0.178392
-20.999600065,0.183417
-20.899600065,0.18593
-20.799600065,0.190955
-20.699600065,0.197236
-20.599600065,0.202261
-20.499600065,0.204774
-20.399600065,0.208543
-20.299600065,0.214824
-20.199600065,0.219849
-20.099600065,0.223618
-19.999600065,0.227387
-19.899600065,0.232412
-19.799600065,0.238693
-19.699600065,0.242462
-19.599600065,0.246231
-19.499600065,0.25
-19.399600065,0.256281
-19.299600065,0.261307
-19.199600065,0.265075
-19.099600065,0.267588
-18.999600065,0.272613
-18.899600065,0.278894
-18.799600065,0.282663
-18.699600065,0.286432
-18.599600065,0.290201
-18.499600065,0.296482
-18.399600065,0.302764
-18.299600065,0.306533
-18.199600065,0.310302
-18.099600065,0.316583
-17.999600065,0.321608
-17.899600065,0.325377
-17.799600065,0.327889
-17.699600065,0.332915
-17.599600065,0.339196
-17.499600065,0.344221
-17.399600065,0.346734
-17.299600065,0.350503
-17.199600065,0.356784
-17.099600065,0.361809
-16.999600065,0.365578
-16.899600065,0.36809
-16.799600065,0.373116
-16.699600065,0.379397
-16.599600065,0.384422
-16.499600065,0.388191
-16.399600065,0.393216
-16.299600065,0.399497
-16.199600065,0.404523
-16.099600065,0.407035
-15.999600065,0.41206
-15.899600065,0.418342
-15.799600065,0.423367
-15.699600065,0.425879
-15.599600065,0.428392
-15.499600065,0.433417
-15.399600065,0.439698
-15.299600065,0.444724
-15.199600065,0.447236
-15.099600065,0.451005
-14.999600065,0.457286
-14.899600065,0.463568
-14.799600065,0.467337
-14.699600065,0.471106
-14.599600065,0.477387
-14.499600065,0.483668
-14.399600065,0.486181
-14.299600065,0.491206
-14.199600065,0.496231
-14.099600065,0.502513
-13.999600065,0.506281
-13.899600065,0.51005
-13.799600065,0.513819
-13.699600065,0.5201
-13.599600065,0.525126
-13.499600065,0.527638
-13.399600065,0.531407
-13.299600065,0.536432
-13.199600065,0.542714
-13.099600065,0.546482
-12.999600065,0.550251
-12.899600065,0.556533
-12.799600065,0.562814
-12.699600065,0.566583
-12.599600065,0.569095
-12.499600065,0.575377
-12.399600065,0.581658
-12.299600065,0.585427
-12.199600065,0.589196
-12.099600065,0.594221
-11.999600065,0.599246
-11.899600065,0.605528
-11.799600065,0.60804
-11.699600065,0.611809
-11.599600065,0.61809
-11.499600065,0.624372
-11.399600065,0.628141
-11.299600065,0.630653
-11.199600065,0.636935
-11.099600065,0.64196
-10.999600065,0.645729
-10.899600065,0.649498
-10.799600065,0.654523
-10.699600065,0.660804
-10.599600065,0.665829
-10.499600065,0.669598
-10.399600065,0.673367
-10.299600065,0.680905
-10.199600065,0.68593
-10.099600065,0.688442
-9.999600065,0.690955
-9.899600065,0.697236
-9.799600065,0.703518
-9.699600065,0.707286
-9.599600065,0.711055
-9.499600065,0.717337
-9.399600065,0.723618
-9.299600065,0.727387
-9.199600065,0.731156
-9.099600065,0.736181
-8.999600065,0.742462
-8.899600065,0.746231
-8.799600065,0.75
-8.699600065,0.755025
-8.599600065,0.761307
-8.499600065,0.766332
-8.399600065,0.7701
-8.299600065,0.775126
-8.199600065,0.781407
-8.099600065,0.786432
-7.999600065,0.790201
-7.899600065,0.795226
-7.799600065,0.801508
-7.699600065,0.806533
-7.599600065,0.809045
-7.499600065,0.812814
-7.399600065,0.819095
-7.299600065,0.825377
-7.199600065,0.827889
-7.099600065,0.831658
-6.999600065,0.83794
-6.899600065,0.844221
-6.799600065,0.849246
-6.699600065,0.853015
-6.599600065,0.859297
-6.499600065,0.865578
-6.399600065,0.86809
-6.299600065,0.871859
-6.199600065,0.878141
-6.099600065,0.884422
-5.999600065,0.888191
-5.899600065,0.89196
-5.799600065,0.896985
-5.699600065,0.903266
-5.599600065,0.908291
-5.499600065,0.910804
-5.399600065,0.915829
-5.299600065,0.922111
-5.199600065,0.927136
-5.099600065,0.930905
-4.999600065,0.934673
-4.899600065,0.940955
-4.799600065,0.947236
-4.699600065,0.949749
-4.599600065,0.954774
-4.499600065,0.961055
-4.399600065,0.967337
-4.299600065,0.969849
-4.199600065,0.973618
-4.099600065,0.981156
-3.999600065,0.987437
-3.899600065,0.991206
-3.799600065,0.994975
-3.699600065,1.00251
-3.599600065,1.00754
-3.499600065,1.01131
-3.399600065,1.01633
-3.299600065,1.02387
-3.199600065,1.02889
-3.099600065,1.03266
-2.999600065,1.03894
-2.899600065,1.04648
-2.799600065,1.05025
-2.699600065,1.05528
-2.599600065,1.06156
-2.499600065,1.06784
-2.399600065,1.07035
-2.299600065,1.07412
-2.199600065,1.08166
-2.099600065,1.08794
-1.999600065,1.09171
-1.899600065,1.09548
-1.799600065,1.10302
-1.699600065,1.10804
-1.599600065,1.11181
-1.499600065,1.11558
-1.399600065,1.12312
-1.299600065,1.1294
-1.199600065,1.13317
-1.099600065,1.13819
-0.999600065,1.14698
-0.899600065,1.15075
-0.799600065,1.15452
-0.699600065,1.16206
-0.599600065,1.16834
-0.499600065,1.17211
-0.399600065,1.17839
-0.299600065,1.18593