x-axis,2,REF1
second,Volt,Volt
-3.000000E-06,+2.371859271079E+00,+305.175781E-06
-2.995000E-06,+2.412060275674E+00,+305.175781E-06
-2.990000E-06,+2.371859271079E+00,+305.175781E-06
-2.985000E-06,+2.371859271079E+00,+305.175781E-06
-2.980000E-06,+2.371859271079E+00,+305.175781E-06
-2.975000E-06,+2.371859271079E+00,+305.175781E-06
-2.970000E-06,+2.371859271079E+00,+305.175781E-06
-2.965000E-06,+2.371859271079E+00,+305.175781E-06
-2.960000E-06,+2.371859271079E+00,+305.175781E-06
-2.955000E-06,+2.371859271079E+00,+305.175781E-06
-2.950000E-06,+2.371859271079E+00,+305.175781E-06
-2.945000E-06,+2.371859271079E+00,+305.175781E-06
-2.940000E-06,+2.371859271079E+00,+305.175781E-06
-2.935000E-06,+2.371859271079E+00,+305.175781E-06
-2.930000E-06,+2.412060275674E+00,+305.175781E-06
-2.925000E-06,+2.371859271079E+00,+305.175781E-06
-2.920000E-06,+2.371859271079E+00,+305.175781E-06
-2.915000E-06,+2.371859271079E+00,+305.175781E-06
-2.910000E-06,+2.371859271079E+00,+305.175781E-06
-2.905000E-06,+2.371859271079E+00,+305.175781E-06
-2.900000E-06,+2.371859271079E+00,+305.175781E-06
-2.895000E-06,+2.371859271079E+00,+305.175781E-06
-2.890000E-06,+2.412060275674E+00,+305.175781E-06
-2.885000E-06,+2.371859271079E+00,+305.175781E-06
-2.880000E-06,+2.371859271079E+00,+305.175781E-06
-2.875000E-06,+2.412060275674E+00,+305.175781E-06
-2.870000E-06,+2.412060275674E+00,+305.175781E-06
-2.865000E-06,+2.371859271079E+00,+305.175781E-06
-2.860000E-06,+2.412060275674E+00,+305.175781E-06
-2.855000E-06,+2.412060275674E+00,+305.175781E-06
-2.850000E-06,+2.412060275674E+00,+305.175781E-06
-2.845000E-06,+2.371859271079E+00,+305.175781E-06
-2.840000E-06,+2.412060275674E+00,+305.175781E-06
-2.835000E-06,+2.371859271079E+00,+305.175781E-06
-2.830000E-06,+2.371859271079E+00,+305.175781E-06
-2.825000E-06,+2.371859271079E+00,+305.175781E-06
-2.820000E-06,+2.371859271079E+00,+305.175781E-06
-2.815000E-06,+2.371859271079E+00,+305.175781E-06
-2.810000E-06,+2.371859271079E+00,+305.175781E-06
-2.805000E-06,+2.371859271079E+00,+305.175781E-06
-2.800000E-06,+2.412060275674E+00,+305.175781E-06
-2.795000E-06,+2.371859271079E+00,+305.175781E-06
-2.790000E-06,+2.371859271079E+00,+305.175781E-06
-2.785000E-06,+2.371859271079E+00,+305.175781E-06
-2.780000E-06,+2.412060275674E+00,+305.175781E-06
-2.775000E-06,+2.371859271079E+00,+305.175781E-06
-2.770000E-06,+2.412060275674E+00,+305.175781E-06
-2.765000E-06,+2.371859271079E+00,+305.175781E-06
-2.760000E-06,+2.412060275674E+00,+305.175781E-06
-2.755000E-06,+2.371859271079E+00,+305.175781E-06
-2.750000E-06,+2.412060275674E+00,+305.175781E-06
-2.745000E-06,+2.371859271079E+00,+305.175781E-06
-2.740000E-06,+2.371859271079E+00,+305.175781E-06
-2.735000E-06,+2.371859271079E+00,+305.175781E-06
-2.730000E-06,+2.371859271079E+00,+305.175781E-06
-2.725000E-06,+2.412060275674E+00,+305.175781E-06
-2.720000E-06,+2.371859271079E+00,+305.175781E-06
-2.715000E-06,+2.371859271079E+00,+305.175781E-06
-2.710000E-06,+2.371859271079E+00,+305.175781E-06
-2.705000E-06,+2.412060275674E+00,+305.175781E-06
-2.700000E-06,+2.371859271079E+00,+305.175781E-06
-2.695000E-06,+2.412060275674E+00,+305.175781E-06
-2.690000E-06,+2.371859271079E+00,+305.175781E-06
-2.685000E-06,+2.371859271079E+00,+305.175781E-06
-2.680000E-06,+2.371859271079E+00,+305.175781E-06
-2.675000E-06,+2.412060275674E+00,+305.175781E-06
-2.670000E-06,+2.371859271080E+00,+305.175781E-06
-2.665000E-06,+2.371859271079E+00,+305.175781E-06
-2.660000E-06,+2.371859271079E+00,+305.175781E-06
-2.655000E-06,+2.412060275674E+00,+305.175781E-06
-2.650000E-06,+2.371859271079E+00,+305.175781E-06
-2.645000E-06,+2.371859271079E+00,+305.175781E-06
-2.640000E-06,+2.371859271079E+00,+305.175781E-06
-2.635000E-06,+2.371859271079E+00,+305.175781E-06
-2.630000E-06,+2.371859271079E+00,+305.175781E-06
-2.625000E-06,+2.371859271079E+00,+305.175781E-06
-2.620000E-06,+2.412060275674E+00,+305.175781E-06
-2.615000E-06,+2.412060275674E+00,+305.175781E-06
-2.610000E-06,+2.371859271079E+00,+305.175781E-06
-2.605000E-06,+2.371859271079E+00,+305.175781E-06
-2.600000E-06,+2.371859271079E+00,+305.175781E-06
-2.595000E-06,+2.371859271079E+00,+305.175781E-06
-2.590000E-06,+2.371859271079E+00,+305.175781E-06
-2.585000E-06,+2.371859271079E+00,+305.175781E-06
-2.580000E-06,+2.371859271079E+00,+305.175781E-06
-2.575000E-06,+2.371859271079E+00,+305.175781E-06
-2.570000E-06,+2.371859271079E+00,+305.175781E-06
-2.565000E-06,+2.412060275674E+00,+305.175781E-06
-2.560000E-06,+2.412060275674E+00,+305.175781E-06
-2.555000E-06,+2.412060275674E+00,+305.175781E-06
-2.550000E-06,+2.371859271079E+00,+305.175781E-06
-2.545000E-06,+2.371859271079E+00,+305.175781E-06
-2.540000E-06,+2.371859271079E+00,+305.175781E-06
-2.535000E-06,+2.371859271079E+00,+305.175781E-06
-2.530000E-06,+2.412060275674E+00,+305.175781E-06
-2.525000E-06,+2.371859271079E+00,+305.175781E-06
-2.520000E-06,+2.412060275674E+00,+305.175781E-06
-2.515000E-06,+2.371859271079E+00,+305.175781E-06
-2.510000E-06,+2.412060275674E+00,+305.175781E-06
-2.505000E-06,+2.371859271080E+00,+305.175781E-06
-2.500000E-06,+2.371859271079E+00,+305.175781E-06
-2.495000E-06,+2.371859271079E+00,+305.175781E-06
-2.490000E-06,+2.412060275674E+00,+305.175781E-06
-2.485000E-06,+2.371859271079E+00,+305.175781E-06
-2.480000E-06,+2.371859271079E+00,+305.175781E-06
-2.475000E-06,+2.371859271079E+00,+305.175781E-06
-2.470000E-06,+2.371859271079E+00,+305.175781E-06
-2.465000E-06,+2.412060275674E+00,+305.175781E-06
-2.460000E-06,+2.371859271079E+00,+305.175781E-06
-2.455000E-06,+2.412060275673E+00,+305.175781E-06
-2.450000E-06,+2.371859271079E+00,+305.175781E-06
-2.445000E-06,+2.412060275674E+00,+305.175781E-06
-2.440000E-06,+2.371859271079E+00,+305.175781E-06
-2.435000E-06,+2.412060275673E+00,+305.175781E-06
-2.430000E-06,+2.371859271079E+00,+305.175781E-06
-2.425000E-06,+2.371859271079E+00,+305.175781E-06
-2.420000E-06,+2.371859271079E+00,+305.175781E-06
-2.415000E-06,+2.412060275674E+00,+305.175781E-06
-2.410000E-06,+2.371859271079E+00,+305.175781E-06
-2.405000E-06,+2.371859271079E+00,+305.175781E-06
-2.400000E-06,+2.371859271080E+00,+305.175781E-06
-2.395000E-06,+2.371859271079E+00,+305.175781E-06
-2.390000E-06,+2.371859271079E+00,+305.175781E-06
-2.385000E-06,+2.371859271079E+00,+305.175781E-06
-2.380000E-06,+2.412060275674E+00,+305.175781E-06
-2.375000E-06,+2.412060275674E+00,+305.175781E-06
-2.370000E-06,+2.371859271079E+00,+305.175781E-06
-2.365000E-06,+2.412060275674E+00,+305.175781E-06
-2.360000E-06,+2.412060275674E+00,+305.175781E-06
-2.355000E-06,+2.371859271079E+00,+305.175781E-06
-2.350000E-06,+2.412060275674E+00,+305.175781E-06
-2.345000E-06,+2.371859271079E+00,+305.175781E-06
-2.340000E-06,+2.371859271079E+00,+305.175781E-06
-2.335000E-06,+2.371859271079E+00,+305.175781E-06
-2.330000E-06,+2.371859271079E+00,+305.175781E-06
-2.325000E-06,+2.371859271079E+00,+305.175781E-06
-2.320000E-06,+2.371859271079E+00,+305.175781E-06
-2.315000E-06,+2.371859271079E+00,+305.175781E-06
-2.310000E-06,+2.371859271080E+00,+305.175781E-06
-2.305000E-06,+2.371859271079E+00,+305.175781E-06
-2.300000E-06,+2.371859271079E+00,+305.175781E-06
-2.295000E-06,+2.412060275674E+00,+305.175781E-06
-2.290000E-06,+2.412060275674E+00,+305.175781E-06
-2.285000E-06,+2.412060275674E+00,+305.175781E-06
-2.280000E-06,+2.371859271080E+00,+305.175781E-06
-2.275000E-06,+2.412060275673E+00,+305.175781E-06
-2.270000E-06,+2.412060275674E+00,+305.175781E-06
-2.265000E-06,+2.371859271079E+00,+305.175781E-06
-2.260000E-06,+2.412060275674E+00,+305.175781E-06
-2.255000E-06,+2.371859271079E+00,+305.175781E-06
-2.250000E-06,+2.371859271079E+00,+305.175781E-06
-2.245000E-06,+2.412060275674E+00,+305.175781E-06
-2.240000E-06,+2.371859271079E+00,+305.175781E-06
-2.235000E-06,+2.371859271079E+00,+305.175781E-06
-2.230000E-06,+2.371859271079E+00,+305.175781E-06
-2.225000E-06,+2.371859271079E+00,+305.175781E-06
-2.220000E-06,+2.371859271079E+00,+305.175781E-06
-2.215000E-06,+2.371859271079E+00,+305.175781E-06
-2.210000E-06,+2.371859271079E+00,+305.175781E-06
-2.205000E-06,+2.371859271080E+00,+305.175781E-06
-2.200000E-06,+2.371859271080E+00,+305.175781E-06
-2.195000E-06,+2.371859271079E+00,+305.175781E-06
-2.190000E-06,+2.371859271079E+00,+305.175781E-06
-2.185000E-06,+2.371859271079E+00,+305.175781E-06
-2.180000E-06,+2.371859271079E+00,+305.175781E-06
-2.175000E-06,+2.371859271080E+00,+305.175781E-06
-2.170000E-06,+2.412060275674E+00,+305.175781E-06
-2.165000E-06,+2.371859271079E+00,+305.175781E-06
-2.160000E-06,+2.412060275674E+00,+305.175781E-06
-2.155000E-06,+2.371859271079E+00,+305.175781E-06
-2.150000E-06,+2.371859271079E+00,+305.175781E-06
-2.145000E-06,+2.371859271079E+00,+305.175781E-06
-2.140000E-06,+2.371859271079E+00,+305.175781E-06
-2.135000E-06,+2.371859271079E+00,+305.175781E-06
-2.130000E-06,+2.371859271079E+00,+305.175781E-06
-2.125000E-06,+2.371859271079E+00,+305.175781E-06
-2.120000E-06,+2.371859271079E+00,+305.175781E-06
-2.115000E-06,+2.371859271079E+00,+305.175781E-06
-2.110000E-06,+2.412060275673E+00,+305.175781E-06
-2.105000E-06,+2.371859271079E+00,+305.175781E-06
-2.100000E-06,+2.371859271079E+00,+305.175781E-06
-2.095000E-06,+2.371859271079E+00,+305.175781E-06
-2.090000E-06,+2.371859271079E+00,+305.175781E-06
-2.085000E-06,+2.371859271079E+00,+305.175781E-06
-2.080000E-06,+2.412060275674E+00,+305.175781E-06
-2.075000E-06,+2.371859271079E+00,+305.175781E-06
-2.070000E-06,+2.412060275674E+00,+305.175781E-06
-2.065000E-06,+2.412060275674E+00,+305.175781E-06
-2.060000E-06,+2.412060275674E+00,+305.175781E-06
-2.055000E-06,+2.371859271079E+00,+305.175781E-06
-2.050000E-06,+2.412060275674E+00,+305.175781E-06
-2.045000E-06,+2.371859271079E+00,+305.175781E-06
-2.040000E-06,+2.412060275674E+00,+305.175781E-06
-2.035000E-06,+2.371859271079E+00,+305.175781E-06
-2.030000E-06,+2.371859271080E+00,+305.175781E-06
-2.025000E-06,+2.371859271079E+00,+305.175781E-06
-2.020000E-06,+2.371859271079E+00,+305.175781E-06
-2.015000E-06,+2.412060275673E+00,+305.175781E-06
-2.010000E-06,+2.371859271079E+00,+305.175781E-06
-2.005000E-06,+2.371859271080E+00,+305.175781E-06
-2.000000E-06,+2.371859271079E+00,+305.175781E-06
-1.995000E-06,+2.371859271079E+00,+305.175781E-06
-1.990000E-06,+2.371859271080E+00,+305.175781E-06
-1.985000E-06,+2.412060275673E+00,+305.175781E-06
-1.980000E-06,+2.371859271079E+00,+305.175781E-06
-1.975000E-06,+2.412060275673E+00,+305.175781E-06
-1.970000E-06,+2.371859271079E+00,+305.175781E-06
-1.965000E-06,+2.371859271079E+00,+305.175781E-06
-1.960000E-06,+2.371859271079E+00,+305.175781E-06
-1.955000E-06,+2.412060275674E+00,+305.175781E-06
-1.950000E-06,+2.371859271080E+00,+305.175781E-06
-1.945000E-06,+2.412060275674E+00,+305.175781E-06
-1.940000E-06,+2.412060275674E+00,+305.175781E-06
-1.935000E-06,+2.412060275674E+00,+305.175781E-06
-1.930000E-06,+2.371859271079E+00,+305.175781E-06
-1.925000E-06,+2.371859271079E+00,+305.175781E-06
-1.920000E-06,+2.371859271080E+00,+305.175781E-06
-1.915000E-06,+2.412060275673E+00,+305.175781E-06
-1.910000E-06,+2.371859271079E+00,+305.175781E-06
-1.905000E-06,+2.371859271079E+00,+305.175781E-06
-1.900000E-06,+2.371859271079E+00,+305.175781E-06
-1.895000E-06,+2.371859271079E+00,+305.175781E-06
-1.890000E-06,+2.412060275673E+00,+305.175781E-06
-1.885000E-06,+2.371859271079E+00,+305.175781E-06
-1.880000E-06,+2.371859271079E+00,+305.175781E-06
-1.875000E-06,+2.371859271079E+00,+305.175781E-06
-1.870000E-06,+2.371859271079E+00,+305.175781E-06
-1.865000E-06,+2.371859271079E+00,+305.175781E-06
-1.860000E-06,+2.371859271079E+00,+305.175781E-06
-1.855000E-06,+2.371859271079E+00,+305.175781E-06
-1.850000E-06,+2.371859271079E+00,+305.175781E-06
-1.845000E-06,+2.371859271079E+00,+305.175781E-06
-1.840000E-06,+2.371859271079E+00,+305.175781E-06
-1.835000E-06,+2.412060275674E+00,+305.175781E-06
-1.830000E-06,+2.371859271079E+00,+305.175781E-06
-1.825000E-06,+2.412060275674E+00,+305.175781E-06
-1.820000E-06,+2.371859271079E+00,+305.175781E-06
-1.815000E-06,+2.412060275674E+00,+305.175781E-06
-1.810000E-06,+2.371859271079E+00,+305.175781E-06
-1.805000E-06,+2.412060275674E+00,+305.175781E-06
-1.800000E-06,+2.371859271079E+00,+305.175781E-06
-1.795000E-06,+2.371859271079E+00,+305.175781E-06
-1.790000E-06,+2.371859271079E+00,+305.175781E-06
-1.785000E-06,+2.412060275674E+00,+305.175781E-06
-1.780000E-06,+2.371859271079E+00,+305.175781E-06
-1.775000E-06,+2.412060275674E+00,+305.175781E-06
-1.770000E-06,+2.371859271079E+00,+305.175781E-06
-1.765000E-06,+2.371859271079E+00,+305.175781E-06
-1.760000E-06,+2.371859271079E+00,+305.175781E-06
-1.755000E-06,+2.371859271079E+00,+305.175781E-06
-1.750000E-06,+2.371859271079E+00,+305.175781E-06
-1.745000E-06,+2.371859271079E+00,+305.175781E-06
-1.740000E-06,+2.371859271079E+00,+305.175781E-06
-1.735000E-06,+2.371859271079E+00,+305.175781E-06
-1.730000E-06,+2.371859271079E+00,+305.175781E-06
-1.725000E-06,+2.371859271079E+00,+305.175781E-06
-1.720000E-06,+2.412060275674E+00,+305.175781E-06
-1.715000E-06,+2.371859271079E+00,+305.175781E-06
-1.710000E-06,+2.371859271079E+00,+305.175781E-06
-1.705000E-06,+2.371859271080E+00,+305.175781E-06
-1.700000E-06,+2.371859271079E+00,+305.175781E-06
-1.695000E-06,+2.371859271079E+00,+305.175781E-06
-1.690000E-06,+2.371859271079E+00,+305.175781E-06
-1.685000E-06,+2.371859271079E+00,+305.175781E-06
-1.680000E-06,+2.371859271080E+00,+305.175781E-06
-1.675000E-06,+2.371859271079E+00,+305.175781E-06
-1.670000E-06,+2.371859271079E+00,+305.175781E-06
-1.665000E-06,+2.371859271079E+00,+305.175781E-06
-1.660000E-06,+2.412060275674E+00,+305.175781E-06
-1.655000E-06,+2.412060275674E+00,+305.175781E-06
-1.650000E-06,+2.412060275674E+00,+305.175781E-06
-1.645000E-06,+2.412060275674E+00,+305.175781E-06
-1.640000E-06,+2.412060275674E+00,+305.175781E-06
-1.635000E-06,+2.371859271079E+00,+305.175781E-06
-1.630000E-06,+2.371859271080E+00,+305.175781E-06
-1.625000E-06,+2.371859271079E+00,+305.175781E-06
-1.620000E-06,+2.371859271079E+00,+305.175781E-06
-1.615000E-06,+2.371859271079E+00,+305.175781E-06
-1.610000E-06,+2.371859271079E+00,+305.175781E-06
-1.605000E-06,+2.412060275674E+00,+305.175781E-06
-1.600000E-06,+2.371859271079E+00,+305.175781E-06
-1.595000E-06,+2.412060275673E+00,+305.175781E-06
-1.590000E-06,+2.371859271079E+00,+305.175781E-06
-1.585000E-06,+2.412060275674E+00,+305.175781E-06
-1.580000E-06,+2.371859271079E+00,+305.175781E-06
-1.575000E-06,+2.371859271079E+00,+305.175781E-06
-1.570000E-06,+2.371859271079E+00,+305.175781E-06
-1.565000E-06,+2.412060275674E+00,+305.175781E-06
-1.560000E-06,+2.371859271079E+00,+305.175781E-06
-1.555000E-06,+2.371859271079E+00,+305.175781E-06
-1.550000E-06,+2.371859271079E+00,+305.175781E-06
-1.545000E-06,+2.412060275674E+00,+305.175781E-06
-1.540000E-06,+2.371859271079E+00,+305.175781E-06
-1.535000E-06,+2.412060275674E+00,+305.175781E-06
-1.530000E-06,+2.371859271079E+00,+305.175781E-06
-1.525000E-06,+2.371859271079E+00,+305.175781E-06
-1.520000E-06,+2.371859271079E+00,+305.175781E-06
-1.515000E-06,+2.412060275674E+00,+305.175781E-06
-1.510000E-06,+2.371859271080E+00,+305.175781E-06
-1.505000E-06,+2.412060275674E+00,+305.175781E-06
-1.500000E-06,+2.371859271079E+00,+305.175781E-06
-1.495000E-06,+2.412060275674E+00,+305.175781E-06
-1.490000E-06,+2.371859271079E+00,+305.175781E-06
-1.485000E-06,+2.371859271079E+00,+305.175781E-06
-1.480000E-06,+2.412060275674E+00,+305.175781E-06
-1.475000E-06,+2.371859271079E+00,+305.175781E-06
-1.470000E-06,+2.412060275674E+00,+305.175781E-06
-1.465000E-06,+2.371859271079E+00,+305.175781E-06
-1.460000E-06,+2.412060275674E+00,+305.175781E-06
-1.455000E-06,+2.412060275674E+00,+305.175781E-06
-1.450000E-06,+2.412060275674E+00,+305.175781E-06
-1.445000E-06,+2.371859271079E+00,+305.175781E-06
-1.440000E-06,+2.371859271079E+00,+305.175781E-06
-1.435000E-06,+2.371859271079E+00,+305.175781E-06
-1.430000E-06,+2.371859271079E+00,+305.175781E-06
-1.425000E-06,+2.371859271079E+00,+305.175781E-06
-1.420000E-06,+2.412060275673E+00,+305.175781E-06
-1.415000E-06,+2.371859271079E+00,+305.175781E-06
-1.410000E-06,+2.371859271079E+00,+305.175781E-06
-1.405000E-06,+2.412060275674E+00,+305.175781E-06
-1.400000E-06,+2.412060275674E+00,+305.175781E-06
-1.395000E-06,+2.412060275673E+00,+305.175781E-06
-1.390000E-06,+2.412060275674E+00,+305.175781E-06
-1.385000E-06,+2.371859271079E+00,+305.175781E-06
-1.380000E-06,+2.371859271079E+00,+305.175781E-06
-1.375000E-06,+2.412060275674E+00,+305.175781E-06
-1.370000E-06,+2.371859271081E+00,+305.175781E-06
-1.365000E-06,+2.371859271079E+00,+305.175781E-06
-1.360000E-06,+2.371859271081E+00,+305.175781E-06
-1.355000E-06,+2.371859271079E+00,+305.175781E-06
-1.350000E-06,+2.371859271081E+00,+305.175781E-06
-1.345000E-06,+2.371859271079E+00,+305.175781E-06
-1.340000E-06,+2.371859271079E+00,+305.175781E-06
-1.335000E-06,+2.371859271079E+00,+305.175781E-06
-1.330000E-06,+2.371859271079E+00,+305.175781E-06
-1.325000E-06,+2.412060275674E+00,+305.175781E-06
-1.320000E-06,+2.371859271079E+00,+305.175781E-06
-1.315000E-06,+2.412060275673E+00,+305.175781E-06
-1.310000E-06,+2.371859271081E+00,+305.175781E-06
-1.305000E-06,+2.412060275674E+00,+305.175781E-06
-1.300000E-06,+2.371859271081E+00,+305.175781E-06
-1.295000E-06,+2.371859271079E+00,+305.175781E-06
-1.290000E-06,+2.371859271079E+00,+305.175781E-06
-1.285000E-06,+2.412060275673E+00,+305.175781E-06
-1.280000E-06,+2.412060275674E+00,+305.175781E-06
-1.275000E-06,+2.371859271079E+00,+305.175781E-06
-1.270000E-06,+2.371859271079E+00,+305.175781E-06
-1.265000E-06,+2.371859271079E+00,+305.175781E-06
-1.260000E-06,+2.371859271079E+00,+305.175781E-06
-1.255000E-06,+2.412060275674E+00,+305.175781E-06
-1.250000E-06,+2.371859271081E+00,+305.175781E-06
-1.245000E-06,+2.371859271079E+00,+305.175781E-06
-1.240000E-06,+2.371859271079E+00,+305.175781E-06
-1.235000E-06,+2.371859271079E+00,+305.175781E-06
-1.230000E-06,+2.371859271079E+00,+305.175781E-06
-1.225000E-06,+2.371859271079E+00,+305.175781E-06
-1.220000E-06,+2.371859271079E+00,+305.175781E-06
-1.215000E-06,+2.412060275674E+00,+305.175781E-06
-1.210000E-06,+2.412060275672E+00,+305.175781E-06
-1.205000E-06,+2.371859271079E+00,+305.175781E-06
-1.200000E-06,+2.412060275674E+00,+305.175781E-06
-1.195000E-06,+2.371859271079E+00,+305.175781E-06
-1.190000E-06,+2.371859271079E+00,+305.175781E-06
-1.185000E-06,+2.371859271079E+00,+305.175781E-06
-1.180000E-06,+2.371859271079E+00,+305.175781E-06
-1.175000E-06,+2.371859271079E+00,+305.175781E-06
-1.170000E-06,+2.371859271079E+00,+305.175781E-06
-1.165000E-06,+2.371859271079E+00,+305.175781E-06
-1.160000E-06,+2.371859271079E+00,+305.175781E-06
-1.155000E-06,+2.371859271079E+00,+305.175781E-06
-1.150000E-06,+2.371859271079E+00,+305.175781E-06
-1.145000E-06,+2.412060275674E+00,+305.175781E-06
-1.140000E-06,+2.371859271079E+00,+305.175781E-06
-1.135000E-06,+2.412060275674E+00,+305.175781E-06
-1.130000E-06,+2.412060275674E+00,+305.175781E-06
-1.125000E-06,+2.412060275674E+00,+305.175781E-06
-1.120000E-06,+2.371859271079E+00,+305.175781E-06
-1.115000E-06,+2.371859271079E+00,+305.175781E-06
-1.110000E-06,+2.371859271079E+00,+305.175781E-06
-1.105000E-06,+2.412060275674E+00,+305.175781E-06
-1.100000E-06,+2.371859271079E+00,+305.175781E-06
-1.095000E-06,+2.371859271079E+00,+305.175781E-06
-1.090000E-06,+2.371859271079E+00,+305.175781E-06
-1.085000E-06,+2.371859271079E+00,+305.175781E-06
-1.080000E-06,+2.371859271079E+00,+305.175781E-06
-1.075000E-06,+2.412060275674E+00,+305.175781E-06
-1.070000E-06,+2.371859271079E+00,+305.175781E-06
-1.065000E-06,+2.371859271079E+00,+305.175781E-06
-1.060000E-06,+2.371859271079E+00,+305.175781E-06
-1.055000E-06,+2.371859271079E+00,+305.175781E-06
-1.050000E-06,+2.412060275674E+00,+305.175781E-06
-1.045000E-06,+2.371859271079E+00,+305.175781E-06
-1.040000E-06,+2.412060275672E+00,+305.175781E-06
-1.035000E-06,+2.371859271079E+00,+305.175781E-06
-1.030000E-06,+2.412060275672E+00,+305.175781E-06
-1.025000E-06,+2.371859271079E+00,+305.175781E-06
-1.020000E-06,+2.412060275674E+00,+305.175781E-06
-1.015000E-06,+2.412060275674E+00,+305.175781E-06
-1.010000E-06,+2.371859271079E+00,+305.175781E-06
-1.005000E-06,+2.371859271079E+00,+305.175781E-06
-1.000000E-06,+2.371859271079E+00,+305.175781E-06
-995.000E-09,+2.412060275674E+00,+305.175781E-06
-990.000E-09,+2.371859271079E+00,+305.175781E-06
-985.000E-09,+2.371859271079E+00,+305.175781E-06
-980.000E-09,+2.371859271079E+00,+305.175781E-06
-975.000E-09,+2.371859271079E+00,+305.175781E-06
-970.000E-09,+2.412060275674E+00,+305.175781E-06
-965.000E-09,+2.371859271079E+00,+305.175781E-06
-960.000E-09,+2.412060275674E+00,+305.175781E-06
-955.000E-09,+2.371859271079E+00,+305.175781E-06
-950.000E-09,+2.371859271079E+00,+305.175781E-06
-945.000E-09,+2.371859271079E+00,+305.175781E-06
-940.000E-09,+2.412060275674E+00,+305.175781E-06
-935.000E-09,+2.371859271079E+00,+305.175781E-06
-930.000E-09,+2.371859271079E+00,+305.175781E-06
-925.000E-09,+2.371859271081E+00,+305.175781E-06
-920.000E-09,+2.371859271081E+00,+305.175781E-06
-915.000E-09,+2.371859271079E+00,+305.175781E-06
-910.000E-09,+2.371859271079E+00,+305.175781E-06
-905.000E-09,+2.371859271079E+00,+305.175781E-06
-900.000E-09,+2.371859271079E+00,+305.175781E-06
-895.000E-09,+2.412060275674E+00,+305.175781E-06
-890.000E-09,+2.371859271079E+00,+305.175781E-06
-885.000E-09,+2.412060275674E+00,+305.175781E-06
-880.000E-09,+2.371859271079E+00,+305.175781E-06
-875.000E-09,+2.371859271079E+00,+305.175781E-06
-870.000E-09,+2.371859271079E+00,+305.175781E-06
-865.000E-09,+2.371859271079E+00,+305.175781E-06
-860.000E-09,+2.371859271079E+00,+305.175781E-06
-855.000E-09,+2.371859271079E+00,+305.175781E-06
-850.000E-09,+2.371859271079E+00,+305.175781E-06
-845.000E-09,+2.371859271079E+00,+305.175781E-06
-840.000E-09,+2.412060275674E+00,+305.175781E-06
-835.000E-09,+2.371859271079E+00,+305.175781E-06
-830.000E-09,+2.412060275674E+00,+305.175781E-06
-825.000E-09,+2.371859271079E+00,+305.175781E-06
-820.000E-09,+2.371859271079E+00,+305.175781E-06
-815.000E-09,+2.371859271079E+00,+305.175781E-06
-810.000E-09,+2.371859271079E+00,+305.175781E-06
-805.000E-09,+2.371859271079E+00,+305.175781E-06
-800.000E-09,+2.371859271079E+00,+305.175781E-06
-795.000E-09,+2.371859271079E+00,+305.175781E-06
-790.000E-09,+2.371859271079E+00,+305.175781E-06
-785.000E-09,+2.371859271079E+00,+305.175781E-06
-780.000E-09,+2.371859271079E+00,+305.175781E-06
-775.000E-09,+2.371859271079E+00,+305.175781E-06
-770.000E-09,+2.371859271079E+00,+305.175781E-06
-765.000E-09,+2.371859271079E+00,+305.175781E-06
-760.000E-09,+2.371859271079E+00,+305.175781E-06
-755.000E-09,+2.371859271079E+00,+305.175781E-06
-750.000E-09,+2.371859271079E+00,+305.175781E-06
-745.000E-09,+2.371859271079E+00,+305.175781E-06
-740.000E-09,+2.371859271079E+00,+305.175781E-06
-735.000E-09,+2.412060275674E+00,+305.175781E-06
-730.000E-09,+2.371859271079E+00,+305.175781E-06
-725.000E-09,+2.371859271079E+00,+305.175781E-06
-720.000E-09,+2.371859271079E+00,+305.175781E-06
-715.000E-09,+2.412060275672E+00,+305.175781E-06
-710.000E-09,+2.371859271079E+00,+305.175781E-06
-705.000E-09,+2.412060275674E+00,+305.175781E-06
-700.000E-09,+2.371859271079E+00,+305.175781E-06
-695.000E-09,+2.412060275672E+00,+305.175781E-06
-690.000E-09,+2.412060275674E+00,+305.175781E-06
-685.000E-09,+2.412060275674E+00,+305.175781E-06
-680.000E-09,+2.412060275674E+00,+305.175781E-06
-675.000E-09,+2.412060275672E+00,+305.175781E-06
-670.000E-09,+2.412060275674E+00,+305.175781E-06
-665.000E-09,+2.371859271079E+00,+305.175781E-06
-660.000E-09,+2.371859271079E+00,+305.175781E-06
-655.000E-09,+2.371859271079E+00,+305.175781E-06
-650.000E-09,+2.371859271079E+00,+305.175781E-06
-645.000E-09,+2.371859271079E+00,+305.175781E-06
-640.000E-09,+2.412060275674E+00,+305.175781E-06
-635.000E-09,+2.371859271079E+00,+305.175781E-06
-630.000E-09,+2.371859271079E+00,+305.175781E-06
-625.000E-09,+2.371859271079E+00,+305.175781E-06
-620.000E-09,+2.371859271079E+00,+305.175781E-06
-615.000E-09,+2.371859271079E+00,+305.175781E-06
-610.000E-09,+2.371859271079E+00,+305.175781E-06
-605.000E-09,+2.371859271079E+00,+305.175781E-06
-600.000E-09,+2.371859271079E+00,+305.175781E-06
-595.000E-09,+2.371859271079E+00,+305.175781E-06
-590.000E-09,+2.371859271079E+00,+305.175781E-06
-585.000E-09,+2.412060275674E+00,+305.175781E-06
-580.000E-09,+2.371859271079E+00,+305.175781E-06
-575.000E-09,+2.412060275674E+00,+305.175781E-06
-570.000E-09,+2.371859271079E+00,+305.175781E-06
-565.000E-09,+2.371859271079E+00,+305.175781E-06
-560.000E-09,+2.371859271081E+00,+305.175781E-06
-555.000E-09,+2.371859271079E+00,+305.175781E-06
-550.000E-09,+2.371859271079E+00,+305.175781E-06
-545.000E-09,+2.371859271079E+00,+305.175781E-06
-540.000E-09,+2.371859271079E+00,+305.175781E-06
-535.000E-09,+2.371859271079E+00,+305.175781E-06
-530.000E-09,+2.371859271079E+00,+305.175781E-06
-525.000E-09,+2.371859271079E+00,+305.175781E-06
-520.000E-09,+2.371859271079E+00,+305.175781E-06
-515.000E-09,+2.371859271079E+00,+305.175781E-06
-510.000E-09,+2.371859271081E+00,+305.175781E-06
-505.000E-09,+2.371859271079E+00,+305.175781E-06
-500.000E-09,+2.412060275674E+00,+305.175781E-06
-495.000E-09,+2.371859271079E+00,+305.175781E-06
-490.000E-09,+2.371859271079E+00,+305.175781E-06
-485.000E-09,+2.371859271079E+00,+305.175781E-06
-480.000E-09,+2.371859271081E+00,+305.175781E-06
-475.000E-09,+2.371859271079E+00,+305.175781E-06
-470.000E-09,+2.412060275674E+00,+305.175781E-06
-465.000E-09,+2.371859271079E+00,+305.175781E-06
-460.000E-09,+2.371859271079E+00,+305.175781E-06
-455.000E-09,+2.371859271079E+00,+305.175781E-06
-450.000E-09,+2.371859271079E+00,+305.175781E-06
-445.000E-09,+2.371859271079E+00,+305.175781E-06
-440.000E-09,+2.412060275674E+00,+305.175781E-06
-435.000E-09,+2.371859271079E+00,+305.175781E-06
-430.000E-09,+2.412060275674E+00,+305.175781E-06
-425.000E-09,+2.412060275674E+00,+305.175781E-06
-420.000E-09,+2.371859271081E+00,+305.175781E-06
-415.000E-09,+2.412060275672E+00,+305.175781E-06
-410.000E-09,+2.371859271079E+00,+305.175781E-06
-405.000E-09,+2.371859271079E+00,+305.175781E-06
-400.000E-09,+2.371859271079E+00,+305.175781E-06
-395.000E-09,+2.371859271079E+00,+305.175781E-06
-390.000E-09,+2.412060275674E+00,+305.175781E-06
-385.000E-09,+2.371859271079E+00,+305.175781E-06
-380.000E-09,+2.371859271079E+00,+305.175781E-06
-375.000E-09,+2.371859271079E+00,+305.175781E-06
-370.000E-09,+2.412060275674E+00,+305.175781E-06
-365.000E-09,+2.371859271079E+00,+305.175781E-06
-360.000E-09,+2.412060275674E+00,+305.175781E-06
-355.000E-09,+2.371859271079E+00,+305.175781E-06
-350.000E-09,+2.412060275674E+00,+305.175781E-06
-345.000E-09,+2.371859271079E+00,+305.175781E-06
-340.000E-09,+2.371859271079E+00,+305.175781E-06
-335.000E-09,+2.371859271079E+00,+305.175781E-06
-330.000E-09,+2.371859271079E+00,+305.175781E-06
-325.000E-09,+2.371859271079E+00,+305.175781E-06
-320.000E-09,+2.371859271079E+00,+305.175781E-06
-315.000E-09,+2.412060275674E+00,+305.175781E-06
-310.000E-09,+2.371859271079E+00,+305.175781E-06
-305.000E-09,+2.371859271079E+00,+305.175781E-06
-300.000E-09,+2.371859271079E+00,+305.175781E-06
-295.000E-09,+2.412060275674E+00,+305.175781E-06
-290.000E-09,+2.371859271079E+00,+305.175781E-06
-285.000E-09,+2.412060275674E+00,+305.175781E-06
-280.000E-09,+2.371859271079E+00,+305.175781E-06
-275.000E-09,+2.412060275674E+00,+305.175781E-06
-270.000E-09,+2.371859271081E+00,+305.175781E-06
-265.000E-09,+2.412060275674E+00,+305.175781E-06
-260.000E-09,+2.371859271079E+00,+305.175781E-06
-255.000E-09,+2.371859271079E+00,+305.175781E-06
-250.000E-09,+2.371859271079E+00,+305.175781E-06
-245.000E-09,+2.371859271079E+00,+305.175781E-06
-240.000E-09,+2.371859271079E+00,+305.175781E-06
-235.000E-09,+2.412060275672E+00,+305.175781E-06
-230.000E-09,+2.412060275674E+00,+305.175781E-06
-225.000E-09,+2.371859271079E+00,+305.175781E-06
-220.000E-09,+2.371859271079E+00,+305.175781E-06
-215.000E-09,+2.371859271079E+00,+305.175781E-06
-210.000E-09,+2.371859271079E+00,+305.175781E-06
-205.000E-09,+2.371859271079E+00,+305.175781E-06
-200.000E-09,+2.412060275674E+00,+305.175781E-06
-195.000E-09,+2.371859271079E+00,+305.175781E-06
-190.000E-09,+2.412060275674E+00,+305.175781E-06
-185.000E-09,+2.412060275674E+00,+305.175781E-06
-180.000E-09,+2.412060275674E+00,+305.175781E-06
-175.000E-09,+2.412060275674E+00,+305.175781E-06
-170.000E-09,+2.371859271079E+00,+305.175781E-06
-165.000E-09,+2.412060275674E+00,+305.175781E-06
-160.000E-09,+2.371859271079E+00,+305.175781E-06
-155.000E-09,+2.412060275672E+00,+305.175781E-06
-150.000E-09,+2.371859271079E+00,+305.175781E-06
-145.000E-09,+2.412060275674E+00,+305.175781E-06
-140.000E-09,+2.371859271079E+00,+305.175781E-06
-135.000E-09,+2.412060275674E+00,+305.175781E-06
-130.000E-09,+2.371859271079E+00,+305.175781E-06
-125.000E-09,+2.412060275674E+00,+305.175781E-06
-120.000E-09,+2.371859271079E+00,+305.175781E-06
-115.000E-09,+2.371859271079E+00,+305.175781E-06
-110.000E-09,+2.371859271079E+00,+305.175781E-06
-105.000E-09,+2.412060275672E+00,+305.175781E-06
-100.000E-09,+2.412060275674E+00,+305.175781E-06
-95.000E-09,+2.412060275674E+00,+305.175781E-06
-90.000E-09,+2.412060275674E+00,+305.175781E-06
-85.000E-09,+2.371859271079E+00,+305.175781E-06
-80.000E-09,+2.371859271079E+00,+305.175781E-06
-75.000E-09,+2.371859271079E+00,+305.175781E-06
-70.000E-09,+2.371859271079E+00,+305.175781E-06
-65.000E-09,+2.371859271079E+00,+305.175781E-06
-60.000E-09,+2.412060275674E+00,+305.175781E-06
-55.000E-09,+2.412060275674E+00,+305.175781E-06
-50.000E-09,+2.371859271079E+00,+305.175781E-06
-45.000E-09,+2.412060275674E+00,+305.175781E-06
-40.000E-09,+2.371859271079E+00,+305.175781E-06
-35.000E-09,+2.371859271079E+00,+305.175781E-06
-30.000E-09,+2.371859271079E+00,+305.175781E-06
-25.000E-09,+2.371859271081E+00,+305.175781E-06
-20.000E-09,+2.371859271079E+00,+305.175781E-06
-15.000E-09,+2.412060275674E+00,+305.175781E-06
-10.000E-09,+2.371859271079E+00,+305.175781E-06
-5.000E-09,+2.371859271079E+00,+305.175781E-06
-0.0E+00,+2.371859271079E+00,+305.175781E-06
+5.000E-09,+2.291457261892E+00,+305.175781E-06
+10.000E-09,+2.251256257296E+00,+305.175781E-06
+15.000E-09,+2.251256257296E+00,+305.175781E-06
+20.000E-09,+2.251256257296E+00,+305.175781E-06
+25.000E-09,+2.291457261890E+00,+305.175781E-06
+30.000E-09,+2.291457261890E+00,+305.175781E-06
+35.000E-09,+2.251256257298E+00,+305.175781E-06
+40.000E-09,+2.291457261890E+00,+305.175781E-06
+45.000E-09,+2.251256257296E+00,+305.175781E-06
+50.000E-09,+2.211055252701E+00,+305.175781E-06
+55.000E-09,+2.170854248106E+00,+305.175781E-06
+60.000E-09,+2.130653243512E+00,+305.175781E-06
+65.000E-09,+2.130653243512E+00,+305.175781E-06
+70.000E-09,+2.090452238917E+00,+305.175781E-06
+75.000E-09,+2.050251234325E+00,+305.175781E-06
+80.000E-09,+2.050251234323E+00,+305.175781E-06
+85.000E-09,+2.010050229728E+00,+305.175781E-06
+90.000E-09,+2.010050229728E+00,+305.175781E-06
+95.000E-09,+1.969849225136E+00,+305.175781E-06
+100.000E-09,+1.969849225134E+00,+305.175781E-06
+105.000E-09,+1.969849225134E+00,+305.175781E-06
+110.000E-09,+1.929648220539E+00,+305.175781E-06
+115.000E-09,+1.889447215945E+00,+305.175781E-06
+120.000E-09,+1.889447215945E+00,+305.175781E-06
+125.000E-09,+1.889447215945E+00,+305.175781E-06
+130.000E-09,+1.849246211350E+00,+305.175781E-06
+135.000E-09,+1.809045206755E+00,+305.175781E-06
+140.000E-09,+1.809045206755E+00,+305.175781E-06
+145.000E-09,+1.768844202161E+00,+305.175781E-06
+150.000E-09,+1.768844202161E+00,+305.175781E-06
+155.000E-09,+1.728643197568E+00,+305.175781E-06
+160.000E-09,+1.728643197566E+00,+305.175781E-06
+165.000E-09,+1.688442192972E+00,+305.175781E-06
+170.000E-09,+1.648241188377E+00,+305.175781E-06
+175.000E-09,+1.648241188377E+00,+305.175781E-06
+180.000E-09,+1.648241188377E+00,+305.175781E-06
+185.000E-09,+1.608040183783E+00,+305.175781E-06
+190.000E-09,+1.567839179188E+00,+305.175781E-06
+195.000E-09,+1.567839179188E+00,+305.175781E-06
+200.000E-09,+1.567839179188E+00,+305.175781E-06
+205.000E-09,+1.527638174593E+00,+305.175781E-06
+210.000E-09,+1.487437170001E+00,+305.175781E-06
+215.000E-09,+1.487437169999E+00,+305.175781E-06
+220.000E-09,+1.487437169999E+00,+305.175781E-06
+225.000E-09,+1.447236165404E+00,+305.175781E-06
+230.000E-09,+1.447236165404E+00,+305.175781E-06
+235.000E-09,+1.407035160810E+00,+305.175781E-06
+240.000E-09,+1.407035160810E+00,+305.175781E-06
+245.000E-09,+1.366834156215E+00,+305.175781E-06
+250.000E-09,+1.366834156215E+00,+305.175781E-06
+255.000E-09,+1.366834156215E+00,+305.175781E-06
+260.000E-09,+1.326633151621E+00,+305.175781E-06
+265.000E-09,+1.326633151621E+00,+305.175781E-06
+270.000E-09,+1.286432147026E+00,+305.175781E-06
+275.000E-09,+1.286432147026E+00,+305.175781E-06
+280.000E-09,+1.246231142432E+00,+305.175781E-06
+285.000E-09,+1.246231142432E+00,+305.175781E-06
+290.000E-09,+1.206030137837E+00,+305.175781E-06
+295.000E-09,+1.206030137837E+00,+305.175781E-06
+300.000E-09,+1.165829133242E+00,+305.175781E-06
+305.000E-09,+1.165829133242E+00,+305.175781E-06
+310.000E-09,+1.125628128648E+00,+305.175781E-06
+315.000E-09,+1.125628128648E+00,+305.175781E-06
+320.000E-09,+1.085427124055E+00,+305.175781E-06
+325.000E-09,+1.085427124053E+00,+305.175781E-06
+330.000E-09,+1.085427124053E+00,+305.175781E-06
+335.000E-09,+1.045226119459E+00,+305.175781E-06
+340.000E-09,+1.045226119459E+00,+305.175781E-06
+345.000E-09,+1.045226119459E+00,+305.175781E-06
+350.000E-09,+1.005025114864E+00,+305.175781E-06
+355.000E-09,+1.005025114864E+00,+305.175781E-06
+360.000E-09,+964.824110270E-03,+305.175781E-06
+365.000E-09,+964.824110270E-03,+305.175781E-06
+370.000E-09,+924.623105677E-03,+305.175781E-06
+375.000E-09,+924.623105675E-03,+305.175781E-06
+380.000E-09,+884.422101080E-03,+305.175781E-06
+385.000E-09,+884.422101080E-03,+305.175781E-06
+390.000E-09,+844.221096486E-03,+305.175781E-06
+395.000E-09,+844.221096486E-03,+305.175781E-06
+400.000E-09,+844.221096486E-03,+305.175781E-06
+405.000E-09,+844.221096486E-03,+305.175781E-06
+410.000E-09,+804.020091891E-03,+305.175781E-06
+415.000E-09,+804.020091891E-03,+305.175781E-06
+420.000E-09,+763.819087297E-03,+305.175781E-06
+425.000E-09,+763.819087297E-03,+305.175781E-06
+430.000E-09,+723.618082702E-03,+305.175781E-06
+435.000E-09,+723.618082702E-03,+305.175781E-06
+440.000E-09,+683.417078108E-03,+305.175781E-06
+445.000E-09,+683.417078108E-03,+305.175781E-06
+450.000E-09,+683.417078108E-03,+305.175781E-06
+455.000E-09,+643.216073513E-03,+305.175781E-06
+460.000E-09,+643.216073513E-03,+305.175781E-06
+465.000E-09,+643.216073513E-03,+305.175781E-06
+470.000E-09,+643.216073513E-03,+305.175781E-06
+475.000E-09,+603.015068918E-03,+305.175781E-06
+480.000E-09,+603.015068918E-03,+305.175781E-06
+485.000E-09,+562.814064324E-03,+305.175781E-06
+490.000E-09,+562.814064324E-03,+305.175781E-06
+495.000E-09,+522.613059731E-03,+305.175781E-06
+500.000E-09,+522.613059729E-03,+305.175781E-06
+505.000E-09,+482.412055135E-03,+305.175781E-06
+510.000E-09,+482.412055135E-03,+305.175781E-06
+515.000E-09,+482.412055135E-03,+305.175781E-06
+520.000E-09,+482.412055135E-03,+305.175781E-06
+525.000E-09,+442.211050540E-03,+305.175781E-06
+530.000E-09,+442.211050540E-03,+305.175781E-06
+535.000E-09,+442.211050540E-03,+305.175781E-06
+540.000E-09,+402.010045946E-03,+305.175781E-06
+545.000E-09,+402.010045946E-03,+305.175781E-06
+550.000E-09,+402.010045946E-03,+305.175781E-06
+555.000E-09,+361.809041353E-03,+305.175781E-06
+560.000E-09,+361.809041351E-03,+305.175781E-06
+565.000E-09,+361.809041351E-03,+305.175781E-06
+570.000E-09,+321.608036758E-03,+305.175781E-06
+575.000E-09,+321.608036757E-03,+305.175781E-06
+580.000E-09,+321.608036757E-03,+305.175781E-06
+585.000E-09,+321.608036757E-03,+305.175781E-06
+590.000E-09,+281.407032162E-03,+305.175781E-06
+595.000E-09,+281.407032162E-03,+305.175781E-06
+600.000E-09,+241.206027569E-03,+305.175781E-06
+605.000E-09,+241.206027567E-03,+305.175781E-06
+610.000E-09,+201.005022973E-03,+305.175781E-06
+615.000E-09,+201.005022973E-03,+305.175781E-06
+620.000E-09,+201.005022973E-03,+305.175781E-06
+625.000E-09,+201.005022973E-03,+305.175781E-06
+630.000E-09,+160.804018378E-03,+305.175781E-06
+635.000E-09,+160.804018378E-03,+305.175781E-06
+640.000E-09,+160.804018378E-03,+305.175781E-06
+645.000E-09,+160.804018376E-03,+305.175781E-06
+650.000E-09,+120.603013784E-03,+305.175781E-06
+655.000E-09,+120.603013784E-03,+305.175781E-06
+660.000E-09,+80.402009189E-03,+305.175781E-06
+665.000E-09,+80.402009189E-03,+305.175781E-06
+670.000E-09,+80.402009189E-03,+305.175781E-06
+675.000E-09,+80.402009189E-03,+305.175781E-06
+680.000E-09,+40.201004595E-03,+305.175781E-06
+685.000E-09,+40.201004595E-03,+305.175781E-06
+690.000E-09,+40.201004595E-03,+305.175781E-06
+695.000E-09,+0.0E+00,+305.175781E-06
+700.000E-09,+0.0E+00,+305.175781E-06
+705.000E-09,+0.0E+00,+305.175781E-06
+710.000E-09,+0.0E+00,+305.175781E-06
+715.000E-09,-40.201004595E-03,+305.175781E-06
+720.000E-09,-40.201004595E-03,+305.175781E-06
+725.000E-09,-80.402009189E-03,+305.175781E-06
+730.000E-09,-40.201004595E-03,+305.175781E-06
+735.000E-09,-80.402009189E-03,+305.175781E-06
+740.000E-09,-80.402009189E-03,+305.175781E-06
+745.000E-09,-120.603013784E-03,+305.175781E-06
+750.000E-09,-80.402009189E-03,+305.175781E-06
+755.000E-09,-160.804018376E-03,+305.175781E-06
+760.000E-09,-120.603013784E-03,+305.175781E-06
+765.000E-09,-120.603013784E-03,+305.175781E-06
+770.000E-09,-160.804018378E-03,+305.175781E-06
+775.000E-09,-160.804018378E-03,+305.175781E-06
+780.000E-09,-160.804018378E-03,+305.175781E-06
+785.000E-09,-201.005022973E-03,+305.175781E-06
+790.000E-09,-201.005022973E-03,+305.175781E-06
+795.000E-09,-201.005022973E-03,+305.175781E-06
+800.000E-09,-201.005022973E-03,+305.175781E-06
+805.000E-09,-241.206027567E-03,+305.175781E-06
+810.000E-09,-241.206027567E-03,+305.175781E-06
+815.000E-09,-241.206027567E-03,+305.175781E-06
+820.000E-09,-281.407032162E-03,+305.175781E-06
+825.000E-09,-281.407032162E-03,+305.175781E-06
+830.000E-09,-281.407032162E-03,+305.175781E-06
+835.000E-09,-281.407032162E-03,+305.175781E-06
+840.000E-09,-281.407032162E-03,+305.175781E-06
+845.000E-09,-321.608036757E-03,+305.175781E-06
+850.000E-09,-321.608036757E-03,+305.175781E-06
+855.000E-09,-321.608036757E-03,+305.175781E-06
+860.000E-09,-361.809041351E-03,+305.175781E-06
+865.000E-09,-361.809041351E-03,+305.175781E-06
+870.000E-09,-361.809041351E-03,+305.175781E-06
+875.000E-09,-361.809041351E-03,+305.175781E-06
+880.000E-09,-361.809041351E-03,+305.175781E-06
+885.000E-09,-402.010045946E-03,+305.175781E-06
+890.000E-09,-402.010045946E-03,+305.175781E-06
+895.000E-09,-402.010045946E-03,+305.175781E-06
+900.000E-09,-402.010045946E-03,+305.175781E-06
+905.000E-09,-442.211050540E-03,+305.175781E-06
+910.000E-09,-442.211050540E-03,+305.175781E-06
+915.000E-09,-442.211050540E-03,+305.175781E-06
+920.000E-09,-442.211050540E-03,+305.175781E-06
+925.000E-09,-482.412055135E-03,+305.175781E-06
+930.000E-09,-482.412055135E-03,+305.175781E-06
+935.000E-09,-482.412055135E-03,+305.175781E-06
+940.000E-09,-482.412055135E-03,+305.175781E-06
+945.000E-09,-482.412055135E-03,+305.175781E-06
+950.000E-09,-522.613059729E-03,+305.175781E-06
+955.000E-09,-522.613059729E-03,+305.175781E-06
+960.000E-09,-522.613059729E-03,+305.175781E-06
+965.000E-09,-522.613059729E-03,+305.175781E-06
+970.000E-09,-562.814064324E-03,+305.175781E-06
+975.000E-09,-562.814064324E-03,+305.175781E-06
+980.000E-09,-562.814064324E-03,+305.175781E-06
+985.000E-09,-562.814064324E-03,+305.175781E-06
+990.000E-09,-562.814064324E-03,+305.175781E-06
+995.000E-09,-603.015068918E-03,+305.175781E-06
+1.000000E-06,-603.015068918E-03,+305.175781E-06
+1.005000E-06,-603.015068918E-03,+305.175781E-06
+1.010000E-06,-643.216073513E-03,+305.175781E-06
+1.015000E-06,-643.216073513E-03,+305.175781E-06
+1.020000E-06,-643.216073513E-03,+305.175781E-06
+1.025000E-06,-643.216073513E-03,+305.175781E-06
+1.030000E-06,-683.417078108E-03,+305.175781E-06
+1.035000E-06,-683.417078108E-03,+305.175781E-06
+1.040000E-06,-683.417078108E-03,+305.175781E-06
+1.045000E-06,-683.417078108E-03,+305.175781E-06
+1.050000E-06,-683.417078108E-03,+305.175781E-06
+1.055000E-06,-723.618082700E-03,+305.175781E-06
+1.060000E-06,-723.618082702E-03,+305.175781E-06
+1.065000E-06,-723.618082702E-03,+305.175781E-06
+1.070000E-06,-723.618082702E-03,+305.175781E-06
+1.075000E-06,-723.618082702E-03,+305.175781E-06
+1.080000E-06,-763.819087297E-03,+305.175781E-06
+1.085000E-06,-763.819087297E-03,+305.175781E-06
+1.090000E-06,-763.819087297E-03,+305.175781E-06
+1.095000E-06,-763.819087297E-03,+305.175781E-06
+1.100000E-06,-804.020091891E-03,+305.175781E-06
+1.105000E-06,-763.819087297E-03,+305.175781E-06
+1.110000E-06,-804.020091891E-03,+305.175781E-06
+1.115000E-06,-804.020091891E-03,+305.175781E-06
+1.120000E-06,-804.020091891E-03,+305.175781E-06
+1.125000E-06,-804.020091891E-03,+305.175781E-06
+1.130000E-06,-844.221096484E-03,+305.175781E-06
+1.135000E-06,-804.020091894E-03,+305.175781E-06
+1.140000E-06,-844.221096486E-03,+305.175781E-06
+1.145000E-06,-844.221096486E-03,+305.175781E-06
+1.150000E-06,-844.221096486E-03,+305.175781E-06
+1.155000E-06,-844.221096486E-03,+305.175781E-06
+1.160000E-06,-884.422101080E-03,+305.175781E-06
+1.165000E-06,-884.422101080E-03,+305.175781E-06
+1.170000E-06,-884.422101078E-03,+305.175781E-06
+1.175000E-06,-884.422101080E-03,+305.175781E-06
+1.180000E-06,-924.623105673E-03,+305.175781E-06
+1.185000E-06,-884.422101080E-03,+305.175781E-06
+1.190000E-06,-924.623105675E-03,+305.175781E-06
+1.195000E-06,-924.623105675E-03,+305.175781E-06
+1.200000E-06,-924.623105675E-03,+305.175781E-06
+1.205000E-06,-924.623105675E-03,+305.175781E-06
+1.210000E-06,-924.623105675E-03,+305.175781E-06
+1.215000E-06,-924.623105675E-03,+305.175781E-06
+1.220000E-06,-964.824110270E-03,+305.175781E-06
+1.225000E-06,-964.824110270E-03,+305.175781E-06
+1.230000E-06,-964.824110270E-03,+305.175781E-06
+1.235000E-06,-964.824110270E-03,+305.175781E-06
+1.240000E-06,-1.005025114864E+00,+305.175781E-06
+1.245000E-06,-964.824110270E-03,+305.175781E-06
+1.250000E-06,-1.005025114864E+00,+305.175781E-06
+1.255000E-06,-1.005025114864E+00,+305.175781E-06
+1.260000E-06,-1.005025114864E+00,+305.175781E-06
+1.265000E-06,-1.005025114864E+00,+305.175781E-06
+1.270000E-06,-1.005025114864E+00,+305.175781E-06
+1.275000E-06,-1.045226119459E+00,+305.175781E-06
+1.280000E-06,-1.045226119459E+00,+305.175781E-06
+1.285000E-06,-1.045226119459E+00,+305.175781E-06
+1.290000E-06,-1.045226119459E+00,+305.175781E-06
+1.295000E-06,-1.045226119459E+00,+305.175781E-06
+1.300000E-06,-1.045226119459E+00,+305.175781E-06
+1.305000E-06,-1.085427124053E+00,+305.175781E-06
+1.310000E-06,-1.045226119461E+00,+305.175781E-06
+1.315000E-06,-1.085427124053E+00,+305.175781E-06
+1.320000E-06,-1.085427124053E+00,+305.175781E-06
+1.325000E-06,-1.125628128648E+00,+305.175781E-06
+1.330000E-06,-1.085427124053E+00,+305.175781E-06
+1.335000E-06,-1.125628128648E+00,+305.175781E-06
+1.340000E-06,-1.125628128648E+00,+305.175781E-06
+1.345000E-06,-1.125628128648E+00,+305.175781E-06
+1.350000E-06,-1.125628128648E+00,+305.175781E-06
+1.355000E-06,-1.165829133240E+00,+305.175781E-06
+1.360000E-06,-1.165829133242E+00,+305.175781E-06
+1.365000E-06,-1.165829133242E+00,+305.175781E-06
+1.370000E-06,-1.165829133242E+00,+305.175781E-06
+1.375000E-06,-1.165829133242E+00,+305.175781E-06
+1.380000E-06,-1.165829133242E+00,+305.175781E-06
+1.385000E-06,-1.165829133242E+00,+305.175781E-06
+1.390000E-06,-1.165829133242E+00,+305.175781E-06
+1.395000E-06,-1.165829133242E+00,+305.175781E-06
+1.400000E-06,-1.165829133242E+00,+305.175781E-06
+1.405000E-06,-1.206030137837E+00,+305.175781E-06
+1.410000E-06,-1.206030137837E+00,+305.175781E-06
+1.415000E-06,-1.206030137837E+00,+305.175781E-06
+1.420000E-06,-1.206030137837E+00,+305.175781E-06
+1.425000E-06,-1.206030137837E+00,+305.175781E-06
+1.430000E-06,-1.206030137837E+00,+305.175781E-06
+1.435000E-06,-1.246231142432E+00,+305.175781E-06
+1.440000E-06,-1.206030137837E+00,+305.175781E-06
+1.445000E-06,-1.246231142432E+00,+305.175781E-06
+1.450000E-06,-1.246231142432E+00,+305.175781E-06
+1.455000E-06,-1.246231142432E+00,+305.175781E-06
+1.460000E-06,-1.246231142432E+00,+305.175781E-06
+1.465000E-06,-1.246231142434E+00,+305.175781E-06
+1.470000E-06,-1.286432147026E+00,+305.175781E-06
+1.475000E-06,-1.286432147026E+00,+305.175781E-06
+1.480000E-06,-1.286432147026E+00,+305.175781E-06
+1.485000E-06,-1.286432147026E+00,+305.175781E-06
+1.490000E-06,-1.286432147026E+00,+305.175781E-06
+1.495000E-06,-1.286432147026E+00,+305.175781E-06
+1.500000E-06,-1.326633151621E+00,+305.175781E-06
+1.505000E-06,-1.326633151621E+00,+305.175781E-06
+1.510000E-06,-1.326633151621E+00,+305.175781E-06
+1.515000E-06,-1.326633151621E+00,+305.175781E-06
+1.520000E-06,-1.326633151621E+00,+305.175781E-06
+1.525000E-06,-1.366834156213E+00,+305.175781E-06
+1.530000E-06,-1.326633151621E+00,+305.175781E-06
+1.535000E-06,-1.326633151621E+00,+305.175781E-06
+1.540000E-06,-1.326633151621E+00,+305.175781E-06
+1.545000E-06,-1.366834156215E+00,+305.175781E-06
+1.550000E-06,-1.366834156215E+00,+305.175781E-06
+1.555000E-06,-1.366834156215E+00,+305.175781E-06
+1.560000E-06,-1.326633151621E+00,+305.175781E-06
+1.565000E-06,-1.366834156215E+00,+305.175781E-06
+1.570000E-06,-1.366834156215E+00,+305.175781E-06
+1.575000E-06,-1.407035160810E+00,+305.175781E-06
+1.580000E-06,-1.366834156215E+00,+305.175781E-06
+1.585000E-06,-1.366834156215E+00,+305.175781E-06
+1.590000E-06,-1.366834156215E+00,+305.175781E-06
+1.595000E-06,-1.407035160810E+00,+305.175781E-06
+1.600000E-06,-1.366834156215E+00,+305.175781E-06
+1.605000E-06,-1.407035160810E+00,+305.175781E-06
+1.610000E-06,-1.407035160810E+00,+305.175781E-06
+1.615000E-06,-1.407035160810E+00,+305.175781E-06
+1.620000E-06,-1.407035160810E+00,+305.175781E-06
+1.625000E-06,-1.407035160810E+00,+305.175781E-06
+1.630000E-06,-1.447236165404E+00,+305.175781E-06
+1.635000E-06,-1.447236165404E+00,+305.175781E-06
+1.640000E-06,-1.447236165404E+00,+305.175781E-06
+1.645000E-06,-1.447236165404E+00,+305.175781E-06
+1.650000E-06,-1.447236165404E+00,+305.175781E-06
+1.655000E-06,-1.447236165404E+00,+305.175781E-06
+1.660000E-06,-1.487437169999E+00,+305.175781E-06
+1.665000E-06,-1.447236165404E+00,+305.175781E-06
+1.670000E-06,-1.487437169999E+00,+305.175781E-06
+1.675000E-06,-1.447236165404E+00,+305.175781E-06
+1.680000E-06,-1.487437169999E+00,+305.175781E-06
+1.685000E-06,-1.487437169999E+00,+305.175781E-06
+1.690000E-06,-1.487437169999E+00,+305.175781E-06
+1.695000E-06,-1.487437169999E+00,+305.175781E-06
+1.700000E-06,-1.487437169999E+00,+305.175781E-06
+1.705000E-06,-1.487437169999E+00,+305.175781E-06
+1.710000E-06,-1.527638174593E+00,+305.175781E-06
+1.715000E-06,-1.527638174591E+00,+305.175781E-06
+1.720000E-06,-1.527638174593E+00,+305.175781E-06
+1.725000E-06,-1.527638174593E+00,+305.175781E-06
+1.730000E-06,-1.527638174593E+00,+305.175781E-06
+1.735000E-06,-1.527638174593E+00,+305.175781E-06
+1.740000E-06,-1.527638174593E+00,+305.175781E-06
+1.745000E-06,-1.527638174593E+00,+305.175781E-06
+1.750000E-06,-1.527638174596E+00,+305.175781E-06
+1.755000E-06,-1.567839179185E+00,+305.175781E-06
+1.760000E-06,-1.527638174593E+00,+305.175781E-06
+1.765000E-06,-1.567839179188E+00,+305.175781E-06
+1.770000E-06,-1.567839179188E+00,+305.175781E-06
+1.775000E-06,-1.567839179188E+00,+305.175781E-06
+1.780000E-06,-1.567839179188E+00,+305.175781E-06
+1.785000E-06,-1.567839179188E+00,+305.175781E-06
+1.790000E-06,-1.567839179188E+00,+305.175781E-06
+1.795000E-06,-1.567839179188E+00,+305.175781E-06
+1.800000E-06,-1.567839179188E+00,+305.175781E-06
+1.805000E-06,-1.567839179188E+00,+305.175781E-06
+1.810000E-06,-1.608040183783E+00,+305.175781E-06
+1.815000E-06,-1.608040183780E+00,+305.175781E-06
+1.820000E-06,-1.608040183783E+00,+305.175781E-06
+1.825000E-06,-1.608040183783E+00,+305.175781E-06
+1.830000E-06,-1.608040183783E+00,+305.175781E-06
+1.835000E-06,-1.648241188374E+00,+305.175781E-06
+1.840000E-06,-1.608040183783E+00,+305.175781E-06
+1.845000E-06,-1.648241188377E+00,+305.175781E-06
+1.850000E-06,-1.608040183783E+00,+305.175781E-06
+1.855000E-06,-1.648241188377E+00,+305.175781E-06
+1.860000E-06,-1.648241188377E+00,+305.175781E-06
+1.865000E-06,-1.608040183783E+00,+305.175781E-06
+1.870000E-06,-1.608040183786E+00,+305.175781E-06
+1.875000E-06,-1.648241188377E+00,+305.175781E-06
+1.880000E-06,-1.648241188377E+00,+305.175781E-06
+1.885000E-06,-1.648241188377E+00,+305.175781E-06
+1.890000E-06,-1.648241188377E+00,+305.175781E-06
+1.895000E-06,-1.648241188377E+00,+305.175781E-06
+1.900000E-06,-1.648241188377E+00,+305.175781E-06
+1.905000E-06,-1.648241188377E+00,+305.175781E-06
+1.910000E-06,-1.648241188377E+00,+305.175781E-06
+1.915000E-06,-1.688442192972E+00,+305.175781E-06
+1.920000E-06,-1.688442192972E+00,+305.175781E-06
+1.925000E-06,-1.688442192972E+00,+305.175781E-06
+1.930000E-06,-1.688442192972E+00,+305.175781E-06
+1.935000E-06,-1.688442192972E+00,+305.175781E-06
+1.940000E-06,-1.688442192972E+00,+305.175781E-06
+1.945000E-06,-1.688442192972E+00,+305.175781E-06
+1.950000E-06,-1.688442192972E+00,+305.175781E-06
+1.955000E-06,-1.688442192972E+00,+305.175781E-06
+1.960000E-06,-1.688442192972E+00,+305.175781E-06
+1.965000E-06,-1.688442192972E+00,+305.175781E-06
+1.970000E-06,-1.688442192972E+00,+305.175781E-06
+1.975000E-06,-1.688442192972E+00,+305.175781E-06
+1.980000E-06,-1.728643197566E+00,+305.175781E-06
+1.985000E-06,-1.728643197566E+00,+305.175781E-06
+1.990000E-06,-1.728643197566E+00,+305.175781E-06
+1.995000E-06,-1.728643197566E+00,+305.175781E-06
+2.000000E-06,-1.728643197566E+00,+305.175781E-06
+2.005000E-06,-1.728643197566E+00,+305.175781E-06
+2.010000E-06,-1.728643197566E+00,+305.175781E-06
+2.015000E-06,-1.728643197566E+00,+305.175781E-06
+2.020000E-06,-1.728643197566E+00,+305.175781E-06
+2.025000E-06,-1.768844202161E+00,+305.175781E-06
+2.030000E-06,-1.768844202161E+00,+305.175781E-06
+2.035000E-06,-1.768844202161E+00,+305.175781E-06
+2.040000E-06,-1.768844202158E+00,+305.175781E-06
+2.045000E-06,-1.768844202161E+00,+305.175781E-06
+2.050000E-06,-1.768844202161E+00,+305.175781E-06
+2.055000E-06,-1.768844202161E+00,+305.175781E-06
+2.060000E-06,-1.768844202161E+00,+305.175781E-06
+2.065000E-06,-1.768844202161E+00,+305.175781E-06
+2.070000E-06,-1.768844202161E+00,+305.175781E-06
+2.075000E-06,-1.768844202161E+00,+305.175781E-06
+2.080000E-06,-1.768844202161E+00,+305.175781E-06
+2.085000E-06,-1.768844202161E+00,+305.175781E-06
+2.090000E-06,-1.768844202161E+00,+305.175781E-06
+2.095000E-06,-1.809045206755E+00,+305.175781E-06
+2.100000E-06,-1.809045206755E+00,+305.175781E-06
+2.105000E-06,-1.809045206755E+00,+305.175781E-06
+2.110000E-06,-1.809045206755E+00,+305.175781E-06
+2.115000E-06,-1.809045206755E+00,+305.175781E-06
+2.120000E-06,-1.809045206755E+00,+305.175781E-06
+2.125000E-06,-1.809045206755E+00,+305.175781E-06
+2.130000E-06,-1.809045206755E+00,+305.175781E-06
+2.135000E-06,-1.809045206755E+00,+305.175781E-06
+2.140000E-06,-1.809045206755E+00,+305.175781E-06
+2.145000E-06,-1.809045206755E+00,+305.175781E-06
+2.150000E-06,-1.809045206755E+00,+305.175781E-06
+2.155000E-06,-1.809045206755E+00,+305.175781E-06
+2.160000E-06,-1.809045206755E+00,+305.175781E-06
+2.165000E-06,-1.809045206755E+00,+305.175781E-06
+2.170000E-06,-1.809045206755E+00,+305.175781E-06
+2.175000E-06,-1.849246211350E+00,+305.175781E-06
+2.180000E-06,-1.849246211350E+00,+305.175781E-06
+2.185000E-06,-1.849246211350E+00,+305.175781E-06
+2.190000E-06,-1.849246211350E+00,+305.175781E-06
+2.195000E-06,-1.849246211350E+00,+305.175781E-06
+2.200000E-06,-1.849246211350E+00,+305.175781E-06
+2.205000E-06,-1.849246211350E+00,+305.175781E-06
+2.210000E-06,-1.849246211350E+00,+305.175781E-06
+2.215000E-06,-1.849246211350E+00,+305.175781E-06
+2.220000E-06,-1.849246211350E+00,+305.175781E-06
+2.225000E-06,-1.849246211350E+00,+305.175781E-06
+2.230000E-06,-1.849246211350E+00,+305.175781E-06
+2.235000E-06,-1.849246211350E+00,+305.175781E-06
+2.240000E-06,-1.889447215941E+00,+305.175781E-06
+2.245000E-06,-1.889447215945E+00,+305.175781E-06
+2.250000E-06,-1.889447215945E+00,+305.175781E-06
+2.255000E-06,-1.889447215945E+00,+305.175781E-06
+2.260000E-06,-1.889447215945E+00,+305.175781E-06
+2.265000E-06,-1.889447215945E+00,+305.175781E-06
+2.270000E-06,-1.889447215945E+00,+305.175781E-06
+2.275000E-06,-1.889447215945E+00,+305.175781E-06
+2.280000E-06,-1.889447215945E+00,+305.175781E-06
+2.285000E-06,-1.889447215945E+00,+305.175781E-06
+2.290000E-06,-1.889447215945E+00,+305.175781E-06
+2.295000E-06,-1.889447215945E+00,+305.175781E-06
+2.300000E-06,-1.889447215945E+00,+305.175781E-06
+2.305000E-06,-1.889447215945E+00,+305.175781E-06
+2.310000E-06,-1.889447215945E+00,+305.175781E-06
+2.315000E-06,-1.929648220539E+00,+305.175781E-06
+2.320000E-06,-1.889447215945E+00,+305.175781E-06
+2.325000E-06,-1.929648220539E+00,+305.175781E-06
+2.330000E-06,-1.929648220539E+00,+305.175781E-06
+2.335000E-06,-1.929648220539E+00,+305.175781E-06
+2.340000E-06,-1.929648220539E+00,+305.175781E-06
+2.345000E-06,-1.889447215948E+00,+305.175781E-06
+2.350000E-06,-1.929648220539E+00,+305.175781E-06
+2.355000E-06,-1.929648220539E+00,+305.175781E-06
+2.360000E-06,-1.929648220539E+00,+305.175781E-06
+2.365000E-06,-1.929648220539E+00,+305.175781E-06
+2.370000E-06,-1.929648220539E+00,+305.175781E-06
+2.375000E-06,-1.929648220539E+00,+305.175781E-06
+2.380000E-06,-1.929648220539E+00,+305.175781E-06
+2.385000E-06,-1.929648220539E+00,+305.175781E-06
+2.390000E-06,-1.929648220539E+00,+305.175781E-06
+2.395000E-06,-1.929648220539E+00,+305.175781E-06
+2.400000E-06,-1.929648220539E+00,+305.175781E-06
+2.405000E-06,-1.929648220539E+00,+305.175781E-06
+2.410000E-06,-1.969849225134E+00,+305.175781E-06
+2.415000E-06,-1.969849225134E+00,+305.175781E-06
+2.420000E-06,-1.969849225134E+00,+305.175781E-06
+2.425000E-06,-1.929648220539E+00,+305.175781E-06
+2.430000E-06,-1.929648220539E+00,+305.175781E-06
+2.435000E-06,-1.969849225134E+00,+305.175781E-06
+2.440000E-06,-1.969849225134E+00,+305.175781E-06
+2.445000E-06,-1.929648220539E+00,+305.175781E-06
+2.450000E-06,-1.969849225134E+00,+305.175781E-06
+2.455000E-06,-1.969849225134E+00,+305.175781E-06
+2.460000E-06,-1.969849225134E+00,+305.175781E-06
+2.465000E-06,-1.969849225134E+00,+305.175781E-06
+2.470000E-06,-1.969849225134E+00,+305.175781E-06
+2.475000E-06,-1.969849225134E+00,+305.175781E-06
+2.480000E-06,-1.969849225134E+00,+305.175781E-06
+2.485000E-06,-1.969849225134E+00,+305.175781E-06
+2.490000E-06,-1.969849225134E+00,+305.175781E-06
+2.495000E-06,-1.969849225134E+00,+305.175781E-06
+2.500000E-06,-2.010050229728E+00,+305.175781E-06
+2.505000E-06,-2.010050229728E+00,+305.175781E-06
+2.510000E-06,-1.969849225134E+00,+305.175781E-06
+2.515000E-06,-2.010050229725E+00,+305.175781E-06
+2.520000E-06,-1.969849225134E+00,+305.175781E-06
+2.525000E-06,-1.969849225134E+00,+305.175781E-06
+2.530000E-06,-2.010050229728E+00,+305.175781E-06
+2.535000E-06,-2.010050229728E+00,+305.175781E-06
+2.540000E-06,-2.010050229728E+00,+305.175781E-06
+2.545000E-06,-2.010050229728E+00,+305.175781E-06
+2.550000E-06,-2.010050229728E+00,+305.175781E-06
+2.555000E-06,-2.010050229728E+00,+305.175781E-06
+2.560000E-06,-2.010050229728E+00,+305.175781E-06
+2.565000E-06,-2.010050229728E+00,+305.175781E-06
+2.570000E-06,-2.010050229728E+00,+305.175781E-06
+2.575000E-06,-2.010050229728E+00,+305.175781E-06
+2.580000E-06,-2.010050229728E+00,+305.175781E-06
+2.585000E-06,-2.010050229728E+00,+305.175781E-06
+2.590000E-06,-2.010050229728E+00,+305.175781E-06
+2.595000E-06,-2.010050229728E+00,+305.175781E-06
+2.600000E-06,-2.010050229728E+00,+305.175781E-06
+2.605000E-06,-2.050251234323E+00,+305.175781E-06
+2.610000E-06,-2.010050229728E+00,+305.175781E-06
+2.615000E-06,-2.010050229732E+00,+305.175781E-06
+2.620000E-06,-2.050251234319E+00,+305.175781E-06
+2.625000E-06,-2.010050229728E+00,+305.175781E-06
+2.630000E-06,-2.010050229728E+00,+305.175781E-06
+2.635000E-06,-2.050251234319E+00,+305.175781E-06
+2.640000E-06,-2.010050229728E+00,+305.175781E-06
+2.645000E-06,-2.050251234323E+00,+305.175781E-06
+2.650000E-06,-2.010050229728E+00,+305.175781E-06
+2.655000E-06,-2.010050229728E+00,+305.175781E-06
+2.660000E-06,-2.050251234323E+00,+305.175781E-06
+2.665000E-06,-2.050251234323E+00,+305.175781E-06
+2.670000E-06,-2.050251234323E+00,+305.175781E-06
+2.675000E-06,-2.050251234323E+00,+305.175781E-06
+2.680000E-06,-2.050251234323E+00,+305.175781E-06
+2.685000E-06,-2.050251234323E+00,+305.175781E-06
+2.690000E-06,-2.050251234323E+00,+305.175781E-06
+2.695000E-06,-2.050251234323E+00,+305.175781E-06
+2.700000E-06,-2.050251234323E+00,+305.175781E-06
+2.705000E-06,-2.050251234323E+00,+305.175781E-06
+2.710000E-06,-2.050251234323E+00,+305.175781E-06
+2.715000E-06,-2.050251234323E+00,+305.175781E-06
+2.720000E-06,-2.090452238914E+00,+305.175781E-06
+2.725000E-06,-2.050251234323E+00,+305.175781E-06
+2.730000E-06,-2.090452238917E+00,+305.175781E-06
+2.735000E-06,-2.090452238917E+00,+305.175781E-06
+2.740000E-06,-2.090452238917E+00,+305.175781E-06
+2.745000E-06,-2.050251234326E+00,+305.175781E-06
+2.750000E-06,-2.090452238917E+00,+305.175781E-06
+2.755000E-06,-2.050251234323E+00,+305.175781E-06
+2.760000E-06,-2.090452238917E+00,+305.175781E-06
+2.765000E-06,-2.090452238917E+00,+305.175781E-06
+2.770000E-06,-2.090452238917E+00,+305.175781E-06
+2.775000E-06,-2.090452238917E+00,+305.175781E-06
+2.780000E-06,-2.090452238917E+00,+305.175781E-06
+2.785000E-06,-2.090452238917E+00,+305.175781E-06
+2.790000E-06,-2.090452238917E+00,+305.175781E-06
+2.795000E-06,-2.090452238917E+00,+305.175781E-06
+2.800000E-06,-2.090452238917E+00,+305.175781E-06
+2.805000E-06,-2.090452238917E+00,+305.175781E-06
+2.810000E-06,-2.090452238917E+00,+305.175781E-06
+2.815000E-06,-2.090452238917E+00,+305.175781E-06
+2.820000E-06,-2.090452238917E+00,+305.175781E-06
+2.825000E-06,-2.090452238917E+00,+305.175781E-06
+2.830000E-06,-2.090452238917E+00,+305.175781E-06
+2.835000E-06,-2.090452238917E+00,+305.175781E-06
+2.840000E-06,-2.090452238917E+00,+305.175781E-06
+2.845000E-06,-2.090452238917E+00,+305.175781E-06
+2.850000E-06,-2.090452238917E+00,+305.175781E-06
+2.855000E-06,-2.090452238917E+00,+305.175781E-06
+2.860000E-06,-2.090452238917E+00,+305.175781E-06
+2.865000E-06,-2.090452238917E+00,+305.175781E-06
+2.870000E-06,-2.090452238917E+00,+305.175781E-06
+2.875000E-06,-2.090452238917E+00,+305.175781E-06
+2.880000E-06,-2.130653243512E+00,+305.175781E-06
+2.885000E-06,-2.090452238917E+00,+305.175781E-06
+2.890000E-06,-2.130653243512E+00,+305.175781E-06
+2.895000E-06,-2.130653243512E+00,+305.175781E-06
+2.900000E-06,-2.130653243512E+00,+305.175781E-06
+2.905000E-06,-2.090452238917E+00,+305.175781E-06
+2.910000E-06,-2.130653243512E+00,+305.175781E-06
+2.915000E-06,-2.130653243508E+00,+305.175781E-06
+2.920000E-06,-2.130653243512E+00,+305.175781E-06
+2.925000E-06,-2.130653243512E+00,+305.175781E-06
+2.930000E-06,-2.130653243512E+00,+305.175781E-06
+2.935000E-06,-2.130653243512E+00,+305.175781E-06
+2.940000E-06,-2.130653243512E+00,+305.175781E-06
+2.945000E-06,-2.130653243512E+00,+305.175781E-06
+2.950000E-06,-2.130653243512E+00,+305.175781E-06
+2.955000E-06,-2.130653243512E+00,+305.175781E-06
+2.960000E-06,-2.090452238917E+00,+305.175781E-06
+2.965000E-06,-2.130653243512E+00,+305.175781E-06
+2.970000E-06,-2.130653243512E+00,+305.175781E-06
+2.975000E-06,-2.170854248103E+00,+305.175781E-06
+2.980000E-06,-2.170854248106E+00,+305.175781E-06
+2.985000E-06,-2.170854248106E+00,+305.175781E-06
+2.990000E-06,-2.130653243512E+00,+305.175781E-06
+2.995000E-06,-2.130653243512E+00,+305.175781E-06
+3.000000E-06,-2.130653243512E+00,+305.175781E-06
+3.005000E-06,-2.130653243512E+00,+305.175781E-06
+3.010000E-06,-2.130653243512E+00,+305.175781E-06
+3.015000E-06,-2.170854248106E+00,+305.175781E-06
+3.020000E-06,-2.130653243512E+00,+305.175781E-06
+3.025000E-06,-2.170854248106E+00,+305.175781E-06
+3.030000E-06,-2.130653243512E+00,+305.175781E-06
+3.035000E-06,-2.170854248106E+00,+305.175781E-06
+3.040000E-06,-2.130653243512E+00,+305.175781E-06
+3.045000E-06,-2.170854248106E+00,+305.175781E-06
+3.050000E-06,-2.130653243512E+00,+305.175781E-06
+3.055000E-06,-2.170854248103E+00,+305.175781E-06
+3.060000E-06,-2.130653243512E+00,+305.175781E-06
+3.065000E-06,-2.170854248106E+00,+305.175781E-06
+3.070000E-06,-2.170854248106E+00,+305.175781E-06
+3.075000E-06,-2.170854248106E+00,+305.175781E-06
+3.080000E-06,-2.170854248103E+00,+305.175781E-06
+3.085000E-06,-2.170854248106E+00,+305.175781E-06
+3.090000E-06,-2.170854248106E+00,+305.175781E-06
+3.095000E-06,-2.170854248106E+00,+305.175781E-06
+3.100000E-06,-2.170854248106E+00,+305.175781E-06
+3.105000E-06,-2.170854248106E+00,+305.175781E-06
+3.110000E-06,-2.170854248106E+00,+305.175781E-06
+3.115000E-06,-2.170854248106E+00,+305.175781E-06
+3.120000E-06,-2.170854248106E+00,+305.175781E-06
+3.125000E-06,-2.170854248106E+00,+305.175781E-06
+3.130000E-06,-2.170854248106E+00,+305.175781E-06
+3.135000E-06,-2.170854248106E+00,+305.175781E-06
+3.140000E-06,-2.170854248106E+00,+305.175781E-06
+3.145000E-06,-2.170854248106E+00,+305.175781E-06
+3.150000E-06,-2.170854248106E+00,+305.175781E-06
+3.155000E-06,-2.170854248106E+00,+305.175781E-06
+3.160000E-06,-2.170854248106E+00,+305.175781E-06
+3.165000E-06,-2.170854248106E+00,+305.175781E-06
+3.170000E-06,-2.170854248106E+00,+305.175781E-06
+3.175000E-06,-2.170854248106E+00,+305.175781E-06
+3.180000E-06,-2.170854248106E+00,+305.175781E-06
+3.185000E-06,-2.170854248106E+00,+305.175781E-06
+3.190000E-06,-2.211055252701E+00,+305.175781E-06
+3.195000E-06,-2.211055252701E+00,+305.175781E-06
+3.200000E-06,-2.211055252701E+00,+305.175781E-06
+3.205000E-06,-2.211055252701E+00,+305.175781E-06
+3.210000E-06,-2.211055252697E+00,+305.175781E-06
+3.215000E-06,-2.170854248106E+00,+305.175781E-06
+3.220000E-06,-2.211055252701E+00,+305.175781E-06
+3.225000E-06,-2.211055252701E+00,+305.175781E-06
+3.230000E-06,-2.211055252701E+00,+305.175781E-06
+3.235000E-06,-2.211055252701E+00,+305.175781E-06
+3.240000E-06,-2.211055252701E+00,+305.175781E-06
+3.245000E-06,-2.211055252701E+00,+305.175781E-06
+3.250000E-06,-2.211055252701E+00,+305.175781E-06
+3.255000E-06,-2.211055252701E+00,+305.175781E-06
+3.260000E-06,-2.211055252701E+00,+305.175781E-06
+3.265000E-06,-2.211055252701E+00,+305.175781E-06
+3.270000E-06,-2.211055252701E+00,+305.175781E-06
+3.275000E-06,-2.211055252701E+00,+305.175781E-06
+3.280000E-06,-2.211055252701E+00,+305.175781E-06
+3.285000E-06,-2.211055252701E+00,+305.175781E-06
+3.290000E-06,-2.211055252701E+00,+305.175781E-06
+3.295000E-06,-2.211055252701E+00,+305.175781E-06
+3.300000E-06,-2.211055252701E+00,+305.175781E-06
+3.305000E-06,-2.211055252701E+00,+305.175781E-06
+3.310000E-06,-2.211055252701E+00,+305.175781E-06
+3.315000E-06,-2.211055252701E+00,+305.175781E-06
+3.320000E-06,-2.211055252701E+00,+305.175781E-06
+3.325000E-06,-2.211055252701E+00,+305.175781E-06
+3.330000E-06,-2.211055252701E+00,+305.175781E-06
+3.335000E-06,-2.211055252701E+00,+305.175781E-06
+3.340000E-06,-2.211055252701E+00,+305.175781E-06
+3.345000E-06,-2.211055252701E+00,+305.175781E-06
+3.350000E-06,-2.211055252701E+00,+305.175781E-06
+3.355000E-06,-2.211055252701E+00,+305.175781E-06
+3.360000E-06,-2.211055252701E+00,+305.175781E-06
+3.365000E-06,-2.211055252701E+00,+305.175781E-06
+3.370000E-06,-2.211055252701E+00,+305.175781E-06
+3.375000E-06,-2.211055252701E+00,+305.175781E-06
+3.380000E-06,-2.251256257296E+00,+305.175781E-06
+3.385000E-06,-2.211055252701E+00,+305.175781E-06
+3.390000E-06,-2.211055252701E+00,+305.175781E-06
+3.395000E-06,-2.211055252701E+00,+305.175781E-06
+3.400000E-06,-2.211055252701E+00,+305.175781E-06
+3.405000E-06,-2.251256257296E+00,+305.175781E-06
+3.410000E-06,-2.251256257296E+00,+305.175781E-06
+3.415000E-06,-2.211055252701E+00,+305.175781E-06
+3.420000E-06,-2.251256257296E+00,+305.175781E-06
+3.425000E-06,-2.211055252701E+00,+305.175781E-06
+3.430000E-06,-2.211055252701E+00,+305.175781E-06
+3.435000E-06,-2.211055252701E+00,+305.175781E-06
+3.440000E-06,-2.211055252701E+00,+305.175781E-06
+3.445000E-06,-2.211055252701E+00,+305.175781E-06
+3.450000E-06,-2.211055252701E+00,+305.175781E-06
+3.455000E-06,-2.251256257296E+00,+305.175781E-06
+3.460000E-06,-2.211055252701E+00,+305.175781E-06
+3.465000E-06,-2.251256257296E+00,+305.175781E-06
+3.470000E-06,-2.211055252701E+00,+305.175781E-06
+3.475000E-06,-2.251256257296E+00,+305.175781E-06
+3.480000E-06,-2.211055252701E+00,+305.175781E-06
+3.485000E-06,-2.251256257296E+00,+305.175781E-06
+3.490000E-06,-2.251256257296E+00,+305.175781E-06
+3.495000E-06,-2.251256257296E+00,+305.175781E-06
+3.500000E-06,-2.251256257296E+00,+305.175781E-06
+3.505000E-06,-2.251256257296E+00,+305.175781E-06
+3.510000E-06,-2.251256257296E+00,+305.175781E-06
+3.515000E-06,-2.251256257296E+00,+305.175781E-06
+3.520000E-06,-2.251256257296E+00,+305.175781E-06
+3.525000E-06,-2.251256257296E+00,+305.175781E-06
+3.530000E-06,-2.251256257296E+00,+305.175781E-06
+3.535000E-06,-2.251256257296E+00,+305.175781E-06
+3.540000E-06,-2.251256257296E+00,+305.175781E-06
+3.545000E-06,-2.251256257296E+00,+305.175781E-06
+3.550000E-06,-2.251256257296E+00,+305.175781E-06
+3.555000E-06,-2.251256257296E+00,+305.175781E-06
+3.560000E-06,-2.251256257296E+00,+305.175781E-06
+3.565000E-06,-2.251256257296E+00,+305.175781E-06
+3.570000E-06,-2.251256257296E+00,+305.175781E-06
+3.575000E-06,-2.251256257296E+00,+305.175781E-06
+3.580000E-06,-2.251256257296E+00,+305.175781E-06
+3.585000E-06,-2.251256257296E+00,+305.175781E-06
+3.590000E-06,-2.251256257296E+00,+305.175781E-06
+3.595000E-06,-2.251256257296E+00,+305.175781E-06
+3.600000E-06,-2.251256257296E+00,+305.175781E-06
+3.605000E-06,-2.251256257296E+00,+305.175781E-06
+3.610000E-06,-2.251256257296E+00,+305.175781E-06
+3.615000E-06,-2.251256257296E+00,+305.175781E-06
+3.620000E-06,-2.251256257296E+00,+305.175781E-06
+3.625000E-06,-2.291457261886E+00,+305.175781E-06
+3.630000E-06,-2.251256257296E+00,+305.175781E-06
+3.635000E-06,-2.251256257296E+00,+305.175781E-06
+3.640000E-06,-2.251256257296E+00,+305.175781E-06
+3.645000E-06,-2.251256257296E+00,+305.175781E-06
+3.650000E-06,-2.251256257296E+00,+305.175781E-06
+3.655000E-06,-2.251256257296E+00,+305.175781E-06
+3.660000E-06,-2.291457261890E+00,+305.175781E-06
+3.665000E-06,-2.291457261890E+00,+305.175781E-06
+3.670000E-06,-2.251256257296E+00,+305.175781E-06
+3.675000E-06,-2.291457261890E+00,+305.175781E-06
+3.680000E-06,-2.251256257296E+00,+305.175781E-06
+3.685000E-06,-2.291457261890E+00,+305.175781E-06
+3.690000E-06,-2.251256257296E+00,+305.175781E-06
+3.695000E-06,-2.251256257296E+00,+305.175781E-06
+3.700000E-06,-2.291457261890E+00,+305.175781E-06
+3.705000E-06,-2.291457261890E+00,+305.175781E-06
+3.710000E-06,-2.251256257296E+00,+305.175781E-06
+3.715000E-06,-2.291457261890E+00,+305.175781E-06
+3.720000E-06,-2.251256257296E+00,+305.175781E-06
+3.725000E-06,-2.291457261890E+00,+305.175781E-06
+3.730000E-06,-2.251256257296E+00,+305.175781E-06
+3.735000E-06,-2.251256257296E+00,+305.175781E-06
+3.740000E-06,-2.251256257296E+00,+305.175781E-06
+3.745000E-06,-2.291457261890E+00,+305.175781E-06
+3.750000E-06,-2.251256257296E+00,+305.175781E-06
+3.755000E-06,-2.291457261890E+00,+305.175781E-06
+3.760000E-06,-2.291457261890E+00,+305.175781E-06
+3.765000E-06,-2.251256257296E+00,+305.175781E-06
+3.770000E-06,-2.291457261886E+00,+305.175781E-06
+3.775000E-06,-2.291457261890E+00,+305.175781E-06
+3.780000E-06,-2.291457261890E+00,+305.175781E-06
+3.785000E-06,-2.291457261890E+00,+305.175781E-06
+3.790000E-06,-2.291457261890E+00,+305.175781E-06
+3.795000E-06,-2.291457261890E+00,+305.175781E-06
+3.800000E-06,-2.291457261890E+00,+305.175781E-06
+3.805000E-06,-2.291457261890E+00,+305.175781E-06
+3.810000E-06,-2.291457261890E+00,+305.175781E-06
+3.815000E-06,-2.291457261890E+00,+305.175781E-06
+3.820000E-06,-2.291457261890E+00,+305.175781E-06
+3.825000E-06,-2.291457261890E+00,+305.175781E-06
+3.830000E-06,-2.291457261890E+00,+305.175781E-06
+3.835000E-06,-2.251256257296E+00,+305.175781E-06
+3.840000E-06,-2.291457261890E+00,+305.175781E-06
+3.845000E-06,-2.291457261890E+00,+305.175781E-06
+3.850000E-06,-2.291457261890E+00,+305.175781E-06
+3.855000E-06,-2.251256257296E+00,+305.175781E-06
+3.860000E-06,-2.291457261890E+00,+305.175781E-06
+3.865000E-06,-2.291457261890E+00,+305.175781E-06
+3.870000E-06,-2.291457261890E+00,+305.175781E-06
+3.875000E-06,-2.291457261890E+00,+305.175781E-06
+3.880000E-06,-2.291457261890E+00,+305.175781E-06
+3.885000E-06,-2.291457261890E+00,+305.175781E-06
+3.890000E-06,-2.291457261890E+00,+305.175781E-06
+3.895000E-06,-2.291457261890E+00,+305.175781E-06
+3.900000E-06,-2.291457261890E+00,+305.175781E-06
+3.905000E-06,-2.291457261890E+00,+305.175781E-06
+3.910000E-06,-2.291457261890E+00,+305.175781E-06
+3.915000E-06,-2.291457261890E+00,+305.175781E-06
+3.920000E-06,-2.291457261890E+00,+305.175781E-06
+3.925000E-06,-2.291457261890E+00,+305.175781E-06
+3.930000E-06,-2.331658266485E+00,+305.175781E-06
+3.935000E-06,-2.291457261890E+00,+305.175781E-06
+3.940000E-06,-2.291457261890E+00,+305.175781E-06
+3.945000E-06,-2.291457261890E+00,+305.175781E-06
+3.950000E-06,-2.291457261890E+00,+305.175781E-06
+3.955000E-06,-2.291457261890E+00,+305.175781E-06
+3.960000E-06,-2.291457261890E+00,+305.175781E-06
+3.965000E-06,-2.291457261890E+00,+305.175781E-06
+3.970000E-06,-2.291457261890E+00,+305.175781E-06
+3.975000E-06,-2.291457261890E+00,+305.175781E-06
+3.980000E-06,-2.331658266485E+00,+305.175781E-06
+3.985000E-06,-2.331658266485E+00,+305.175781E-06
+3.990000E-06,-2.331658266485E+00,+305.175781E-06
+3.995000E-06,-2.291457261890E+00,+305.175781E-06
+4.000000E-06,-2.291457261890E+00,+305.175781E-06
+4.005000E-06,-2.291457261890E+00,+305.175781E-06
+4.010000E-06,-2.331658266485E+00,+305.175781E-06
+4.015000E-06,-2.291457261890E+00,+305.175781E-06
+4.020000E-06,-2.291457261890E+00,+305.175781E-06
+4.025000E-06,-2.291457261890E+00,+305.175781E-06
+4.030000E-06,-2.291457261890E+00,+305.175781E-06
+4.035000E-06,-2.291457261890E+00,+305.175781E-06
+4.040000E-06,-2.291457261890E+00,+305.175781E-06
+4.045000E-06,-2.291457261890E+00,+305.175781E-06
+4.050000E-06,-2.291457261890E+00,+305.175781E-06
+4.055000E-06,-2.291457261890E+00,+305.175781E-06
+4.060000E-06,-2.291457261890E+00,+305.175781E-06
+4.065000E-06,-2.331658266485E+00,+305.175781E-06
+4.070000E-06,-2.331658266485E+00,+305.175781E-06
+4.075000E-06,-2.331658266480E+00,+305.175781E-06
+4.080000E-06,-2.291457261890E+00,+305.175781E-06
+4.085000E-06,-2.331658266485E+00,+305.175781E-06
+4.090000E-06,-2.291457261890E+00,+305.175781E-06
+4.095000E-06,-2.291457261890E+00,+305.175781E-06
+4.100000E-06,-2.331658266485E+00,+305.175781E-06
+4.105000E-06,-2.331658266485E+00,+305.175781E-06
+4.110000E-06,-2.331658266485E+00,+305.175781E-06
+4.115000E-06,-2.331658266480E+00,+305.175781E-06
+4.120000E-06,-2.331658266485E+00,+305.175781E-06
+4.125000E-06,-2.331658266485E+00,+305.175781E-06
+4.130000E-06,-2.331658266485E+00,+305.175781E-06
+4.135000E-06,-2.331658266485E+00,+305.175781E-06
+4.140000E-06,-2.291457261890E+00,+305.175781E-06
+4.145000E-06,-2.291457261890E+00,+305.175781E-06
+4.150000E-06,-2.291457261890E+00,+305.175781E-06
+4.155000E-06,-2.331658266485E+00,+305.175781E-06
+4.160000E-06,-2.291457261890E+00,+305.175781E-06
+4.165000E-06,-2.291457261895E+00,+305.175781E-06
+4.170000E-06,-2.291457261890E+00,+305.175781E-06
+4.175000E-06,-2.331658266485E+00,+305.175781E-06
+4.180000E-06,-2.291457261890E+00,+305.175781E-06
+4.185000E-06,-2.331658266485E+00,+305.175781E-06
+4.190000E-06,-2.331658266485E+00,+305.175781E-06
+4.195000E-06,-2.331658266485E+00,+305.175781E-06
+4.200000E-06,-2.331658266485E+00,+305.175781E-06
+4.205000E-06,-2.331658266485E+00,+305.175781E-06
+4.210000E-06,-2.331658266485E+00,+305.175781E-06
+4.215000E-06,-2.331658266485E+00,+305.175781E-06
+4.220000E-06,-2.331658266485E+00,+305.175781E-06
+4.225000E-06,-2.331658266485E+00,+305.175781E-06
+4.230000E-06,-2.331658266485E+00,+305.175781E-06
+4.235000E-06,-2.331658266485E+00,+305.175781E-06
+4.240000E-06,-2.331658266480E+00,+305.175781E-06
+4.245000E-06,-2.331658266485E+00,+305.175781E-06
+4.250000E-06,-2.331658266485E+00,+305.175781E-06
+4.255000E-06,-2.331658266485E+00,+305.175781E-06
+4.260000E-06,-2.331658266485E+00,+305.175781E-06
+4.265000E-06,-2.331658266485E+00,+305.175781E-06
+4.270000E-06,-2.331658266485E+00,+305.175781E-06
+4.275000E-06,-2.331658266485E+00,+305.175781E-06
+4.280000E-06,-2.331658266485E+00,+305.175781E-06
+4.285000E-06,-2.331658266485E+00,+305.175781E-06
+4.290000E-06,-2.331658266485E+00,+305.175781E-06
+4.295000E-06,-2.331658266485E+00,+305.175781E-06
+4.300000E-06,-2.331658266485E+00,+305.175781E-06
+4.305000E-06,-2.331658266485E+00,+305.175781E-06
+4.310000E-06,-2.331658266485E+00,+305.175781E-06
+4.315000E-06,-2.331658266485E+00,+305.175781E-06
+4.320000E-06,-2.291457261895E+00,+305.175781E-06
+4.325000E-06,-2.331658266485E+00,+305.175781E-06
+4.330000E-06,-2.331658266485E+00,+305.175781E-06
+4.335000E-06,-2.331658266485E+00,+305.175781E-06
+4.340000E-06,-2.331658266485E+00,+305.175781E-06
+4.345000E-06,-2.331658266485E+00,+305.175781E-06
+4.350000E-06,-2.331658266485E+00,+305.175781E-06
+4.355000E-06,-2.331658266485E+00,+305.175781E-06
+4.360000E-06,-2.331658266485E+00,+305.175781E-06
+4.365000E-06,-2.331658266485E+00,+305.175781E-06
+4.370000E-06,-2.331658266485E+00,+305.175781E-06
+4.375000E-06,-2.331658266485E+00,+305.175781E-06
+4.380000E-06,-2.331658266485E+00,+305.175781E-06
+4.385000E-06,-2.331658266485E+00,+305.175781E-06
+4.390000E-06,-2.331658266485E+00,+305.175781E-06
+4.395000E-06,-2.331658266485E+00,+305.175781E-06
+4.400000E-06,-2.331658266485E+00,+305.175781E-06
+4.405000E-06,-2.331658266485E+00,+305.175781E-06
+4.410000E-06,-2.331658266485E+00,+305.175781E-06
+4.415000E-06,-2.331658266485E+00,+305.175781E-06
+4.420000E-06,-2.331658266485E+00,+305.175781E-06
+4.425000E-06,-2.331658266485E+00,+305.175781E-06
+4.430000E-06,-2.331658266485E+00,+305.175781E-06
+4.435000E-06,-2.291457261895E+00,+305.175781E-06
+4.440000E-06,-2.331658266485E+00,+305.175781E-06
+4.445000E-06,-2.331658266485E+00,+305.175781E-06
+4.450000E-06,-2.331658266485E+00,+305.175781E-06
+4.455000E-06,-2.331658266485E+00,+305.175781E-06
+4.460000E-06,-2.331658266485E+00,+305.175781E-06
+4.465000E-06,-2.331658266485E+00,+305.175781E-06
+4.470000E-06,-2.331658266485E+00,+305.175781E-06
+4.475000E-06,-2.331658266485E+00,+305.175781E-06
+4.480000E-06,-2.331658266485E+00,+305.175781E-06
+4.485000E-06,-2.331658266485E+00,+305.175781E-06
+4.490000E-06,-2.371859271079E+00,+305.175781E-06
+4.495000E-06,-2.331658266485E+00,+305.175781E-06
+4.500000E-06,-2.331658266485E+00,+305.175781E-06
+4.505000E-06,-2.331658266485E+00,+305.175781E-06
+4.510000E-06,-2.331658266485E+00,+305.175781E-06
+4.515000E-06,-2.331658266485E+00,+305.175781E-06
+4.520000E-06,-2.331658266485E+00,+305.175781E-06
+4.525000E-06,-2.331658266485E+00,+305.175781E-06
+4.530000E-06,-2.331658266485E+00,+305.175781E-06
+4.535000E-06,-2.331658266485E+00,+305.175781E-06
+4.540000E-06,-2.371859271079E+00,+305.175781E-06
+4.545000E-06,-2.331658266485E+00,+305.175781E-06
+4.550000E-06,-2.331658266485E+00,+305.175781E-06
+4.555000E-06,-2.371859271074E+00,+305.175781E-06
+4.560000E-06,-2.331658266485E+00,+305.175781E-06
+4.565000E-06,-2.331658266485E+00,+305.175781E-06
+4.570000E-06,-2.371859271079E+00,+305.175781E-06
+4.575000E-06,-2.331658266485E+00,+305.175781E-06
+4.580000E-06,-2.371859271079E+00,+305.175781E-06
+4.585000E-06,-2.331658266485E+00,+305.175781E-06
+4.590000E-06,-2.371859271079E+00,+305.175781E-06
+4.595000E-06,-2.331658266485E+00,+305.175781E-06
+4.600000E-06,-2.331658266485E+00,+305.175781E-06
+4.605000E-06,-2.371859271079E+00,+305.175781E-06
+4.610000E-06,-2.371859271079E+00,+305.175781E-06
+4.615000E-06,-2.331658266490E+00,+305.175781E-06
+4.620000E-06,-2.331658266485E+00,+305.175781E-06
+4.625000E-06,-2.371859271074E+00,+305.175781E-06
+4.630000E-06,-2.331658266485E+00,+305.175781E-06
+4.635000E-06,-2.331658266485E+00,+305.175781E-06
+4.640000E-06,-2.331658266485E+00,+305.175781E-06
+4.645000E-06,-2.331658266485E+00,+305.175781E-06
+4.650000E-06,-2.331658266485E+00,+305.175781E-06
+4.655000E-06,-2.331658266485E+00,+305.175781E-06
+4.660000E-06,-2.331658266485E+00,+305.175781E-06
+4.665000E-06,-2.331658266485E+00,+305.175781E-06
+4.670000E-06,-2.371859271079E+00,+305.175781E-06
+4.675000E-06,-2.331658266485E+00,+305.175781E-06
+4.680000E-06,-2.371859271074E+00,+305.175781E-06
+4.685000E-06,-2.331658266485E+00,+305.175781E-06
+4.690000E-06,-2.331658266485E+00,+305.175781E-06
+4.695000E-06,-2.331658266485E+00,+305.175781E-06
+4.700000E-06,-2.331658266485E+00,+305.175781E-06
+4.705000E-06,-2.371859271079E+00,+305.175781E-06
+4.710000E-06,-2.371859271079E+00,+305.175781E-06
+4.715000E-06,-2.371859271079E+00,+305.175781E-06
+4.720000E-06,-2.371859271079E+00,+305.175781E-06
+4.725000E-06,-2.371859271079E+00,+305.175781E-06
+4.730000E-06,-2.371859271079E+00,+305.175781E-06
+4.735000E-06,-2.371859271079E+00,+305.175781E-06
+4.740000E-06,-2.371859271079E+00,+305.175781E-06
+4.745000E-06,-2.371859271079E+00,+305.175781E-06
+4.750000E-06,-2.331658266485E+00,+305.175781E-06
+4.755000E-06,-2.331658266485E+00,+305.175781E-06
+4.760000E-06,-2.331658266485E+00,+305.175781E-06
+4.765000E-06,-2.371859271079E+00,+305.175781E-06
+4.770000E-06,-2.371859271079E+00,+305.175781E-06
+4.775000E-06,-2.371859271079E+00,+305.175781E-06
+4.780000E-06,-2.371859271079E+00,+305.175781E-06
+4.785000E-06,-2.371859271079E+00,+305.175781E-06
+4.790000E-06,-2.371859271079E+00,+305.175781E-06
+4.795000E-06,-2.371859271079E+00,+305.175781E-06
+4.800000E-06,-2.331658266490E+00,+305.175781E-06
+4.805000E-06,-2.371859271079E+00,+305.175781E-06
+4.810000E-06,-2.371859271074E+00,+305.175781E-06
+4.815000E-06,-2.371859271079E+00,+305.175781E-06
+4.820000E-06,-2.331658266485E+00,+305.175781E-06
+4.825000E-06,-2.371859271079E+00,+305.175781E-06
+4.830000E-06,-2.331658266485E+00,+305.175781E-06
+4.835000E-06,-2.371859271079E+00,+305.175781E-06
+4.840000E-06,-2.331658266485E+00,+305.175781E-06
+4.845000E-06,-2.371859271079E+00,+305.175781E-06
+4.850000E-06,-2.371859271079E+00,+305.175781E-06
+4.855000E-06,-2.371859271079E+00,+305.175781E-06
+4.860000E-06,-2.371859271079E+00,+305.175781E-06
+4.865000E-06,-2.371859271079E+00,+305.175781E-06
+4.870000E-06,-2.371859271079E+00,+305.175781E-06
+4.875000E-06,-2.371859271079E+00,+305.175781E-06
+4.880000E-06,-2.371859271079E+00,+305.175781E-06
+4.885000E-06,-2.371859271079E+00,+305.175781E-06
+4.890000E-06,-2.371859271079E+00,+305.175781E-06
+4.895000E-06,-2.331658266485E+00,+305.175781E-06
+4.900000E-06,-2.371859271079E+00,+305.175781E-06
+4.905000E-06,-2.371859271079E+00,+305.175781E-06
+4.910000E-06,-2.371859271079E+00,+305.175781E-06
+4.915000E-06,-2.371859271079E+00,+305.175781E-06
+4.920000E-06,-2.371859271079E+00,+305.175781E-06
+4.925000E-06,-2.371859271079E+00,+305.175781E-06
+4.930000E-06,-2.371859271079E+00,+305.175781E-06
+4.935000E-06,-2.371859271079E+00,+305.175781E-06
+4.940000E-06,-2.371859271079E+00,+305.175781E-06
+4.945000E-06,-2.371859271079E+00,+305.175781E-06
+4.950000E-06,-2.331658266485E+00,+305.175781E-06
+4.955000E-06,-2.331658266490E+00,+305.175781E-06
+4.960000E-06,-2.331658266485E+00,+305.175781E-06
+4.965000E-06,-2.371859271079E+00,+305.175781E-06
+4.970000E-06,-2.371859271079E+00,+305.175781E-06
+4.975000E-06,-2.371859271079E+00,+305.175781E-06
+4.980000E-06,-2.371859271079E+00,+305.175781E-06
+4.985000E-06,-2.371859271079E+00,+305.175781E-06
+4.990000E-06,-2.371859271079E+00,+305.175781E-06
+4.995000E-06,-2.371859271079E+00,+305.175781E-06
+5.000000E-06,-2.371859271074E+00,+305.175781E-06
+5.005000E-06,-2.371859271079E+00,+305.175781E-06
+5.010000E-06,-2.371859271079E+00,+305.175781E-06
+5.015000E-06,-2.371859271079E+00,+305.175781E-06
+5.020000E-06,-2.371859271079E+00,+305.175781E-06
+5.025000E-06,-2.371859271079E+00,+305.175781E-06
+5.030000E-06,-2.371859271079E+00,+305.175781E-06
+5.035000E-06,-2.371859271079E+00,+305.175781E-06
+5.040000E-06,-2.371859271079E+00,+305.175781E-06
+5.045000E-06,-2.371859271079E+00,+305.175781E-06
+5.050000E-06,-2.371859271079E+00,+305.175781E-06
+5.055000E-06,-2.371859271079E+00,+305.175781E-06
+5.060000E-06,-2.371859271079E+00,+305.175781E-06
+5.065000E-06,-2.371859271079E+00,+305.175781E-06
+5.070000E-06,-2.371859271079E+00,+305.175781E-06
+5.075000E-06,-2.371859271079E+00,+305.175781E-06
+5.080000E-06,-2.371859271079E+00,+305.175781E-06
+5.085000E-06,-2.371859271079E+00,+305.175781E-06
+5.090000E-06,-2.371859271079E+00,+305.175781E-06
+5.095000E-06,-2.371859271079E+00,+305.175781E-06
+5.100000E-06,-2.371859271079E+00,+305.175781E-06
+5.105000E-06,-2.371859271079E+00,+305.175781E-06
+5.110000E-06,-2.371859271079E+00,+305.175781E-06
+5.115000E-06,-2.371859271079E+00,+305.175781E-06
+5.120000E-06,-2.371859271079E+00,+305.175781E-06
+5.125000E-06,-2.371859271079E+00,+305.175781E-06
+5.130000E-06,-2.371859271079E+00,+305.175781E-06
+5.135000E-06,-2.371859271079E+00,+305.175781E-06
+5.140000E-06,-2.371859271079E+00,+305.175781E-06
+5.145000E-06,-2.371859271079E+00,+305.175781E-06
+5.150000E-06,-2.371859271079E+00,+305.175781E-06
+5.155000E-06,-2.331658266485E+00,+305.175781E-06
+5.160000E-06,-2.371859271079E+00,+305.175781E-06
+5.165000E-06,-2.371859271079E+00,+305.175781E-06
+5.170000E-06,-2.371859271079E+00,+305.175781E-06
+5.175000E-06,-2.371859271079E+00,+305.175781E-06
+5.180000E-06,-2.371859271079E+00,+305.175781E-06
+5.185000E-06,-2.371859271079E+00,+305.175781E-06
+5.190000E-06,-2.371859271079E+00,+305.175781E-06
+5.195000E-06,-2.371859271079E+00,+305.175781E-06
+5.200000E-06,-2.371859271079E+00,+305.175781E-06
+5.205000E-06,-2.371859271079E+00,+305.175781E-06
+5.210000E-06,-2.371859271079E+00,+305.175781E-06
+5.215000E-06,-2.371859271079E+00,+305.175781E-06
+5.220000E-06,-2.371859271079E+00,+305.175781E-06
+5.225000E-06,-2.371859271079E+00,+305.175781E-06
+5.230000E-06,-2.371859271079E+00,+305.175781E-06
+5.235000E-06,-2.371859271079E+00,+305.175781E-06
+5.240000E-06,-2.371859271079E+00,+305.175781E-06
+5.245000E-06,-2.371859271079E+00,+305.175781E-06
+5.250000E-06,-2.371859271079E+00,+305.175781E-06
+5.255000E-06,-2.371859271079E+00,+305.175781E-06
+5.260000E-06,-2.371859271079E+00,+305.175781E-06
+5.265000E-06,-2.371859271079E+00,+305.175781E-06
+5.270000E-06,-2.371859271079E+00,+305.175781E-06
+5.275000E-06,-2.412060275668E+00,+305.175781E-06
+5.280000E-06,-2.371859271079E+00,+305.175781E-06
+5.285000E-06,-2.371859271079E+00,+305.175781E-06
+5.290000E-06,-2.371859271079E+00,+305.175781E-06
+5.295000E-06,-2.371859271079E+00,+305.175781E-06
+5.300000E-06,-2.371859271079E+00,+305.175781E-06
+5.305000E-06,-2.371859271079E+00,+305.175781E-06
+5.310000E-06,-2.371859271079E+00,+305.175781E-06
+5.315000E-06,-2.371859271079E+00,+305.175781E-06
+5.320000E-06,-2.371859271079E+00,+305.175781E-06
+5.325000E-06,-2.371859271079E+00,+305.175781E-06
+5.330000E-06,-2.371859271079E+00,+305.175781E-06
+5.335000E-06,-2.371859271079E+00,+305.175781E-06
+5.340000E-06,-2.371859271085E+00,+305.175781E-06
+5.345000E-06,-2.371859271079E+00,+305.175781E-06
+5.350000E-06,-2.371859271079E+00,+305.175781E-06
+5.355000E-06,-2.371859271079E+00,+305.175781E-06
+5.360000E-06,-2.371859271079E+00,+305.175781E-06
+5.365000E-06,-2.371859271079E+00,+305.175781E-06
+5.370000E-06,-2.371859271079E+00,+305.175781E-06
+5.375000E-06,-2.371859271079E+00,+305.175781E-06
+5.380000E-06,-2.371859271079E+00,+305.175781E-06
+5.385000E-06,-2.371859271079E+00,+305.175781E-06
+5.390000E-06,-2.371859271079E+00,+305.175781E-06
+5.395000E-06,-2.371859271079E+00,+305.175781E-06
+5.400000E-06,-2.371859271079E+00,+305.175781E-06
+5.405000E-06,-2.371859271079E+00,+305.175781E-06
+5.410000E-06,-2.371859271079E+00,+305.175781E-06
+5.415000E-06,-2.371859271079E+00,+305.175781E-06
+5.420000E-06,-2.371859271079E+00,+305.175781E-06
+5.425000E-06,-2.371859271079E+00,+305.175781E-06
+5.430000E-06,-2.371859271079E+00,+305.175781E-06
+5.435000E-06,-2.371859271079E+00,+305.175781E-06
+5.440000E-06,-2.371859271079E+00,+305.175781E-06
+5.445000E-06,-2.371859271079E+00,+305.175781E-06
+5.450000E-06,-2.371859271079E+00,+305.175781E-06
+5.455000E-06,-2.371859271079E+00,+305.175781E-06
+5.460000E-06,-2.412060275674E+00,+305.175781E-06
+5.465000E-06,-2.371859271079E+00,+305.175781E-06
+5.470000E-06,-2.371859271079E+00,+305.175781E-06
+5.475000E-06,-2.371859271079E+00,+305.175781E-06
+5.480000E-06,-2.371859271079E+00,+305.175781E-06
+5.485000E-06,-2.371859271079E+00,+305.175781E-06
+5.490000E-06,-2.371859271079E+00,+305.175781E-06
+5.495000E-06,-2.371859271079E+00,+305.175781E-06
+5.500000E-06,-2.371859271079E+00,+305.175781E-06
+5.505000E-06,-2.371859271079E+00,+305.175781E-06
+5.510000E-06,-2.371859271079E+00,+305.175781E-06
+5.515000E-06,-2.371859271079E+00,+305.175781E-06
+5.520000E-06,-2.371859271079E+00,+305.175781E-06
+5.525000E-06,-2.371859271085E+00,+305.175781E-06
+5.530000E-06,-2.412060275674E+00,+305.175781E-06
+5.535000E-06,-2.412060275674E+00,+305.175781E-06
+5.540000E-06,-2.371859271079E+00,+305.175781E-06
+5.545000E-06,-2.371859271079E+00,+305.175781E-06
+5.550000E-06,-2.371859271079E+00,+305.175781E-06
+5.555000E-06,-2.371859271079E+00,+305.175781E-06
+5.560000E-06,-2.371859271079E+00,+305.175781E-06
+5.565000E-06,-2.371859271079E+00,+305.175781E-06
+5.570000E-06,-2.371859271079E+00,+305.175781E-06
+5.575000E-06,-2.371859271079E+00,+305.175781E-06
+5.580000E-06,-2.371859271079E+00,+305.175781E-06
+5.585000E-06,-2.371859271079E+00,+305.175781E-06
+5.590000E-06,-2.371859271079E+00,+305.175781E-06
+5.595000E-06,-2.371859271079E+00,+305.175781E-06
+5.600000E-06,-2.371859271079E+00,+305.175781E-06
+5.605000E-06,-2.371859271079E+00,+305.175781E-06
+5.610000E-06,-2.371859271079E+00,+305.175781E-06
+5.615000E-06,-2.371859271079E+00,+305.175781E-06
+5.620000E-06,-2.371859271079E+00,+305.175781E-06
+5.625000E-06,-2.371859271079E+00,+305.175781E-06
+5.630000E-06,-2.371859271079E+00,+305.175781E-06
+5.635000E-06,-2.412060275674E+00,+305.175781E-06
+5.640000E-06,-2.371859271079E+00,+305.175781E-06
+5.645000E-06,-2.371859271079E+00,+305.175781E-06
+5.650000E-06,-2.371859271079E+00,+305.175781E-06
+5.655000E-06,-2.371859271079E+00,+305.175781E-06
+5.660000E-06,-2.371859271079E+00,+305.175781E-06
+5.665000E-06,-2.371859271079E+00,+305.175781E-06
+5.670000E-06,-2.371859271079E+00,+305.175781E-06
+5.675000E-06,-2.371859271079E+00,+305.175781E-06
+5.680000E-06,-2.371859271079E+00,+305.175781E-06
+5.685000E-06,-2.371859271079E+00,+305.175781E-06
+5.690000E-06,-2.371859271079E+00,+305.175781E-06
+5.695000E-06,-2.371859271079E+00,+305.175781E-06
+5.700000E-06,-2.371859271079E+00,+305.175781E-06
+5.705000E-06,-2.371859271079E+00,+305.175781E-06
+5.710000E-06,-2.371859271079E+00,+305.175781E-06
+5.715000E-06,-2.371859271079E+00,+305.175781E-06
+5.720000E-06,-2.371859271079E+00,+305.175781E-06
+5.725000E-06,-2.371859271079E+00,+305.175781E-06
+5.730000E-06,-2.371859271079E+00,+305.175781E-06
+5.735000E-06,-2.371859271079E+00,+305.175781E-06
+5.740000E-06,-2.371859271079E+00,+305.175781E-06
+5.745000E-06,-2.371859271079E+00,+305.175781E-06
+5.750000E-06,-2.371859271079E+00,+305.175781E-06
+5.755000E-06,-2.371859271079E+00,+305.175781E-06
+5.760000E-06,-2.371859271079E+00,+305.175781E-06
+5.765000E-06,-2.371859271079E+00,+305.175781E-06
+5.770000E-06,-2.371859271079E+00,+305.175781E-06
+5.775000E-06,-2.371859271079E+00,+305.175781E-06
+5.780000E-06,-2.371859271079E+00,+305.175781E-06
+5.785000E-06,-2.371859271079E+00,+305.175781E-06
+5.790000E-06,-2.412060275668E+00,+305.175781E-06
+5.795000E-06,-2.371859271079E+00,+305.175781E-06
+5.800000E-06,-2.412060275674E+00,+305.175781E-06
+5.805000E-06,-2.371859271085E+00,+305.175781E-06
+5.810000E-06,-2.412060275668E+00,+305.175781E-06
+5.815000E-06,-2.412060275674E+00,+305.175781E-06
+5.820000E-06,-2.412060275674E+00,+305.175781E-06
+5.825000E-06,-2.371859271085E+00,+305.175781E-06
+5.830000E-06,-2.371859271079E+00,+305.175781E-06
+5.835000E-06,-2.412060275668E+00,+305.175781E-06
+5.840000E-06,-2.371859271079E+00,+305.175781E-06
+5.845000E-06,-2.371859271079E+00,+305.175781E-06
+5.850000E-06,-2.371859271079E+00,+305.175781E-06
+5.855000E-06,-2.371859271079E+00,+305.175781E-06
+5.860000E-06,-2.371859271079E+00,+305.175781E-06
+5.865000E-06,-2.371859271079E+00,+305.175781E-06
+5.870000E-06,-2.371859271079E+00,+305.175781E-06
+5.875000E-06,-2.371859271079E+00,+305.175781E-06
+5.880000E-06,-2.371859271079E+00,+305.175781E-06
+5.885000E-06,-2.412060275674E+00,+305.175781E-06
+5.890000E-06,-2.371859271079E+00,+305.175781E-06
+5.895000E-06,-2.412060275674E+00,+305.175781E-06
+5.900000E-06,-2.371859271079E+00,+305.175781E-06
+5.905000E-06,-2.412060275674E+00,+305.175781E-06
+5.910000E-06,-2.371859271079E+00,+305.175781E-06
+5.915000E-06,-2.412060275674E+00,+305.175781E-06
+5.920000E-06,-2.371859271079E+00,+305.175781E-06
+5.925000E-06,-2.371859271079E+00,+305.175781E-06
+5.930000E-06,-2.371859271079E+00,+305.175781E-06
+5.935000E-06,-2.371859271079E+00,+305.175781E-06
+5.940000E-06,-2.371859271085E+00,+305.175781E-06
+5.945000E-06,-2.371859271079E+00,+305.175781E-06
+5.950000E-06,-2.371859271079E+00,+305.175781E-06
+5.955000E-06,-2.412060275674E+00,+305.175781E-06
+5.960000E-06,-2.371859271079E+00,+305.175781E-06
+5.965000E-06,-2.371859271079E+00,+305.175781E-06
+5.970000E-06,-2.371859271079E+00,+305.175781E-06
+5.975000E-06,-2.371859271079E+00,+305.175781E-06
+5.980000E-06,-2.412060275668E+00,+305.175781E-06
+5.985000E-06,-2.412060275674E+00,+305.175781E-06
+5.990000E-06,-2.371859271079E+00,+305.175781E-06
+5.995000E-06,-2.412060275674E+00,+305.175781E-06
+6.000000E-06,-2.412060275668E+00,+305.175781E-06
+6.005000E-06,-2.371859271079E+00,+305.175781E-06
+6.010000E-06,-2.371859271079E+00,+305.175781E-06
+6.015000E-06,-2.412060275674E+00,+305.175781E-06
+6.020000E-06,-2.412060275674E+00,+305.175781E-06
+6.025000E-06,-2.412060275674E+00,+305.175781E-06
+6.030000E-06,-2.371859271079E+00,+305.175781E-06
+6.035000E-06,-2.412060275674E+00,+305.175781E-06
+6.040000E-06,-2.412060275674E+00,+305.175781E-06
+6.045000E-06,-2.371859271085E+00,+305.175781E-06
+6.050000E-06,-2.371859271079E+00,+305.175781E-06
+6.055000E-06,-2.371859271079E+00,+305.175781E-06
+6.060000E-06,-2.371859271079E+00,+305.175781E-06
+6.065000E-06,-2.371859271079E+00,+305.175781E-06
+6.070000E-06,-2.371859271079E+00,+305.175781E-06
+6.075000E-06,-2.412060275674E+00,+305.175781E-06
+6.080000E-06,-2.371859271079E+00,+305.175781E-06
+6.085000E-06,-2.371859271085E+00,+305.175781E-06
+6.090000E-06,-2.371859271079E+00,+305.175781E-06
+6.095000E-06,-2.371859271079E+00,+305.175781E-06
+6.100000E-06,-2.412060275674E+00,+305.175781E-06
+6.105000E-06,-2.371859271079E+00,+305.175781E-06
+6.110000E-06,-2.371859271079E+00,+305.175781E-06
+6.115000E-06,-2.412060275668E+00,+305.175781E-06
+6.120000E-06,-2.371859271079E+00,+305.175781E-06
+6.125000E-06,-2.371859271079E+00,+305.175781E-06
+6.130000E-06,-2.412060275668E+00,+305.175781E-06
+6.135000E-06,-2.371859271079E+00,+305.175781E-06
+6.140000E-06,-2.412060275674E+00,+305.175781E-06
+6.145000E-06,-2.371859271079E+00,+305.175781E-06
+6.150000E-06,-2.371859271079E+00,+305.175781E-06
+6.155000E-06,-2.371859271079E+00,+305.175781E-06
+6.160000E-06,-2.371859271079E+00,+305.175781E-06
+6.165000E-06,-2.412060275674E+00,+305.175781E-06
+6.170000E-06,-2.371859271079E+00,+305.175781E-06
+6.175000E-06,-2.371859271079E+00,+305.175781E-06
+6.180000E-06,-2.371859271079E+00,+305.175781E-06
+6.185000E-06,-2.371859271079E+00,+305.175781E-06
+6.190000E-06,-2.412060275674E+00,+305.175781E-06
+6.195000E-06,-2.412060275674E+00,+305.175781E-06
+6.200000E-06,-2.412060275674E+00,+305.175781E-06
+6.205000E-06,-2.371859271079E+00,+305.175781E-06
+6.210000E-06,-2.412060275668E+00,+305.175781E-06
+6.215000E-06,-2.371859271079E+00,+305.175781E-06
+6.220000E-06,-2.412060275674E+00,+305.175781E-06
+6.225000E-06,-2.371859271079E+00,+305.175781E-06
+6.230000E-06,-2.412060275674E+00,+305.175781E-06
+6.235000E-06,-2.371859271079E+00,+305.175781E-06
+6.240000E-06,-2.412060275674E+00,+305.175781E-06
+6.245000E-06,-2.371859271079E+00,+305.175781E-06
+6.250000E-06,-2.412060275674E+00,+305.175781E-06
+6.255000E-06,-2.371859271079E+00,+305.175781E-06
+6.260000E-06,-2.412060275674E+00,+305.175781E-06
+6.265000E-06,-2.412060275674E+00,+305.175781E-06
+6.270000E-06,-2.412060275674E+00,+305.175781E-06
+6.275000E-06,-2.371859271079E+00,+305.175781E-06
+6.280000E-06,-2.412060275674E+00,+305.175781E-06
+6.285000E-06,-2.412060275674E+00,+305.175781E-06
+6.290000E-06,-2.412060275674E+00,+305.175781E-06
+6.295000E-06,-2.371859271079E+00,+305.175781E-06
+6.300000E-06,-2.412060275674E+00,+305.175781E-06
+6.305000E-06,-2.412060275674E+00,+305.175781E-06
+6.310000E-06,-2.371859271079E+00,+305.175781E-06
+6.315000E-06,-2.412060275668E+00,+305.175781E-06
+6.320000E-06,-2.412060275674E+00,+305.175781E-06
+6.325000E-06,-2.371859271079E+00,+305.175781E-06
+6.330000E-06,-2.371859271079E+00,+305.175781E-06
+6.335000E-06,-2.412060275668E+00,+305.175781E-06
+6.340000E-06,-2.412060275674E+00,+305.175781E-06
+6.345000E-06,-2.412060275674E+00,+305.175781E-06
+6.350000E-06,-2.371859271086E+00,+305.175781E-06
+6.355000E-06,-2.371859271079E+00,+305.175781E-06
+6.360000E-06,-2.371859271079E+00,+305.175781E-06
+6.365000E-06,-2.371859271079E+00,+305.175781E-06
+6.370000E-06,-2.412060275674E+00,+305.175781E-06
+6.375000E-06,-2.371859271079E+00,+305.175781E-06
+6.380000E-06,-2.412060275674E+00,+305.175781E-06
+6.385000E-06,-2.371859271079E+00,+305.175781E-06
+6.390000E-06,-2.412060275674E+00,+305.175781E-06
+6.395000E-06,-2.371859271079E+00,+305.175781E-06
+6.400000E-06,-2.412060275674E+00,+305.175781E-06
+6.405000E-06,-2.371859271079E+00,+305.175781E-06
+6.410000E-06,-2.412060275674E+00,+305.175781E-06
+6.415000E-06,-2.412060275674E+00,+305.175781E-06
+6.420000E-06,-2.412060275674E+00,+305.175781E-06
+6.425000E-06,-2.412060275668E+00,+305.175781E-06
+6.430000E-06,-2.371859271086E+00,+305.175781E-06
+6.435000E-06,-2.371859271079E+00,+305.175781E-06
+6.440000E-06,-2.371859271079E+00,+305.175781E-06
+6.445000E-06,-2.412060275674E+00,+305.175781E-06
+6.450000E-06,-2.412060275674E+00,+305.175781E-06
+6.455000E-06,-2.412060275674E+00,+305.175781E-06
+6.460000E-06,-2.412060275674E+00,+305.175781E-06
+6.465000E-06,-2.412060275674E+00,+305.175781E-06
+6.470000E-06,-2.371859271086E+00,+305.175781E-06
+6.475000E-06,-2.412060275674E+00,+305.175781E-06
+6.480000E-06,-2.412060275674E+00,+305.175781E-06
+6.485000E-06,-2.412060275674E+00,+305.175781E-06
+6.490000E-06,-2.371859271079E+00,+305.175781E-06
+6.495000E-06,-2.412060275674E+00,+305.175781E-06
+6.500000E-06,-2.371859271079E+00,+305.175781E-06
+6.505000E-06,-2.412060275674E+00,+305.175781E-06
+6.510000E-06,-2.371859271079E+00,+305.175781E-06
+6.515000E-06,-2.412060275674E+00,+305.175781E-06
+6.520000E-06,-2.412060275674E+00,+305.175781E-06
+6.525000E-06,-2.412060275674E+00,+305.175781E-06
+6.530000E-06,-2.371859271086E+00,+305.175781E-06
+6.535000E-06,-2.371859271079E+00,+305.175781E-06
+6.540000E-06,-2.371859271079E+00,+305.175781E-06
+6.545000E-06,-2.371859271079E+00,+305.175781E-06
+6.550000E-06,-2.412060275674E+00,+305.175781E-06
+6.555000E-06,-2.412060275674E+00,+305.175781E-06
+6.560000E-06,-2.371859271079E+00,+305.175781E-06
+6.565000E-06,-2.412060275674E+00,+305.175781E-06
+6.570000E-06,-2.412060275674E+00,+305.175781E-06
+6.575000E-06,-2.412060275674E+00,+305.175781E-06
+6.580000E-06,-2.412060275674E+00,+305.175781E-06
+6.585000E-06,-2.371859271086E+00,+305.175781E-06
+6.590000E-06,-2.371859271079E+00,+305.175781E-06
+6.595000E-06,-2.412060275674E+00,+305.175781E-06
+6.600000E-06,-2.371859271079E+00,+305.175781E-06
+6.605000E-06,-2.412060275674E+00,+305.175781E-06
+6.610000E-06,-2.412060275674E+00,+305.175781E-06
+6.615000E-06,-2.412060275674E+00,+305.175781E-06
+6.620000E-06,-2.412060275674E+00,+305.175781E-06
+6.625000E-06,-2.412060275674E+00,+305.175781E-06
+6.630000E-06,-2.371859271079E+00,+305.175781E-06
+6.635000E-06,-2.412060275667E+00,+305.175781E-06
+6.640000E-06,-2.371859271079E+00,+305.175781E-06
+6.645000E-06,-2.412060275674E+00,+305.175781E-06
+6.650000E-06,-2.412060275674E+00,+305.175781E-06
+6.655000E-06,-2.412060275674E+00,+305.175781E-06
+6.660000E-06,-2.412060275674E+00,+305.175781E-06
+6.665000E-06,-2.371859271086E+00,+305.175781E-06
+6.670000E-06,-2.412060275674E+00,+305.175781E-06
+6.675000E-06,-2.412060275674E+00,+305.175781E-06
+6.680000E-06,-2.412060275674E+00,+305.175781E-06
+6.685000E-06,-2.412060275674E+00,+305.175781E-06
+6.690000E-06,-2.412060275674E+00,+305.175781E-06
+6.695000E-06,-2.371859271079E+00,+305.175781E-06
+6.700000E-06,-2.412060275674E+00,+305.175781E-06
+6.705000E-06,-2.371859271079E+00,+305.175781E-06
+6.710000E-06,-2.412060275667E+00,+305.175781E-06
+6.715000E-06,-2.412060275674E+00,+305.175781E-06
+6.720000E-06,-2.412060275674E+00,+305.175781E-06
+6.725000E-06,-2.371859271086E+00,+305.175781E-06
+6.730000E-06,-2.412060275667E+00,+305.175781E-06
+6.735000E-06,-2.412060275674E+00,+305.175781E-06
+6.740000E-06,-2.412060275674E+00,+305.175781E-06
+6.745000E-06,-2.412060275674E+00,+305.175781E-06
+6.750000E-06,-2.412060275674E+00,+305.175781E-06
+6.755000E-06,-2.412060275674E+00,+305.175781E-06
+6.760000E-06,-2.412060275667E+00,+305.175781E-06
+6.765000E-06,-2.371859271086E+00,+305.175781E-06
+6.770000E-06,-2.412060275674E+00,+305.175781E-06
+6.775000E-06,-2.371859271079E+00,+305.175781E-06
+6.780000E-06,-2.412060275674E+00,+305.175781E-06
+6.785000E-06,-2.371859271086E+00,+305.175781E-06
+6.790000E-06,-2.371859271079E+00,+305.175781E-06
+6.795000E-06,-2.371859271079E+00,+305.175781E-06
+6.800000E-06,-2.371859271079E+00,+305.175781E-06
+6.805000E-06,-2.371859271079E+00,+305.175781E-06
+6.810000E-06,-2.412060275674E+00,+305.175781E-06
+6.815000E-06,-2.371859271079E+00,+305.175781E-06
+6.820000E-06,-2.412060275674E+00,+305.175781E-06
+6.825000E-06,-2.371859271079E+00,+305.175781E-06
+6.830000E-06,-2.412060275674E+00,+305.175781E-06
+6.835000E-06,-2.371859271079E+00,+305.175781E-06
+6.840000E-06,-2.412060275674E+00,+305.175781E-06
+6.845000E-06,-2.371859271079E+00,+305.175781E-06
+6.850000E-06,-2.412060275674E+00,+305.175781E-06
+6.855000E-06,-2.412060275674E+00,+305.175781E-06
+6.860000E-06,-2.412060275674E+00,+305.175781E-06
+6.865000E-06,-2.412060275674E+00,+305.175781E-06
+6.870000E-06,-2.412060275674E+00,+305.175781E-06
+6.875000E-06,-2.412060275674E+00,+305.175781E-06
+6.880000E-06,-2.371859271079E+00,+305.175781E-06
+6.885000E-06,-2.412060275674E+00,+305.175781E-06
+6.890000E-06,-2.412060275674E+00,+305.175781E-06
+6.895000E-06,-2.412060275674E+00,+305.175781E-06
+6.900000E-06,-2.412060275674E+00,+305.175781E-06
+6.905000E-06,-2.412060275674E+00,+305.175781E-06
+6.910000E-06,-2.371859271079E+00,+305.175781E-06
+6.915000E-06,-2.412060275674E+00,+305.175781E-06
+6.920000E-06,-2.412060275674E+00,+305.175781E-06
+6.925000E-06,-2.412060275674E+00,+305.175781E-06
+6.930000E-06,-2.371859271086E+00,+305.175781E-06
+6.935000E-06,-2.412060275674E+00,+305.175781E-06
+6.940000E-06,-2.371859271086E+00,+305.175781E-06
+6.945000E-06,-2.412060275674E+00,+305.175781E-06
+6.950000E-06,-2.371859271079E+00,+305.175781E-06
+6.955000E-06,-2.412060275674E+00,+305.175781E-06
+6.960000E-06,-2.371859271079E+00,+305.175781E-06
+6.965000E-06,-2.412060275674E+00,+305.175781E-06
+6.970000E-06,-2.412060275674E+00,+305.175781E-06
+6.975000E-06,-2.412060275674E+00,+305.175781E-06
+6.980000E-06,-2.412060275674E+00,+305.175781E-06
+6.985000E-06,-2.412060275674E+00,+305.175781E-06
+6.990000E-06,-2.412060275674E+00,+305.175781E-06
+6.995000E-06,-2.412060275674E+00,+305.175781E-06
