\relax 
\bbl@beforestart
\providecommand \oddpage@label [2]{}
\babel@aux{italian}{}
\babel@aux{italian}{}
\@writefile{toc}{\contentsline {section}{\numberline {1}Introduzione}{1}\protected@file@percent }
\@writefile{toc}{\contentsline {subsection}{\numberline {1.1}Oscillatore in quadratura smorzato}{1}\protected@file@percent }
\@writefile{lof}{\contentsline {figure}{\numberline {1}{\ignorespaces Circuito dell'oscillatore in quadratura}}{1}\protected@file@percent }
\newlabel{fig:qo1}{{1}{1}}
\newlabel{eq:gol}{{1}{1}}
\newlabel{eq:gol_lat}{{2}{1}}
\newlabel{eq:gcl}{{3}{1}}
\@writefile{toc}{\contentsline {subsubsection}{\numberline {1.1.1}Stabilità con $\mathaccentV {tilde}07EG_{ol}$}{2}\protected@file@percent }
\newlabel{eq:poles}{{4}{2}}
\@writefile{toc}{\contentsline {subsubsection}{\numberline {1.1.2}Stabilità con Nyquist path}{2}\protected@file@percent }
\@writefile{lof}{\contentsline {figure}{\numberline {2}{\ignorespaces Cammino di Nyquist}}{2}\protected@file@percent }
\newlabel{fig:nyqp}{{2}{2}}
\@writefile{lof}{\contentsline {figure}{\numberline {3}{\ignorespaces Riparametrizzazione del cammino di Nyquist per $\mathaccentV {tilde}07EG_{ol}$}}{2}\protected@file@percent }
\newlabel{fig:nyqf}{{3}{2}}
\@writefile{toc}{\contentsline {subsection}{\numberline {1.2}Oscillatore con compensazione}{2}\protected@file@percent }
\newlabel{subsec:compensation}{{1.2}{2}}
\@writefile{toc}{\contentsline {section}{\numberline {2}Elaborazione dati}{2}\protected@file@percent }
\@writefile{lof}{\contentsline {figure}{\numberline {4}{\ignorespaces Circuito dell'oscillatore senza smorzamento}}{3}\protected@file@percent }
\newlabel{fig:circuit2}{{4}{3}}
\@writefile{lof}{\contentsline {figure}{\numberline {5}{\ignorespaces Esempio di segnale in uscita dall'oscillatore in Figura~\ref  {fig:qo1}, con fit sullo smorzamento esponenziale}}{3}\protected@file@percent }
\newlabel{fig:signal1}{{5}{3}}
\newlabel{eq:fitfunc1}{{5}{3}}
\@writefile{lot}{\contentsline {table}{\numberline {1}{\ignorespaces Valori di $1/\tau _s$ del decadimento esponenziale per ogni configurazione}}{4}\protected@file@percent }
\newlabel{tab:expdec}{{1}{4}}
\@writefile{lof}{\contentsline {figure}{\numberline {6}{\ignorespaces Inverso del tempo caratteristico in funzione di $\epsilon /(1+\epsilon )$, per le diverse configurazioni di $\epsilon = R_1/R_2$, con scala logaritmica sulle ascisse}}{4}\protected@file@percent }
\newlabel{fig:expdfit}{{6}{4}}
\@writefile{lot}{\contentsline {table}{\numberline {2}{\ignorespaces Dati di ampiezza e sfasamento tra $V_2$ e $V_1$}}{5}\protected@file@percent }
\newlabel{tab:sincosd}{{2}{5}}
\@writefile{lof}{\contentsline {figure}{\numberline {7}{\ignorespaces Segnali in uscita dal primo e dal secondo integratore}}{5}\protected@file@percent }
\newlabel{fig:sincos1}{{7}{5}}
\@writefile{lof}{\contentsline {figure}{\numberline {8}{\ignorespaces Segnali in uscita dal primo e dal secondo integratore con $R$ e $C$ differenti}}{5}\protected@file@percent }
\newlabel{fig:sincos2}{{8}{5}}
\@writefile{lof}{\contentsline {figure}{\numberline {9}{\ignorespaces Segnali in uscita dal primo e dal secondo integratore con $R$ e $C$ differenti}}{5}\protected@file@percent }
\newlabel{fig:sincos3}{{9}{5}}
\@writefile{lof}{\contentsline {figure}{\numberline {10}{\ignorespaces Segnali in uscita dal primo e dal secondo integratore con $R$ e $C$ differenti}}{5}\protected@file@percent }
\newlabel{fig:sincos4}{{10}{5}}
