x-axis,1,2
second,Volt,Volt
-1.050000E-03,-1.665929630E+00,+154.693466E-03
-1.048950E-03,-1.606432144E+00,+153.206029E-03
-1.047900E-03,-1.576683400E+00,+148.743717E-03
-1.046850E-03,-1.546934657E+00,+141.306531E-03
-1.045800E-03,-1.487437170E+00,+136.844220E-03
-1.044750E-03,-1.487437170E+00,+136.844220E-03
-1.043700E-03,-1.487437170E+00,+136.844220E-03
-1.042650E-03,-1.427939683E+00,+130.894471E-03
-1.041600E-03,-1.427939683E+00,+130.894471E-03
-1.040550E-03,-1.368442196E+00,+124.944722E-03
-1.039500E-03,-1.308944710E+00,+121.969848E-03
-1.038450E-03,-1.308944710E+00,+118.994974E-03
-1.037400E-03,-1.249447223E+00,+118.994974E-03
-1.036350E-03,-1.204824108E+00,+111.557788E-03
-1.035300E-03,-1.219698479E+00,+110.070351E-03
-1.034250E-03,-1.145326621E+00,+102.633165E-03
-1.033200E-03,-1.130452249E+00,+101.145728E-03
-1.032150E-03,-1.085829134E+00,+99.658290E-03
-1.031100E-03,-1.070954762E+00,+92.221105E-03
-1.030050E-03,-1.056080391E+00,+90.733667E-03
-1.029000E-03,-1.011457276E+00,+95.195979E-03
-1.027950E-03,-966.834161E-03,+87.758793E-03
-1.026900E-03,-951.959789E-03,+80.321607E-03
-1.025850E-03,-892.462302E-03,+77.346733E-03
-1.024800E-03,-892.462302E-03,+77.346733E-03
-1.023750E-03,-832.964815E-03,+77.346733E-03
-1.022700E-03,-832.964815E-03,+71.396984E-03
-1.021650E-03,-788.341700E-03,+65.447235E-03
-1.020600E-03,-773.467328E-03,+59.497487E-03
-1.019550E-03,-713.969842E-03,+59.497487E-03
-1.018500E-03,-654.472355E-03,+53.547738E-03
-1.017450E-03,-654.472355E-03,+49.085427E-03
-1.016400E-03,-594.974868E-03,+53.547738E-03
-1.015350E-03,-550.351753E-03,+47.597989E-03
-1.014300E-03,-535.477381E-03,+41.648241E-03
-1.013250E-03,-535.477381E-03,+41.648241E-03
-1.012200E-03,-475.979894E-03,+35.698492E-03
-1.011150E-03,-475.979894E-03,+29.748743E-03
-1.010100E-03,-416.482408E-03,+29.748743E-03
-1.009050E-03,-371.859292E-03,+23.798995E-03
-1.008000E-03,-356.984921E-03,+23.798995E-03
-1.006950E-03,-312.361806E-03,+23.798995E-03
-1.005900E-03,-297.487434E-03,+14.874372E-03
-1.004850E-03,-252.864319E-03,+7.437186E-03
-1.003800E-03,-237.989947E-03,+11.899497E-03
-1.002750E-03,-193.366832E-03,+5.949749E-03
-1.001700E-03,-178.492460E-03,+2.974874E-03
-1.000650E-03,-118.994974E-03,+0.0E+00
-999.600E-06,-118.994974E-03,+0.0E+00
-998.550E-06,-59.497487E-03,-5.949749E-03
-997.500E-06,-59.497487E-03,-8.924623E-03
-996.450E-06,+14.874372E-03,-16.361809E-03
-995.400E-06,+59.497487E-03,-17.849246E-03
-994.350E-06,+74.371859E-03,-19.336683E-03
-993.300E-06,+118.994974E-03,-17.849246E-03
-992.250E-06,+118.994974E-03,-23.798995E-03
-991.200E-06,+178.492460E-03,-29.748743E-03
-990.150E-06,+223.115575E-03,-31.236181E-03
-989.100E-06,+178.492460E-03,-32.723618E-03
-988.050E-06,+237.989947E-03,-35.698492E-03
-987.000E-06,+297.487434E-03,-41.648241E-03
-985.950E-06,+342.110549E-03,-47.597989E-03
-984.900E-06,+356.984921E-03,-50.572864E-03
-983.850E-06,+416.482408E-03,-52.060301E-03
-982.800E-06,+416.482408E-03,-53.547738E-03
-981.750E-06,+475.979894E-03,-59.497487E-03
-980.700E-06,+475.979894E-03,-59.497487E-03
-979.650E-06,+535.477381E-03,-59.497487E-03
-978.600E-06,+594.974868E-03,-65.447235E-03
-977.550E-06,+594.974868E-03,-75.859296E-03
-976.500E-06,+624.723611E-03,-77.346733E-03
-975.450E-06,+699.095470E-03,-77.346733E-03
-974.400E-06,+654.472355E-03,-77.346733E-03
-973.350E-06,+713.969842E-03,-87.758793E-03
-972.300E-06,+743.718585E-03,-86.271356E-03
-971.250E-06,+773.467328E-03,-93.708542E-03
-970.200E-06,+832.964815E-03,-95.195979E-03
-969.150E-06,+832.964815E-03,-101.145728E-03
-968.100E-06,+892.462302E-03,-101.145728E-03
-967.050E-06,+937.085417E-03,-107.095476E-03
-966.000E-06,+951.959789E-03,-107.095476E-03
-964.950E-06,+1.011457276E+00,-113.045225E-03
-963.900E-06,+1.011457276E+00,-113.045225E-03
-962.850E-06,+1.011457276E+00,-117.507536E-03
-961.800E-06,+1.070954762E+00,-118.994974E-03
-960.750E-06,+1.115577877E+00,-129.407034E-03
-959.700E-06,+1.130452249E+00,-127.919597E-03
-958.650E-06,+1.175075364E+00,-129.407034E-03
-957.600E-06,+1.189949736E+00,-136.844220E-03
-956.550E-06,+1.249447223E+00,-136.844220E-03
-955.500E-06,+1.308944710E+00,-142.793968E-03
-954.450E-06,+1.264321594E+00,-141.306531E-03
-953.400E-06,+1.308944710E+00,-142.793968E-03
-952.350E-06,+1.368442196E+00,-153.206029E-03
-951.300E-06,+1.427939683E+00,-151.718591E-03
-950.250E-06,+1.427939683E+00,-154.693466E-03
-949.200E-06,+1.487437170E+00,-154.693466E-03
-948.150E-06,+1.487437170E+00,-165.105526E-03
-947.100E-06,+1.517185913E+00,-169.567837E-03
-946.050E-06,+1.591557772E+00,-168.080400E-03
-945.000E-06,+1.606432144E+00,-172.542712E-03
-943.950E-06,+1.606432144E+00,-172.542712E-03
-942.900E-06,+1.665929630E+00,-175.517586E-03
-941.850E-06,+1.665929630E+00,-178.492460E-03
-940.800E-06,+1.725427117E+00,-178.492460E-03
-939.750E-06,+1.725427117E+00,-184.442209E-03
-938.700E-06,+1.784924604E+00,-190.391958E-03
-937.650E-06,+1.784924604E+00,-194.854269E-03
-936.600E-06,+1.844422091E+00,-196.341706E-03
-935.550E-06,+1.903919578E+00,-202.291455E-03
-934.500E-06,+1.903919578E+00,-202.291455E-03
-933.450E-06,+1.963417064E+00,-202.291455E-03
-932.400E-06,+2.022914551E+00,-208.241204E-03
-931.350E-06,+1.963417064E+00,-212.703515E-03
-930.300E-06,+2.022914551E+00,-214.190952E-03
-929.250E-06,+2.082412038E+00,-220.140701E-03
-928.200E-06,+2.082412038E+00,-220.140701E-03
-927.150E-06,+2.082412038E+00,-226.090450E-03
-926.100E-06,+2.141909525E+00,-229.065324E-03
-925.050E-06,+2.186532640E+00,-227.577887E-03
-924.000E-06,+2.201407012E+00,-232.040199E-03
-922.950E-06,+2.216281383E+00,-232.040199E-03
-921.900E-06,+2.260904498E+00,-240.964822E-03
-920.850E-06,+2.320401985E+00,-245.427133E-03
-919.800E-06,+2.320401985E+00,-243.939696E-03
-918.750E-06,+2.379899472E+00,-248.402007E-03
-917.700E-06,+2.379899472E+00,-249.889445E-03
-916.650E-06,+2.424522587E+00,-249.889445E-03
-915.600E-06,+2.498894446E+00,-255.839193E-03
-914.550E-06,+2.454271331E+00,-260.301505E-03
-913.500E-06,+2.498894446E+00,-258.814068E-03
-912.450E-06,+2.543517561E+00,-261.788942E-03
-911.400E-06,+2.558391932E+00,-267.738691E-03
-910.350E-06,+2.617889419E+00,-267.738691E-03
-909.300E-06,+2.617889419E+00,-273.688439E-03
-908.250E-06,+2.617889419E+00,-272.201002E-03
-907.200E-06,+2.677386906E+00,-279.638188E-03
-906.150E-06,+2.677386906E+00,-279.638188E-03
-905.100E-06,+2.707135649E+00,-282.613062E-03
-904.050E-06,+2.736884393E+00,-287.075374E-03
-903.000E-06,+2.736884393E+00,-285.587937E-03
-901.950E-06,+2.796381880E+00,-291.537685E-03
-900.900E-06,+2.826130623E+00,-294.512560E-03
-899.850E-06,+2.855879366E+00,-297.487434E-03
-898.800E-06,+2.855879366E+00,-297.487434E-03
-897.750E-06,+2.870753738E+00,-301.949746E-03
-896.700E-06,+2.915376853E+00,-306.412057E-03
-895.650E-06,+2.974874340E+00,-309.386931E-03
-894.600E-06,+2.974874340E+00,-315.336680E-03
-893.550E-06,+3.019497455E+00,-313.849243E-03
-892.500E-06,+3.034371827E+00,-315.336680E-03
-891.450E-06,+3.034371827E+00,-319.798992E-03
-890.400E-06,+3.093869314E+00,-321.286429E-03
-889.350E-06,+3.093869314E+00,-321.286429E-03
-888.300E-06,+3.153366800E+00,-327.236177E-03
-887.250E-06,+3.153366800E+00,-331.698489E-03
-886.200E-06,+3.153366800E+00,-327.236177E-03
-885.150E-06,+3.168241172E+00,-337.648238E-03
-884.100E-06,+3.212864287E+00,-336.160800E-03
-883.050E-06,+3.272361774E+00,-339.135675E-03
-882.000E-06,+3.272361774E+00,-339.135675E-03
-880.950E-06,+3.272361774E+00,-343.597986E-03
-879.900E-06,+3.331859261E+00,-345.085423E-03
-878.850E-06,+3.376482376E+00,-345.085423E-03
-877.800E-06,+3.391356748E+00,-351.035172E-03
-876.750E-06,+3.391356748E+00,-352.522609E-03
-875.700E-06,+3.421105491E+00,-354.010046E-03
-874.650E-06,+3.450854234E+00,-352.522609E-03
-873.600E-06,+3.450854234E+00,-356.984921E-03
-872.550E-06,+3.510351721E+00,-362.934669E-03
-871.500E-06,+3.510351721E+00,-362.934669E-03
-870.450E-06,+3.554974836E+00,-362.934669E-03
-869.400E-06,+3.569849208E+00,-362.934669E-03
-868.350E-06,+3.569849208E+00,-373.346730E-03
-867.300E-06,+3.629346695E+00,-374.834167E-03
-866.250E-06,+3.629346695E+00,-376.321604E-03
-865.200E-06,+3.688844182E+00,-374.834167E-03
-864.150E-06,+3.688844182E+00,-374.834167E-03
-863.100E-06,+3.688844182E+00,-383.758790E-03
-862.050E-06,+3.703718553E+00,-386.733664E-03
-861.000E-06,+3.748341668E+00,-386.733664E-03
-859.950E-06,+3.807839155E+00,-386.733664E-03
-858.900E-06,+3.778090412E+00,-389.708539E-03
-857.850E-06,+3.807839155E+00,-397.145724E-03
-856.800E-06,+3.867336642E+00,-398.633162E-03
-855.750E-06,+3.822713527E+00,-397.145724E-03
-854.700E-06,+3.867336642E+00,-401.608036E-03
-853.650E-06,+3.867336642E+00,-403.095473E-03
-852.600E-06,+3.926834129E+00,-404.582910E-03
-851.550E-06,+3.926834129E+00,-404.582910E-03
-850.500E-06,+3.956582872E+00,-404.582910E-03
-849.450E-06,+3.986331616E+00,-410.532659E-03
-848.400E-06,+3.986331616E+00,-410.532659E-03
-847.350E-06,+4.045829102E+00,-410.532659E-03
-846.300E-06,+4.045829102E+00,-413.507533E-03
-845.250E-06,+4.045829102E+00,-416.482408E-03
-844.200E-06,+4.105326589E+00,-422.432156E-03
-843.150E-06,+4.105326589E+00,-417.969845E-03
-842.100E-06,+4.105326589E+00,-422.432156E-03
-841.050E-06,+4.120200961E+00,-422.432156E-03
-840.000E-06,+4.164824076E+00,-428.381905E-03
-838.950E-06,+4.164824076E+00,-428.381905E-03
-837.900E-06,+4.194572819E+00,-428.381905E-03
-836.850E-06,+4.224321563E+00,-428.381905E-03
-835.800E-06,+4.224321563E+00,-428.381905E-03
-834.750E-06,+4.239195935E+00,-434.331654E-03
-833.700E-06,+4.283819050E+00,-434.331654E-03
-832.650E-06,+4.283819050E+00,-440.281402E-03
-831.600E-06,+4.283819050E+00,-440.281402E-03
-830.550E-06,+4.328442165E+00,-440.281402E-03
-829.500E-06,+4.343316536E+00,-440.281402E-03
-828.450E-06,+4.298693421E+00,-441.768839E-03
-827.400E-06,+4.343316536E+00,-446.231151E-03
-826.350E-06,+4.387939651E+00,-450.693463E-03
-825.300E-06,+4.402814023E+00,-446.231151E-03
-824.250E-06,+4.402814023E+00,-452.180900E-03
-823.200E-06,+4.462311510E+00,-458.130648E-03
-822.150E-06,+4.417688395E+00,-456.643211E-03
-821.100E-06,+4.462311510E+00,-455.155774E-03
-820.050E-06,+4.506934625E+00,-458.130648E-03
-819.000E-06,+4.462311510E+00,-458.130648E-03
-817.950E-06,+4.521808997E+00,-458.130648E-03
-816.900E-06,+4.521808997E+00,-461.105523E-03
-815.850E-06,+4.521808997E+00,-464.080397E-03
-814.800E-06,+4.521808997E+00,-464.080397E-03
-813.750E-06,+4.521808997E+00,-459.618086E-03
-812.700E-06,+4.551557740E+00,-467.055271E-03
-811.650E-06,+4.581306484E+00,-470.030146E-03
-810.600E-06,+4.581306484E+00,-464.080397E-03
-809.550E-06,+4.581306484E+00,-470.030146E-03
-808.500E-06,+4.611055227E+00,-467.055271E-03
-807.450E-06,+4.625929599E+00,-471.517583E-03
-806.400E-06,+4.640803970E+00,-475.979894E-03
-805.350E-06,+4.640803970E+00,-475.979894E-03
-804.300E-06,+4.640803970E+00,-475.979894E-03
-803.250E-06,+4.700301457E+00,-475.979894E-03
-802.200E-06,+4.700301457E+00,-481.929643E-03
-801.150E-06,+4.700301457E+00,-475.979894E-03
-800.100E-06,+4.700301457E+00,-481.929643E-03
-799.050E-06,+4.700301457E+00,-477.467332E-03
-798.000E-06,+4.700301457E+00,-481.929643E-03
-796.950E-06,+4.759798944E+00,-481.929643E-03
-795.900E-06,+4.700301457E+00,-484.904517E-03
-794.850E-06,+4.789547687E+00,-481.929643E-03
-793.800E-06,+4.759798944E+00,-481.929643E-03
-792.750E-06,+4.759798944E+00,-483.417080E-03
-791.700E-06,+4.759798944E+00,-487.879392E-03
-790.650E-06,+4.819296431E+00,-487.879392E-03
-789.600E-06,+4.819296431E+00,-487.879392E-03
-788.550E-06,+4.774673316E+00,-493.829140E-03
-787.500E-06,+4.819296431E+00,-490.854266E-03
-786.450E-06,+4.819296431E+00,-492.341703E-03
-785.400E-06,+4.819296431E+00,-493.829140E-03
-784.350E-06,+4.819296431E+00,-492.341703E-03
-783.300E-06,+4.819296431E+00,-490.854266E-03
-782.250E-06,+4.834170802E+00,-492.341703E-03
-781.200E-06,+4.878793918E+00,-493.829140E-03
-780.150E-06,+4.878793918E+00,-495.316578E-03
-779.100E-06,+4.878793918E+00,-493.829140E-03
-778.050E-06,+4.878793918E+00,-499.778889E-03
-777.000E-06,+4.878793918E+00,-499.778889E-03
-775.950E-06,+4.893668289E+00,-499.778889E-03
-774.900E-06,+4.878793918E+00,-496.804015E-03
-773.850E-06,+4.878793918E+00,-499.778889E-03
-772.800E-06,+4.878793918E+00,-499.778889E-03
-771.750E-06,+4.938291404E+00,-499.778889E-03
-770.700E-06,+4.908542661E+00,-499.778889E-03
-769.650E-06,+4.923417033E+00,-499.778889E-03
-768.600E-06,+4.938291404E+00,-499.778889E-03
-767.550E-06,+4.938291404E+00,-504.241201E-03
-766.500E-06,+4.938291404E+00,-499.778889E-03
-765.450E-06,+4.938291404E+00,-499.778889E-03
-764.400E-06,+4.938291404E+00,-505.728638E-03
-763.350E-06,+4.938291404E+00,-499.778889E-03
-762.300E-06,+4.938291404E+00,-502.753763E-03
-761.250E-06,+4.938291404E+00,-499.778889E-03
-760.200E-06,+4.938291404E+00,-499.778889E-03
-759.150E-06,+4.938291404E+00,-505.728638E-03
-758.100E-06,+4.968040148E+00,-502.753763E-03
-757.050E-06,+4.938291404E+00,-504.241201E-03
-756.000E-06,+4.997788891E+00,-511.678386E-03
-754.950E-06,+4.997788891E+00,-501.266326E-03
-753.900E-06,+4.968040148E+00,-505.728638E-03
-752.850E-06,+4.997788891E+00,-505.728638E-03
-751.800E-06,+4.997788891E+00,-505.728638E-03
-750.750E-06,+4.997788891E+00,-501.266326E-03
-749.700E-06,+4.938291404E+00,-502.753763E-03
-748.650E-06,+4.938291404E+00,-505.728638E-03
-747.600E-06,+4.997788891E+00,-505.728638E-03
-746.550E-06,+4.938291404E+00,-501.266326E-03
-745.500E-06,+4.938291404E+00,-499.778889E-03
-744.450E-06,+4.938291404E+00,-505.728638E-03
-743.400E-06,+4.938291404E+00,-505.728638E-03
-742.350E-06,+4.938291404E+00,-501.266326E-03
-741.300E-06,+4.938291404E+00,-502.753763E-03
-740.250E-06,+4.938291404E+00,-505.728638E-03
-739.200E-06,+4.997788891E+00,-499.778889E-03
-738.150E-06,+4.938291404E+00,-499.778889E-03
-737.100E-06,+4.997788891E+00,-502.753763E-03
-736.050E-06,+4.997788891E+00,-505.728638E-03
-735.000E-06,+4.938291404E+00,-499.778889E-03
-733.950E-06,+4.938291404E+00,-499.778889E-03
-732.900E-06,+4.968040148E+00,-499.778889E-03
-731.850E-06,+4.938291404E+00,-499.778889E-03
-730.800E-06,+4.938291404E+00,-499.778889E-03
-729.750E-06,+4.938291404E+00,-499.778889E-03
-728.700E-06,+4.938291404E+00,-502.753763E-03
-727.650E-06,+4.938291404E+00,-499.778889E-03
-726.600E-06,+4.878793918E+00,-499.778889E-03
-725.550E-06,+4.938291404E+00,-495.316578E-03
-724.500E-06,+4.938291404E+00,-499.778889E-03
-723.450E-06,+4.923417033E+00,-493.829140E-03
-722.400E-06,+4.938291404E+00,-493.829140E-03
-721.350E-06,+4.878793918E+00,-498.291452E-03
-720.300E-06,+4.938291404E+00,-493.829140E-03
-719.250E-06,+4.878793918E+00,-498.291452E-03
-718.200E-06,+4.878793918E+00,-493.829140E-03
-717.150E-06,+4.878793918E+00,-493.829140E-03
-716.100E-06,+4.849045174E+00,-487.879392E-03
-715.050E-06,+4.834170802E+00,-493.829140E-03
-714.000E-06,+4.878793918E+00,-493.829140E-03
-712.950E-06,+4.819296431E+00,-487.879392E-03
-711.900E-06,+4.819296431E+00,-490.854266E-03
-710.850E-06,+4.819296431E+00,-487.879392E-03
-709.800E-06,+4.819296431E+00,-487.879392E-03
-708.750E-06,+4.819296431E+00,-484.904517E-03
-707.700E-06,+4.819296431E+00,-487.879392E-03
-706.650E-06,+4.819296431E+00,-483.417080E-03
-705.600E-06,+4.819296431E+00,-487.879392E-03
-704.550E-06,+4.774673316E+00,-481.929643E-03
-703.500E-06,+4.759798944E+00,-484.904517E-03
-702.450E-06,+4.759798944E+00,-481.929643E-03
-701.400E-06,+4.759798944E+00,-481.929643E-03
-700.350E-06,+4.759798944E+00,-481.929643E-03
-699.300E-06,+4.730050201E+00,-481.929643E-03
-698.250E-06,+4.744924572E+00,-481.929643E-03
-697.200E-06,+4.700301457E+00,-475.979894E-03
-696.150E-06,+4.744924572E+00,-475.979894E-03
-695.100E-06,+4.700301457E+00,-475.979894E-03
-694.050E-06,+4.700301457E+00,-474.492457E-03
-693.000E-06,+4.700301457E+00,-475.979894E-03
-691.950E-06,+4.655678342E+00,-470.030146E-03
-690.900E-06,+4.640803970E+00,-470.030146E-03
-689.850E-06,+4.640803970E+00,-470.030146E-03
-688.800E-06,+4.640803970E+00,-470.030146E-03
-687.750E-06,+4.640803970E+00,-464.080397E-03
-686.700E-06,+4.640803970E+00,-464.080397E-03
-685.650E-06,+4.581306484E+00,-465.567834E-03
-684.600E-06,+4.581306484E+00,-464.080397E-03
-683.550E-06,+4.581306484E+00,-464.080397E-03
-682.500E-06,+4.581306484E+00,-464.080397E-03
-681.450E-06,+4.566432112E+00,-458.130648E-03
-680.400E-06,+4.521808997E+00,-458.130648E-03
-679.350E-06,+4.521808997E+00,-453.668337E-03
-678.300E-06,+4.521808997E+00,-455.155774E-03
-677.250E-06,+4.521808997E+00,-453.668337E-03
-676.200E-06,+4.462311510E+00,-452.180900E-03
-675.150E-06,+4.462311510E+00,-447.718588E-03
-674.100E-06,+4.462311510E+00,-449.206025E-03
-673.050E-06,+4.462311510E+00,-446.231151E-03
-672.000E-06,+4.402814023E+00,-446.231151E-03
-670.950E-06,+4.402814023E+00,-444.743714E-03
-669.900E-06,+4.402814023E+00,-440.281402E-03
-668.850E-06,+4.387939652E+00,-444.743714E-03
-667.800E-06,+4.402814023E+00,-440.281402E-03
-666.750E-06,+4.343316536E+00,-434.331654E-03
-665.700E-06,+4.343316536E+00,-437.306528E-03
-664.650E-06,+4.298693421E+00,-438.793965E-03
-663.600E-06,+4.283819050E+00,-428.381905E-03
-662.550E-06,+4.283819050E+00,-428.381905E-03
-661.500E-06,+4.283819050E+00,-428.381905E-03
-660.450E-06,+4.224321563E+00,-428.381905E-03
-659.400E-06,+4.283819050E+00,-428.381905E-03
-658.350E-06,+4.224321563E+00,-428.381905E-03
-657.300E-06,+4.224321563E+00,-422.432156E-03
-656.250E-06,+4.164824076E+00,-420.944719E-03
-655.200E-06,+4.164824076E+00,-416.482408E-03
-654.150E-06,+4.120200961E+00,-420.944719E-03
-653.100E-06,+4.135075333E+00,-413.507533E-03
-652.050E-06,+4.105326589E+00,-406.070347E-03
-651.000E-06,+4.105326589E+00,-410.532659E-03
-649.950E-06,+4.090452217E+00,-406.070347E-03
-648.900E-06,+4.045829102E+00,-404.582910E-03
-647.850E-06,+4.045829102E+00,-404.582910E-03
-646.800E-06,+4.045829102E+00,-410.532659E-03
-645.750E-06,+3.986331616E+00,-398.633162E-03
-644.700E-06,+3.986331616E+00,-398.633162E-03
-643.650E-06,+3.926834129E+00,-398.633162E-03
-642.600E-06,+3.926834129E+00,-392.683413E-03
-641.550E-06,+3.926834129E+00,-392.683413E-03
-640.500E-06,+3.867336642E+00,-392.683413E-03
-639.450E-06,+3.867336642E+00,-386.733664E-03
-638.400E-06,+3.807839155E+00,-386.733664E-03
-637.350E-06,+3.852462270E+00,-386.733664E-03
-636.300E-06,+3.807839155E+00,-380.783916E-03
-635.250E-06,+3.792964784E+00,-380.783916E-03
-634.200E-06,+3.748341668E+00,-374.834167E-03
-633.150E-06,+3.748341668E+00,-379.296478E-03
-632.100E-06,+3.718592925E+00,-368.884418E-03
-631.050E-06,+3.688844182E+00,-373.346730E-03
-630.000E-06,+3.688844182E+00,-368.884418E-03
-628.950E-06,+3.629346695E+00,-367.396981E-03
-627.900E-06,+3.629346695E+00,-362.934669E-03
-626.850E-06,+3.584723580E+00,-358.472358E-03
-625.800E-06,+3.569849208E+00,-356.984921E-03
-624.750E-06,+3.569849208E+00,-356.984921E-03
-623.700E-06,+3.540100465E+00,-354.010046E-03
-622.650E-06,+3.510351721E+00,-352.522609E-03
-621.600E-06,+3.510351721E+00,-345.085423E-03
-620.550E-06,+3.450854234E+00,-346.572861E-03
-619.500E-06,+3.450854234E+00,-345.085423E-03
-618.450E-06,+3.406231119E+00,-343.597986E-03
-617.400E-06,+3.391356748E+00,-339.135675E-03
-616.350E-06,+3.376482376E+00,-337.648238E-03
-615.300E-06,+3.331859261E+00,-333.185926E-03
-614.250E-06,+3.331859261E+00,-336.160800E-03
-613.200E-06,+3.272361774E+00,-327.236177E-03
-612.150E-06,+3.272361774E+00,-327.236177E-03
-611.100E-06,+3.212864287E+00,-330.211052E-03
-610.050E-06,+3.212864287E+00,-325.748740E-03
-609.000E-06,+3.153366800E+00,-321.286429E-03
-607.950E-06,+3.212864287E+00,-321.286429E-03
-606.900E-06,+3.153366800E+00,-315.336680E-03
-605.850E-06,+3.153366800E+00,-313.849243E-03
-604.800E-06,+3.093869314E+00,-315.336680E-03
-603.750E-06,+3.078994942E+00,-310.874369E-03
-602.700E-06,+3.034371827E+00,-303.437183E-03
-601.650E-06,+3.034371827E+00,-298.974871E-03
-600.600E-06,+2.974874340E+00,-297.487434E-03
-599.550E-06,+2.974874340E+00,-297.487434E-03
-598.500E-06,+2.945125597E+00,-294.512560E-03
-597.450E-06,+2.915376853E+00,-295.999997E-03
-596.400E-06,+2.855879366E+00,-285.587937E-03
-595.350E-06,+2.855879366E+00,-285.587937E-03
-594.300E-06,+2.855879366E+00,-279.638188E-03
-593.250E-06,+2.796381880E+00,-279.638188E-03
-592.200E-06,+2.796381880E+00,-279.638188E-03
-591.150E-06,+2.736884393E+00,-273.688439E-03
-590.100E-06,+2.736884393E+00,-273.688439E-03
-589.050E-06,+2.736884393E+00,-272.201002E-03
-588.000E-06,+2.677386906E+00,-267.738691E-03
-586.950E-06,+2.632763791E+00,-266.251253E-03
-585.900E-06,+2.647638163E+00,-261.788942E-03
-584.850E-06,+2.573266304E+00,-261.788942E-03
-583.800E-06,+2.558391932E+00,-249.889445E-03
-582.750E-06,+2.543517561E+00,-251.376882E-03
-581.700E-06,+2.498894446E+00,-249.889445E-03
-580.650E-06,+2.484020074E+00,-245.427133E-03
-579.600E-06,+2.439396959E+00,-237.989947E-03
-578.550E-06,+2.439396959E+00,-243.939696E-03
-577.500E-06,+2.409648215E+00,-240.964822E-03
-576.450E-06,+2.379899472E+00,-233.527636E-03
-575.400E-06,+2.320401985E+00,-232.040199E-03
-574.350E-06,+2.320401985E+00,-226.090450E-03
-573.300E-06,+2.290653242E+00,-226.090450E-03
-572.250E-06,+2.216281383E+00,-224.603013E-03
-571.200E-06,+2.260904498E+00,-214.190952E-03
-570.150E-06,+2.201407012E+00,-220.140701E-03
-569.100E-06,+2.141909525E+00,-217.165827E-03
-568.050E-06,+2.097286410E+00,-214.190952E-03
-567.000E-06,+2.082412038E+00,-208.241204E-03
-565.950E-06,+2.082412038E+00,-206.753767E-03
-564.900E-06,+2.052663295E+00,-205.266329E-03
-563.850E-06,+2.008040180E+00,-200.804018E-03
-562.800E-06,+1.963417064E+00,-190.391958E-03
-561.750E-06,+1.948542693E+00,-196.341706E-03
-560.700E-06,+1.903919578E+00,-190.391958E-03
-559.650E-06,+1.859296462E+00,-185.929646E-03
-558.600E-06,+1.844422091E+00,-184.442209E-03
-557.550E-06,+1.844422091E+00,-182.954772E-03
-556.500E-06,+1.784924604E+00,-178.492460E-03
-555.450E-06,+1.725427117E+00,-177.005023E-03
-554.400E-06,+1.725427117E+00,-166.592963E-03
-553.350E-06,+1.680804002E+00,-166.592963E-03
-552.300E-06,+1.665929630E+00,-166.592963E-03
-551.250E-06,+1.651055259E+00,-165.105526E-03
-550.200E-06,+1.606432144E+00,-160.643214E-03
-549.150E-06,+1.561809029E+00,-160.643214E-03
-548.100E-06,+1.546934657E+00,-151.718591E-03
-547.050E-06,+1.502311542E+00,-148.743717E-03
-546.000E-06,+1.487437170E+00,-148.743717E-03
-544.950E-06,+1.427939683E+00,-142.793968E-03
-543.900E-06,+1.398190940E+00,-139.819094E-03
-542.850E-06,+1.368442196E+00,-136.844220E-03
-541.800E-06,+1.368442196E+00,-130.894471E-03
-540.750E-06,+1.308944710E+00,-132.381908E-03
-539.700E-06,+1.308944710E+00,-127.919597E-03
-538.650E-06,+1.249447223E+00,-120.482411E-03
-537.600E-06,+1.249447223E+00,-124.944722E-03
-536.550E-06,+1.189949736E+00,-116.020099E-03
-535.500E-06,+1.160200993E+00,-116.020099E-03
-534.450E-06,+1.130452249E+00,-111.557788E-03
-533.400E-06,+1.070954762E+00,-101.145728E-03
-532.350E-06,+1.070954762E+00,-105.608039E-03
-531.300E-06,+1.070954762E+00,-101.145728E-03
-530.250E-06,+1.011457276E+00,-95.195979E-03
-529.200E-06,+951.959789E-03,-95.195979E-03
-528.150E-06,+937.085417E-03,-95.195979E-03
-527.100E-06,+892.462302E-03,-86.271356E-03
-526.050E-06,+877.587930E-03,-83.296482E-03
-525.000E-06,+832.964815E-03,-77.346733E-03
-523.950E-06,+773.467328E-03,-77.346733E-03
-522.900E-06,+773.467328E-03,-74.371858E-03
-521.850E-06,+713.969842E-03,-72.884421E-03
-520.800E-06,+713.969842E-03,-65.447235E-03
-519.750E-06,+699.095470E-03,-65.447235E-03
-518.700E-06,+654.472355E-03,-62.472361E-03
-517.650E-06,+594.974868E-03,-53.547738E-03
-516.600E-06,+594.974868E-03,-59.497487E-03
-515.550E-06,+535.477381E-03,-49.085427E-03
-514.500E-06,+505.728638E-03,-47.597989E-03
-513.450E-06,+475.979894E-03,-41.648241E-03
-512.400E-06,+416.482408E-03,-41.648241E-03
-511.350E-06,+416.482408E-03,-41.648241E-03
-510.300E-06,+386.733664E-03,-35.698492E-03
-509.250E-06,+312.361806E-03,-31.236181E-03
-508.200E-06,+297.487434E-03,-29.748743E-03
-507.150E-06,+297.487434E-03,-23.798995E-03
-506.100E-06,+267.738691E-03,-23.798995E-03
-505.050E-06,+223.115576E-03,-23.798995E-03
-504.000E-06,+178.492460E-03,-17.849246E-03
-502.950E-06,+118.994974E-03,-11.899497E-03
-501.900E-06,+118.994974E-03,-8.924623E-03
-500.850E-06,+74.371858E-03,-5.949749E-03
-499.800E-06,+59.497487E-03,-0.0E+00
-498.750E-06,+0.0E+00,-4.462312E-03
-497.700E-06,+0.0E+00,+0.0E+00
-496.650E-06,-59.497487E-03,+5.949749E-03
-495.600E-06,-59.497487E-03,+11.899497E-03
-494.550E-06,-104.120602E-03,+11.899497E-03
-493.500E-06,-178.492460E-03,+11.899497E-03
-492.450E-06,-178.492460E-03,+22.311558E-03
-491.400E-06,-237.989947E-03,+23.798995E-03
-490.350E-06,-237.989947E-03,+23.798995E-03
-489.300E-06,-297.487434E-03,+29.748743E-03
-488.250E-06,-297.487434E-03,+35.698492E-03
-487.200E-06,-356.984921E-03,+29.748743E-03
-486.150E-06,-356.984921E-03,+35.698492E-03
-485.100E-06,-416.482408E-03,+41.648241E-03
-484.050E-06,-416.482408E-03,+46.110552E-03
-483.000E-06,-475.979894E-03,+47.597989E-03
-481.950E-06,-520.603009E-03,+53.547738E-03
-480.900E-06,-535.477381E-03,+53.547738E-03
-479.850E-06,-594.974868E-03,+55.035175E-03
-478.800E-06,-654.472355E-03,+65.447235E-03
-477.750E-06,-654.472355E-03,+65.447235E-03
-476.700E-06,-654.472355E-03,+68.422110E-03
-475.650E-06,-699.095470E-03,+71.396984E-03
-474.600E-06,-713.969842E-03,+77.346733E-03
-473.550E-06,-773.467328E-03,+77.346733E-03
-472.500E-06,-803.216072E-03,+83.296482E-03
-471.450E-06,-832.964815E-03,+89.246230E-03
-470.400E-06,-832.964815E-03,+89.246230E-03
-469.350E-06,-937.085417E-03,+95.195979E-03
-468.300E-06,-951.959789E-03,+95.195979E-03
-467.250E-06,-951.959789E-03,+101.145728E-03
-466.200E-06,-1.011457276E+00,+101.145728E-03
-465.150E-06,-1.070954762E+00,+105.608039E-03
-464.100E-06,-1.070954762E+00,+107.095476E-03
-463.050E-06,-1.085829134E+00,+111.557788E-03
-462.000E-06,-1.130452249E+00,+113.045225E-03
-460.950E-06,-1.175075364E+00,+114.532662E-03
-459.900E-06,-1.189949736E+00,+121.969848E-03
-458.850E-06,-1.249447223E+00,+124.944722E-03
-457.800E-06,-1.249447223E+00,+130.894471E-03
-456.750E-06,-1.308944710E+00,+129.407034E-03
-455.700E-06,-1.308944710E+00,+139.819094E-03
-454.650E-06,-1.368442196E+00,+141.306531E-03
-453.600E-06,-1.368442196E+00,+142.793968E-03
-452.550E-06,-1.427939683E+00,+148.743717E-03
-451.500E-06,-1.457688427E+00,+145.768843E-03
-450.450E-06,-1.487437170E+00,+151.718591E-03
-449.400E-06,-1.546934657E+00,+154.693466E-03
-448.350E-06,-1.546934657E+00,+154.693466E-03
-447.300E-06,-1.576683400E+00,+160.643214E-03
-446.250E-06,-1.606432144E+00,+160.643214E-03
-445.200E-06,-1.665929630E+00,+166.592963E-03
-444.150E-06,-1.665929630E+00,+171.055275E-03
-443.100E-06,-1.725427117E+00,+169.567837E-03
-442.050E-06,-1.740301489E+00,+177.005023E-03
-441.000E-06,-1.725427117E+00,+178.492460E-03
-439.950E-06,-1.829547719E+00,+179.979898E-03
-438.900E-06,-1.844422091E+00,+184.442209E-03
-437.850E-06,-1.844422091E+00,+185.929646E-03
-436.800E-06,-1.903919578E+00,+196.341706E-03
-435.750E-06,-1.903919578E+00,+194.854269E-03
-434.700E-06,-1.933668321E+00,+193.366832E-03
-433.650E-06,-1.963417064E+00,+200.804018E-03
-432.600E-06,-2.022914551E+00,+202.291455E-03
-431.550E-06,-2.022914551E+00,+203.778892E-03
-430.500E-06,-2.082412038E+00,+208.241204E-03
-429.450E-06,-2.082412038E+00,+209.728641E-03
-428.400E-06,-2.141909525E+00,+214.190952E-03
-427.350E-06,-2.186532640E+00,+218.653264E-03
-426.300E-06,-2.171658268E+00,+223.115575E-03
-425.250E-06,-2.201407012E+00,+220.140701E-03
-424.200E-06,-2.260904498E+00,+232.040199E-03
-423.150E-06,-2.260904498E+00,+230.552761E-03
-422.100E-06,-2.320401985E+00,+232.040199E-03
-421.050E-06,-2.320401985E+00,+232.040199E-03
-420.000E-06,-2.379899472E+00,+237.989947E-03
-418.950E-06,-2.379899472E+00,+242.452259E-03
-417.900E-06,-2.439396959E+00,+237.989947E-03
-416.850E-06,-2.439396959E+00,+248.402007E-03
-415.800E-06,-2.498894446E+00,+249.889445E-03
-414.750E-06,-2.498894446E+00,+249.889445E-03
-413.700E-06,-2.528643189E+00,+252.864319E-03
-412.650E-06,-2.558391932E+00,+255.839193E-03
-411.600E-06,-2.558391932E+00,+261.788942E-03
-410.550E-06,-2.632763791E+00,+261.788942E-03
-409.500E-06,-2.647638163E+00,+264.763816E-03
-408.450E-06,-2.677386906E+00,+273.688439E-03
-407.400E-06,-2.736884393E+00,+273.688439E-03
-406.350E-06,-2.736884393E+00,+273.688439E-03
-405.300E-06,-2.766633136E+00,+273.688439E-03
-404.250E-06,-2.796381880E+00,+275.175876E-03
-403.200E-06,-2.855879366E+00,+279.638188E-03
-402.150E-06,-2.855879366E+00,+285.587937E-03
-401.100E-06,-2.885628110E+00,+288.562811E-03
-400.050E-06,-2.915376853E+00,+291.537685E-03
-399.000E-06,-2.974874340E+00,+291.537685E-03
-397.950E-06,-2.974874340E+00,+297.487434E-03
-396.900E-06,-2.974874340E+00,+300.462308E-03
-395.850E-06,-3.019497455E+00,+301.949746E-03
-394.800E-06,-3.034371827E+00,+303.437183E-03
-393.750E-06,-3.034371827E+00,+309.386931E-03
-392.700E-06,-3.093869314E+00,+309.386931E-03
-391.650E-06,-3.093869314E+00,+315.336680E-03
-390.600E-06,-3.153366800E+00,+315.336680E-03
-389.550E-06,-3.153366800E+00,+315.336680E-03
-388.500E-06,-3.183115544E+00,+318.311554E-03
-387.450E-06,-3.212864287E+00,+322.773866E-03
-386.400E-06,-3.272361774E+00,+321.286429E-03
-385.350E-06,-3.227738659E+00,+327.236177E-03
-384.300E-06,-3.272361774E+00,+327.236177E-03
-383.250E-06,-3.331859261E+00,+328.723615E-03
-382.200E-06,-3.331859261E+00,+333.185926E-03
-381.150E-06,-3.346733633E+00,+334.673363E-03
-380.100E-06,-3.391356748E+00,+336.160800E-03
-379.050E-06,-3.435979863E+00,+340.623112E-03
-378.000E-06,-3.450854234E+00,+345.085423E-03
-376.950E-06,-3.450854234E+00,+345.085423E-03
-375.900E-06,-3.450854234E+00,+348.060298E-03
-374.850E-06,-3.525226093E+00,+351.035172E-03
-373.800E-06,-3.510351721E+00,+356.984921E-03
-372.750E-06,-3.525226093E+00,+356.984921E-03
-371.700E-06,-3.569849208E+00,+356.984921E-03
-370.650E-06,-3.584723580E+00,+362.934669E-03
-369.600E-06,-3.629346695E+00,+362.934669E-03
-368.550E-06,-3.629346695E+00,+364.422107E-03
-367.500E-06,-3.688844182E+00,+365.909544E-03
-366.450E-06,-3.688844182E+00,+368.884418E-03
-365.400E-06,-3.688844182E+00,+374.834167E-03
-364.350E-06,-3.703718553E+00,+374.834167E-03
-363.300E-06,-3.748341668E+00,+371.859292E-03
-362.250E-06,-3.748341668E+00,+379.296478E-03
-361.200E-06,-3.807839155E+00,+380.783916E-03
-360.150E-06,-3.867336642E+00,+380.783916E-03
-359.100E-06,-3.837587899E+00,+386.733664E-03
-358.050E-06,-3.867336642E+00,+388.221101E-03
-357.000E-06,-3.867336642E+00,+392.683413E-03
-355.950E-06,-3.926834129E+00,+388.221101E-03
-354.900E-06,-3.897085385E+00,+392.683413E-03
-353.850E-06,-3.926834129E+00,+398.633162E-03
-352.800E-06,-3.926834129E+00,+398.633162E-03
-351.750E-06,-3.986331616E+00,+397.145724E-03
-350.700E-06,-4.016080359E+00,+398.633162E-03
-349.650E-06,-4.030954731E+00,+404.582910E-03
-348.600E-06,-4.045829102E+00,+404.582910E-03
-347.550E-06,-4.060703474E+00,+409.045222E-03
-346.500E-06,-4.045829102E+00,+404.582910E-03
-345.450E-06,-4.105326589E+00,+406.070347E-03
-344.400E-06,-4.105326589E+00,+410.532659E-03
-343.350E-06,-4.164824076E+00,+416.482408E-03
-342.300E-06,-4.164824076E+00,+416.482408E-03
-341.250E-06,-4.164824076E+00,+416.482408E-03
-340.200E-06,-4.164824076E+00,+422.432156E-03
-339.150E-06,-4.224321563E+00,+422.432156E-03
-338.100E-06,-4.224321563E+00,+422.432156E-03
-337.050E-06,-4.283819050E+00,+423.919593E-03
-336.000E-06,-4.283819050E+00,+422.432156E-03
-334.950E-06,-4.283819050E+00,+432.844216E-03
-333.900E-06,-4.283819050E+00,+431.356779E-03
-332.850E-06,-4.298693421E+00,+429.869342E-03
-331.800E-06,-4.343316536E+00,+434.331654E-03
-330.750E-06,-4.343316536E+00,+432.844216E-03
-329.700E-06,-4.402814023E+00,+434.331654E-03
-328.650E-06,-4.358190908E+00,+438.793965E-03
-327.600E-06,-4.402814023E+00,+440.281402E-03
-326.550E-06,-4.462311510E+00,+440.281402E-03
-325.500E-06,-4.432562767E+00,+443.256277E-03
-324.450E-06,-4.462311510E+00,+440.281402E-03
-323.400E-06,-4.462311510E+00,+446.231151E-03
-322.350E-06,-4.462311510E+00,+447.718588E-03
-321.300E-06,-4.492060253E+00,+446.231151E-03
-320.250E-06,-4.521808997E+00,+452.180900E-03
-319.200E-06,-4.521808997E+00,+452.180900E-03
-318.150E-06,-4.566432112E+00,+452.180900E-03
-317.100E-06,-4.551557740E+00,+455.155774E-03
-316.050E-06,-4.521808997E+00,+456.643211E-03
-315.000E-06,-4.581306484E+00,+452.180900E-03
-313.950E-06,-4.581306484E+00,+458.130648E-03
-312.900E-06,-4.611055227E+00,+458.130648E-03
-311.850E-06,-4.625929599E+00,+462.592960E-03
-310.800E-06,-4.640803970E+00,+464.080397E-03
-309.750E-06,-4.640803970E+00,+459.618086E-03
-308.700E-06,-4.640803970E+00,+467.055271E-03
-307.650E-06,-4.640803970E+00,+464.080397E-03
-306.600E-06,-4.640803970E+00,+470.030146E-03
-305.550E-06,-4.700301457E+00,+470.030146E-03
-304.500E-06,-4.700301457E+00,+470.030146E-03
-303.450E-06,-4.700301457E+00,+468.542709E-03
-302.400E-06,-4.759798944E+00,+470.030146E-03
-301.350E-06,-4.759798944E+00,+470.030146E-03
-300.300E-06,-4.759798944E+00,+475.979894E-03
-299.250E-06,-4.759798944E+00,+471.517583E-03
-298.200E-06,-4.759798944E+00,+475.979894E-03
-297.150E-06,-4.804422059E+00,+471.517583E-03
-296.100E-06,-4.789547687E+00,+475.979894E-03
-295.050E-06,-4.819296431E+00,+480.442206E-03
-294.000E-06,-4.819296431E+00,+475.979894E-03
-292.950E-06,-4.819296431E+00,+477.467332E-03
-291.900E-06,-4.819296431E+00,+478.954769E-03
-290.850E-06,-4.878793918E+00,+481.929643E-03
-289.800E-06,-4.819296431E+00,+481.929643E-03
-288.750E-06,-4.863919546E+00,+481.929643E-03
-287.700E-06,-4.849045174E+00,+481.929643E-03
-286.650E-06,-4.878793918E+00,+481.929643E-03
-285.600E-06,-4.819296431E+00,+481.929643E-03
-284.550E-06,-4.878793918E+00,+486.391955E-03
-283.500E-06,-4.878793918E+00,+487.879392E-03
-282.450E-06,-4.923417033E+00,+487.879392E-03
-281.400E-06,-4.938291404E+00,+487.879392E-03
-280.350E-06,-4.893668289E+00,+487.879392E-03
-279.300E-06,-4.908542661E+00,+490.854266E-03
-278.250E-06,-4.938291404E+00,+489.366829E-03
-277.200E-06,-4.878793918E+00,+487.879392E-03
-276.150E-06,-4.938291404E+00,+489.366829E-03
-275.100E-06,-4.938291404E+00,+490.854266E-03
-274.050E-06,-4.982914520E+00,+493.829140E-03
-273.000E-06,-4.997788891E+00,+493.829140E-03
-271.950E-06,-4.938291404E+00,+489.366829E-03
-270.900E-06,-4.968040148E+00,+490.854266E-03
-269.850E-06,-4.938291404E+00,+493.829140E-03
-268.800E-06,-4.997788891E+00,+499.778889E-03
-267.750E-06,-4.997788891E+00,+493.829140E-03
-266.700E-06,-4.968040148E+00,+493.829140E-03
-265.650E-06,-4.953165776E+00,+493.829140E-03
-264.600E-06,-4.997788891E+00,+493.829140E-03
-263.550E-06,-4.997788891E+00,+495.316578E-03
-262.500E-06,-4.997788891E+00,+496.804015E-03
-261.450E-06,-4.997788891E+00,+498.291452E-03
-260.400E-06,-4.997788891E+00,+499.778889E-03
-259.350E-06,-5.042412006E+00,+499.778889E-03
-258.300E-06,-4.997788891E+00,+496.804015E-03
-257.250E-06,-4.997788891E+00,+495.316578E-03
-256.200E-06,-4.997788891E+00,+499.778889E-03
-255.150E-06,-4.997788891E+00,+495.316578E-03
-254.100E-06,-4.997788891E+00,+499.778889E-03
-253.050E-06,-4.997788891E+00,+495.316578E-03
-252.000E-06,-5.057286378E+00,+499.778889E-03
-250.950E-06,-5.042412006E+00,+499.778889E-03
-249.900E-06,-4.997788891E+00,+493.829140E-03
-248.850E-06,-4.997788891E+00,+495.316578E-03
-247.800E-06,-4.997788891E+00,+493.829140E-03
-246.750E-06,-5.042412006E+00,+495.316578E-03
-245.700E-06,-5.027537635E+00,+496.804015E-03
-244.650E-06,-5.012663263E+00,+501.266326E-03
-243.600E-06,-5.057286378E+00,+499.778889E-03
-242.550E-06,-5.012663263E+00,+493.829140E-03
-241.500E-06,-4.997788891E+00,+499.778889E-03
-240.450E-06,-4.997788891E+00,+499.778889E-03
-239.400E-06,-4.997788891E+00,+499.778889E-03
-238.350E-06,-4.997788891E+00,+493.829140E-03
-237.300E-06,-4.997788891E+00,+493.829140E-03
-236.250E-06,-4.997788891E+00,+493.829140E-03
-235.200E-06,-4.997788891E+00,+493.829140E-03
-234.150E-06,-4.997788891E+00,+498.291452E-03
-233.100E-06,-4.997788891E+00,+496.804015E-03
-232.050E-06,-4.997788891E+00,+493.829140E-03
-231.000E-06,-4.997788891E+00,+493.829140E-03
-229.950E-06,-4.953165776E+00,+495.316578E-03
-228.900E-06,-4.997788891E+00,+487.879392E-03
-227.850E-06,-4.982914520E+00,+489.366829E-03
-226.800E-06,-4.997788891E+00,+487.879392E-03
-225.750E-06,-4.938291404E+00,+493.829140E-03
-224.700E-06,-4.997788891E+00,+496.804015E-03
-223.650E-06,-4.938291404E+00,+492.341703E-03
-222.600E-06,-4.938291404E+00,+493.829140E-03
-221.550E-06,-4.938291404E+00,+489.366829E-03
-220.500E-06,-4.908542661E+00,+493.829140E-03
-219.450E-06,-4.938291404E+00,+492.341703E-03
-218.400E-06,-4.878793918E+00,+487.879392E-03
-217.350E-06,-4.938291404E+00,+487.879392E-03
-216.300E-06,-4.938291404E+00,+487.879392E-03
-215.250E-06,-4.938291404E+00,+483.417080E-03
-214.200E-06,-4.938291404E+00,+481.929643E-03
-213.150E-06,-4.893668289E+00,+481.929643E-03
-212.100E-06,-4.938291404E+00,+484.904517E-03
-211.050E-06,-4.893668289E+00,+481.929643E-03
-210.000E-06,-4.878793918E+00,+481.929643E-03
-208.950E-06,-4.878793918E+00,+481.929643E-03
-207.900E-06,-4.878793918E+00,+478.954769E-03
-206.850E-06,-4.878793918E+00,+481.929643E-03
-205.800E-06,-4.878793918E+00,+481.929643E-03
-204.750E-06,-4.819296431E+00,+475.979894E-03
-203.700E-06,-4.819296431E+00,+473.005020E-03
-202.650E-06,-4.834170802E+00,+475.979894E-03
-201.600E-06,-4.819296431E+00,+481.929643E-03
-200.550E-06,-4.804422059E+00,+471.517583E-03
-199.500E-06,-4.789547687E+00,+473.005020E-03
-198.450E-06,-4.759798944E+00,+470.030146E-03
-197.400E-06,-4.759798944E+00,+475.979894E-03
-196.350E-06,-4.759798944E+00,+470.030146E-03
-195.300E-06,-4.759798944E+00,+473.005020E-03
-194.250E-06,-4.744924572E+00,+468.542709E-03
-193.200E-06,-4.759798944E+00,+470.030146E-03
-192.150E-06,-4.715175829E+00,+464.080397E-03
-191.100E-06,-4.730050201E+00,+464.080397E-03
-190.050E-06,-4.700301457E+00,+465.567834E-03
-189.000E-06,-4.700301457E+00,+464.080397E-03
-187.950E-06,-4.655678342E+00,+464.080397E-03
-186.900E-06,-4.670552714E+00,+455.155774E-03
-185.850E-06,-4.640803970E+00,+458.130648E-03
-184.800E-06,-4.640803970E+00,+458.130648E-03
-183.750E-06,-4.596180855E+00,+452.180900E-03
-182.700E-06,-4.611055227E+00,+455.155774E-03
-181.650E-06,-4.581306484E+00,+456.643211E-03
-180.600E-06,-4.521808997E+00,+458.130648E-03
-179.550E-06,-4.581306484E+00,+450.693463E-03
-178.500E-06,-4.551557740E+00,+446.231151E-03
-177.450E-06,-4.521808997E+00,+446.231151E-03
-176.400E-06,-4.521808997E+00,+446.231151E-03
-175.350E-06,-4.521808997E+00,+444.743714E-03
-174.300E-06,-4.521808997E+00,+440.281402E-03
-173.250E-06,-4.521808997E+00,+444.743714E-03
-172.200E-06,-4.462311510E+00,+440.281402E-03
-171.150E-06,-4.462311510E+00,+438.793965E-03
-170.100E-06,-4.432562767E+00,+437.306528E-03
-169.050E-06,-4.417688395E+00,+434.331654E-03
-168.000E-06,-4.402814023E+00,+434.331654E-03
-166.950E-06,-4.402814023E+00,+432.844216E-03
-165.900E-06,-4.373065280E+00,+431.356779E-03
-164.850E-06,-4.358190908E+00,+425.407031E-03
-163.800E-06,-4.343316536E+00,+428.381905E-03
-162.750E-06,-4.298693421E+00,+423.919593E-03
-161.700E-06,-4.313567793E+00,+425.407031E-03
-160.650E-06,-4.283819050E+00,+420.944719E-03
-159.600E-06,-4.283819050E+00,+422.432156E-03
-158.550E-06,-4.224321563E+00,+417.969845E-03
-157.500E-06,-4.224321563E+00,+416.482408E-03
-156.450E-06,-4.224321563E+00,+412.020096E-03
-155.400E-06,-4.164824076E+00,+410.532659E-03
-154.350E-06,-4.164824076E+00,+410.532659E-03
-153.300E-06,-4.164824076E+00,+404.582910E-03
-152.250E-06,-4.164824076E+00,+409.045222E-03
-151.200E-06,-4.164824076E+00,+404.582910E-03
-150.150E-06,-4.105326589E+00,+404.582910E-03
-149.100E-06,-4.105326589E+00,+401.608036E-03
-148.050E-06,-4.090452218E+00,+403.095473E-03
-147.000E-06,-4.045829102E+00,+398.633162E-03
-145.950E-06,-4.045829102E+00,+398.633162E-03
-144.900E-06,-4.016080359E+00,+392.683413E-03
-143.850E-06,-4.001205987E+00,+391.195976E-03
-142.800E-06,-3.986331616E+00,+386.733664E-03
-141.750E-06,-3.986331616E+00,+386.733664E-03
-140.700E-06,-3.956582872E+00,+386.733664E-03
-139.650E-06,-3.926834129E+00,+386.733664E-03
-138.600E-06,-3.926834129E+00,+380.783916E-03
-137.550E-06,-3.867336642E+00,+374.834167E-03
-136.500E-06,-3.837587899E+00,+377.809041E-03
-135.450E-06,-3.822713527E+00,+379.296478E-03
-134.400E-06,-3.807839155E+00,+374.834167E-03
-133.350E-06,-3.792964783E+00,+370.371855E-03
-132.300E-06,-3.778090412E+00,+368.884418E-03
-131.250E-06,-3.748341668E+00,+362.934669E-03
-130.200E-06,-3.748341668E+00,+362.934669E-03
-129.150E-06,-3.703718553E+00,+362.934669E-03
-128.100E-06,-3.688844182E+00,+359.959795E-03
-127.050E-06,-3.644221066E+00,+356.984921E-03
-126.000E-06,-3.629346695E+00,+356.984921E-03
-124.950E-06,-3.629346695E+00,+355.497484E-03
-123.900E-06,-3.629346695E+00,+345.085423E-03
-122.850E-06,-3.569849208E+00,+346.572861E-03
-121.800E-06,-3.569849208E+00,+345.085423E-03
-120.750E-06,-3.510351721E+00,+339.135675E-03
-119.700E-06,-3.510351721E+00,+336.160800E-03
-118.650E-06,-3.450854234E+00,+339.135675E-03
-117.600E-06,-3.450854234E+00,+339.135675E-03
-116.550E-06,-3.450854234E+00,+337.648238E-03
-115.500E-06,-3.391356748E+00,+330.211052E-03
-114.450E-06,-3.391356748E+00,+328.723615E-03
-113.400E-06,-3.331859261E+00,+327.236177E-03
-112.350E-06,-3.331859261E+00,+322.773866E-03
-111.300E-06,-3.272361774E+00,+321.286429E-03
-110.250E-06,-3.272361774E+00,+319.798992E-03
-109.200E-06,-3.272361774E+00,+321.286429E-03
-108.150E-06,-3.227738659E+00,+315.336680E-03
-107.100E-06,-3.212864287E+00,+315.336680E-03
-106.050E-06,-3.153366800E+00,+307.899494E-03
-105.000E-06,-3.153366800E+00,+303.437183E-03
-103.950E-06,-3.138492429E+00,+298.974871E-03
-102.900E-06,-3.123618057E+00,+297.487434E-03
-101.850E-06,-3.034371827E+00,+297.487434E-03
-100.800E-06,-3.034371827E+00,+291.537685E-03
-99.750E-06,-3.034371827E+00,+295.999997E-03
-98.700E-06,-2.974874340E+00,+288.562811E-03
-97.650E-06,-2.974874340E+00,+285.587937E-03
-96.600E-06,-2.974874340E+00,+285.587937E-03
-95.550E-06,-2.959999968E+00,+285.587937E-03
-94.500E-06,-2.885628110E+00,+279.638188E-03
-93.450E-06,-2.855879366E+00,+273.688439E-03
-92.400E-06,-2.855879366E+00,+273.688439E-03
-91.350E-06,-2.796381880E+00,+267.738691E-03
-90.300E-06,-2.766633136E+00,+264.763816E-03
-89.250E-06,-2.796381880E+00,+266.251253E-03
-88.200E-06,-2.677386906E+00,+267.738691E-03
-87.150E-06,-2.722010021E+00,+261.788942E-03
-86.100E-06,-2.677386906E+00,+258.814068E-03
-85.050E-06,-2.617889419E+00,+251.376882E-03
-84.000E-06,-2.617889419E+00,+249.889445E-03
-82.950E-06,-2.603015047E+00,+248.402007E-03
-81.900E-06,-2.558391932E+00,+240.964822E-03
-80.850E-06,-2.498894446E+00,+243.939696E-03
-79.800E-06,-2.498894446E+00,+243.939696E-03
-78.750E-06,-2.498894446E+00,+236.502510E-03
-77.700E-06,-2.409648215E+00,+232.040199E-03
-76.650E-06,-2.439396959E+00,+227.577887E-03
-75.600E-06,-2.379899472E+00,+226.090450E-03
-74.550E-06,-2.365025100E+00,+224.603013E-03
-73.500E-06,-2.290653242E+00,+220.140701E-03
-72.450E-06,-2.305527614E+00,+215.678390E-03
-71.400E-06,-2.260904498E+00,+214.190952E-03
-70.350E-06,-2.260904498E+00,+212.703515E-03
-69.300E-06,-2.201407012E+00,+211.216078E-03
-68.250E-06,-2.156783896E+00,+206.753767E-03
-67.200E-06,-2.141909525E+00,+202.291455E-03
-66.150E-06,-2.097286410E+00,+196.341706E-03
-65.100E-06,-2.082412038E+00,+199.316581E-03
-64.050E-06,-2.067537666E+00,+191.879395E-03
-63.000E-06,-2.022914551E+00,+190.391958E-03
-61.950E-06,-2.022914551E+00,+190.391958E-03
-60.900E-06,-1.963417064E+00,+187.417083E-03
-59.850E-06,-1.918793949E+00,+184.442209E-03
-58.800E-06,-1.963417064E+00,+178.492460E-03
-57.750E-06,-1.903919578E+00,+178.492460E-03
-56.700E-06,-1.844422091E+00,+172.542712E-03
-55.650E-06,-1.829547719E+00,+171.055275E-03
-54.600E-06,-1.784924604E+00,+172.542712E-03
-53.550E-06,-1.784924604E+00,+160.643214E-03
-52.500E-06,-1.725427117E+00,+163.618089E-03
-51.450E-06,-1.665929630E+00,+156.180903E-03
-50.400E-06,-1.665929630E+00,+160.643214E-03
-49.350E-06,-1.621306515E+00,+148.743717E-03
-48.300E-06,-1.576683400E+00,+145.768843E-03
-47.250E-06,-1.591557772E+00,+148.743717E-03
-46.200E-06,-1.546934657E+00,+148.743717E-03
-45.150E-06,-1.532060285E+00,+136.844220E-03
-44.100E-06,-1.457688427E+00,+130.894471E-03
-43.050E-06,-1.442814055E+00,+130.894471E-03
-42.000E-06,-1.427939683E+00,+124.944722E-03
-40.950E-06,-1.368442196E+00,+129.407034E-03
-39.900E-06,-1.338693453E+00,+118.994974E-03
-38.850E-06,-1.308944710E+00,+120.482411E-03
-37.800E-06,-1.308944710E+00,+113.045225E-03
-36.750E-06,-1.249447223E+00,+113.045225E-03
-35.700E-06,-1.189949736E+00,+107.095476E-03
-34.650E-06,-1.189949736E+00,+107.095476E-03
-33.600E-06,-1.130452249E+00,+101.145728E-03
-32.550E-06,-1.085829134E+00,+101.145728E-03
-31.500E-06,-1.070954762E+00,+95.195979E-03
-30.450E-06,-1.070954762E+00,+95.195979E-03
-29.400E-06,-1.011457276E+00,+89.246230E-03
-28.350E-06,-966.834161E-03,+83.296482E-03
-27.300E-06,-922.211045E-03,+86.271356E-03
-26.250E-06,-951.959789E-03,+81.809044E-03
-25.200E-06,-892.462302E-03,+77.346733E-03
-24.150E-06,-832.964815E-03,+66.934673E-03
-23.100E-06,-832.964815E-03,+68.422110E-03
-22.050E-06,-818.090444E-03,+65.447235E-03
-21.000E-06,-773.467328E-03,+59.497487E-03
-19.950E-06,-699.095470E-03,+59.497487E-03
-18.900E-06,-684.221098E-03,+56.522612E-03
-17.850E-06,-654.472355E-03,+55.035175E-03
-16.800E-06,-654.472355E-03,+41.648241E-03
-15.750E-06,-594.974868E-03,+47.597989E-03
-14.700E-06,-535.477381E-03,+41.648241E-03
-13.650E-06,-535.477381E-03,+41.648241E-03
-12.600E-06,-535.477381E-03,+35.698492E-03
-11.550E-06,-475.979894E-03,+29.748743E-03
-10.500E-06,-475.979894E-03,+29.748743E-03
-9.450E-06,-416.482408E-03,+29.748743E-03
-8.400E-06,-356.984921E-03,+29.748743E-03
-7.350E-06,-356.984921E-03,+17.849246E-03
-6.300E-06,-297.487434E-03,+17.849246E-03
-5.250E-06,-282.613062E-03,+17.849246E-03
-4.200E-06,-237.989947E-03,+11.899497E-03
-3.150E-06,-223.115575E-03,+7.437186E-03
-2.100E-06,-178.492460E-03,+0.0E+00
-1.050E-06,-163.618089E-03,+0.0E+00
+0.0E+00,-118.994974E-03,+0.0E+00
+1.050E-06,-104.120602E-03,-5.949749E-03
+2.100E-06,-59.497487E-03,-5.949749E-03
+3.150E-06,-14.874372E-03,-11.899497E-03
+4.200E-06,+0.0E+00,-17.849246E-03
+5.250E-06,+14.874372E-03,-13.386935E-03
+6.300E-06,+89.246230E-03,-23.798995E-03
+7.350E-06,+118.994974E-03,-23.798995E-03
+8.400E-06,+178.492460E-03,-29.748743E-03
+9.450E-06,+178.492460E-03,-35.698492E-03
+10.500E-06,+208.241204E-03,-35.698492E-03
+11.550E-06,+252.864319E-03,-37.185929E-03
+12.600E-06,+297.487434E-03,-35.698492E-03
+13.650E-06,+342.110549E-03,-46.110552E-03
+14.700E-06,+356.984921E-03,-47.597989E-03
+15.750E-06,+401.608036E-03,-53.547738E-03
+16.800E-06,+416.482408E-03,-53.547738E-03
+17.850E-06,+461.105523E-03,-53.547738E-03
+18.900E-06,+505.728638E-03,-59.497487E-03
+19.950E-06,+535.477381E-03,-63.959798E-03
+21.000E-06,+594.974868E-03,-65.447235E-03
+22.050E-06,+594.974868E-03,-71.396984E-03
+23.100E-06,+624.723611E-03,-74.371858E-03
+24.150E-06,+699.095470E-03,-77.346733E-03
+25.200E-06,+713.969842E-03,-83.296482E-03
+26.250E-06,+713.969842E-03,-83.296482E-03
+27.300E-06,+713.969842E-03,-89.246230E-03
+28.350E-06,+773.467328E-03,-90.733667E-03
+29.400E-06,+773.467328E-03,-95.195979E-03
+30.450E-06,+832.964815E-03,-95.195979E-03
+31.500E-06,+892.462302E-03,-95.195979E-03
+32.550E-06,+892.462302E-03,-107.095476E-03
+33.600E-06,+951.959789E-03,-113.045225E-03
+34.650E-06,+966.834161E-03,-107.095476E-03
+35.700E-06,+981.708532E-03,-113.045225E-03
+36.750E-06,+1.070954762E+00,-118.994974E-03
+37.800E-06,+1.070954762E+00,-118.994974E-03
+38.850E-06,+1.070954762E+00,-118.994974E-03
+39.900E-06,+1.130452249E+00,-127.919597E-03
+40.950E-06,+1.145326621E+00,-126.432159E-03
+42.000E-06,+1.189949736E+00,-136.844220E-03
+43.050E-06,+1.234572851E+00,-132.381908E-03
+44.100E-06,+1.249447223E+00,-136.844220E-03
+45.150E-06,+1.264321594E+00,-142.793968E-03
+46.200E-06,+1.308944710E+00,-142.793968E-03
+47.250E-06,+1.368442196E+00,-147.256280E-03
+48.300E-06,+1.368442196E+00,-151.718591E-03
+49.350E-06,+1.472562798E+00,-154.693466E-03
+50.400E-06,+1.427939683E+00,-160.643214E-03
+51.450E-06,+1.487437170E+00,-162.130652E-03
+52.500E-06,+1.517185913E+00,-160.643214E-03
+53.550E-06,+1.546934657E+00,-166.592963E-03
+54.600E-06,+1.546934657E+00,-166.592963E-03
+55.650E-06,+1.606432144E+00,-172.542712E-03
+56.700E-06,+1.665929630E+00,-178.492460E-03
+57.750E-06,+1.665929630E+00,-178.492460E-03
+58.800E-06,+1.665929630E+00,-178.492460E-03
+59.850E-06,+1.740301489E+00,-190.391958E-03
+60.900E-06,+1.784924604E+00,-190.391958E-03
+61.950E-06,+1.799798976E+00,-194.854269E-03
+63.000E-06,+1.844422091E+00,-190.391958E-03
+64.050E-06,+1.844422091E+00,-200.804018E-03
+65.100E-06,+1.903919578E+00,-202.291455E-03
+66.150E-06,+1.903919578E+00,-206.753767E-03
+67.200E-06,+1.963417064E+00,-208.241204E-03
+68.250E-06,+2.008040179E+00,-208.241204E-03
+69.300E-06,+1.993165808E+00,-211.216078E-03
+70.350E-06,+2.067537666E+00,-220.140701E-03
+71.400E-06,+2.082412038E+00,-220.140701E-03
+72.450E-06,+2.127035153E+00,-226.090450E-03
+73.500E-06,+2.141909525E+00,-223.115576E-03
+74.550E-06,+2.156783896E+00,-230.552761E-03
+75.600E-06,+2.141909525E+00,-226.090450E-03
+76.650E-06,+2.216281383E+00,-236.502510E-03
+77.700E-06,+2.201407012E+00,-237.989947E-03
+78.750E-06,+2.260904498E+00,-237.989947E-03
+79.800E-06,+2.320401985E+00,-237.989947E-03
+80.850E-06,+2.320401985E+00,-248.402007E-03
+81.900E-06,+2.379899472E+00,-246.914570E-03
+82.950E-06,+2.394773844E+00,-249.889445E-03
+84.000E-06,+2.439396959E+00,-249.889445E-03
+85.050E-06,+2.439396959E+00,-255.839193E-03
+86.100E-06,+2.498894446E+00,-261.788942E-03
+87.150E-06,+2.543517561E+00,-261.788942E-03
+88.200E-06,+2.498894446E+00,-267.738691E-03
+89.250E-06,+2.558391932E+00,-267.738691E-03
+90.300E-06,+2.617889419E+00,-270.713565E-03
+91.350E-06,+2.617889419E+00,-273.688439E-03
+92.400E-06,+2.677386906E+00,-273.688439E-03
+93.450E-06,+2.692261278E+00,-281.125625E-03
+94.500E-06,+2.677386906E+00,-282.613062E-03
+95.550E-06,+2.692261278E+00,-285.587937E-03
+96.600E-06,+2.796381880E+00,-285.587937E-03
+97.650E-06,+2.796381880E+00,-290.050248E-03
+98.700E-06,+2.796381880E+00,-294.512560E-03
+99.750E-06,+2.811256251E+00,-291.537685E-03
+100.800E-06,+2.855879366E+00,-303.437183E-03
+101.850E-06,+2.900502481E+00,-301.949746E-03
+102.900E-06,+2.915376853E+00,-303.437183E-03
+103.950E-06,+2.974874340E+00,-304.924620E-03
+105.000E-06,+2.915376853E+00,-309.386931E-03
+106.050E-06,+2.974874340E+00,-313.849243E-03
+107.100E-06,+3.034371827E+00,-318.311554E-03
+108.150E-06,+3.049246198E+00,-315.336680E-03
+109.200E-06,+3.093869314E+00,-321.286429E-03
+110.250E-06,+3.093869314E+00,-321.286429E-03
+111.300E-06,+3.123618057E+00,-327.236177E-03
+112.350E-06,+3.153366800E+00,-325.748740E-03
+113.400E-06,+3.153366800E+00,-333.185926E-03
+114.450E-06,+3.212864287E+00,-331.698489E-03
+115.500E-06,+3.212864287E+00,-333.185926E-03
+116.550E-06,+3.272361774E+00,-339.135675E-03
+117.600E-06,+3.272361774E+00,-345.085423E-03
+118.650E-06,+3.316984889E+00,-340.623112E-03
+119.700E-06,+3.331859261E+00,-345.085423E-03
+120.750E-06,+3.391356748E+00,-345.085423E-03
+121.800E-06,+3.331859261E+00,-345.085423E-03
+122.850E-06,+3.435979863E+00,-351.035172E-03
+123.900E-06,+3.421105491E+00,-356.984921E-03
+124.950E-06,+3.450854234E+00,-356.984921E-03
+126.000E-06,+3.450854234E+00,-356.984921E-03
+127.050E-06,+3.510351721E+00,-361.447232E-03
+128.100E-06,+3.540100465E+00,-365.909544E-03
+129.150E-06,+3.510351721E+00,-367.396981E-03
+130.200E-06,+3.569849208E+00,-368.884418E-03
+131.250E-06,+3.569849208E+00,-368.884418E-03
+132.300E-06,+3.629346695E+00,-374.834167E-03
+133.350E-06,+3.673969810E+00,-374.834167E-03
+134.400E-06,+3.629346695E+00,-374.834167E-03
+135.450E-06,+3.688844182E+00,-380.783916E-03
+136.500E-06,+3.688844182E+00,-380.783916E-03
+137.550E-06,+3.688844182E+00,-380.783916E-03
+138.600E-06,+3.748341668E+00,-386.733664E-03
+139.650E-06,+3.748341668E+00,-386.733664E-03
+140.700E-06,+3.807839155E+00,-395.658287E-03
+141.750E-06,+3.807839155E+00,-397.145724E-03
+142.800E-06,+3.867336642E+00,-392.683413E-03
+143.850E-06,+3.852462270E+00,-392.683413E-03
+144.900E-06,+3.897085385E+00,-398.633162E-03
+145.950E-06,+3.867336642E+00,-403.095473E-03
+147.000E-06,+3.926834129E+00,-404.582910E-03
+148.050E-06,+3.926834129E+00,-404.582910E-03
+149.100E-06,+3.956582872E+00,-404.582910E-03
+150.150E-06,+3.986331616E+00,-409.045222E-03
+151.200E-06,+3.986331616E+00,-410.532659E-03
+152.250E-06,+4.001205987E+00,-410.532659E-03
+153.300E-06,+4.016080359E+00,-416.482408E-03
+154.350E-06,+4.045829102E+00,-414.994970E-03
+155.400E-06,+4.105326589E+00,-416.482408E-03
+156.450E-06,+4.060703474E+00,-416.482408E-03
+157.500E-06,+4.105326589E+00,-422.432156E-03
+158.550E-06,+4.105326589E+00,-422.432156E-03
+159.600E-06,+4.105326589E+00,-422.432156E-03
+160.650E-06,+4.164824076E+00,-426.894468E-03
+161.700E-06,+4.194572819E+00,-428.381905E-03
+162.750E-06,+4.224321563E+00,-429.869342E-03
+163.800E-06,+4.224321563E+00,-434.331654E-03
+164.850E-06,+4.268944678E+00,-429.869342E-03
+165.900E-06,+4.254070306E+00,-434.331654E-03
+166.950E-06,+4.283819050E+00,-440.281402E-03
+168.000E-06,+4.283819050E+00,-440.281402E-03
+169.050E-06,+4.298693421E+00,-440.281402E-03
+170.100E-06,+4.313567793E+00,-440.281402E-03
+171.150E-06,+4.343316536E+00,-440.281402E-03
+172.200E-06,+4.402814023E+00,-446.231151E-03
+173.250E-06,+4.387939651E+00,-446.231151E-03
+174.300E-06,+4.402814023E+00,-449.206025E-03
+175.350E-06,+4.358190908E+00,-452.180900E-03
+176.400E-06,+4.402814023E+00,-452.180900E-03
+177.450E-06,+4.417688395E+00,-452.180900E-03
+178.500E-06,+4.432562767E+00,-458.130648E-03
+179.550E-06,+4.462311510E+00,-456.643211E-03
+180.600E-06,+4.462311510E+00,-458.130648E-03
+181.650E-06,+4.462311510E+00,-462.592960E-03
+182.700E-06,+4.492060253E+00,-461.105523E-03
+183.750E-06,+4.521808997E+00,-462.592960E-03
+184.800E-06,+4.521808997E+00,-470.030146E-03
+185.850E-06,+4.581306484E+00,-464.080397E-03
+186.900E-06,+4.581306484E+00,-464.080397E-03
+187.950E-06,+4.566432112E+00,-465.567834E-03
+189.000E-06,+4.581306484E+00,-464.080397E-03
+190.050E-06,+4.581306484E+00,-470.030146E-03
+191.100E-06,+4.581306484E+00,-470.030146E-03
+192.150E-06,+4.581306484E+00,-468.542709E-03
+193.200E-06,+4.581306484E+00,-470.030146E-03
+194.250E-06,+4.640803970E+00,-471.517583E-03
+195.300E-06,+4.640803970E+00,-475.979894E-03
+196.350E-06,+4.655678342E+00,-475.979894E-03
+197.400E-06,+4.700301457E+00,-475.979894E-03
+198.450E-06,+4.685427085E+00,-480.442206E-03
+199.500E-06,+4.700301457E+00,-478.954769E-03
+200.550E-06,+4.700301457E+00,-477.467332E-03
+201.600E-06,+4.700301457E+00,-481.929643E-03
+202.650E-06,+4.700301457E+00,-481.929643E-03
+203.700E-06,+4.759798944E+00,-484.904517E-03
+204.750E-06,+4.715175829E+00,-483.417080E-03
+205.800E-06,+4.759798944E+00,-487.879392E-03
+206.850E-06,+4.759798944E+00,-492.341703E-03
+207.900E-06,+4.759798944E+00,-481.929643E-03
+208.950E-06,+4.774673316E+00,-487.879392E-03
+210.000E-06,+4.819296431E+00,-487.879392E-03
+211.050E-06,+4.759798944E+00,-487.879392E-03
+212.100E-06,+4.819296431E+00,-490.854266E-03
+213.150E-06,+4.819296431E+00,-492.341703E-03
+214.200E-06,+4.819296431E+00,-493.829140E-03
+215.250E-06,+4.819296431E+00,-489.366829E-03
+216.300E-06,+4.819296431E+00,-487.879392E-03
+217.350E-06,+4.819296431E+00,-493.829140E-03
+218.400E-06,+4.819296431E+00,-493.829140E-03
+219.450E-06,+4.878793918E+00,-498.291452E-03
+220.500E-06,+4.878793918E+00,-493.829140E-03
+221.550E-06,+4.878793918E+00,-498.291452E-03
+222.600E-06,+4.878793918E+00,-499.778889E-03
+223.650E-06,+4.878793918E+00,-495.316578E-03
+224.700E-06,+4.908542661E+00,-496.804015E-03
+225.750E-06,+4.878793918E+00,-499.778889E-03
+226.800E-06,+4.878793918E+00,-499.778889E-03
+227.850E-06,+4.893668289E+00,-499.778889E-03
+228.900E-06,+4.908542661E+00,-499.778889E-03
+229.950E-06,+4.938291404E+00,-499.778889E-03
+231.000E-06,+4.938291404E+00,-499.778889E-03
+232.050E-06,+4.938291404E+00,-499.778889E-03
+233.100E-06,+4.908542661E+00,-502.753763E-03
+234.150E-06,+4.938291404E+00,-499.778889E-03
+235.200E-06,+4.938291404E+00,-499.778889E-03
+236.250E-06,+4.893668289E+00,-505.728638E-03
+237.300E-06,+4.938291404E+00,-502.753763E-03
+238.350E-06,+4.938291404E+00,-504.241201E-03
+239.400E-06,+4.938291404E+00,-499.778889E-03
+240.450E-06,+4.982914519E+00,-499.778889E-03
+241.500E-06,+4.938291404E+00,-505.728638E-03
+242.550E-06,+4.938291404E+00,-504.241201E-03
+243.600E-06,+4.938291404E+00,-505.728638E-03
+244.650E-06,+4.997788891E+00,-510.190949E-03
+245.700E-06,+4.938291404E+00,-505.728638E-03
+246.750E-06,+4.953165776E+00,-499.778889E-03
+247.800E-06,+4.997788891E+00,-505.728638E-03
+248.850E-06,+4.938291404E+00,-505.728638E-03
+249.900E-06,+4.968040148E+00,-499.778889E-03
+250.950E-06,+4.982914520E+00,-504.241201E-03
+252.000E-06,+4.938291404E+00,-505.728638E-03
+253.050E-06,+4.997788891E+00,-501.266326E-03
+254.100E-06,+4.997788891E+00,-505.728638E-03
+255.150E-06,+4.997788891E+00,-505.728638E-03
+256.200E-06,+4.938291404E+00,-505.728638E-03
+257.250E-06,+4.982914519E+00,-501.266326E-03
+258.300E-06,+4.938291404E+00,-505.728638E-03
+259.350E-06,+4.953165776E+00,-501.266326E-03
+260.400E-06,+4.938291404E+00,-505.728638E-03
+261.450E-06,+4.997788891E+00,-501.266326E-03
+262.500E-06,+4.968040148E+00,-499.778889E-03
+263.550E-06,+4.982914520E+00,-499.778889E-03
+264.600E-06,+4.938291404E+00,-499.778889E-03
+265.650E-06,+4.938291404E+00,-504.241201E-03
+266.700E-06,+4.938291404E+00,-502.753763E-03
+267.750E-06,+4.938291404E+00,-499.778889E-03
+268.800E-06,+4.997788891E+00,-505.728638E-03
+269.850E-06,+4.938291404E+00,-501.266326E-03
+270.900E-06,+4.938291404E+00,-502.753763E-03
+271.950E-06,+4.938291404E+00,-499.778889E-03
+273.000E-06,+4.878793918E+00,-499.778889E-03
+274.050E-06,+4.938291404E+00,-495.316578E-03
+275.100E-06,+4.938291404E+00,-502.753763E-03
+276.150E-06,+4.938291404E+00,-498.291452E-03
+277.200E-06,+4.938291404E+00,-493.829140E-03
+278.250E-06,+4.893668289E+00,-498.291452E-03
+279.300E-06,+4.938291404E+00,-496.804015E-03
+280.350E-06,+4.878793918E+00,-493.829140E-03
+281.400E-06,+4.878793918E+00,-493.829140E-03
+282.450E-06,+4.878793918E+00,-493.829140E-03
+283.500E-06,+4.878793918E+00,-493.829140E-03
+284.550E-06,+4.878793918E+00,-493.829140E-03
+285.600E-06,+4.878793918E+00,-499.778889E-03
+286.650E-06,+4.834170803E+00,-493.829140E-03
+287.700E-06,+4.849045174E+00,-490.854266E-03
+288.750E-06,+4.878793918E+00,-487.879392E-03
+289.800E-06,+4.878793918E+00,-487.879392E-03
+290.850E-06,+4.819296431E+00,-487.879392E-03
+291.900E-06,+4.819296431E+00,-487.879392E-03
+292.950E-06,+4.819296431E+00,-481.929643E-03
+294.000E-06,+4.759798944E+00,-481.929643E-03
+295.050E-06,+4.804422059E+00,-481.929643E-03
+296.100E-06,+4.759798944E+00,-481.929643E-03
+297.150E-06,+4.774673316E+00,-481.929643E-03
+298.200E-06,+4.759798944E+00,-481.929643E-03
+299.250E-06,+4.759798944E+00,-481.929643E-03
+300.300E-06,+4.730050201E+00,-481.929643E-03
+301.350E-06,+4.759798944E+00,-475.979894E-03
+302.400E-06,+4.759798944E+00,-475.979894E-03
+303.450E-06,+4.700301457E+00,-475.979894E-03
+304.500E-06,+4.700301457E+00,-473.005020E-03
+305.550E-06,+4.700301457E+00,-475.979894E-03
+306.600E-06,+4.700301457E+00,-470.030146E-03
+307.650E-06,+4.655678342E+00,-471.517583E-03
+308.700E-06,+4.700301457E+00,-470.030146E-03
+309.750E-06,+4.685427086E+00,-470.030146E-03
+310.800E-06,+4.640803970E+00,-470.030146E-03
+311.850E-06,+4.625929599E+00,-470.030146E-03
+312.900E-06,+4.611055227E+00,-467.055271E-03
+313.950E-06,+4.640803970E+00,-468.542709E-03
+315.000E-06,+4.581306484E+00,-464.080397E-03
+316.050E-06,+4.581306484E+00,-459.618086E-03
+317.100E-06,+4.581306484E+00,-461.105523E-03
+318.150E-06,+4.581306484E+00,-462.592960E-03
+319.200E-06,+4.521808997E+00,-458.130648E-03
+320.250E-06,+4.521808997E+00,-453.668337E-03
+321.300E-06,+4.521808997E+00,-452.180900E-03
+322.350E-06,+4.477185882E+00,-458.130648E-03
+323.400E-06,+4.521808997E+00,-446.231151E-03
+324.450E-06,+4.462311510E+00,-450.693463E-03
+325.500E-06,+4.462311510E+00,-452.180900E-03
+326.550E-06,+4.462311510E+00,-452.180900E-03
+327.600E-06,+4.462311510E+00,-446.231151E-03
+328.650E-06,+4.417688395E+00,-444.743714E-03
+329.700E-06,+4.402814023E+00,-446.231151E-03
+330.750E-06,+4.402814023E+00,-440.281402E-03
+331.800E-06,+4.402814023E+00,-446.231151E-03
+332.850E-06,+4.343316536E+00,-440.281402E-03
+333.900E-06,+4.343316536E+00,-440.281402E-03
+334.950E-06,+4.343316536E+00,-438.793965E-03
+336.000E-06,+4.283819050E+00,-428.381905E-03
+337.050E-06,+4.283819050E+00,-428.381905E-03
+338.100E-06,+4.283819050E+00,-428.381905E-03
+339.150E-06,+4.239195934E+00,-428.381905E-03
+340.200E-06,+4.224321563E+00,-428.381905E-03
+341.250E-06,+4.224321563E+00,-422.432156E-03
+342.300E-06,+4.224321563E+00,-422.432156E-03
+343.350E-06,+4.164824076E+00,-422.432156E-03
+344.400E-06,+4.164824076E+00,-416.482408E-03
+345.450E-06,+4.164824076E+00,-416.482408E-03
+346.500E-06,+4.135075333E+00,-416.482408E-03
+347.550E-06,+4.105326589E+00,-416.482408E-03
+348.600E-06,+4.105326589E+00,-416.482408E-03
+349.650E-06,+4.090452217E+00,-410.532659E-03
+350.700E-06,+4.045829102E+00,-407.557785E-03
+351.750E-06,+4.045829102E+00,-406.070347E-03
+352.800E-06,+3.986331616E+00,-398.633162E-03
+353.850E-06,+3.986331616E+00,-403.095473E-03
+354.900E-06,+3.986331616E+00,-401.608036E-03
+355.950E-06,+3.986331616E+00,-397.145724E-03
+357.000E-06,+3.926834129E+00,-398.633162E-03
+358.050E-06,+3.926834129E+00,-394.170850E-03
+359.100E-06,+3.897085385E+00,-392.683413E-03
+360.150E-06,+3.852462270E+00,-386.733664E-03
+361.200E-06,+3.867336642E+00,-392.683413E-03
+362.250E-06,+3.822713527E+00,-386.733664E-03
+363.300E-06,+3.807839155E+00,-383.758790E-03
+364.350E-06,+3.807839155E+00,-380.783916E-03
+365.400E-06,+3.748341668E+00,-380.783916E-03
+366.450E-06,+3.748341668E+00,-376.321604E-03
+367.500E-06,+3.748341668E+00,-374.834167E-03
+368.550E-06,+3.688844182E+00,-373.346730E-03
+369.600E-06,+3.688844182E+00,-368.884418E-03
+370.650E-06,+3.629346695E+00,-362.934669E-03
+371.700E-06,+3.629346695E+00,-362.934669E-03
+372.750E-06,+3.629346695E+00,-362.934669E-03
+373.800E-06,+3.629346695E+00,-356.984921E-03
+374.850E-06,+3.569849208E+00,-356.984921E-03
+375.900E-06,+3.540100465E+00,-356.984921E-03
+376.950E-06,+3.510351721E+00,-351.035172E-03
+378.000E-06,+3.510351721E+00,-351.035172E-03
+379.050E-06,+3.450854234E+00,-349.547735E-03
+380.100E-06,+3.450854234E+00,-348.060298E-03
+381.150E-06,+3.406231119E+00,-345.085423E-03
+382.200E-06,+3.391356748E+00,-345.085423E-03
+383.250E-06,+3.391356748E+00,-337.648238E-03
+384.300E-06,+3.361608004E+00,-339.135675E-03
+385.350E-06,+3.331859261E+00,-333.185926E-03
+386.400E-06,+3.331859261E+00,-333.185926E-03
+387.450E-06,+3.272361774E+00,-328.723615E-03
+388.500E-06,+3.242613031E+00,-327.236177E-03
+389.550E-06,+3.227738659E+00,-325.748740E-03
+390.600E-06,+3.212864287E+00,-321.286429E-03
+391.650E-06,+3.197989915E+00,-319.798992E-03
+392.700E-06,+3.153366800E+00,-321.286429E-03
+393.750E-06,+3.153366800E+00,-310.874369E-03
+394.800E-06,+3.093869314E+00,-315.336680E-03
+395.850E-06,+3.093869314E+00,-309.386931E-03
+396.900E-06,+3.034371827E+00,-306.412057E-03
+397.950E-06,+3.034371827E+00,-307.899494E-03
+399.000E-06,+2.974874340E+00,-303.437183E-03
+400.050E-06,+2.974874340E+00,-291.537685E-03
+401.100E-06,+2.974874340E+00,-291.537685E-03
+402.150E-06,+2.959999968E+00,-293.025122E-03
+403.200E-06,+2.855879366E+00,-291.537685E-03
+404.250E-06,+2.855879366E+00,-285.587937E-03
+405.300E-06,+2.855879366E+00,-282.613062E-03
+406.350E-06,+2.796381880E+00,-279.638188E-03
+407.400E-06,+2.796381880E+00,-273.688439E-03
+408.450E-06,+2.736884393E+00,-273.688439E-03
+409.500E-06,+2.736884393E+00,-273.688439E-03
+410.550E-06,+2.692261278E+00,-273.688439E-03
+411.600E-06,+2.677386906E+00,-273.688439E-03
+412.650E-06,+2.662512534E+00,-266.251253E-03
+413.700E-06,+2.617889419E+00,-261.788942E-03
+414.750E-06,+2.617889419E+00,-257.326630E-03
+415.800E-06,+2.617889419E+00,-261.788942E-03
+416.850E-06,+2.558391932E+00,-255.839193E-03
+417.900E-06,+2.528643189E+00,-252.864319E-03
+418.950E-06,+2.498894446E+00,-249.889445E-03
+420.000E-06,+2.439396959E+00,-243.939696E-03
+421.050E-06,+2.424522587E+00,-239.477384E-03
+422.100E-06,+2.409648215E+00,-237.989947E-03
+423.150E-06,+2.379899472E+00,-239.477384E-03
+424.200E-06,+2.379899472E+00,-232.040199E-03
+425.250E-06,+2.320401985E+00,-232.040199E-03
+426.300E-06,+2.290653242E+00,-229.065324E-03
+427.350E-06,+2.260904498E+00,-221.628138E-03
+428.400E-06,+2.260904498E+00,-220.140701E-03
+429.450E-06,+2.201407012E+00,-220.140701E-03
+430.500E-06,+2.201407012E+00,-220.140701E-03
+431.550E-06,+2.141909525E+00,-212.703515E-03
+432.600E-06,+2.082412038E+00,-220.140701E-03
+433.650E-06,+2.082412038E+00,-208.241204E-03
+434.700E-06,+2.022914551E+00,-208.241204E-03
+435.750E-06,+2.022914551E+00,-196.341706E-03
+436.800E-06,+2.022914551E+00,-202.291455E-03
+437.850E-06,+1.963417064E+00,-191.879395E-03
+438.900E-06,+1.933668321E+00,-190.391958E-03
+439.950E-06,+1.859296462E+00,-190.391958E-03
+441.000E-06,+1.903919578E+00,-184.442209E-03
+442.050E-06,+1.844422091E+00,-184.442209E-03
+443.100E-06,+1.814673347E+00,-178.492460E-03
+444.150E-06,+1.784924604E+00,-174.030149E-03
+445.200E-06,+1.725427117E+00,-166.592963E-03
+446.250E-06,+1.725427117E+00,-172.542712E-03
+447.300E-06,+1.665929630E+00,-166.592963E-03
+448.350E-06,+1.665929630E+00,-162.130652E-03
+449.400E-06,+1.665929630E+00,-160.643214E-03
+450.450E-06,+1.606432144E+00,-160.643214E-03
+451.500E-06,+1.576683400E+00,-154.693466E-03
+452.550E-06,+1.546934657E+00,-150.231154E-03
+453.600E-06,+1.487437170E+00,-148.743717E-03
+454.650E-06,+1.472562798E+00,-142.793968E-03
+455.700E-06,+1.457688427E+00,-142.793968E-03
+456.750E-06,+1.368442196E+00,-138.331657E-03
+457.800E-06,+1.368442196E+00,-130.894471E-03
+458.850E-06,+1.323819081E+00,-129.407034E-03
+459.900E-06,+1.308944710E+00,-130.894471E-03
+460.950E-06,+1.308944710E+00,-124.944722E-03
+462.000E-06,+1.249447223E+00,-118.994974E-03
+463.050E-06,+1.204824108E+00,-118.994974E-03
+464.100E-06,+1.160200993E+00,-116.020099E-03
+465.150E-06,+1.130452249E+00,-113.045225E-03
+466.200E-06,+1.130452249E+00,-113.045225E-03
+467.250E-06,+1.070954762E+00,-107.095476E-03
+468.300E-06,+1.041206019E+00,-101.145728E-03
+469.350E-06,+1.056080391E+00,-101.145728E-03
+470.400E-06,+951.959789E-03,-95.195979E-03
+471.450E-06,+951.959789E-03,-90.733667E-03
+472.500E-06,+892.462302E-03,-86.271356E-03
+473.550E-06,+892.462302E-03,-87.758793E-03
+474.600E-06,+832.964815E-03,-83.296482E-03
+475.650E-06,+832.964815E-03,-77.346733E-03
+476.700E-06,+803.216072E-03,-74.371858E-03
+477.750E-06,+713.969842E-03,-71.396984E-03
+478.800E-06,+713.969842E-03,-71.396984E-03
+479.850E-06,+713.969842E-03,-66.934673E-03
+480.900E-06,+654.472355E-03,-65.447235E-03
+481.950E-06,+609.849240E-03,-59.497487E-03
+483.000E-06,+594.974868E-03,-53.547738E-03
+484.050E-06,+535.477381E-03,-53.547738E-03
+485.100E-06,+535.477381E-03,-50.572864E-03
+486.150E-06,+490.854266E-03,-47.597989E-03
+487.200E-06,+475.979894E-03,-41.648241E-03
+488.250E-06,+416.482408E-03,-41.648241E-03
+489.300E-06,+416.482408E-03,-38.673366E-03
+490.350E-06,+356.984921E-03,-29.748743E-03
+491.400E-06,+297.487434E-03,-29.748743E-03
+492.450E-06,+297.487434E-03,-28.261306E-03
+493.500E-06,+237.989947E-03,-23.798995E-03
+494.550E-06,+237.989947E-03,-22.311558E-03
+495.600E-06,+237.989947E-03,-17.849246E-03
+496.650E-06,+178.492460E-03,-11.899497E-03
+497.700E-06,+148.743717E-03,-11.899497E-03
+498.750E-06,+74.371858E-03,-5.949749E-03
+499.800E-06,+59.497487E-03,-5.949749E-03
+500.850E-06,+14.874372E-03,-4.462312E-03
+501.900E-06,+0.0E+00,+0.0E+00
+502.950E-06,-14.874372E-03,+5.949749E-03
+504.000E-06,-59.497487E-03,+5.949749E-03
+505.050E-06,-118.994974E-03,+11.899497E-03
+506.100E-06,-118.994974E-03,+14.874372E-03
+507.150E-06,-133.869345E-03,+20.824120E-03
+508.200E-06,-178.492460E-03,+23.798995E-03
+509.250E-06,-282.613062E-03,+23.798995E-03
+510.300E-06,-267.738691E-03,+26.773869E-03
+511.350E-06,-297.487434E-03,+29.748743E-03
+512.400E-06,-297.487434E-03,+35.698492E-03
+513.450E-06,-356.984921E-03,+35.698492E-03
+514.500E-06,-386.733664E-03,+41.648241E-03
+515.550E-06,-416.482408E-03,+41.648241E-03
+516.600E-06,-475.979894E-03,+47.597989E-03
+517.650E-06,-475.979894E-03,+49.085427E-03
+518.700E-06,-535.477381E-03,+53.547738E-03
+519.750E-06,-550.351753E-03,+59.497487E-03
+520.800E-06,-594.974868E-03,+65.447235E-03
+521.850E-06,-609.849240E-03,+65.447235E-03
+522.900E-06,-654.472355E-03,+65.447235E-03
+523.950E-06,-699.095470E-03,+71.396984E-03
+525.000E-06,-713.969842E-03,+77.346733E-03
+526.050E-06,-728.844213E-03,+77.346733E-03
+527.100E-06,-773.467328E-03,+80.321607E-03
+528.150E-06,-832.964815E-03,+83.296482E-03
+529.200E-06,-832.964815E-03,+89.246230E-03
+530.250E-06,-892.462302E-03,+93.708542E-03
+531.300E-06,-892.462302E-03,+89.246230E-03
+532.350E-06,-951.959789E-03,+99.658290E-03
+533.400E-06,-1.011457276E+00,+101.145728E-03
+534.450E-06,-1.011457276E+00,+102.633165E-03
+535.500E-06,-1.041206019E+00,+107.095476E-03
+536.550E-06,-1.115577878E+00,+108.582913E-03
+537.600E-06,-1.130452249E+00,+113.045225E-03
+538.650E-06,-1.130452249E+00,+118.994974E-03
+539.700E-06,-1.160200993E+00,+118.994974E-03
+540.750E-06,-1.234572851E+00,+124.944722E-03
+541.800E-06,-1.189949736E+00,+130.894471E-03
+542.850E-06,-1.249447223E+00,+126.432159E-03
+543.900E-06,-1.308944710E+00,+130.894471E-03
+544.950E-06,-1.323819081E+00,+130.894471E-03
+546.000E-06,-1.368442196E+00,+130.894471E-03
+547.050E-06,-1.427939683E+00,+142.793968E-03
+548.100E-06,-1.427939683E+00,+142.793968E-03
+549.150E-06,-1.487437170E+00,+148.743717E-03
+550.200E-06,-1.487437170E+00,+148.743717E-03
+551.250E-06,-1.546934657E+00,+154.693466E-03
+552.300E-06,-1.546934657E+00,+157.668340E-03
+553.350E-06,-1.606432144E+00,+160.643214E-03
+554.400E-06,-1.606432144E+00,+166.592963E-03
+555.450E-06,-1.665929630E+00,+166.592963E-03
+556.500E-06,-1.695678374E+00,+172.542712E-03
+557.550E-06,-1.725427117E+00,+172.542712E-03
+558.600E-06,-1.725427117E+00,+178.492460E-03
+559.650E-06,-1.784924604E+00,+178.492460E-03
+560.700E-06,-1.784924604E+00,+184.442209E-03
+561.750E-06,-1.844422091E+00,+184.442209E-03
+562.800E-06,-1.903919578E+00,+190.391958E-03
+563.850E-06,-1.903919578E+00,+191.879395E-03
+564.900E-06,-1.933668321E+00,+196.341706E-03
+565.950E-06,-1.963417064E+00,+197.829144E-03
+567.000E-06,-2.022914551E+00,+202.291455E-03
+568.050E-06,-2.022914551E+00,+208.241204E-03
+569.100E-06,-2.052663295E+00,+208.241204E-03
+570.150E-06,-2.082412038E+00,+208.241204E-03
+571.200E-06,-2.141909525E+00,+214.190952E-03
+572.250E-06,-2.141909525E+00,+215.678390E-03
+573.300E-06,-2.171658268E+00,+220.140701E-03
+574.350E-06,-2.201407012E+00,+220.140701E-03
+575.400E-06,-2.260904498E+00,+232.040199E-03
+576.450E-06,-2.305527613E+00,+230.552761E-03
+577.500E-06,-2.290653242E+00,+229.065324E-03
+578.550E-06,-2.365025100E+00,+236.502510E-03
+579.600E-06,-2.320401985E+00,+232.040199E-03
+580.650E-06,-2.379899472E+00,+239.477384E-03
+581.700E-06,-2.409648215E+00,+237.989947E-03
+582.750E-06,-2.439396959E+00,+248.402007E-03
+583.800E-06,-2.439396959E+00,+249.889445E-03
+584.850E-06,-2.498894446E+00,+254.351756E-03
+585.900E-06,-2.558391932E+00,+255.839193E-03
+586.950E-06,-2.558391932E+00,+255.839193E-03
+588.000E-06,-2.558391932E+00,+261.788942E-03
+589.050E-06,-2.617889419E+00,+263.276379E-03
+590.100E-06,-2.677386906E+00,+267.738691E-03
+591.150E-06,-2.677386906E+00,+272.201002E-03
+592.200E-06,-2.677386906E+00,+267.738691E-03
+593.250E-06,-2.722010021E+00,+273.688439E-03
+594.300E-06,-2.766633136E+00,+276.663314E-03
+595.350E-06,-2.781507508E+00,+279.638188E-03
+596.400E-06,-2.796381880E+00,+279.638188E-03
+597.450E-06,-2.855879366E+00,+285.587937E-03
+598.500E-06,-2.855879366E+00,+285.587937E-03
+599.550E-06,-2.915376853E+00,+291.537685E-03
+600.600E-06,-2.915376853E+00,+297.487434E-03
+601.650E-06,-2.959999968E+00,+295.999997E-03
+602.700E-06,-2.974874340E+00,+297.487434E-03
+603.750E-06,-3.034371827E+00,+303.437183E-03
+604.800E-06,-3.034371827E+00,+303.437183E-03
+605.850E-06,-3.034371827E+00,+309.386931E-03
+606.900E-06,-3.093869314E+00,+312.361806E-03
+607.950E-06,-3.093869314E+00,+309.386931E-03
+609.000E-06,-3.153366800E+00,+309.386931E-03
+610.050E-06,-3.153366800E+00,+319.798992E-03
+611.100E-06,-3.153366800E+00,+318.311554E-03
+612.150E-06,-3.168241172E+00,+321.286429E-03
+613.200E-06,-3.212864287E+00,+321.286429E-03
+614.250E-06,-3.272361774E+00,+327.236177E-03
+615.300E-06,-3.272361774E+00,+327.236177E-03
+616.350E-06,-3.272361774E+00,+328.723615E-03
+617.400E-06,-3.331859261E+00,+333.185926E-03
+618.450E-06,-3.331859261E+00,+334.673363E-03
+619.500E-06,-3.361608004E+00,+339.135675E-03
+620.550E-06,-3.391356748E+00,+343.597986E-03
+621.600E-06,-3.391356748E+00,+339.135675E-03
+622.650E-06,-3.450854234E+00,+349.547735E-03
+623.700E-06,-3.480602978E+00,+351.035172E-03
+624.750E-06,-3.510351721E+00,+351.035172E-03
+625.800E-06,-3.510351721E+00,+351.035172E-03
+626.850E-06,-3.525226093E+00,+355.497484E-03
+627.900E-06,-3.569849208E+00,+356.984921E-03
+628.950E-06,-3.569849208E+00,+358.472358E-03
+630.000E-06,-3.629346695E+00,+356.984921E-03
+631.050E-06,-3.629346695E+00,+362.934669E-03
+632.100E-06,-3.659095438E+00,+362.934669E-03
+633.150E-06,-3.688844182E+00,+368.884418E-03
+634.200E-06,-3.688844182E+00,+368.884418E-03
+635.250E-06,-3.748341668E+00,+373.346730E-03
+636.300E-06,-3.748341668E+00,+374.834167E-03
+637.350E-06,-3.763216040E+00,+376.321604E-03
+638.400E-06,-3.807839155E+00,+380.783916E-03
+639.450E-06,-3.748341668E+00,+379.296478E-03
+640.500E-06,-3.807839155E+00,+386.733664E-03
+641.550E-06,-3.867336642E+00,+386.733664E-03
+642.600E-06,-3.926834129E+00,+386.733664E-03
+643.650E-06,-3.926834129E+00,+386.733664E-03
+644.700E-06,-3.926834129E+00,+392.683413E-03
+645.750E-06,-3.926834129E+00,+397.145724E-03
+646.800E-06,-3.926834129E+00,+398.633162E-03
+647.850E-06,-3.986331616E+00,+397.145724E-03
+648.900E-06,-4.016080359E+00,+398.633162E-03
+649.950E-06,-4.030954731E+00,+404.582910E-03
+651.000E-06,-4.045829102E+00,+404.582910E-03
+652.050E-06,-4.045829102E+00,+400.120599E-03
+653.100E-06,-4.075577846E+00,+407.557785E-03
+654.150E-06,-4.105326589E+00,+404.582910E-03
+655.200E-06,-4.105326589E+00,+410.532659E-03
+656.250E-06,-4.149949704E+00,+410.532659E-03
+657.300E-06,-4.164824076E+00,+413.507533E-03
+658.350E-06,-4.164824076E+00,+417.969845E-03
+659.400E-06,-4.224321563E+00,+416.482408E-03
+660.450E-06,-4.224321563E+00,+417.969845E-03
+661.500E-06,-4.224321563E+00,+422.432156E-03
+662.550E-06,-4.224321563E+00,+422.432156E-03
+663.600E-06,-4.224321563E+00,+422.432156E-03
+664.650E-06,-4.283819050E+00,+428.381905E-03
+665.700E-06,-4.313567793E+00,+431.356779E-03
+666.750E-06,-4.283819050E+00,+429.869342E-03
+667.800E-06,-4.283819050E+00,+434.331654E-03
+668.850E-06,-4.343316536E+00,+438.793965E-03
+669.900E-06,-4.343316536E+00,+434.331654E-03
+670.950E-06,-4.343316536E+00,+440.281402E-03
+672.000E-06,-4.402814023E+00,+440.281402E-03
+673.050E-06,-4.402814023E+00,+444.743714E-03
+674.100E-06,-4.432562767E+00,+440.281402E-03
+675.150E-06,-4.417688395E+00,+440.281402E-03
+676.200E-06,-4.462311510E+00,+440.281402E-03
+677.250E-06,-4.462311510E+00,+444.743714E-03
+678.300E-06,-4.521808997E+00,+446.231151E-03
+679.350E-06,-4.521808997E+00,+450.693463E-03
+680.400E-06,-4.521808997E+00,+452.180900E-03
+681.450E-06,-4.521808997E+00,+452.180900E-03
+682.500E-06,-4.551557740E+00,+452.180900E-03
+683.550E-06,-4.536683368E+00,+453.668337E-03
+684.600E-06,-4.581306484E+00,+452.180900E-03
+685.650E-06,-4.581306484E+00,+453.668337E-03
+686.700E-06,-4.581306484E+00,+458.130648E-03
+687.750E-06,-4.596180855E+00,+458.130648E-03
+688.800E-06,-4.581306484E+00,+458.130648E-03
+689.850E-06,-4.625929599E+00,+459.618086E-03
+690.900E-06,-4.640803970E+00,+464.080397E-03
+691.950E-06,-4.685427086E+00,+464.080397E-03
+693.000E-06,-4.640803970E+00,+470.030146E-03
+694.050E-06,-4.700301457E+00,+465.567834E-03
+695.100E-06,-4.700301457E+00,+470.030146E-03
+696.150E-06,-4.744924572E+00,+470.030146E-03
+697.200E-06,-4.759798944E+00,+470.030146E-03
+698.250E-06,-4.700301457E+00,+470.030146E-03
+699.300E-06,-4.759798944E+00,+475.979894E-03
+700.350E-06,-4.759798944E+00,+471.517583E-03
+701.400E-06,-4.819296431E+00,+475.979894E-03
+702.450E-06,-4.804422059E+00,+475.979894E-03
+703.500E-06,-4.789547687E+00,+475.979894E-03
+704.550E-06,-4.819296431E+00,+480.442206E-03
+705.600E-06,-4.759798944E+00,+481.929643E-03
+706.650E-06,-4.819296431E+00,+481.929643E-03
+707.700E-06,-4.819296431E+00,+478.954769E-03
+708.750E-06,-4.878793918E+00,+480.442206E-03
+709.800E-06,-4.819296431E+00,+481.929643E-03
+710.850E-06,-4.834170803E+00,+481.929643E-03
+711.900E-06,-4.819296431E+00,+481.929643E-03
+712.950E-06,-4.863919546E+00,+486.391955E-03
+714.000E-06,-4.878793918E+00,+481.929643E-03
+715.050E-06,-4.878793918E+00,+487.879392E-03
+716.100E-06,-4.878793918E+00,+484.904517E-03
+717.150E-06,-4.878793918E+00,+483.417080E-03
+718.200E-06,-4.878793918E+00,+487.879392E-03
+719.250E-06,-4.938291404E+00,+487.879392E-03
+720.300E-06,-4.938291404E+00,+490.854266E-03
+721.350E-06,-4.878793918E+00,+489.366829E-03
+722.400E-06,-4.938291404E+00,+487.879392E-03
+723.450E-06,-4.997788891E+00,+492.341703E-03
+724.500E-06,-4.938291404E+00,+490.854266E-03
+725.550E-06,-4.938291404E+00,+489.366829E-03
+726.600E-06,-4.997788891E+00,+493.829140E-03
+727.650E-06,-4.997788891E+00,+493.829140E-03
+728.700E-06,-4.997788891E+00,+490.854266E-03
+729.750E-06,-4.997788891E+00,+493.829140E-03
+730.800E-06,-4.997788891E+00,+493.829140E-03
+731.850E-06,-4.953165776E+00,+499.778889E-03
+732.900E-06,-4.997788891E+00,+493.829140E-03
+733.950E-06,-5.027537635E+00,+493.829140E-03
+735.000E-06,-4.997788891E+00,+493.829140E-03
+736.050E-06,-4.997788891E+00,+495.316578E-03
+737.100E-06,-4.997788891E+00,+496.804015E-03
+738.150E-06,-4.997788891E+00,+498.291452E-03
+739.200E-06,-5.057286378E+00,+499.778889E-03
+740.250E-06,-4.997788891E+00,+498.291452E-03
+741.300E-06,-4.997788891E+00,+496.804015E-03
+742.350E-06,-5.057286378E+00,+493.829140E-03
+743.400E-06,-4.997788891E+00,+493.829140E-03
+744.450E-06,-4.997788891E+00,+495.316578E-03
+745.500E-06,-5.027537635E+00,+496.804015E-03
+746.550E-06,-4.997788891E+00,+499.778889E-03
+747.600E-06,-4.997788891E+00,+493.829140E-03
+748.650E-06,-4.997788891E+00,+498.291452E-03
+749.700E-06,-5.027537635E+00,+499.778889E-03
+750.750E-06,-5.012663263E+00,+499.778889E-03
+751.800E-06,-4.997788891E+00,+499.778889E-03
+752.850E-06,-4.997788891E+00,+495.316578E-03
+753.900E-06,-5.057286378E+00,+499.778889E-03
+754.950E-06,-4.997788891E+00,+498.291452E-03
+756.000E-06,-5.057286378E+00,+493.829140E-03
+757.050E-06,-5.012663263E+00,+498.291452E-03
+758.100E-06,-5.027537635E+00,+496.804015E-03
+759.150E-06,-4.997788891E+00,+498.291452E-03
+760.200E-06,-4.997788891E+00,+499.778889E-03
+761.250E-06,-4.997788891E+00,+495.316578E-03
+762.300E-06,-4.997788891E+00,+490.854266E-03
+763.350E-06,-5.012663263E+00,+493.829140E-03
+764.400E-06,-4.997788891E+00,+493.829140E-03
+765.450E-06,-4.997788891E+00,+493.829140E-03
+766.500E-06,-4.997788891E+00,+493.829140E-03
+767.550E-06,-4.982914520E+00,+493.829140E-03
+768.600E-06,-4.997788891E+00,+493.829140E-03
+769.650E-06,-4.997788891E+00,+493.829140E-03
+770.700E-06,-4.968040148E+00,+490.854266E-03
+771.750E-06,-4.997788891E+00,+492.341703E-03
+772.800E-06,-4.997788891E+00,+493.829140E-03
+773.850E-06,-4.953165776E+00,+493.829140E-03
+774.900E-06,-4.997788891E+00,+493.829140E-03
+775.950E-06,-4.982914520E+00,+493.829140E-03
+777.000E-06,-4.938291404E+00,+493.829140E-03
+778.050E-06,-4.953165776E+00,+492.341703E-03
+779.100E-06,-4.938291404E+00,+487.879392E-03
+780.150E-06,-4.938291404E+00,+487.879392E-03
+781.200E-06,-4.938291404E+00,+487.879392E-03
+782.250E-06,-4.923417033E+00,+483.417080E-03
+783.300E-06,-4.938291404E+00,+487.879392E-03
+784.350E-06,-4.878793918E+00,+487.879392E-03
+785.400E-06,-4.878793918E+00,+487.879392E-03
+786.450E-06,-4.923417033E+00,+483.417080E-03
+787.500E-06,-4.908542661E+00,+481.929643E-03
+788.550E-06,-4.878793918E+00,+483.417080E-03
+789.600E-06,-4.819296431E+00,+481.929643E-03
+790.650E-06,-4.878793918E+00,+481.929643E-03
+791.700E-06,-4.878793918E+00,+481.929643E-03
+792.750E-06,-4.878793918E+00,+481.929643E-03
+793.800E-06,-4.878793918E+00,+481.929643E-03
+794.850E-06,-4.863919546E+00,+475.979894E-03
+795.900E-06,-4.849045174E+00,+478.954769E-03
+796.950E-06,-4.819296431E+00,+475.979894E-03
+798.000E-06,-4.819296431E+00,+475.979894E-03
+799.050E-06,-4.819296431E+00,+471.517583E-03
+800.100E-06,-4.819296431E+00,+473.005020E-03
+801.150E-06,-4.759798944E+00,+470.030146E-03
+802.200E-06,-4.819296431E+00,+470.030146E-03
+803.250E-06,-4.759798944E+00,+471.517583E-03
+804.300E-06,-4.759798944E+00,+467.055271E-03
+805.350E-06,-4.759798944E+00,+470.030146E-03
+806.400E-06,-4.759798944E+00,+464.080397E-03
+807.450E-06,-4.700301457E+00,+470.030146E-03
+808.500E-06,-4.759798944E+00,+464.080397E-03
+809.550E-06,-4.744924572E+00,+464.080397E-03
+810.600E-06,-4.700301457E+00,+464.080397E-03
+811.650E-06,-4.700301457E+00,+462.592960E-03
+812.700E-06,-4.670552714E+00,+461.105523E-03
+813.750E-06,-4.655678342E+00,+458.130648E-03
+814.800E-06,-4.640803970E+00,+458.130648E-03
+815.850E-06,-4.596180855E+00,+453.668337E-03
+816.900E-06,-4.611055227E+00,+455.155774E-03
+817.950E-06,-4.581306484E+00,+452.180900E-03
+819.000E-06,-4.581306484E+00,+452.180900E-03
+820.050E-06,-4.581306484E+00,+452.180900E-03
+821.100E-06,-4.581306484E+00,+446.231151E-03
+822.150E-06,-4.536683368E+00,+446.231151E-03
+823.200E-06,-4.581306484E+00,+446.231151E-03
+824.250E-06,-4.521808997E+00,+446.231151E-03
+825.300E-06,-4.521808997E+00,+443.256277E-03
+826.350E-06,-4.521808997E+00,+440.281402E-03
+827.400E-06,-4.462311510E+00,+440.281402E-03
+828.450E-06,-4.462311510E+00,+440.281402E-03
+829.500E-06,-4.462311510E+00,+437.306528E-03
+830.550E-06,-4.417688395E+00,+440.281402E-03
+831.600E-06,-4.402814023E+00,+434.331654E-03
+832.650E-06,-4.402814023E+00,+432.844216E-03
+833.700E-06,-4.373065280E+00,+428.381905E-03
+834.750E-06,-4.387939652E+00,+434.331654E-03
+835.800E-06,-4.343316536E+00,+428.381905E-03
+836.850E-06,-4.343316536E+00,+422.432156E-03
+837.900E-06,-4.313567793E+00,+422.432156E-03
+838.950E-06,-4.328442165E+00,+422.432156E-03
+840.000E-06,-4.343316536E+00,+422.432156E-03
+841.050E-06,-4.268944678E+00,+416.482408E-03
+842.100E-06,-4.254070306E+00,+416.482408E-03
+843.150E-06,-4.239195934E+00,+412.020096E-03
+844.200E-06,-4.224321563E+00,+416.482408E-03
+845.250E-06,-4.179698448E+00,+412.020096E-03
+846.300E-06,-4.164824076E+00,+407.557785E-03
+847.350E-06,-4.164824076E+00,+410.532659E-03
+848.400E-06,-4.105326589E+00,+404.582910E-03
+849.450E-06,-4.164824076E+00,+404.582910E-03
+850.500E-06,-4.105326589E+00,+404.582910E-03
+851.550E-06,-4.105326589E+00,+398.633162E-03
+852.600E-06,-4.045829102E+00,+398.633162E-03
+853.650E-06,-4.045829102E+00,+397.145724E-03
+854.700E-06,-4.045829102E+00,+392.683413E-03
+855.750E-06,-4.030954731E+00,+392.683413E-03
+856.800E-06,-3.986331616E+00,+386.733664E-03
+857.850E-06,-3.986331616E+00,+386.733664E-03
+858.900E-06,-3.926834129E+00,+386.733664E-03
+859.950E-06,-3.926834129E+00,+380.783916E-03
+861.000E-06,-3.867336642E+00,+380.783916E-03
+862.050E-06,-3.867336642E+00,+379.296478E-03
+863.100E-06,-3.867336642E+00,+374.834167E-03
+864.150E-06,-3.852462270E+00,+379.296478E-03
+865.200E-06,-3.807839155E+00,+368.884418E-03
+866.250E-06,-3.763216040E+00,+368.884418E-03
+867.300E-06,-3.778090412E+00,+368.884418E-03
+868.350E-06,-3.748341668E+00,+368.884418E-03
+869.400E-06,-3.748341668E+00,+362.934669E-03
+870.450E-06,-3.688844182E+00,+358.472358E-03
+871.500E-06,-3.688844182E+00,+359.959795E-03
+872.550E-06,-3.673969810E+00,+361.447232E-03
+873.600E-06,-3.688844182E+00,+351.035172E-03
+874.650E-06,-3.629346695E+00,+351.035172E-03
+875.700E-06,-3.569849208E+00,+351.035172E-03
+876.750E-06,-3.569849208E+00,+345.085423E-03
+877.800E-06,-3.569849208E+00,+345.085423E-03
+878.850E-06,-3.525226093E+00,+343.597986E-03
+879.900E-06,-3.510351721E+00,+336.160800E-03
+880.950E-06,-3.495477350E+00,+337.648238E-03
+882.000E-06,-3.450854234E+00,+333.185926E-03
+883.050E-06,-3.450854234E+00,+333.185926E-03
+884.100E-06,-3.450854234E+00,+330.211052E-03
+885.150E-06,-3.391356748E+00,+327.236177E-03
+886.200E-06,-3.391356748E+00,+327.236177E-03
+887.250E-06,-3.331859261E+00,+327.236177E-03
+888.300E-06,-3.331859261E+00,+324.261303E-03
+889.350E-06,-3.272361774E+00,+315.336680E-03
+890.400E-06,-3.272361774E+00,+315.336680E-03
+891.450E-06,-3.272361774E+00,+315.336680E-03
+892.500E-06,-3.242613031E+00,+312.361806E-03
+893.550E-06,-3.212864287E+00,+310.874369E-03
+894.600E-06,-3.153366800E+00,+303.437183E-03
+895.650E-06,-3.138492429E+00,+306.412057E-03
+896.700E-06,-3.093869314E+00,+303.437183E-03
+897.750E-06,-3.093869314E+00,+301.949746E-03
+898.800E-06,-3.093869314E+00,+291.537685E-03
+899.850E-06,-3.034371827E+00,+291.537685E-03
+900.900E-06,-3.034371827E+00,+291.537685E-03
+901.950E-06,-2.974874340E+00,+291.537685E-03
+903.000E-06,-2.915376853E+00,+291.537685E-03
+904.050E-06,-2.930251225E+00,+279.638188E-03
+905.100E-06,-2.915376853E+00,+276.663314E-03
+906.150E-06,-2.855879366E+00,+279.638188E-03
+907.200E-06,-2.855879366E+00,+273.688439E-03
+908.250E-06,-2.841004995E+00,+267.738691E-03
+909.300E-06,-2.796381880E+00,+264.763816E-03
+910.350E-06,-2.736884393E+00,+267.738691E-03
+911.400E-06,-2.736884393E+00,+267.738691E-03
+912.450E-06,-2.677386906E+00,+260.301505E-03
+913.500E-06,-2.677386906E+00,+255.839193E-03
+914.550E-06,-2.677386906E+00,+249.889445E-03
+915.600E-06,-2.617889419E+00,+255.839193E-03
+916.650E-06,-2.617889419E+00,+249.889445E-03
+917.700E-06,-2.558391932E+00,+246.914570E-03
+918.750E-06,-2.558391932E+00,+243.939696E-03
+919.800E-06,-2.558391932E+00,+237.989947E-03
+920.850E-06,-2.484020074E+00,+237.989947E-03
+921.900E-06,-2.439396959E+00,+235.015073E-03
+922.950E-06,-2.439396959E+00,+227.577887E-03
+924.000E-06,-2.379899472E+00,+226.090450E-03
+925.050E-06,-2.335276357E+00,+226.090450E-03
+926.100E-06,-2.350150729E+00,+226.090450E-03
+927.150E-06,-2.335276357E+00,+220.140701E-03
+928.200E-06,-2.260904498E+00,+220.140701E-03
+929.250E-06,-2.260904498E+00,+209.728641E-03
+930.300E-06,-2.231155755E+00,+208.241204E-03
+931.350E-06,-2.201407012E+00,+208.241204E-03
+932.400E-06,-2.141909525E+00,+208.241204E-03
+933.450E-06,-2.141909525E+00,+202.291455E-03
+934.500E-06,-2.082412038E+00,+199.316581E-03
+935.550E-06,-2.082412038E+00,+199.316581E-03
+936.600E-06,-2.082412038E+00,+190.391958E-03
+937.650E-06,-2.022914551E+00,+190.391958E-03
+938.700E-06,-1.963417064E+00,+187.417083E-03
+939.750E-06,-1.963417064E+00,+184.442209E-03
+940.800E-06,-1.903919578E+00,+184.442209E-03
+941.850E-06,-1.903919578E+00,+174.030149E-03
+942.900E-06,-1.844422091E+00,+172.542712E-03
+943.950E-06,-1.829547719E+00,+172.542712E-03
+945.000E-06,-1.784924604E+00,+160.643214E-03
+946.050E-06,-1.784924604E+00,+165.105526E-03
+947.100E-06,-1.755175861E+00,+160.643214E-03
+948.150E-06,-1.725427117E+00,+160.643214E-03
+949.200E-06,-1.665929630E+00,+154.693466E-03
+950.250E-06,-1.665929630E+00,+153.206029E-03
+951.300E-06,-1.576683400E+00,+148.743717E-03
+952.350E-06,-1.606432144E+00,+147.256280E-03
+953.400E-06,-1.546934657E+00,+142.793968E-03
+954.450E-06,-1.502311542E+00,+136.844220E-03
+955.500E-06,-1.487437170E+00,+136.844220E-03
+956.550E-06,-1.472562798E+00,+130.894471E-03
+957.600E-06,-1.427939683E+00,+130.894471E-03
+958.650E-06,-1.368442196E+00,+129.407034E-03
+959.700E-06,-1.368442196E+00,+124.944722E-03
+960.750E-06,-1.308944710E+00,+118.994974E-03
+961.800E-06,-1.308944710E+00,+113.045225E-03
+962.850E-06,-1.249447223E+00,+114.532662E-03
+963.900E-06,-1.249447223E+00,+113.045225E-03
+964.950E-06,-1.204824108E+00,+107.095476E-03
+966.000E-06,-1.189949736E+00,+101.145728E-03
+967.050E-06,-1.130452249E+00,+101.145728E-03
+968.100E-06,-1.100703506E+00,+98.170853E-03
+969.150E-06,-1.070954762E+00,+93.708542E-03
+970.200E-06,-1.070954762E+00,+89.246230E-03
+971.250E-06,-1.011457276E+00,+89.246230E-03
+972.300E-06,-951.959789E-03,+83.296482E-03
+973.350E-06,-951.959789E-03,+78.834170E-03
+974.400E-06,-892.462302E-03,+77.346733E-03
+975.450E-06,-892.462302E-03,+75.859296E-03
+976.500E-06,-832.964815E-03,+71.396984E-03
+977.550E-06,-818.090444E-03,+66.934673E-03
+978.600E-06,-773.467328E-03,+65.447235E-03
+979.650E-06,-728.844213E-03,+59.497487E-03
+980.700E-06,-713.969842E-03,+59.497487E-03
+981.750E-06,-654.472355E-03,+53.547738E-03
+982.800E-06,-594.974868E-03,+47.597989E-03
+983.850E-06,-594.974868E-03,+47.597989E-03
+984.900E-06,-594.974868E-03,+41.648241E-03
+985.950E-06,-535.477381E-03,+41.648241E-03
+987.000E-06,-475.979894E-03,+41.648241E-03
+988.050E-06,-475.979894E-03,+35.698492E-03
+989.100E-06,-416.482408E-03,+32.723618E-03
+990.150E-06,-416.482408E-03,+29.748743E-03
+991.200E-06,-356.984921E-03,+29.748743E-03
+992.250E-06,-356.984921E-03,+19.336683E-03
+993.300E-06,-297.487434E-03,+17.849246E-03
+994.350E-06,-297.487434E-03,+11.899497E-03
+995.400E-06,-237.989947E-03,+11.899497E-03
+996.450E-06,-193.366832E-03,+11.899497E-03
+997.500E-06,-178.492460E-03,+0.0E+00
+998.550E-06,-178.492460E-03,+4.462312E-03
+999.600E-06,-118.994974E-03,+0.0E+00
+1.000650E-03,-59.497487E-03,-1.487437E-03
+1.001700E-03,-59.497487E-03,-5.949749E-03
+1.002750E-03,+0.0E+00,-11.899497E-03
+1.003800E-03,+0.0E+00,-11.899497E-03
+1.004850E-03,+44.623115E-03,-17.849246E-03
+1.005900E-03,+118.994974E-03,-17.849246E-03
+1.006950E-03,+118.994974E-03,-23.798995E-03
+1.008000E-03,+118.994974E-03,-29.748743E-03
+1.009050E-03,+163.618089E-03,-29.748743E-03
+1.010100E-03,+237.989947E-03,-35.698492E-03
+1.011150E-03,+237.989947E-03,-35.698492E-03
+1.012200E-03,+297.487434E-03,-35.698492E-03
+1.013250E-03,+297.487434E-03,-41.648241E-03
+1.014300E-03,+356.984921E-03,-44.623115E-03
+1.015350E-03,+356.984921E-03,-47.597989E-03
+1.016400E-03,+416.482408E-03,-59.497487E-03
+1.017450E-03,+431.356779E-03,-53.547738E-03
+1.018500E-03,+475.979894E-03,-59.497487E-03
+1.019550E-03,+475.979894E-03,-63.959798E-03
+1.020600E-03,+535.477381E-03,-65.447235E-03
+1.021650E-03,+535.477381E-03,-71.396984E-03
+1.022700E-03,+594.974868E-03,-71.396984E-03
+1.023750E-03,+654.472355E-03,-77.346733E-03
+1.024800E-03,+654.472355E-03,-77.346733E-03
+1.025850E-03,+713.969842E-03,-83.296482E-03
+1.026900E-03,+743.718585E-03,-86.271356E-03
+1.027950E-03,+773.467328E-03,-89.246230E-03
+1.029000E-03,+832.964815E-03,-95.195979E-03
+1.030050E-03,+832.964815E-03,-101.145728E-03
+1.031100E-03,+832.964815E-03,-98.170853E-03
+1.032150E-03,+892.462302E-03,-105.608039E-03
+1.033200E-03,+892.462302E-03,-107.095476E-03
+1.034250E-03,+951.959789E-03,-107.095476E-03
+1.035300E-03,+981.708532E-03,-107.095476E-03
+1.036350E-03,+1.026331647E+00,-117.507536E-03
+1.037400E-03,+1.070954762E+00,-124.944722E-03
+1.038450E-03,+1.115577877E+00,-123.457285E-03
+1.039500E-03,+1.130452249E+00,-124.944722E-03
+1.040550E-03,+1.130452249E+00,-130.894471E-03
+1.041600E-03,+1.189949736E+00,-130.894471E-03
+1.042650E-03,+1.249447223E+00,-135.356782E-03
+1.043700E-03,+1.249447223E+00,-136.844220E-03
+1.044750E-03,+1.249447223E+00,-141.306531E-03
+1.045800E-03,+1.308944710E+00,-148.743717E-03
+1.046850E-03,+1.308944710E+00,-148.743717E-03
+1.047900E-03,+1.368442196E+00,-148.743717E-03
+1.048950E-03,+1.383316568E+00,-150.231154E-03
