x-axis,1,2
second,Volt,Volt
-3.000000E+00,-4.100502E+00,-11.899E-03
-2.998500E+00,-3.505528E+00,+24.394E-03
-2.997000E+00,-1.688442E+00,+2.380E-03
-2.995500E+00,+48.241E-03,-127.920E-03
-2.994000E+00,+2.219095E+00,+149.934E-03
-2.992500E+00,+4.180904E+00,+89.246E-03
-2.991000E+00,+611.055E-03,-114.235E-03
-2.989500E+00,-578.894E-03,+19.039E-03
-2.988000E+00,-1.206030E+00,+108.285E-03
-2.986500E+00,+1.704523E+00,-7.140E-03
-2.985000E+00,+4.422111E+00,-243.940E-03
-2.983500E+00,-2.621105E+00,+74.967E-03
-2.982000E+00,+1.575879E+00,+26.774E-03
-2.980500E+00,-514.573E-03,-89.841E-03
-2.979000E+00,+3.039196E+00,+74.967E-03
-2.977500E+00,-4.984925E+00,-240.965E-03
-2.976000E+00,+2.942714E+00,-151.719E-03
-2.974500E+00,-1.254271E+00,-44.623E-03
-2.973000E+00,-980.905E-03,+17.254E-03
-2.971500E+00,+1.350754E+00,+200.507E-03
-2.970000E+00,+402.010E-03,-148.744E-03
-2.968500E+00,-2.830151E+00,+139.819E-03
-2.967000E+00,+1.881407E+00,-61.282E-03
-2.965500E+00,+1.302513E+00,-130.299E-03
-2.964000E+00,-2.572864E+00,+111.260E-03
-2.962500E+00,-1.447236E+00,-41.648E-03
-2.961000E+00,+2.508543E+00,-168.973E-03
-2.959500E+00,-948.744E-03,+64.257E-03
-2.958000E+00,+1.286432E+00,-25.584E-03
-2.956500E+00,+594.975E-03,+54.143E-03
-2.955000E+00,+160.804E-03,+29.749E-03
-2.953500E+00,-2.910553E+00,+163.023E-03
-2.952000E+00,+1.656281E+00,-61.877E-03
-2.950500E+00,+1.640201E+00,-55.928E-03
-2.949000E+00,+1.752764E+00,+5.355E-03
-2.947500E+00,-4.984925E+00,-235.015E-03
-2.946000E+00,-948.744E-03,+77.942E-03
-2.944500E+00,-241.206E-03,+67.232E-03
-2.943000E+00,-3.039196E+00,+47.598E-03
-2.941500E+00,-2.492462E+00,-82.702E-03
-2.940000E+00,-723.618E-03,+237.990E-03
-2.938500E+00,-2.572864E+00,+30.344E-03
-2.937000E+00,+578.894E-03,-52.358E-03
-2.935500E+00,-1.881407E+00,-60.092E-03
-2.934000E+00,+305.528E-03,-97.576E-03
-2.932500E+00,+3.939698E+00,-118.995E-03
-2.931000E+00,+2.701508E+00,-160.048E-03
-2.929500E+00,-1.125628E+00,+56.523E-03
-2.928000E+00,+241.206E-03,+92.816E-03
-2.926500E+00,+434.171E-03,-45.218E-03
-2.925000E+00,+4.663317E+00,+226.090E-03
-2.923500E+00,-2.894472E+00,+116.020E-03
-2.922000E+00,-948.744E-03,-64.852E-03
-2.920500E+00,+1.013065E+00,-32.129E-03
-2.919000E+00,-1.961809E+00,-198.722E-03
-2.917500E+00,-4.904523E+00,+95.196E-03
-2.916000E+00,+2.717588E+00,-197.532E-03
-2.914500E+00,-1.447236E+00,+44.623E-03
-2.913000E+00,-482.412E-03,+24.989E-03
-2.911500E+00,-1.431156E+00,-233.825E-03
-2.910000E+00,+884.422E-03,+193.367E-03
-2.908500E+00,-2.122613E+00,-168.973E-03
-2.907000E+00,+1.945729E+00,+20.229E-03
-2.905500E+00,+1.559799E+00,+67.827E-03
-2.904000E+00,-4.695477E+00,+182.062E-03
-2.902500E+00,-241.206E-03,-17.849E-03
-2.901000E+00,+1.431156E+00,-135.654E-03
-2.899500E+00,+964.824E-03,+14.279E-03
-2.898000E+00,-32.161E-03,+17.849E-03
-2.896500E+00,+4.325628E+00,+52.953E-03
-2.895000E+00,-1.849246E+00,-172.543E-03
-2.893500E+00,-2.830151E+00,-95.196E-03
-2.892000E+00,+402.010E-03,-94.006E-03
-2.890500E+00,+2.846231E+00,-107.690E-03
-2.889000E+00,-3.071357E+00,-92.816E-03
-2.887500E+00,-3.939698E+00,-20.824E-03
-2.886000E+00,+2.540703E+00,-148.744E-03
-2.884500E+00,-2.830151E+00,+27.964E-03
-2.883000E+00,-144.724E-03,+51.763E-03
-2.881500E+00,+2.460301E+00,-162.428E-03
-2.880000E+00,+3.778894E+00,+77.347E-03
-2.878500E+00,-3.007035E+00,+138.034E-03
-2.877000E+00,+1.125628E+00,-97.576E-03
-2.875500E+00,+2.267337E+00,+10.710E-03
-2.874000E+00,-659.296E-03,-19.039E-03
-2.872500E+00,+1.447236E+00,-26.774E-03
-2.871000E+00,+1.575879E+00,+18.444E-03
-2.869500E+00,-1.350754E+00,-41.648E-03
-2.868000E+00,-1.077387E+00,+42.838E-03
-2.866500E+00,-1.093467E+00,-44.623E-03
-2.865000E+00,-1.768844E+00,-243.940E-03
-2.863500E+00,-2.460301E+00,+26.774E-03
-2.862000E+00,+2.540703E+00,-90.436E-03
-2.860500E+00,-1.141709E+00,-48.193E-03
-2.859000E+00,-4.068342E+00,+202.886E-03
-2.857500E+00,-3.457286E+00,+163.618E-03
-2.856000E+00,+2.283417E+00,+1.785E-03
-2.854500E+00,-1.350754E+00,+16.659E-03
-2.853000E+00,-868.342E-03,+47.003E-03
-2.851500E+00,+2.524623E+00,-70.802E-03
-2.850000E+00,+3.859296E+00,+172.543E-03
-2.848500E+00,-2.042211E+00,+189.202E-03
-2.847000E+00,+80.402E-03,-20.824E-03
-2.845500E+00,+0.0E+00,-151.719E-03
-2.844000E+00,-1.704523E+00,+121.970E-03
-2.842500E+00,-80.402E-03,+145.769E-03
-2.841000E+00,-1.398995E+00,-120.780E-03
-2.839500E+00,-1.929648E+00,+101.741E-03
-2.838000E+00,+16.080E-03,+26.179E-03
-2.836500E+00,+562.814E-03,-170.758E-03
-2.835000E+00,+2.733668E+00,-65.447E-03
-2.833500E+00,-3.473367E+00,+104.716E-03
-2.832000E+00,+820.100E-03,-34.509E-03
-2.830500E+00,+1.302513E+00,+8.330E-03
-2.829000E+00,-1.189950E+00,+147.554E-03
-2.827500E+00,-3.376884E+00,+246.915E-03
-2.826000E+00,+1.061307E+00,+102.336E-03
-2.824500E+00,+144.724E-03,-94.601E-03
-2.823000E+00,+144.724E-03,+64.257E-03
-2.821500E+00,-2.379899E+00,-157.073E-03
-2.820000E+00,+3.698492E+00,-110.070E-03
-2.818500E+00,-2.685427E+00,+82.702E-03
-2.817000E+00,+1.768844E+00,-89.841E-03
-2.815500E+00,+160.804E-03,-44.028E-03
-2.814000E+00,+1.688442E+00,+182.062E-03
-2.812500E+00,-2.814070E+00,-145.769E-03
-2.811000E+00,+498.492E-03,+151.124E-03
-2.809500E+00,+80.402E-03,+14.874E-03
-2.808000E+00,-192.965E-03,-118.995E-03
-2.806500E+00,+3.103518E+00,-34.509E-03
-2.805000E+00,+1.688442E+00,-44.623E-03
-2.803500E+00,+1.254271E+00,+57.118E-03
-2.802000E+00,-128.643E-03,-33.319E-03
-2.800500E+00,+1.013065E+00,-90.436E-03
-2.799000E+00,+3.650251E+00,+144.579E-03
-2.797500E+00,-3.778894E+00,-196.342E-03
-2.796000E+00,+1.029146E+00,-188.607E-03
-2.794500E+00,-2.042211E+00,+40.458E-03
-2.793000E+00,-884.422E-03,-143.389E-03
-2.791500E+00,+1.736683E+00,-79.132E-03
-2.790000E+00,+3.778894E+00,-14.874E-03
-2.788500E+00,-2.122613E+00,+99.956E-03
-2.787000E+00,+1.077387E+00,+29.749E-03
-2.785500E+00,-3.457286E+00,-36.888E-03
-2.784000E+00,+2.203015E+00,+16.064E-03
-2.782500E+00,-2.251256E+00,+14.874E-03
-2.781000E+00,+2.363819E+00,-196.937E-03
-2.779500E+00,-1.350754E+00,+31.534E-03
-2.778000E+00,-820.100E-03,+41.053E-03
-2.776500E+00,-2.717588E+00,-102.931E-03
-2.775000E+00,+3.859296E+00,-196.342E-03
-2.773500E+00,-2.476382E+00,+131.489E-03
-2.772000E+00,+289.447E-03,-54.143E-03
-2.770500E+00,+1.688442E+00,-79.727E-03
-2.769000E+00,+2.058291E+00,+143.389E-03
-2.767500E+00,-3.216080E+00,-17.849E-03
-2.766000E+00,-257.286E-03,-204.076E-03
-2.764500E+00,-643.216E-03,-42.243E-03
-2.763000E+00,-1.415075E+00,+109.475E-03
-2.761500E+00,-2.781910E+00,-157.668E-03
-2.760000E+00,+3.457286E+00,-124.945E-03
-2.758500E+00,-1.398995E+00,-162.428E-03
-2.757000E+00,+16.080E-03,-45.813E-03
-2.755500E+00,+723.618E-03,+55.928E-03
-2.754000E+00,+2.251256E+00,+143.984E-03
-2.752500E+00,-482.412E-03,-59.497E-03
-2.751000E+00,+144.724E-03,-3.570E-03
-2.749500E+00,-739.698E-03,+46.408E-03
-2.748000E+00,-3.216080E+00,+144.579E-03
-2.746500E+00,+2.122613E+00,+46.408E-03
-2.745000E+00,+2.814070E+00,-223.116E-03
-2.743500E+00,-2.106533E+00,+46.408E-03
-2.742000E+00,+723.618E-03,-59.497E-03
-2.740500E+00,+707.538E-03,+63.662E-03
-2.739000E+00,+707.538E-03,+148.744E-03
-2.737500E+00,-3.537688E+00,+35.698E-03
-2.736000E+00,+1.511558E+00,+99.361E-03
-2.734500E+00,+192.965E-03,+48.788E-03
-2.733000E+00,+32.161E-03,+61.282E-03
-2.731500E+00,-1.479397E+00,+121.970E-03
-2.730000E+00,+2.572864E+00,+235.015E-03
-2.728500E+00,-1.672362E+00,+151.124E-03
-2.727000E+00,+160.804E-03,+98.766E-03
-2.725500E+00,+1.318593E+00,-55.333E-03
-2.724000E+00,+434.171E-03,+10.115E-03
-2.722500E+00,-3.457286E+00,+190.392E-03
-2.721000E+00,+1.640201E+00,+136.844E-03
-2.719500E+00,-385.930E-03,+94.601E-03
-2.718000E+00,-337.688E-03,-49.978E-03
-2.716500E+00,-128.643E-03,+52.358E-03
-2.715000E+00,-1.447236E+00,-29.749E-03
-2.713500E+00,-1.752764E+00,-129.110E-03
-2.712000E+00,+321.608E-03,+110.665E-03
-2.710500E+00,-804.020E-03,-99.956E-03
-2.709000E+00,+948.744E-03,+25.584E-03
-2.707500E+00,-0.0E+00,-124.945E-03
-2.706000E+00,+1.817085E+00,-120.780E-03
-2.704500E+00,+209.045E-03,+37.483E-03
-2.703000E+00,+1.029146E+00,-102.931E-03
-2.701500E+00,-1.720603E+00,-171.948E-03
-2.700000E+00,+2.733668E+00,-181.467E-03
-2.698500E+00,-2.138693E+00,-139.224E-03
-2.697000E+00,+643.216E-03,-141.009E-03
-2.695500E+00,-225.126E-03,-67.827E-03
-2.694000E+00,+611.055E-03,+13.684E-03
-2.692500E+00,-2.894472E+00,-243.940E-03
-2.691000E+00,+2.235176E+00,-73.777E-03
-2.689500E+00,-627.136E-03,+2.975E-03
-2.688000E+00,+1.624121E+00,+57.713E-03
-2.686500E+00,-1.366834E+00,-44.623E-03
-2.685000E+00,+2.251256E+00,-133.869E-03
-2.683500E+00,-1.302513E+00,+214.786E-03
-2.682000E+00,+80.402E-03,-44.623E-03
-2.680500E+00,-2.717588E+00,-103.526E-03
-2.679000E+00,+1.801005E+00,-76.752E-03
-2.677500E+00,-2.653266E+00,+226.090E-03
-2.676000E+00,+1.254271E+00,-100.551E-03
-2.674500E+00,-273.367E-03,+57.118E-03
-2.673000E+00,-546.734E-03,+46.408E-03
-2.671500E+00,-1.624121E+00,-13.684E-03
-2.670000E+00,+2.653266E+00,-252.864E-03
-2.668500E+00,-964.824E-03,+138.034E-03
-2.667000E+00,+2.122613E+00,-12.494E-03
-2.665500E+00,-32.161E-03,-122.565E-03
-2.664000E+00,-627.136E-03,+30.939E-03
-2.662500E+00,-321.608E-03,+148.744E-03
-2.661000E+00,+1.302513E+00,-153.504E-03
-2.659500E+00,-1.672362E+00,+48.788E-03
-2.658000E+00,+1.013065E+00,+48.788E-03
-2.656500E+00,-2.122613E+00,+94.006E-03
-2.655000E+00,+2.090452E+00,-160.643E-03
-2.653500E+00,-691.457E-03,-47.598E-03
-2.652000E+00,+434.171E-03,-8.925E-03
-2.650500E+00,-1.833166E+00,-0.0E+00
-2.649000E+00,-868.342E-03,-53.548E-03
-2.647500E+00,-2.412060E+00,+214.191E-03
-2.646000E+00,+1.029146E+00,-165.403E-03
-2.644500E+00,-755.779E-03,+126.135E-03
-2.643000E+00,-1.029146E+00,+52.953E-03
-2.641500E+00,-1.640201E+00,-141.604E-03
-2.640000E+00,+1.929648E+00,+205.266E-03
-2.638500E+00,-1.495477E+00,+64.257E-03
-2.637000E+00,+611.055E-03,-52.953E-03
-2.635500E+00,-1.093467E+00,+135.654E-03
-2.634000E+00,+787.940E-03,+74.372E-03
-2.632500E+00,-1.527638E+00,+151.719E-03
-2.631000E+00,+691.457E-03,-72.587E-03
-2.629500E+00,+884.422E-03,+55.928E-03
-2.628000E+00,+514.573E-03,-124.350E-03
-2.626500E+00,-1.222111E+00,+30.939E-03
-2.625000E+00,+1.688442E+00,+223.116E-03
-2.623500E+00,-1.270352E+00,+141.009E-03
-2.622000E+00,+1.318593E+00,-33.319E-03
-2.620500E+00,-514.573E-03,+122.565E-03
-2.619000E+00,+434.171E-03,-70.207E-03
-2.617500E+00,-1.929648E+00,-240.965E-03
-2.616000E+00,+1.222111E+00,-134.464E-03
-2.614500E+00,-948.744E-03,+97.576E-03
-2.613000E+00,+578.894E-03,-108.285E-03
-2.611500E+00,-112.563E-03,-176.113E-03
-2.610000E+00,+1.527638E+00,+157.668E-03
-2.608500E+00,+209.045E-03,+53.548E-03
-2.607000E+00,-1.045226E+00,-129.705E-03
-2.605500E+00,+402.010E-03,-27.369E-03
-2.604000E+00,+1.189950E+00,-127.325E-03
-2.602500E+00,-1.286432E+00,+246.915E-03
-2.601000E+00,+868.342E-03,-47.598E-03
-2.599500E+00,-402.010E-03,+52.953E-03
-2.598000E+00,-128.643E-03,+55.928E-03
-2.596500E+00,+932.663E-03,-145.174E-03
-2.595000E+00,+1.286432E+00,-136.844E-03
-2.593500E+00,-691.457E-03,+70.802E-03
-2.592000E+00,+627.136E-03,-54.143E-03
-2.590500E+00,+1.061307E+00,-55.333E-03
-2.589000E+00,+884.422E-03,+49.978E-03
-2.587500E+00,-643.216E-03,+53.548E-03
-2.586000E+00,+611.055E-03,+48.193E-03
-2.584500E+00,-241.206E-03,-33.914E-03
-2.583000E+00,-289.447E-03,+48.788E-03
-2.581500E+00,-80.402E-03,-79.132E-03
-2.580000E+00,-80.402E-03,+118.995E-03
-2.578500E+00,-980.905E-03,-99.361E-03
-2.577000E+00,-160.804E-03,-98.171E-03
-2.575500E+00,+434.171E-03,-155.883E-03
-2.574000E+00,+691.457E-03,+36.888E-03
-2.572500E+00,-1.286432E+00,+205.266E-03
-2.571000E+00,+16.080E-03,-167.783E-03
-2.569500E+00,-160.804E-03,+53.548E-03
-2.568000E+00,+643.216E-03,+91.626E-03
-2.566500E+00,-289.447E-03,-189.202E-03
-2.565000E+00,+964.824E-03,-65.447E-03
-2.563500E+00,+337.688E-03,-30.344E-03
-2.562000E+00,-305.528E-03,-74.967E-03
-2.560500E+00,+852.261E-03,-151.124E-03
-2.559000E+00,+723.618E-03,+41.053E-03
-2.557500E+00,-723.618E-03,+249.889E-03
-2.556000E+00,+402.010E-03,-99.956E-03
-2.554500E+00,-707.538E-03,+141.009E-03
-2.553000E+00,-96.482E-03,+103.526E-03
-2.551500E+00,-868.342E-03,-148.744E-03
-2.550000E+00,+562.814E-03,-29.749E-03
-2.548500E+00,-418.090E-03,+101.146E-03
-2.547000E+00,+128.643E-03,+10.115E-03
-2.545500E+00,-192.965E-03,+19.039E-03
-2.544000E+00,+402.010E-03,+141.604E-03
-2.542500E+00,-804.020E-03,+178.492E-03
-2.541000E+00,+418.090E-03,+19.634E-03
-2.539500E+00,-321.608E-03,+58.903E-03
-2.538000E+00,+16.080E-03,+110.665E-03
-2.536500E+00,-369.849E-03,-111.855E-03
-2.535000E+00,+643.216E-03,-163.618E-03
-2.533500E+00,-337.688E-03,+11.305E-03
-2.532000E+00,+385.930E-03,+45.218E-03
-2.530500E+00,-659.296E-03,-123.160E-03
-2.529000E+00,+289.447E-03,+135.654E-03
-2.527500E+00,-321.608E-03,+196.342E-03
-2.526000E+00,+257.286E-03,+17.849E-03
-2.524500E+00,-48.241E-03,+36.888E-03
-2.523000E+00,-337.688E-03,+41.648E-03
-2.521500E+00,+0.0E+00,+131.489E-03
-2.520000E+00,+402.010E-03,-80.322E-03
-2.518500E+00,-64.322E-03,+151.124E-03
-2.517000E+00,+273.367E-03,+19.634E-03
-2.515500E+00,-225.126E-03,-57.118E-03
-2.514000E+00,+176.884E-03,+94.601E-03
-2.512500E+00,-402.010E-03,-14.874E-03
-2.511000E+00,+176.884E-03,+41.053E-03
-2.509500E+00,-209.045E-03,+115.425E-03
-2.508000E+00,+144.724E-03,-17.254E-03
-2.506500E+00,-160.804E-03,+19.634E-03
-2.505000E+00,+160.804E-03,-11.899E-03
-2.503500E+00,-176.884E-03,+11.305E-03
-2.502000E+00,+32.161E-03,+13.684E-03
-2.500500E+00,-192.965E-03,+55.928E-03
-2.499000E+00,+32.161E-03,+152.314E-03
-2.497500E+00,-160.804E-03,-2.975E-03
-2.496000E+00,+32.161E-03,-162.428E-03
-2.494500E+00,-80.402E-03,+49.383E-03
-2.493000E+00,-32.161E-03,+36.888E-03
-2.491500E+00,-64.322E-03,+170.758E-03
-2.490000E+00,-80.402E-03,-130.894E-03
-2.488500E+00,+0.0E+00,-174.328E-03
-2.487000E+00,-48.241E-03,+37.483E-03
-2.485500E+00,-32.161E-03,+73.182E-03
-2.484000E+00,-144.724E-03,+111.260E-03
-2.482500E+00,-0.0E+00,-136.844E-03
-2.481000E+00,-48.241E-03,-45.218E-03
-2.479500E+00,-96.482E-03,+55.928E-03
-2.478000E+00,-80.402E-03,+22.609E-03
-2.476500E+00,+16.080E-03,+61.282E-03
-2.475000E+00,-241.206E-03,+214.191E-03
-2.473500E+00,-176.884E-03,-96.981E-03
-2.472000E+00,-80.402E-03,-54.738E-03
-2.470500E+00,+16.080E-03,-104.121E-03
-2.469000E+00,-225.126E-03,+174.328E-03
-2.467500E+00,-80.402E-03,+240.965E-03
-2.466000E+00,+176.884E-03,-1.785E-03
-2.464500E+00,+160.804E-03,+60.092E-03
-2.463000E+00,-209.045E-03,+52.358E-03
-2.461500E+00,+257.286E-03,-171.948E-03
-2.460000E+00,-562.814E-03,-11.899E-03
-2.458500E+00,-112.563E-03,+148.149E-03
-2.457000E+00,+144.724E-03,+45.218E-03
-2.455500E+00,+305.528E-03,-24.989E-03
-2.454000E+00,-289.447E-03,+146.364E-03
-2.452500E+00,+321.608E-03,-8.925E-03
-2.451000E+00,-273.367E-03,+115.425E-03
-2.449500E+00,-385.930E-03,+43.433E-03
-2.448000E+00,-160.804E-03,+34.509E-03
-2.446500E+00,+273.367E-03,+138.629E-03
-2.445000E+00,-723.618E-03,-226.090E-03
-2.443500E+00,+498.492E-03,-70.207E-03
-2.442000E+00,-128.643E-03,-48.193E-03
-2.440500E+00,-16.080E-03,-47.003E-03
-2.439000E+00,-578.894E-03,+136.844E-03
-2.437500E+00,+643.216E-03,+163.618E-03
-2.436000E+00,-498.492E-03,-30.344E-03
-2.434500E+00,+804.020E-03,-3.570E-03
-2.433000E+00,+369.849E-03,-3.570E-03
-2.431500E+00,+418.090E-03,-89.841E-03
-2.430000E+00,-964.824E-03,-243.940E-03
-2.428500E+00,+80.402E-03,-191.582E-03
-2.427000E+00,-64.322E-03,-110.070E-03
-2.425500E+00,+402.010E-03,-111.260E-03
-2.424000E+00,-418.090E-03,+98.171E-03
-2.422500E+00,-241.206E-03,+110.070E-03
-2.421000E+00,+434.171E-03,-2.380E-03
-2.419500E+00,-209.045E-03,-51.168E-03
-2.418000E+00,+627.136E-03,+49.383E-03
-2.416500E+00,+353.769E-03,-24.989E-03
-2.415000E+00,-1.045226E+00,-32.724E-03
-2.413500E+00,+1.077387E+00,-127.920E-03
-2.412000E+00,-1.189950E+00,-46.408E-03
-2.410500E+00,-32.161E-03,+119.590E-03
-2.409000E+00,-691.457E-03,-185.632E-03
-2.407500E+00,+804.020E-03,-107.095E-03
-2.406000E+00,-225.126E-03,-160.643E-03
-2.404500E+00,-514.573E-03,+42.243E-03
-2.403000E+00,-257.286E-03,+155.883E-03
-2.401500E+00,-289.447E-03,-143.984E-03
-2.400000E+00,-884.422E-03,+20.824E-03
-2.398500E+00,+1.141709E+00,+135.059E-03
-2.397000E+00,-530.653E-03,-38.673E-03
-2.395500E+00,+1.029146E+00,-41.053E-03
-2.394000E+00,-225.126E-03,+1.785E-03
-2.392500E+00,+1.366834E+00,+59.497E-03
-2.391000E+00,-176.884E-03,+8.330E-03
-2.389500E+00,+16.080E-03,-35.104E-03
-2.388000E+00,-289.447E-03,+36.293E-03
-2.386500E+00,+707.538E-03,-196.342E-03
-2.385000E+00,-1.608040E+00,+35.698E-03
-2.383500E+00,-80.402E-03,+195.747E-03
-2.382000E+00,+466.332E-03,-91.031E-03
-2.380500E+00,+562.814E-03,-11.305E-03
-2.379000E+00,-836.181E-03,-202.886E-03
-2.377500E+00,+1.366834E+00,+116.020E-03
-2.376000E+00,-820.100E-03,-185.037E-03
-2.374500E+00,-707.538E-03,+148.744E-03
-2.373000E+00,+884.422E-03,+16.659E-03
-2.371500E+00,+948.744E-03,-61.282E-03
-2.370000E+00,+241.206E-03,+184.442E-03
-2.368500E+00,+1.334673E+00,+156.478E-03
-2.367000E+00,-1.302513E+00,-22.609E-03
-2.365500E+00,+289.447E-03,-63.067E-03
-2.364000E+00,-1.109548E+00,-153.504E-03
-2.362500E+00,+160.804E-03,-133.869E-03
-2.361000E+00,+0.0E+00,-75.562E-03
-2.359500E+00,-289.447E-03,+99.361E-03
-2.358000E+00,+32.161E-03,+124.350E-03
-2.356500E+00,+804.020E-03,+25.584E-03
-2.355000E+00,-1.447236E+00,+121.970E-03
-2.353500E+00,-1.398995E+00,-11.899E-03
-2.352000E+00,-578.894E-03,+41.053E-03
-2.350500E+00,-434.171E-03,-148.149E-03
-2.349000E+00,-723.618E-03,+216.571E-03
-2.347500E+00,+1.366834E+00,-145.769E-03
-2.346000E+00,-659.296E-03,-26.179E-03
-2.344500E+00,+1.189950E+00,+70.207E-03
-2.343000E+00,-337.688E-03,+69.017E-03
-2.341500E+00,-128.643E-03,-155.288E-03
-2.340000E+00,+723.618E-03,+68.422E-03
-2.338500E+00,-64.322E-03,+97.576E-03
-2.337000E+00,-643.216E-03,-22.014E-03
-2.335500E+00,+160.804E-03,-103.526E-03
-2.334000E+00,-434.171E-03,-187.417E-03
-2.332500E+00,+1.849246E+00,-107.095E-03
-2.331000E+00,-2.203015E+00,-143.389E-03
-2.329500E+00,-1.222111E+00,+17.849E-03
-2.328000E+00,+160.804E-03,+24.989E-03
-2.326500E+00,+1.656281E+00,+98.171E-03
-2.325000E+00,-1.045226E+00,+187.417E-03
-2.323500E+00,+337.688E-03,+120.185E-03
-2.322000E+00,+160.804E-03,-25.584E-03
-2.320500E+00,-627.136E-03,-67.827E-03
-2.319000E+00,-1.656281E+00,-595E-06
-2.317500E+00,+2.492462E+00,+14.874E-03
-2.316000E+00,-160.804E-03,-43.433E-03
-2.314500E+00,+160.804E-03,+62.472E-03
-2.313000E+00,+723.618E-03,+49.383E-03
-2.311500E+00,+1.559799E+00,+8.330E-03
-2.310000E+00,-2.170854E+00,+38.673E-03
-2.308500E+00,+530.653E-03,+36.293E-03
-2.307000E+00,+755.779E-03,-77.942E-03
-2.305500E+00,+112.563E-03,-23.799E-03
-2.304000E+00,+257.286E-03,+195.747E-03
-2.302500E+00,+2.170854E+00,+113.045E-03
-2.301000E+00,+2.122613E+00,-126.135E-03
-2.299500E+00,-643.216E-03,+11.899E-03
-2.298000E+00,-1.254271E+00,+121.970E-03
-2.296500E+00,+1.013065E+00,-42.838E-03
-2.295000E+00,-1.527638E+00,-240.965E-03
-2.293500E+00,-112.563E-03,+113.640E-03
-2.292000E+00,-1.029146E+00,+8.330E-03
-2.290500E+00,-723.618E-03,-117.805E-03
-2.289000E+00,-241.206E-03,-28.559E-03
-2.287500E+00,-1.608040E+00,+184.442E-03
-2.286000E+00,+1.029146E+00,-71.397E-03
-2.284500E+00,+1.752764E+00,+28.559E-03
-2.283000E+00,-932.663E-03,+38.078E-03
-2.281500E+00,+2.106533E+00,-153.504E-03
-2.280000E+00,-2.331658E+00,-47.598E-03
-2.278500E+00,-996.985E-03,+158.263E-03
-2.277000E+00,-1.045226E+00,-80.322E-03
-2.275500E+00,+2.074372E+00,-62.472E-03
-2.274000E+00,-1.881407E+00,-78.537E-03
-2.272500E+00,+2.492462E+00,-2.975E-03
-2.271000E+00,-418.090E-03,+61.877E-03
-2.269500E+00,+1.591960E+00,+91.626E-03
-2.268000E+00,-1.270352E+00,+45.813E-03
-2.266500E+00,+450.251E-03,-148.744E-03
-2.265000E+00,+1.286432E+00,+107.095E-03
-2.263500E+00,-1.688442E+00,+7.140E-03
-2.262000E+00,+723.618E-03,-51.763E-03
-2.260500E+00,-273.367E-03,-66.042E-03
-2.259000E+00,-852.261E-03,-104.121E-03
-2.257500E+00,+2.090452E+00,-59.497E-03
-2.256000E+00,-337.688E-03,+17.849E-03
-2.254500E+00,-804.020E-03,+1.785E-03
-2.253000E+00,-546.734E-03,+61.282E-03
-2.251500E+00,+1.013065E+00,-36.293E-03
-2.250000E+00,-964.824E-03,+38.673E-03
-2.248500E+00,-2.765829E+00,+16.064E-03
-2.247000E+00,-160.804E-03,-60.687E-03
-2.245500E+00,-450.251E-03,-33.914E-03
-2.244000E+00,-820.100E-03,+120.780E-03
-2.242500E+00,+1.286432E+00,+211.216E-03
-2.241000E+00,-2.572864E+00,-116.020E-03
-2.239500E+00,-948.744E-03,-82.107E-03
-2.238000E+00,-128.643E-03,+70.207E-03
-2.236500E+00,+2.042211E+00,-56.523E-03
-2.235000E+00,-3.216080E+00,+32.724E-03
-2.233500E+00,+2.444221E+00,+129.705E-03
-2.232000E+00,+932.663E-03,+11.899E-03
-2.230500E+00,+2.154774E+00,-50.573E-03
-2.229000E+00,-2.154774E+00,+165.998E-03
-2.227500E+00,+2.010050E+00,-229.065E-03
-2.226000E+00,+1.688442E+00,+184.442E-03
-2.224500E+00,-739.698E-03,+1.190E-03
-2.223000E+00,+96.482E-03,+56.523E-03
-2.221500E+00,+2.186935E+00,-29.749E-03
-2.220000E+00,-3.778894E+00,+35.698E-03
-2.218500E+00,+32.161E-03,+0.0E+00
-2.217000E+00,-32.161E-03,-114.830E-03
-2.215500E+00,+241.206E-03,+139.819E-03
-2.214000E+00,-2.074372E+00,-85.676E-03
-2.212500E+00,+3.537688E+00,+148.744E-03
-2.211000E+00,-2.878392E+00,-142.199E-03
-2.209500E+00,-868.342E-03,-22.014E-03
-2.208000E+00,-418.090E-03,+74.372E-03
-2.206500E+00,+659.296E-03,-85.676E-03
-2.205000E+00,-2.492462E+00,-226.090E-03
-2.203500E+00,+1.077387E+00,+26.179E-03
-2.202000E+00,+836.181E-03,-58.903E-03
-2.200500E+00,-160.804E-03,-162.428E-03
-2.199000E+00,-707.538E-03,+33.914E-03
-2.197500E+00,+3.376884E+00,-2.975E-03
-2.196000E+00,+2.733668E+00,-3.570E-03
-2.194500E+00,-418.090E-03,+16.659E-03
-2.193000E+00,-1.527638E+00,+39.268E-03
-2.191500E+00,+1.318593E+00,-62.472E-03
-2.190000E+00,-4.100502E+00,+184.442E-03
-2.188500E+00,+1.833166E+00,+171.948E-03
-2.187000E+00,-980.905E-03,+10.115E-03
-2.185500E+00,+755.779E-03,-31.534E-03
-2.184000E+00,-2.862312E+00,+211.216E-03
-2.182500E+00,+2.412060E+00,-92.221E-03
-2.181000E+00,-3.602010E+00,-179.682E-03
-2.179500E+00,-691.457E-03,-1.190E-03
-2.178000E+00,-1.398995E+00,+7.735E-03
-2.176500E+00,+787.940E-03,-149.339E-03
-2.175000E+00,-4.180904E+00,+240.965E-03
-2.173500E+00,-450.251E-03,+141.604E-03
-2.172000E+00,-1.575879E+00,-47.598E-03
-2.170500E+00,+1.093467E+00,+24.989E-03
-2.169000E+00,-1.189950E+00,+95.196E-03
-2.167500E+00,+2.412060E+00,+26.774E-03
-2.166000E+00,-80.402E-03,-8.925E-03
-2.164500E+00,-675.377E-03,+109.475E-03
-2.163000E+00,-1.447236E+00,-58.308E-03
-2.161500E+00,+562.814E-03,-82.702E-03
-2.160000E+00,+1.849246E+00,-172.543E-03
-2.158500E+00,+225.126E-03,+113.640E-03
-2.157000E+00,+1.077387E+00,-19.039E-03
-2.155500E+00,+450.251E-03,+595E-06
-2.154000E+00,-2.090452E+00,-182.657E-03
-2.152500E+00,-3.216080E+00,-223.116E-03
-2.151000E+00,+1.254271E+00,-117.210E-03
-2.149500E+00,-3.183920E+00,+93.411E-03
-2.148000E+00,-1.013065E+00,+56.523E-03
-2.146500E+00,+2.524623E+00,+76.752E-03
-2.145000E+00,-1.206030E+00,+133.869E-03
-2.143500E+00,+1.125628E+00,+34.509E-03
-2.142000E+00,+707.538E-03,-49.978E-03
-2.140500E+00,+2.090452E+00,+34.509E-03
-2.139000E+00,-2.733668E+00,+83.296E-03
-2.137500E+00,+1.688442E+00,+77.347E-03
-2.136000E+00,+321.608E-03,-207.646E-03
-2.134500E+00,-948.744E-03,+87.461E-03
-2.133000E+00,-852.261E-03,+94.601E-03
-2.131500E+00,+2.701508E+00,-83.296E-03
-2.130000E+00,-2.653266E+00,-80.322E-03
-2.128500E+00,-3.007035E+00,-124.945E-03
-2.127000E+00,-594.975E-03,-77.347E-03
-2.125500E+00,+64.322E-03,-16.064E-03
-2.124000E+00,-3.200000E+00,+113.640E-03
-2.122500E+00,-241.206E-03,+5.950E-03
-2.121000E+00,-900.503E-03,+26.179E-03
-2.119500E+00,-948.744E-03,+7.735E-03
-2.118000E+00,-209.045E-03,+33.319E-03
-2.116500E+00,+1.977889E+00,-58.308E-03
-2.115000E+00,+3.135678E+00,+229.065E-03
-2.113500E+00,+562.814E-03,+126.135E-03
-2.112000E+00,+594.975E-03,-49.383E-03
-2.110500E+00,+2.203015E+00,-35.698E-03
-2.109000E+00,+1.157789E+00,+201.102E-03
-2.107500E+00,+4.261306E+00,-175.518E-03
-2.106000E+00,+2.974874E+00,-124.350E-03
-2.104500E+00,+2.765829E+00,+38.673E-03
-2.103000E+00,-884.422E-03,-67.827E-03
-2.101500E+00,+2.347739E+00,-58.308E-03
-2.100000E+00,-723.618E-03,-47.598E-03
-2.098500E+00,-1.479397E+00,-102.336E-03
-2.097000E+00,+1.254271E+00,+23.799E-03
-2.095500E+00,+755.779E-03,-57.118E-03
-2.094000E+00,-2.878392E+00,+12.494E-03
-2.092500E+00,-1.527638E+00,+86.271E-03
-2.091000E+00,-305.528E-03,-99.361E-03
-2.089500E+00,+289.447E-03,-91.626E-03
-2.088000E+00,-2.026131E+00,+64.852E-03
-2.086500E+00,+2.958794E+00,-197.532E-03
-2.085000E+00,-2.331658E+00,+214.191E-03
-2.083500E+00,-3.216080E+00,+86.271E-03
-2.082000E+00,+514.573E-03,-69.612E-03
-2.080500E+00,+321.608E-03,-27.369E-03
-2.079000E+00,-594.975E-03,+89.246E-03
-2.077500E+00,+4.743719E+00,+246.915E-03
-2.076000E+00,-1.238191E+00,-122.565E-03
-2.074500E+00,-1.993970E+00,-11.305E-03
-2.073000E+00,-852.261E-03,+114.830E-03
-2.071500E+00,+868.342E-03,-133.869E-03
-2.070000E+00,-1.849246E+00,-62.472E-03
-2.068500E+00,-900.503E-03,-44.028E-03
-2.067000E+00,+337.688E-03,-48.193E-03
-2.065500E+00,+418.090E-03,+3.570E-03
-2.064000E+00,-2.974874E+00,+138.629E-03
-2.062500E+00,-3.939698E+00,+202.291E-03
-2.061000E+00,+1.897487E+00,-214.191E-03
-2.059500E+00,+1.479397E+00,-53.548E-03
-2.058000E+00,-1.286432E+00,-102.336E-03
-2.056500E+00,+2.492462E+00,-595E-06
-2.055000E+00,+1.366834E+00,+157.668E-03
-2.053500E+00,-530.653E-03,+146.959E-03
-2.052000E+00,+2.621105E+00,-41.053E-03
-2.050500E+00,+450.251E-03,-16.064E-03
-2.049000E+00,-996.985E-03,-142.794E-03
-2.047500E+00,-1.768844E+00,-14.874E-03
-2.046000E+00,+739.698E-03,-69.612E-03
-2.044500E+00,-2.862312E+00,-52.358E-03
-2.043000E+00,-1.029146E+00,-48.193E-03
-2.041500E+00,+2.621106E+00,+3.570E-03
-2.040000E+00,+4.743719E+00,-17.849E-03
-2.038500E+00,-1.688442E+00,+153.504E-03
-2.037000E+00,-707.538E-03,-73.182E-03
-2.035500E+00,+402.010E-03,-27.369E-03
-2.034000E+00,-3.023116E+00,+123.755E-03
-2.032500E+00,-321.608E-03,-47.598E-03
-2.031000E+00,+2.814070E+00,-83.296E-03
-2.029500E+00,-1.189950E+00,+64.852E-03
-2.028000E+00,+771.859E-03,+32.129E-03
-2.026500E+00,+144.724E-03,-142.199E-03
-2.025000E+00,-1.929648E+00,+14.874E-03
-2.023500E+00,+3.505528E+00,+150.529E-03
-2.022000E+00,+820.100E-03,-55.928E-03
-2.020500E+00,+1.045226E+00,-47.003E-03
-2.019000E+00,+160.804E-03,+149.339E-03
-2.017500E+00,+4.904523E+00,-172.543E-03
-2.016000E+00,+3.151759E+00,+17.849E-03
-2.014500E+00,+128.643E-03,+85.081E-03
-2.013000E+00,-964.824E-03,+54.738E-03
-2.011500E+00,-176.884E-03,-70.802E-03
-2.010000E+00,-2.251256E+00,+41.648E-03
-2.008500E+00,+3.875377E+00,+74.372E-03
-2.007000E+00,+1.881407E+00,+24.394E-03
-2.005500E+00,+916.583E-03,-38.673E-03
-2.004000E+00,-3.553769E+00,+190.392E-03
-2.002500E+00,-2.572864E+00,+184.442E-03
-2.001000E+00,-1.640201E+00,-49.978E-03
-1.999500E+00,-1.061307E+00,+62.472E-03
-1.998000E+00,-418.090E-03,+95.791E-03
-1.996500E+00,+466.332E-03,-114.830E-03
-1.995000E+00,+4.824121E+00,+68.422E-03
-1.993500E+00,-546.734E-03,+105.311E-03
-1.992000E+00,+1.366834E+00,-91.031E-03
-1.990500E+00,+868.342E-03,-29.749E-03
-1.989000E+00,+3.007035E+00,+113.640E-03
-1.987500E+00,-3.859296E+00,-74.372E-03
-1.986000E+00,+2.846231E+00,-60.092E-03
-1.984500E+00,-546.734E-03,+34.509E-03
-1.983000E+00,-578.894E-03,+118.995E-03
-1.981500E+00,+3.200000E+00,+109.475E-03
-1.980000E+00,-4.824121E+00,-237.990E-03
-1.978500E+00,-1.768844E+00,+195.747E-03
-1.977000E+00,-2.186935E+00,-32.129E-03
-1.975500E+00,-546.734E-03,-44.028E-03
-1.974000E+00,-787.940E-03,-169.568E-03
-1.972500E+00,-2.492462E+00,+175.518E-03
-1.971000E+00,-2.058291E+00,-161.238E-03
-1.969500E+00,+707.538E-03,+19.039E-03
-1.968000E+00,-2.315578E+00,-13.684E-03
-1.966500E+00,+3.296482E+00,-165.998E-03
-1.965000E+00,-562.814E-03,-89.246E-03
-1.963500E+00,+16.080E-03,+159.453E-03
-1.962000E+00,-0.0E+00,-22.609E-03
-1.960500E+00,+466.332E-03,-35.698E-03
-1.959000E+00,-1.849246E+00,-170.758E-03
-1.957500E+00,+3.457286E+00,+223.116E-03
-1.956000E+00,+1.141709E+00,-16.659E-03
-1.954500E+00,-1.350754E+00,+36.293E-03
-1.953000E+00,+2.637186E+00,+42.838E-03
-1.951500E+00,+1.768844E+00,-141.009E-03
-1.950000E+00,-3.939698E+00,-214.191E-03
-1.948500E+00,-498.492E-03,-131.489E-03
-1.947000E+00,+514.573E-03,-70.802E-03
-1.945500E+00,+1.093467E+00,-23.204E-03
-1.944000E+00,-2.122613E+00,+81.512E-03
-1.942500E+00,-1.447236E+00,-121.970E-03
-1.941000E+00,+3.119598E+00,+22.609E-03
-1.939500E+00,-1.302513E+00,+81.512E-03
-1.938000E+00,-1.270352E+00,-14.874E-03
-1.936500E+00,+2.846231E+00,+52.953E-03
-1.935000E+00,+1.286432E+00,-5.950E-03
-1.933500E+00,-1.688442E+00,+163.618E-03
-1.932000E+00,-980.905E-03,+126.135E-03
-1.930500E+00,+1.801005E+00,-25.584E-03
-1.929000E+00,-1.334673E+00,+92.816E-03
-1.927500E+00,-2.412060E+00,+243.940E-03
-1.926000E+00,+2.974874E+00,-146.364E-03
-1.924500E+00,-1.254271E+00,+48.193E-03
-1.923000E+00,+369.849E-03,+32.724E-03
-1.921500E+00,+4.052261E+00,-202.886E-03
-1.920000E+00,-3.376884E+00,+5.950E-03
-1.918500E+00,-4.213065E+00,+92.816E-03
-1.917000E+00,+932.663E-03,-57.713E-03
-1.915500E+00,-128.643E-03,-84.486E-03
-1.914000E+00,-1.206030E+00,-78.537E-03
-1.912500E+00,-2.010050E+00,-246.915E-03
-1.911000E+00,+1.768844E+00,-184.442E-03
-1.909500E+00,+707.538E-03,+49.383E-03
-1.908000E+00,-128.643E-03,+44.028E-03
-1.906500E+00,+1.833166E+00,-52.953E-03
-1.905000E+00,-3.457286E+00,-53.548E-03
-1.903500E+00,-3.409045E+00,+130.299E-03
-1.902000E+00,+916.583E-03,-130.299E-03
-1.900500E+00,+836.181E-03,-54.738E-03
-1.899000E+00,+932.663E-03,-129.110E-03
-1.897500E+00,+1.608040E+00,-235.015E-03
-1.896000E+00,+3.425126E+00,+112.450E-03
-1.894500E+00,-996.985E-03,+41.053E-03
-1.893000E+00,-2.524623E+00,+99.361E-03
-1.891500E+00,-225.126E-03,+108.880E-03
-1.890000E+00,+3.618090E+00,-8.925E-03
-1.888500E+00,-3.151759E+00,-30.939E-03
-1.887000E+00,+594.975E-03,-31.534E-03
-1.885500E+00,+2.588945E+00,-30.344E-03
-1.884000E+00,-3.682412E+00,+103.526E-03
-1.882500E+00,-4.663317E+00,+101.146E-03
-1.881000E+00,+80.402E-03,-192.772E-03
-1.879500E+00,-755.779E-03,+44.623E-03
-1.878000E+00,-771.859E-03,-2.380E-03
-1.876500E+00,-659.296E-03,-19.039E-03
-1.875000E+00,-3.618090E+00,-77.347E-03
-1.873500E+00,-2.621105E+00,+205.861E-03
-1.872000E+00,+1.238191E+00,-33.319E-03
-1.870500E+00,+289.447E-03,-13.089E-03
-1.869000E+00,+1.093467E+00,+158.263E-03
-1.867500E+00,-1.366834E+00,-2.975E-03
-1.866000E+00,+2.605025E+00,-52.953E-03
-1.864500E+00,-434.171E-03,-64.852E-03
-1.863000E+00,-337.688E-03,+51.763E-03
-1.861500E+00,-4.438191E+00,-112.450E-03
-1.860000E+00,+4.502513E+00,-32.724E-03
-1.858500E+00,-2.926633E+00,+71.992E-03
-1.857000E+00,+1.222111E+00,-128.515E-03
-1.855500E+00,-2.814070E+00,-46.408E-03
-1.854000E+00,+3.778894E+00,+108.880E-03
-1.852500E+00,-2.572864E+00,+145.769E-03
-1.851000E+00,+2.621105E+00,+23.799E-03
-1.849500E+00,-1.254271E+00,+51.168E-03
-1.848000E+00,+1.752764E+00,+102.336E-03
-1.846500E+00,+32.161E-03,-154.693E-03
-1.845000E+00,-1.768844E+00,+178.492E-03
-1.843500E+00,+948.744E-03,+66.637E-03
-1.842000E+00,+1.125628E+00,-12.494E-03
-1.840500E+00,+2.701508E+00,-118.995E-03
-1.839000E+00,-884.422E-03,+179.087E-03
-1.837500E+00,-3.296482E+00,+243.940E-03
-1.836000E+00,+2.379899E+00,-204.671E-03
-1.834500E+00,-1.302513E+00,+44.623E-03
-1.833000E+00,+418.090E-03,-110.665E-03
-1.831500E+00,-1.993970E+00,-85.081E-03
-1.830000E+00,-3.296482E+00,+184.442E-03
-1.828500E+00,+884.422E-03,+52.358E-03
-1.827000E+00,-562.814E-03,-48.788E-03
-1.825500E+00,+1.495477E+00,-19.634E-03
-1.824000E+00,+852.261E-03,+214.191E-03
-1.822500E+00,-2.331658E+00,-98.171E-03
-1.821000E+00,+2.379899E+00,+123.160E-03
-1.819500E+00,-932.663E-03,+30.344E-03
-1.818000E+00,-2.444221E+00,+63.662E-03
-1.816500E+00,-2.878392E+00,-22.609E-03
-1.815000E+00,+2.894472E+00,-220.141E-03
-1.813500E+00,-1.993970E+00,+103.526E-03
-1.812000E+00,+418.090E-03,-66.637E-03
-1.810500E+00,-32.161E-03,-47.598E-03
-1.809000E+00,-2.299497E+00,+10.710E-03
-1.807500E+00,-1.045226E+00,+175.518E-03
-1.806000E+00,+2.990955E+00,-167.783E-03
-1.804500E+00,-385.930E-03,+45.813E-03
-1.803000E+00,+2.765829E+00,+66.637E-03
-1.801500E+00,+3.569849E+00,-179.087E-03
-1.800000E+00,+3.135678E+00,-235.015E-03
-1.798500E+00,-900.503E-03,+60.687E-03
-1.797000E+00,+1.254271E+00,-64.257E-03
-1.795500E+00,+1.543719E+00,-99.361E-03
-1.794000E+00,-1.575879E+00,-24.394E-03
-1.792500E+00,-4.020100E+00,+56.523E-03
-1.791000E+00,-820.100E-03,+69.612E-03
-1.789500E+00,-1.463317E+00,+80.917E-03
-1.788000E+00,-578.894E-03,-35.698E-03
-1.786500E+00,-225.126E-03,-139.819E-03
-1.785000E+00,-1.206030E+00,-124.945E-03
-1.783500E+00,-3.071357E+00,+112.450E-03
-1.782000E+00,+209.045E-03,-38.673E-03
-1.780500E+00,+562.814E-03,-68.422E-03
-1.779000E+00,+2.749749E+00,+133.274E-03
-1.777500E+00,-241.206E-03,-223.116E-03
-1.776000E+00,+820.100E-03,-141.009E-03
-1.774500E+00,-916.583E-03,+57.118E-03
-1.773000E+00,-1.720603E+00,+135.654E-03
-1.771500E+00,+482.412E-03,-88.651E-03
-1.770000E+00,+1.125628E+00,-178.492E-03
-1.768500E+00,-707.538E-03,+169.568E-03
-1.767000E+00,+1.608040E+00,-37.483E-03
-1.765500E+00,-2.042211E+00,+126.730E-03
-1.764000E+00,+1.575879E+00,+141.009E-03
-1.762500E+00,-2.894472E+00,-166.593E-03
-1.761000E+00,+2.412060E+00,-151.124E-03
-1.759500E+00,-498.492E-03,+108.880E-03
-1.758000E+00,-3.087437E+00,+88.056E-03
-1.756500E+00,-852.261E-03,-92.816E-03
-1.755000E+00,+482.412E-03,+118.995E-03
-1.753500E+00,-2.219095E+00,+154.693E-03
-1.752000E+00,+289.447E-03,-74.967E-03
-1.750500E+00,-2.701508E+00,-73.777E-03
-1.749000E+00,-1.431156E+00,-170.758E-03
-1.747500E+00,-3.537688E+00,-160.643E-03
-1.746000E+00,+2.106533E+00,+158.263E-03
-1.744500E+00,-739.698E-03,+110.665E-03
-1.743000E+00,-2.154774E+00,+17.254E-03
-1.741500E+00,-2.781910E+00,+13.684E-03
-1.740000E+00,+2.492462E+00,+240.965E-03
-1.738500E+00,-2.637186E+00,+58.308E-03
-1.737000E+00,+964.824E-03,-82.107E-03
-1.735500E+00,-546.734E-03,-122.565E-03
-1.734000E+00,-1.334673E+00,+170.163E-03
-1.732500E+00,-2.974874E+00,-145.769E-03
-1.731000E+00,+2.058291E+00,-157.073E-03
-1.729500E+00,-820.100E-03,+20.229E-03
-1.728000E+00,+2.588945E+00,+29.154E-03
-1.726500E+00,+1.093467E+00,+95.791E-03
-1.725000E+00,+3.296482E+00,+77.347E-03
-1.723500E+00,-2.106533E+00,+101.741E-03
-1.722000E+00,+466.332E-03,-71.397E-03
-1.720500E+00,-1.784925E+00,-0.0E+00
-1.719000E+00,-16.080E-03,+146.959E-03
-1.717500E+00,+241.206E-03,+175.518E-03
-1.716000E+00,+1.897487E+00,-186.822E-03
-1.714500E+00,-787.940E-03,-116.020E-03
-1.713000E+00,+321.608E-03,+133.869E-03
-1.711500E+00,-1.382915E+00,-173.138E-03
-1.710000E+00,+2.733668E+00,+181.467E-03
-1.708500E+00,-1.752764E+00,+170.163E-03
-1.707000E+00,+369.849E-03,-110.070E-03
-1.705500E+00,+627.136E-03,-139.819E-03
-1.704000E+00,+305.528E-03,+102.931E-03
-1.702500E+00,-1.849246E+00,-246.915E-03
-1.701000E+00,+852.261E-03,+116.615E-03
-1.699500E+00,-771.859E-03,-7.140E-03
-1.698000E+00,-112.563E-03,-65.447E-03
-1.696500E+00,+1.302513E+00,+199.317E-03
-1.695000E+00,+2.090452E+00,-5.950E-03
-1.693500E+00,-1.608040E+00,+149.339E-03
-1.692000E+00,+594.975E-03,-138.629E-03
-1.690500E+00,-578.894E-03,+82.702E-03
-1.689000E+00,-64.322E-03,-24.394E-03
-1.687500E+00,-2.733668E+00,+243.940E-03
-1.686000E+00,+289.447E-03,-211.811E-03
-1.684500E+00,-450.251E-03,-8.330E-03
-1.683000E+00,+755.779E-03,+48.788E-03
-1.681500E+00,-1.093467E+00,+122.565E-03
-1.680000E+00,+2.733668E+00,+118.995E-03
-1.678500E+00,-1.849246E+00,+148.149E-03
-1.677000E+00,+546.734E-03,-69.612E-03
-1.675500E+00,+852.261E-03,-110.070E-03
-1.674000E+00,+2.572864E+00,-49.383E-03
-1.672500E+00,-2.331658E+00,-249.889E-03
-1.671000E+00,+1.189950E+00,+113.640E-03
-1.669500E+00,-192.965E-03,+2.975E-03
-1.668000E+00,+64.322E-03,-47.003E-03
-1.666500E+00,-1.302513E+00,-97.576E-03
-1.665000E+00,+1.447236E+00,+68.422E-03
-1.663500E+00,-1.415075E+00,+77.347E-03
-1.662000E+00,+498.492E-03,+32.724E-03
-1.660500E+00,-160.804E-03,-22.609E-03
-1.659000E+00,+1.447236E+00,-57.118E-03
-1.657500E+00,-402.010E-03,-211.216E-03
-1.656000E+00,+659.296E-03,-145.174E-03
-1.654500E+00,-273.367E-03,+44.623E-03
-1.653000E+00,+1.801005E+00,-87.461E-03
-1.651500E+00,+980.905E-03,+14.279E-03
-1.650000E+00,+1.608040E+00,+32.724E-03
-1.648500E+00,-241.206E-03,-45.813E-03
-1.647000E+00,+1.495477E+00,-33.914E-03
-1.645500E+00,+562.814E-03,-46.408E-03
-1.644000E+00,+209.045E-03,-83.296E-03
-1.642500E+00,-2.331658E+00,+160.643E-03
-1.641000E+00,+1.206030E+00,-127.920E-03
-1.639500E+00,-1.495477E+00,+103.526E-03
-1.638000E+00,-707.538E-03,+27.964E-03
-1.636500E+00,-2.154774E+00,-224.306E-03
-1.635000E+00,+1.768844E+00,+124.945E-03
-1.633500E+00,-1.431156E+00,+41.648E-03
-1.632000E+00,+1.109548E+00,-60.687E-03
-1.630500E+00,-96.482E-03,+71.992E-03
-1.629000E+00,+594.975E-03,+148.149E-03
-1.627500E+00,-1.929648E+00,+113.045E-03
-1.626000E+00,+1.077387E+00,-92.221E-03
-1.624500E+00,-836.181E-03,+112.450E-03
-1.623000E+00,+369.849E-03,+5.355E-03
-1.621500E+00,+659.296E-03,-64.852E-03
-1.620000E+00,+1.125628E+00,+237.990E-03
-1.618500E+00,-980.905E-03,+109.475E-03
-1.617000E+00,+1.398995E+00,-47.598E-03
-1.615500E+00,-514.573E-03,-19.039E-03
-1.614000E+00,+707.538E-03,+146.364E-03
-1.612500E+00,-1.768844E+00,-86.271E-03
-1.611000E+00,+852.261E-03,-181.467E-03
-1.609500E+00,-980.905E-03,+4.760E-03
-1.608000E+00,-691.457E-03,-29.154E-03
-1.606500E+00,-1.286432E+00,-68.422E-03
-1.605000E+00,+402.010E-03,-243.940E-03
-1.603500E+00,-1.366834E+00,+26.179E-03
-1.602000E+00,+209.045E-03,-37.483E-03
-1.600500E+00,+0.0E+00,-24.989E-03
-1.599000E+00,+353.769E-03,+62.472E-03
-1.597500E+00,-1.688442E+00,-83.296E-03
-1.596000E+00,+996.985E-03,-96.386E-03
-1.594500E+00,-530.653E-03,+5.950E-03
-1.593000E+00,+337.688E-03,+95.196E-03
-1.591500E+00,-1.109548E+00,-165.403E-03
-1.590000E+00,+562.814E-03,-160.643E-03
-1.588500E+00,-836.181E-03,-94.006E-03
-1.587000E+00,+1.077387E+00,-31.534E-03
-1.585500E+00,+498.492E-03,-89.246E-03
-1.584000E+00,-611.055E-03,+9.520E-03
-1.582500E+00,-562.814E-03,+47.598E-03
-1.581000E+00,+546.734E-03,-138.629E-03
-1.579500E+00,-209.045E-03,-16.659E-03
-1.578000E+00,-402.010E-03,+8.330E-03
-1.576500E+00,-771.859E-03,+171.948E-03
-1.575000E+00,+964.824E-03,-116.020E-03
-1.573500E+00,-820.100E-03,+155.288E-03
-1.572000E+00,-273.367E-03,-47.598E-03
-1.570500E+00,-1.061307E+00,-45.813E-03
-1.569000E+00,+820.100E-03,-595E-06
-1.567500E+00,-1.206030E+00,-220.141E-03
-1.566000E+00,+402.010E-03,+4.760E-03
-1.564500E+00,-369.849E-03,+41.648E-03
-1.563000E+00,+160.804E-03,+13.089E-03
-1.561500E+00,-691.457E-03,-168.973E-03
-1.560000E+00,+964.824E-03,-50.573E-03
-1.558500E+00,-836.181E-03,+76.157E-03
-1.557000E+00,-578.894E-03,-133.869E-03
-1.555500E+00,-225.126E-03,-11.899E-03
-1.554000E+00,+321.608E-03,+173.733E-03
-1.552500E+00,-884.422E-03,+202.291E-03
-1.551000E+00,+611.055E-03,-165.998E-03
-1.549500E+00,-32.161E-03,+64.852E-03
-1.548000E+00,-353.769E-03,+41.053E-03
-1.546500E+00,-241.206E-03,-19.039E-03
-1.545000E+00,+723.618E-03,-190.392E-03
-1.543500E+00,-514.573E-03,+14.874E-03
-1.542000E+00,-112.563E-03,+34.509E-03
-1.540500E+00,+96.482E-03,-16.064E-03
-1.539000E+00,+418.090E-03,+156.478E-03
-1.537500E+00,-643.216E-03,-252.864E-03
-1.536000E+00,+305.528E-03,+54.738E-03
-1.534500E+00,-402.010E-03,+18.444E-03
-1.533000E+00,+16.080E-03,+12.494E-03
-1.531500E+00,-305.528E-03,-126.135E-03
-1.530000E+00,+562.814E-03,-220.141E-03
-1.528500E+00,-514.573E-03,+138.034E-03
-1.527000E+00,-385.930E-03,-23.204E-03
-1.525500E+00,+144.724E-03,-68.422E-03
-1.524000E+00,+353.769E-03,+165.403E-03
-1.522500E+00,-562.814E-03,+249.889E-03
-1.521000E+00,+305.528E-03,-116.020E-03
-1.519500E+00,-160.804E-03,+60.092E-03
-1.518000E+00,+48.241E-03,-110.665E-03
-1.516500E+00,-257.286E-03,-168.973E-03
-1.515000E+00,-0.0E+00,+32.724E-03
-1.513500E+00,-289.447E-03,+194.557E-03
-1.512000E+00,-48.241E-03,-48.193E-03
-1.510500E+00,+176.884E-03,-36.293E-03
-1.509000E+00,-96.482E-03,-4.760E-03
-1.507500E+00,-160.804E-03,+175.518E-03
-1.506000E+00,+80.402E-03,-161.833E-03
-1.504500E+00,-128.643E-03,+17.254E-03
-1.503000E+00,+16.080E-03,+4.165E-03
-1.501500E+00,-160.804E-03,-136.844E-03
-1.500000E+00,-0.0E+00,+29.749E-03
-1.498500E+00,-64.322E-03,+114.235E-03
-1.497000E+00,+16.080E-03,-91.031E-03
-1.495500E+00,-64.322E-03,+10.710E-03
-1.494000E+00,+64.322E-03,+135.654E-03
-1.492500E+00,-80.402E-03,-65.447E-03
-1.491000E+00,-80.402E-03,-143.984E-03
-1.489500E+00,-32.161E-03,+99.956E-03
-1.488000E+00,-80.402E-03,+14.874E-03
-1.486500E+00,-64.322E-03,-71.397E-03
-1.485000E+00,-80.402E-03,-29.749E-03
-1.483500E+00,+32.161E-03,+157.073E-03
-1.482000E+00,-160.804E-03,-38.673E-03
-1.480500E+00,+16.080E-03,-24.989E-03
-1.479000E+00,-112.563E-03,-96.386E-03
-1.477500E+00,+80.402E-03,-92.221E-03
-1.476000E+00,+64.322E-03,-143.984E-03
-1.474500E+00,-48.241E-03,+94.006E-03
-1.473000E+00,-48.241E-03,+27.964E-03
-1.471500E+00,+64.322E-03,+189.202E-03
-1.470000E+00,-321.608E-03,+98.171E-03
-1.468500E+00,+128.643E-03,-66.637E-03
-1.467000E+00,-369.849E-03,+85.676E-03
-1.465500E+00,-32.161E-03,+1.785E-03
-1.464000E+00,-273.367E-03,-145.174E-03
-1.462500E+00,+402.010E-03,+83.296E-03
-1.461000E+00,-369.849E-03,-142.794E-03
-1.459500E+00,+176.884E-03,+41.648E-03
-1.458000E+00,-32.161E-03,+121.970E-03
-1.456500E+00,+321.608E-03,-177.897E-03
-1.455000E+00,-482.412E-03,-80.322E-03
-1.453500E+00,-48.241E-03,-120.185E-03
-1.452000E+00,+16.080E-03,-50.573E-03
-1.450500E+00,+16.080E-03,-89.246E-03
-1.449000E+00,-498.492E-03,+33.319E-03
-1.447500E+00,+562.814E-03,-169.568E-03
-1.446000E+00,-128.643E-03,-169.568E-03
-1.444500E+00,+16.080E-03,-111.855E-03
-1.443000E+00,-273.367E-03,-47.003E-03
-1.441500E+00,+289.447E-03,+42.243E-03
-1.440000E+00,-723.618E-03,-187.417E-03
-1.438500E+00,+257.286E-03,+137.439E-03
-1.437000E+00,-562.814E-03,-34.509E-03
-1.435500E+00,-450.251E-03,-54.143E-03
-1.434000E+00,+64.322E-03,+105.311E-03
-1.432500E+00,+804.020E-03,-14.874E-03
-1.431000E+00,-723.618E-03,-595E-06
-1.429500E+00,-96.482E-03,-98.171E-03
-1.428000E+00,-546.734E-03,-63.067E-03
-1.426500E+00,+337.688E-03,-47.003E-03
-1.425000E+00,-964.824E-03,-107.095E-03
-1.423500E+00,+611.055E-03,-104.716E-03
-1.422000E+00,+80.402E-03,-48.193E-03
-1.420500E+00,+32.161E-03,-50.573E-03
-1.419000E+00,-707.538E-03,+16.064E-03
-1.417500E+00,+1.045226E+00,+80.322E-03
-1.416000E+00,-707.538E-03,-227.875E-03
-1.414500E+00,+353.769E-03,+2.975E-03
-1.413000E+00,-434.171E-03,+51.168E-03
-1.411500E+00,+691.457E-03,+98.766E-03
-1.410000E+00,-1.286432E+00,+11.899E-03
-1.408500E+00,-257.286E-03,+132.084E-03
-1.407000E+00,+836.181E-03,-25.584E-03
-1.405500E+00,+884.422E-03,+27.964E-03
-1.404000E+00,-594.975E-03,+3.570E-03
-1.402500E+00,+1.286432E+00,+157.668E-03
-1.401000E+00,-257.286E-03,-160.048E-03
-1.399500E+00,+32.161E-03,+45.218E-03
-1.398000E+00,-723.618E-03,+10.710E-03
-1.396500E+00,+900.503E-03,+16.064E-03
-1.395000E+00,-1.045226E+00,-205.266E-03
-1.393500E+00,+852.261E-03,+149.934E-03
-1.392000E+00,+385.930E-03,-83.891E-03
-1.390500E+00,-868.342E-03,-58.903E-03
-1.389000E+00,-1.093467E+00,+94.601E-03
-1.387500E+00,+1.447236E+00,-20.824E-03
-1.386000E+00,-884.422E-03,+113.045E-03
-1.384500E+00,-450.251E-03,+53.548E-03
-1.383000E+00,+611.055E-03,-61.877E-03
-1.381500E+00,+546.734E-03,+20.824E-03
-1.380000E+00,-964.824E-03,-80.322E-03
-1.378500E+00,+1.141709E+00,+86.866E-03
-1.377000E+00,+369.849E-03,+16.659E-03
-1.375500E+00,+128.643E-03,+73.182E-03
-1.374000E+00,-1.222111E+00,+149.339E-03
-1.372500E+00,+1.768844E+00,-196.342E-03
-1.371000E+00,-820.100E-03,-208.836E-03
-1.369500E+00,+900.503E-03,+69.017E-03
-1.368000E+00,-241.206E-03,+44.028E-03
-1.366500E+00,+530.653E-03,-6.545E-03
-1.365000E+00,+241.206E-03,+223.116E-03
-1.363500E+00,+96.482E-03,+101.146E-03
-1.362000E+00,+659.296E-03,-54.738E-03
-1.360500E+00,+787.940E-03,-89.246E-03
-1.359000E+00,+64.322E-03,+140.414E-03
-1.357500E+00,+1.768844E+00,-89.246E-03
-1.356000E+00,-1.640201E+00,-117.210E-03
-1.354500E+00,-932.663E-03,-103.526E-03
-1.353000E+00,-466.332E-03,+82.702E-03
-1.351500E+00,+1.286432E+00,-201.102E-03
-1.350000E+00,-1.929648E+00,-139.819E-03
-1.348500E+00,+1.173869E+00,+65.447E-03
-1.347000E+00,-755.779E-03,-41.053E-03
-1.345500E+00,-16.080E-03,-44.623E-03
-1.344000E+00,-1.045226E+00,-32.129E-03
-1.342500E+00,+1.206030E+00,-220.141E-03
-1.341000E+00,-659.296E-03,-154.098E-03
-1.339500E+00,+144.724E-03,+61.877E-03
-1.338000E+00,+1.013065E+00,+11.899E-03
-1.336500E+00,+1.157789E+00,+161.238E-03
-1.335000E+00,+80.402E-03,-62.472E-03
-1.333500E+00,+1.688442E+00,+149.934E-03
-1.332000E+00,-192.965E-03,-4.165E-03
-1.330500E+00,+64.322E-03,-38.078E-03
-1.329000E+00,-1.382915E+00,+146.959E-03
-1.327500E+00,+2.251256E+00,-217.166E-03
-1.326000E+00,+1.463317E+00,-85.081E-03
-1.324500E+00,-1.398995E+00,-33.319E-03
-1.323000E+00,-627.136E-03,+27.369E-03
-1.321500E+00,+1.672362E+00,-174.328E-03
-1.320000E+00,-2.170854E+00,+83.296E-03
-1.318500E+00,+1.559799E+00,+141.009E-03
-1.317000E+00,-1.125628E+00,-55.928E-03
-1.315500E+00,+2.154774E+00,-50.573E-03
-1.314000E+00,-1.624121E+00,+193.367E-03
-1.312500E+00,+2.170854E+00,+249.889E-03
-1.311000E+00,-1.704523E+00,+176.708E-03
-1.309500E+00,-530.653E-03,-26.774E-03
-1.308000E+00,+1.704523E+00,+52.358E-03
-1.306500E+00,+1.366834E+00,-170.163E-03
-1.305000E+00,-1.286432E+00,-199.317E-03
-1.303500E+00,-1.736683E+00,+125.540E-03
-1.302000E+00,-434.171E-03,-35.104E-03
-1.300500E+00,+225.126E-03,-29.749E-03
-1.299000E+00,-1.382915E+00,+151.124E-03
-1.297500E+00,-1.045226E+00,+113.045E-03
-1.296000E+00,-530.653E-03,-85.676E-03
-1.294500E+00,+1.543719E+00,+117.805E-03
-1.293000E+00,-498.492E-03,-42.243E-03
-1.291500E+00,+1.382915E+00,+107.690E-03
-1.290000E+00,-2.974874E+00,-184.442E-03
-1.288500E+00,-192.965E-03,+24.989E-03
-1.287000E+00,-1.141709E+00,+5.355E-03
-1.285500E+00,+1.013065E+00,-36.888E-03
-1.284000E+00,-1.961809E+00,+137.439E-03
-1.282500E+00,+2.412060E+00,+202.291E-03
-1.281000E+00,+659.296E-03,+147.554E-03
-1.279500E+00,-675.377E-03,+23.204E-03
-1.278000E+00,+1.206030E+00,+31.534E-03
-1.276500E+00,+1.817085E+00,-10.710E-03
-1.275000E+00,-3.055276E+00,-246.915E-03
-1.273500E+00,+1.029146E+00,+86.866E-03
-1.272000E+00,+594.975E-03,-86.271E-03
-1.270500E+00,+257.286E-03,+2.975E-03
-1.269000E+00,-1.656281E+00,+595E-06
-1.267500E+00,+884.422E-03,+80.322E-03
-1.266000E+00,-1.913568E+00,-151.719E-03
-1.264500E+00,-192.965E-03,+29.749E-03
-1.263000E+00,-1.495477E+00,+108.285E-03
-1.261500E+00,+289.447E-03,-133.869E-03
-1.260000E+00,-2.331658E+00,+74.372E-03
-1.258500E+00,+112.563E-03,+82.107E-03
-1.257000E+00,+739.698E-03,-74.967E-03
-1.255500E+00,+691.457E-03,-55.333E-03
-1.254000E+00,-2.106533E+00,+137.439E-03
-1.252500E+00,-1.447236E+00,+116.020E-03
-1.251000E+00,-1.270352E+00,-158.263E-03
-1.249500E+00,-2.524623E+00,+50.573E-03
-1.248000E+00,-482.412E-03,-122.565E-03
-1.246500E+00,+1.897487E+00,-45.813E-03
-1.245000E+00,+1.929648E+00,-116.020E-03
-1.243500E+00,+3.119598E+00,+27.369E-03
-1.242000E+00,+241.206E-03,-41.053E-03
-1.240500E+00,+675.377E-03,-11.305E-03
-1.239000E+00,-2.219095E+00,+145.174E-03
-1.237500E+00,+1.608040E+00,-62.472E-03
-1.236000E+00,+2.267337E+00,-11.305E-03
-1.234500E+00,+980.905E-03,+42.838E-03
-1.233000E+00,+160.804E-03,+67.232E-03
-1.231500E+00,+2.395980E+00,+102.931E-03
-1.230000E+00,-3.618090E+00,+110.070E-03
-1.228500E+00,-1.640201E+00,-23.204E-03
-1.227000E+00,-723.618E-03,-101.741E-03
-1.225500E+00,+1.833166E+00,-28.559E-03
-1.224000E+00,-2.347739E+00,-155.883E-03
-1.222500E+00,+3.537688E+00,-220.141E-03
-1.221000E+00,-980.905E-03,-64.852E-03
-1.219500E+00,-820.100E-03,+66.637E-03
-1.218000E+00,+1.559799E+00,+5.950E-03
-1.216500E+00,+321.608E-03,-102.336E-03
-1.215000E+00,-804.020E-03,+240.965E-03
-1.213500E+00,+755.779E-03,+145.769E-03
-1.212000E+00,+273.367E-03,-70.207E-03
-1.210500E+00,+948.744E-03,+62.472E-03
-1.209000E+00,-2.492462E+00,-3.570E-03
-1.207500E+00,+3.537688E+00,-136.844E-03
-1.206000E+00,+1.672362E+00,-111.855E-03
-1.204500E+00,+884.422E-03,+68.422E-03
-1.203000E+00,-385.930E-03,+101.146E-03
-1.201500E+00,+771.859E-03,+55.928E-03
-1.200000E+00,-3.939698E+00,-202.291E-03
-1.198500E+00,+144.724E-03,-91.626E-03
-1.197000E+00,-2.621105E+00,+14.874E-03
-1.195500E+00,+1.077387E+00,-5.355E-03
-1.194000E+00,-2.428141E+00,+60.092E-03
-1.192500E+00,+2.894472E+00,-29.749E-03
-1.191000E+00,-466.332E-03,+83.296E-03
-1.189500E+00,-1.897487E+00,+55.928E-03
-1.188000E+00,-385.930E-03,+77.942E-03
-1.186500E+00,+2.540703E+00,-110.665E-03
-1.185000E+00,+2.814070E+00,+193.367E-03
-1.183500E+00,-337.688E-03,+50.573E-03
-1.182000E+00,+739.698E-03,-117.210E-03
-1.180500E+00,+707.538E-03,+59.497E-03
-1.179000E+00,-2.363819E+00,+129.705E-03
-1.177500E+00,-2.572864E+00,+118.995E-03
-1.176000E+00,-2.395980E+00,+89.246E-03
-1.174500E+00,+3.023116E+00,+81.512E-03
-1.173000E+00,-627.136E-03,+59.497E-03
-1.171500E+00,-466.332E-03,-88.056E-03
-1.170000E+00,-1.688442E+00,+74.372E-03
-1.168500E+00,-434.171E-03,-107.690E-03
-1.167000E+00,-2.444221E+00,+111.855E-03
-1.165500E+00,-209.045E-03,+48.193E-03
-1.164000E+00,-2.990955E+00,+141.604E-03
-1.162500E+00,+2.010050E+00,+199.317E-03
-1.161000E+00,-4.148744E+00,+118.400E-03
-1.159500E+00,+1.173869E+00,-37.483E-03
-1.158000E+00,-594.975E-03,-11.899E-03
-1.156500E+00,+2.315578E+00,+101.146E-03
-1.155000E+00,+3.135678E+00,+127.920E-03
-1.153500E+00,+3.441206E+00,+175.518E-03
-1.152000E+00,+1.238191E+00,-15.469E-03
-1.150500E+00,+868.342E-03,-104.716E-03
-1.149000E+00,-2.283417E+00,-38.673E-03
-1.147500E+00,+1.286432E+00,-226.090E-03
-1.146000E+00,+2.347739E+00,-123.755E-03
-1.144500E+00,+337.688E-03,-7.735E-03
-1.143000E+00,-771.859E-03,+70.802E-03
-1.141500E+00,+1.640201E+00,-98.171E-03
-1.140000E+00,-1.447236E+00,-220.141E-03
-1.138500E+00,-707.538E-03,+151.124E-03
-1.137000E+00,-3.232161E+00,-54.143E-03
-1.135500E+00,+1.061307E+00,-48.193E-03
-1.134000E+00,-2.653266E+00,-183.252E-03
-1.132500E+00,-3.859296E+00,+148.744E-03
-1.131000E+00,-852.261E-03,+165.998E-03
-1.129500E+00,+1.575879E+00,+78.537E-03
-1.128000E+00,-1.382915E+00,+46.408E-03
-1.126500E+00,+1.993970E+00,-111.855E-03
-1.125000E+00,-4.341708E+00,+0.0E+00
-1.123500E+00,-723.618E-03,+85.081E-03
-1.122000E+00,-3.312563E+00,+25.584E-03
-1.120500E+00,+1.768844E+00,-24.394E-03
-1.119000E+00,-2.797990E+00,+19.634E-03
-1.117500E+00,+2.492462E+00,+226.090E-03
-1.116000E+00,-2.090452E+00,-102.336E-03
-1.114500E+00,-980.905E-03,-13.089E-03
-1.113000E+00,-916.583E-03,+44.623E-03
-1.111500E+00,+2.942714E+00,-142.794E-03
-1.110000E+00,-3.939698E+00,-65.447E-03
-1.108500E+00,+2.717588E+00,-53.548E-03
-1.107000E+00,-2.926633E+00,+47.598E-03
-1.105500E+00,+611.055E-03,-51.168E-03
-1.104000E+00,-2.910553E+00,+153.504E-03
-1.102500E+00,-3.939698E+00,+86.271E-03
-1.101000E+00,+3.618090E+00,-119.590E-03
-1.099500E+00,-1.656281E+00,+70.207E-03
-1.098000E+00,-434.171E-03,-104.121E-03
-1.096500E+00,+2.524623E+00,+62.472E-03
-1.095000E+00,-804.020E-03,+217.166E-03
-1.093500E+00,-1.463317E+00,-182.657E-03
-1.092000E+00,+176.884E-03,-8.925E-03
-1.090500E+00,-1.141709E+00,-96.386E-03
-1.089000E+00,-2.653266E+00,+158.263E-03
-1.087500E+00,+2.894472E+00,-196.342E-03
-1.086000E+00,+1.881407E+00,+35.104E-03
-1.084500E+00,+112.563E-03,+60.687E-03
-1.083000E+00,-723.618E-03,+106.501E-03
-1.081500E+00,+1.125628E+00,-46.408E-03
-1.080000E+00,-4.180904E+00,-160.643E-03
-1.078500E+00,+1.849246E+00,+148.149E-03
-1.077000E+00,+482.412E-03,-49.383E-03
-1.075500E+00,-1.527638E+00,-94.601E-03
-1.074000E+00,-2.814070E+00,+46.408E-03
-1.072500E+00,-4.502513E+00,-26.774E-03
-1.071000E+00,+1.447236E+00,-137.439E-03
-1.069500E+00,-1.608040E+00,+44.028E-03
-1.068000E+00,-2.556784E+00,+2.380E-03
-1.066500E+00,+241.206E-03,-52.358E-03
-1.065000E+00,+1.608040E+00,-83.296E-03
-1.063500E+00,-3.489447E+00,-113.045E-03
-1.062000E+00,+948.744E-03,-23.204E-03
-1.060500E+00,+1.093467E+00,-22.609E-03
-1.059000E+00,+900.503E-03,+123.160E-03
-1.057500E+00,+4.422111E+00,-38.673E-03
-1.056000E+00,+2.974874E+00,-85.676E-03
-1.054500E+00,-2.090452E+00,+107.095E-03
-1.053000E+00,+804.020E-03,+90.436E-03
-1.051500E+00,-964.824E-03,+44.623E-03
-1.050000E+00,-3.698492E+00,-95.196E-03
-1.048500E+00,+787.940E-03,+143.389E-03
-1.047000E+00,+257.286E-03,-62.472E-03
-1.045500E+00,+1.334673E+00,-114.830E-03
-1.044000E+00,-2.026131E+00,+111.260E-03
-1.042500E+00,+1.447236E+00,+74.372E-03
-1.041000E+00,-1.447236E+00,-230.850E-03
-1.039500E+00,-1.977889E+00,-20.229E-03
-1.038000E+00,-337.688E-03,+113.045E-03
-1.036500E+00,+1.656281E+00,-144.579E-03
-1.035000E+00,-3.457286E+00,-98.171E-03
-1.033500E+00,-3.473367E+00,+107.095E-03
-1.032000E+00,-32.161E-03,-123.755E-03
-1.030500E+00,+1.045226E+00,-13.089E-03
-1.029000E+00,-3.296482E+00,+165.403E-03
-1.027500E+00,-1.768844E+00,-249.889E-03
-1.026000E+00,+1.431156E+00,-76.157E-03
-1.024500E+00,+128.643E-03,+42.838E-03
-1.023000E+00,-1.125628E+00,-23.204E-03
-1.021500E+00,+2.685427E+00,-94.006E-03
-1.020000E+00,-4.984925E+00,-80.322E-03
-1.018500E+00,+1.720603E+00,+191.582E-03
-1.017000E+00,+1.479397E+00,-36.293E-03
-1.015500E+00,+192.965E-03,+66.637E-03
-1.014000E+00,-1.624121E+00,+176.708E-03
-1.012500E+00,+1.849246E+00,-56.523E-03
-1.011000E+00,+2.653266E+00,-152.909E-03
-1.009500E+00,-611.055E-03,+39.863E-03
-1.008000E+00,-1.688442E+00,+39.268E-03
-1.006500E+00,-353.769E-03,-99.956E-03
-1.005000E+00,+4.261306E+00,+229.065E-03
-1.003500E+00,+1.398995E+00,+67.827E-03
-1.002000E+00,+1.929648E+00,-140.414E-03
-1.000500E+00,+1.061307E+00,-27.369E-03
-999.000E-03,-418.090E-03,+95.196E-03
-997.500E-03,-4.261306E+00,+240.965E-03
-996.000E-03,+2.733668E+00,+120.780E-03
-994.500E-03,+2.444221E+00,-9.520E-03
-993.000E-03,-2.235176E+00,-28.559E-03
-991.500E-03,-1.993970E+00,-63.067E-03
-990.000E-03,+3.939698E+00,+77.347E-03
-988.500E-03,-2.412060E+00,-52.358E-03
-987.000E-03,+852.261E-03,+10.115E-03
-985.500E-03,+1.431156E+00,-4.165E-03
-984.000E-03,-1.511558E+00,+110.665E-03
-982.500E-03,-3.135678E+00,+240.965E-03
-981.000E-03,-1.640201E+00,-143.984E-03
-979.500E-03,+1.029146E+00,-29.749E-03
-978.000E-03,-1.189950E+00,+69.612E-03
-976.500E-03,-1.189950E+00,+193.962E-03
-975.000E-03,-0.0E+00,+89.246E-03
-973.500E-03,+2.733668E+00,-44.623E-03
-972.000E-03,+1.286432E+00,-75.562E-03
-970.500E-03,+996.985E-03,+55.928E-03
-969.000E-03,-2.830151E+00,+95.196E-03
-967.500E-03,+884.422E-03,-62.472E-03
-966.000E-03,+2.074372E+00,+10.115E-03
-964.500E-03,-996.985E-03,+49.383E-03
-963.000E-03,+996.985E-03,-19.039E-03
-961.500E-03,+2.476382E+00,-187.417E-03
-960.000E-03,+1.286432E+00,-17.849E-03
-958.500E-03,-369.849E-03,-119.590E-03
-957.000E-03,+627.136E-03,-76.752E-03
-955.500E-03,+562.814E-03,-83.296E-03
-954.000E-03,+3.730653E+00,-55.333E-03
-952.500E-03,-1.366834E+00,+214.191E-03
-951.000E-03,-2.910553E+00,-198.722E-03
-949.500E-03,-2.363819E+00,+36.888E-03
-948.000E-03,+1.784925E+00,+14.279E-03
-946.500E-03,+2.170854E+00,-142.794E-03
-945.000E-03,+1.768844E+00,+133.869E-03
-943.500E-03,+2.942714E+00,+58.308E-03
-942.000E-03,+48.241E-03,-18.444E-03
-940.500E-03,+1.608040E+00,-39.268E-03
-939.000E-03,-884.422E-03,+23.799E-03
-937.500E-03,+4.502513E+00,+220.141E-03
-936.000E-03,+2.605025E+00,-132.084E-03
-934.500E-03,-1.061307E+00,+32.724E-03
-933.000E-03,-948.744E-03,-2.975E-03
-931.500E-03,+3.023116E+00,-142.199E-03
-930.000E-03,+2.974874E+00,+154.693E-03
-928.500E-03,-3.167839E+00,-30.344E-03
-927.000E-03,+1.993970E+00,-39.268E-03
-925.500E-03,+2.926633E+00,-90.436E-03
-924.000E-03,+2.042211E+00,+118.995E-03
-922.500E-03,-1.286432E+00,-226.090E-03
-921.000E-03,-1.013065E+00,-197.532E-03
-919.500E-03,-1.238191E+00,+33.914E-03
-918.000E-03,-1.045226E+00,+71.397E-03
-916.500E-03,+3.071357E+00,-176.708E-03
-915.000E-03,+3.939698E+00,+184.442E-03
-913.500E-03,+2.428141E+00,+104.716E-03
-912.000E-03,-32.161E-03,-61.877E-03
-910.500E-03,+707.538E-03,-64.257E-03
-909.000E-03,-1.286432E+00,+35.698E-03
-907.500E-03,-1.206030E+00,+237.990E-03
-906.000E-03,+1.141709E+00,-67.232E-03
-904.500E-03,+1.254271E+00,-86.866E-03
-903.000E-03,+723.618E-03,-125.540E-03
-901.500E-03,+369.849E-03,+145.769E-03
-900.000E-03,+1.527638E+00,-83.296E-03
-898.500E-03,-3.087437E+00,-101.146E-03
-897.000E-03,+289.447E-03,-57.118E-03
-895.500E-03,-2.170854E+00,-48.788E-03
-894.000E-03,+1.720603E+00,-43.433E-03
-892.500E-03,-4.341708E+00,+17.849E-03
-891.000E-03,+739.698E-03,+102.931E-03
-889.500E-03,-144.724E-03,+45.813E-03
-888.000E-03,-1.624121E+00,+32.724E-03
-886.500E-03,-932.663E-03,-163.618E-03
-885.000E-03,+4.502513E+00,-104.121E-03
-883.500E-03,-2.942714E+00,+152.909E-03
-882.000E-03,+932.663E-03,-34.509E-03
-880.500E-03,+1.495477E+00,-33.319E-03
-879.000E-03,+3.827136E+00,+162.428E-03
-877.500E-03,+241.206E-03,-59.497E-03
-876.000E-03,+2.974874E+00,-73.777E-03
-874.500E-03,-2.299497E+00,-14.874E-03
-873.000E-03,-964.824E-03,-17.849E-03
-871.500E-03,+3.232161E+00,-128.515E-03
-870.000E-03,+643.216E-03,+130.894E-03
-868.500E-03,-2.974874E+00,+41.648E-03
-867.000E-03,+964.824E-03,+44.623E-03
-865.500E-03,+337.688E-03,-95.196E-03
-864.000E-03,-1.977889E+00,+27.369E-03
-862.500E-03,-1.929648E+00,+92.221E-03
-861.000E-03,+2.090452E+00,+139.819E-03
-859.500E-03,-2.379899E+00,+29.154E-03
-858.000E-03,+611.055E-03,+23.799E-03
-856.500E-03,+2.926633E+00,-62.472E-03
-855.000E-03,-0.0E+00,+50.573E-03
-853.500E-03,-1.173869E+00,-182.657E-03
-852.000E-03,-932.663E-03,+61.282E-03
-850.500E-03,+675.377E-03,-68.422E-03
-849.000E-03,+1.013065E+00,+131.489E-03
-847.500E-03,-2.814070E+00,-142.794E-03
-846.000E-03,-1.656281E+00,-198.722E-03
-844.500E-03,+369.849E-03,-38.673E-03
-843.000E-03,-0.0E+00,+113.640E-03
-841.500E-03,+2.814070E+00,-154.098E-03
-840.000E-03,+1.125628E+00,-154.693E-03
-838.500E-03,-2.605025E+00,-41.053E-03
-837.000E-03,-1.238191E+00,-19.039E-03
-835.500E-03,+1.945729E+00,-27.369E-03
-834.000E-03,-546.734E-03,+77.942E-03
-832.500E-03,-3.698492E+00,-80.322E-03
-831.000E-03,+80.402E-03,-151.124E-03
-829.500E-03,-836.181E-03,+60.687E-03
-828.000E-03,+1.382915E+00,+45.218E-03
-826.500E-03,+176.884E-03,+113.640E-03
-825.000E-03,+2.412060E+00,+199.317E-03
-823.500E-03,-2.460301E+00,+61.877E-03
-822.000E-03,+385.930E-03,+139.819E-03
-820.500E-03,+932.663E-03,-32.129E-03
-819.000E-03,-3.441206E+00,-77.347E-03
-817.500E-03,-4.261306E+00,+240.965E-03
-816.000E-03,+160.804E-03,-148.744E-03
-814.500E-03,+739.698E-03,+6.545E-03
-813.000E-03,+498.492E-03,-127.920E-03
-811.500E-03,+176.884E-03,-111.855E-03
-810.000E-03,+2.331658E+00,+190.392E-03
-808.500E-03,-2.428141E+00,-117.805E-03
-807.000E-03,+1.398995E+00,-130.894E-03
-805.500E-03,+675.377E-03,-97.576E-03
-804.000E-03,+3.843216E+00,-11.899E-03
-802.500E-03,-3.778894E+00,+136.844E-03
-801.000E-03,+1.752764E+00,-10.710E-03
-799.500E-03,+643.216E-03,+49.978E-03
-798.000E-03,-2.058291E+00,-28.559E-03
-796.500E-03,+627.136E-03,-18.444E-03
-795.000E-03,+4.020100E+00,+214.191E-03
-793.500E-03,-2.476382E+00,+138.629E-03
-792.000E-03,+836.181E-03,-113.045E-03
-790.500E-03,+1.881407E+00,-51.168E-03
-789.000E-03,-836.181E-03,+62.472E-03
-787.500E-03,+2.572864E+00,-229.065E-03
-786.000E-03,-578.894E-03,+180.277E-03
-784.500E-03,-932.663E-03,+2.380E-03
-783.000E-03,-1.238191E+00,+54.738E-03
-781.500E-03,-2.830151E+00,-198.127E-03
-780.000E-03,+3.135678E+00,-243.940E-03
-778.500E-03,-2.910553E+00,+11.899E-03
-777.000E-03,+659.296E-03,-106.501E-03
-775.500E-03,-1.961809E+00,-28.559E-03
-774.000E-03,-2.460301E+00,+73.182E-03
-772.500E-03,-3.618090E+00,-163.618E-03
-771.000E-03,-578.894E-03,-117.210E-03
-769.500E-03,-852.261E-03,+55.928E-03
-768.000E-03,+192.965E-03,-42.243E-03
-766.500E-03,-3.296482E+00,+152.314E-03
-765.000E-03,-402.010E-03,+107.095E-03
-763.500E-03,-2.492462E+00,+158.858E-03
-762.000E-03,+755.779E-03,-595E-06
-760.500E-03,-643.216E-03,+106.501E-03
-759.000E-03,-2.042211E+00,+45.813E-03
-757.500E-03,-1.125628E+00,-104.121E-03
-756.000E-03,+627.136E-03,-229.065E-03
-754.500E-03,-964.824E-03,+63.067E-03
-753.000E-03,-1.479397E+00,+1.785E-03
-751.500E-03,-723.618E-03,-152.314E-03
-750.000E-03,+1.929648E+00,-110.070E-03
-748.500E-03,+836.181E-03,+36.888E-03
-747.000E-03,+1.286432E+00,-58.308E-03
-745.500E-03,+2.524623E+00,-49.383E-03
-744.000E-03,+385.930E-03,+157.668E-03
-742.500E-03,-1.206030E+00,+232.040E-03
-741.000E-03,+1.656281E+00,-164.808E-03
-739.500E-03,-1.704523E+00,+21.419E-03
-738.000E-03,+1.479397E+00,+120.780E-03
-736.500E-03,+1.479397E+00,-106.501E-03
-735.000E-03,+2.974874E+00,-154.693E-03
-733.500E-03,-2.203015E+00,+10.710E-03
-732.000E-03,+482.412E-03,+49.978E-03
-730.500E-03,-2.219095E+00,-27.964E-03
-729.000E-03,-1.206030E+00,+118.995E-03
-727.500E-03,+1.125628E+00,-211.216E-03
-726.000E-03,-160.804E-03,+1.785E-03
-724.500E-03,-675.377E-03,-12.494E-03
-723.000E-03,-16.080E-03,+102.931E-03
-721.500E-03,-1.527638E+00,-94.006E-03
-720.000E-03,-723.618E-03,-226.090E-03
-718.500E-03,-707.538E-03,+22.609E-03
-717.000E-03,+659.296E-03,-46.408E-03
-715.500E-03,+1.431156E+00,-33.914E-03
-714.000E-03,+1.624121E+00,-184.442E-03
-712.500E-03,+321.608E-03,-47.598E-03
-711.000E-03,+739.698E-03,-152.909E-03
-709.500E-03,-1.013065E+00,+91.626E-03
-708.000E-03,+2.203015E+00,+49.383E-03
-706.500E-03,+2.588945E+00,-76.752E-03
-705.000E-03,+2.412060E+00,+175.518E-03
-703.500E-03,-1.350754E+00,-202.291E-03
-702.000E-03,+1.366834E+00,-51.168E-03
-700.500E-03,+723.618E-03,-1.785E-03
-699.000E-03,+273.367E-03,+59.497E-03
-697.500E-03,-2.412060E+00,-211.216E-03
-696.000E-03,+1.704523E+00,+20.824E-03
-694.500E-03,-385.930E-03,+85.676E-03
-693.000E-03,-723.618E-03,+56.523E-03
-691.500E-03,-1.495477E+00,-161.238E-03
-690.000E-03,+2.090452E+00,-8.925E-03
-688.500E-03,-707.538E-03,+84.486E-03
-687.000E-03,+1.511558E+00,-94.006E-03
-685.500E-03,+385.930E-03,-57.118E-03
-684.000E-03,+691.457E-03,+2.380E-03
-682.500E-03,-241.206E-03,-86.271E-03
-681.000E-03,+1.672362E+00,-149.934E-03
-679.500E-03,-225.126E-03,+7.140E-03
-678.000E-03,-2.122613E+00,-112.450E-03
-676.500E-03,-112.563E-03,-80.322E-03
-675.000E-03,+1.366834E+00,+237.990E-03
-673.500E-03,-1.672362E+00,+113.045E-03
-672.000E-03,+546.734E-03,-8.330E-03
-670.500E-03,-932.663E-03,-104.121E-03
-669.000E-03,-804.020E-03,+179.087E-03
-667.500E-03,+1.125628E+00,+83.296E-03
-666.000E-03,+1.109548E+00,-131.489E-03
-664.500E-03,-1.447236E+00,+82.702E-03
-663.000E-03,-241.206E-03,+121.970E-03
-661.500E-03,-836.181E-03,+123.755E-03
-660.000E-03,+2.412060E+00,-240.965E-03
-658.500E-03,-1.736683E+00,-24.394E-03
-657.000E-03,+594.975E-03,-89.841E-03
-655.500E-03,-1.575879E+00,-59.497E-03
-654.000E-03,+498.492E-03,+189.202E-03
-652.500E-03,-2.251256E+00,-172.543E-03
-651.000E-03,+192.965E-03,-173.733E-03
-649.500E-03,-1.479397E+00,+13.684E-03
-648.000E-03,-980.905E-03,+92.221E-03
-646.500E-03,+450.251E-03,-85.676E-03
-645.000E-03,+2.331658E+00,-98.171E-03
-643.500E-03,-1.624121E+00,-10.710E-03
-642.000E-03,+144.724E-03,-57.713E-03
-640.500E-03,-1.382915E+00,-97.576E-03
-639.000E-03,+1.286432E+00,-90.436E-03
-637.500E-03,-1.608040E+00,-196.342E-03
-636.000E-03,+1.656281E+00,-103.526E-03
-634.500E-03,-980.905E-03,+82.702E-03
-633.000E-03,-643.216E-03,+34.509E-03
-631.500E-03,-1.045226E+00,-108.285E-03
-630.000E-03,+1.849246E+00,-237.990E-03
-628.500E-03,-755.779E-03,+132.084E-03
-627.000E-03,-402.010E-03,-35.698E-03
-625.500E-03,-980.905E-03,-47.003E-03
-624.000E-03,+273.367E-03,-78.537E-03
-622.500E-03,-2.090452E+00,-23.799E-03
-621.000E-03,+1.350754E+00,-140.414E-03
-619.500E-03,+723.618E-03,+14.279E-03
-618.000E-03,-144.724E-03,+52.358E-03
-616.500E-03,-980.905E-03,-1.190E-03
-615.000E-03,+1.688442E+00,+130.894E-03
-613.500E-03,-1.173869E+00,+8.925E-03
-612.000E-03,+144.724E-03,-51.168E-03
-610.500E-03,+916.583E-03,-54.738E-03
-609.000E-03,+176.884E-03,+63.662E-03
-607.500E-03,-1.206030E+00,-199.317E-03
-606.000E-03,+996.985E-03,-183.252E-03
-604.500E-03,-643.216E-03,-22.609E-03
-603.000E-03,+868.342E-03,-20.229E-03
-601.500E-03,+659.296E-03,-183.252E-03
-600.000E-03,+1.527638E+00,-249.889E-03
-598.500E-03,-1.109548E+00,+49.383E-03
-597.000E-03,+1.077387E+00,-30.344E-03
-595.500E-03,-402.010E-03,-71.992E-03
-594.000E-03,+160.804E-03,+135.654E-03
-592.500E-03,-1.608040E+00,+14.874E-03
-591.000E-03,+868.342E-03,-160.643E-03
-589.500E-03,-932.663E-03,+52.953E-03
-588.000E-03,-48.241E-03,-48.193E-03
-586.500E-03,-1.077387E+00,-126.135E-03
-585.000E-03,-402.010E-03,+246.915E-03
-583.500E-03,-932.663E-03,+159.453E-03
-582.000E-03,+273.367E-03,-57.713E-03
-580.500E-03,+305.528E-03,-59.497E-03
-579.000E-03,+144.724E-03,+107.095E-03
-577.500E-03,-964.824E-03,-86.271E-03
-576.000E-03,+160.804E-03,-71.992E-03
-574.500E-03,+434.171E-03,+1.785E-03
-573.000E-03,+659.296E-03,+49.978E-03
-571.500E-03,-852.261E-03,-57.118E-03
-570.000E-03,+723.618E-03,+246.915E-03
-568.500E-03,-804.020E-03,+149.934E-03
-567.000E-03,+385.930E-03,-51.763E-03
-565.500E-03,-578.894E-03,-105.906E-03
-564.000E-03,-385.930E-03,+114.235E-03
-562.500E-03,+160.804E-03,-246.915E-03
-561.000E-03,+852.261E-03,+37.483E-03
-559.500E-03,+369.849E-03,-5.950E-03
-558.000E-03,-32.161E-03,-52.953E-03
-556.500E-03,-160.804E-03,+113.045E-03
-555.000E-03,+241.206E-03,+83.296E-03
-553.500E-03,+32.161E-03,+150.529E-03
-552.000E-03,+144.724E-03,-52.358E-03
-550.500E-03,+691.457E-03,-115.425E-03
-549.000E-03,+594.975E-03,-179.087E-03
-547.500E-03,-562.814E-03,-17.849E-03
-546.000E-03,+176.884E-03,+93.411E-03
-544.500E-03,-128.643E-03,+43.433E-03
-543.000E-03,-241.206E-03,+50.573E-03
-541.500E-03,-659.296E-03,-114.830E-03
-540.000E-03,+723.618E-03,+154.693E-03
-538.500E-03,-627.136E-03,-60.092E-03
-537.000E-03,-337.688E-03,-29.749E-03
-535.500E-03,+209.045E-03,+79.132E-03
-534.000E-03,+482.412E-03,-188.607E-03
-532.500E-03,-643.216E-03,-92.221E-03
-531.000E-03,+241.206E-03,+2.975E-03
-529.500E-03,-241.206E-03,+36.888E-03
-528.000E-03,+305.528E-03,+118.400E-03
-526.500E-03,-450.251E-03,-161.238E-03
-525.000E-03,+321.608E-03,+68.422E-03
-523.500E-03,-418.090E-03,+130.894E-03
-522.000E-03,+160.804E-03,-23.799E-03
-520.500E-03,-64.322E-03,-19.039E-03
-519.000E-03,+32.161E-03,-154.693E-03
-517.500E-03,-482.412E-03,+50.573E-03
-516.000E-03,+128.643E-03,+48.193E-03
-514.500E-03,+32.161E-03,+26.774E-03
-513.000E-03,-112.563E-03,+48.193E-03
-511.500E-03,-273.367E-03,+147.554E-03
-510.000E-03,+241.206E-03,-107.095E-03
-508.500E-03,-32.161E-03,+167.783E-03
-507.000E-03,-96.482E-03,-43.433E-03
-505.500E-03,-32.161E-03,-69.017E-03
-504.000E-03,+96.482E-03,+134.464E-03
-502.500E-03,-160.804E-03,+65.447E-03
-501.000E-03,-32.161E-03,-87.461E-03
-499.500E-03,-80.402E-03,-113.640E-03
-498.000E-03,+0.0E+00,+93.411E-03
-496.500E-03,-80.402E-03,+63.662E-03
-495.000E-03,-0.0E+00,+68.422E-03
-493.500E-03,-64.322E-03,+150.529E-03
-492.000E-03,-80.402E-03,-44.623E-03
-490.500E-03,-80.402E-03,-22.609E-03
-489.000E-03,-64.322E-03,+199.317E-03
-487.500E-03,-80.402E-03,+113.045E-03
-486.000E-03,-144.724E-03,-148.149E-03
-484.500E-03,-64.322E-03,+7.140E-03
-483.000E-03,-32.161E-03,+30.344E-03
-481.500E-03,+48.241E-03,-166.593E-03
-480.000E-03,-80.402E-03,+41.648E-03
-478.500E-03,+80.402E-03,+2.975E-03
-477.000E-03,-144.724E-03,-52.358E-03
-475.500E-03,+16.080E-03,-57.118E-03
-474.000E-03,-289.447E-03,+186.227E-03
-472.500E-03,+160.804E-03,+178.492E-03
-471.000E-03,-289.447E-03,+17.849E-03
-469.500E-03,+32.161E-03,+39.863E-03
-468.000E-03,+48.241E-03,-76.752E-03
-466.500E-03,+144.724E-03,-61.877E-03
-465.000E-03,-402.010E-03,-77.347E-03
-463.500E-03,+112.563E-03,+61.282E-03
-462.000E-03,+80.402E-03,-69.017E-03
-460.500E-03,-305.528E-03,-53.548E-03
-459.000E-03,-402.010E-03,+155.288E-03
-457.500E-03,+402.010E-03,+98.171E-03
-456.000E-03,-241.206E-03,+178.492E-03
-454.500E-03,+64.322E-03,+91.031E-03
-453.000E-03,-418.090E-03,+47.003E-03
-451.500E-03,+80.402E-03,-41.648E-03
-450.000E-03,-643.216E-03,-86.271E-03
-448.500E-03,+257.286E-03,-155.288E-03
-447.000E-03,-64.322E-03,-39.268E-03
-445.500E-03,+128.643E-03,-103.526E-03
-444.000E-03,-466.332E-03,+94.006E-03
-442.500E-03,+643.216E-03,+202.291E-03
-441.000E-03,-466.332E-03,-120.780E-03
-439.500E-03,+128.643E-03,-20.824E-03
-438.000E-03,-241.206E-03,+83.891E-03
-436.500E-03,+450.251E-03,+134.464E-03
-435.000E-03,-643.216E-03,-44.623E-03
-433.500E-03,+385.930E-03,+111.260E-03
-432.000E-03,-804.020E-03,+129.110E-03
-430.500E-03,-112.563E-03,-47.003E-03
-429.000E-03,+48.241E-03,+108.880E-03
-427.500E-03,+884.422E-03,+232.040E-03
-426.000E-03,+546.734E-03,-157.073E-03
-424.500E-03,+385.930E-03,+15.469E-03
-423.000E-03,-578.894E-03,+117.210E-03
-421.500E-03,+643.216E-03,+161.238E-03
-420.000E-03,-482.412E-03,-44.623E-03
-418.500E-03,-659.296E-03,-208.241E-03
-417.000E-03,+144.724E-03,-5.950E-03
-415.500E-03,-289.447E-03,+14.874E-03
-414.000E-03,-241.206E-03,-129.110E-03
-412.500E-03,+160.804E-03,+14.874E-03
-411.000E-03,-1.013065E+00,-25.584E-03
-409.500E-03,+160.804E-03,+24.394E-03
-408.000E-03,-369.849E-03,+64.852E-03
-406.500E-03,+482.412E-03,-167.188E-03
-405.000E-03,-1.366834E+00,-246.915E-03
-403.500E-03,+241.206E-03,-52.358E-03
-402.000E-03,+176.884E-03,+84.486E-03
-400.500E-03,+707.538E-03,-38.673E-03
-399.000E-03,-450.251E-03,+124.350E-03
-397.500E-03,+723.618E-03,-229.065E-03
-396.000E-03,+852.261E-03,+9.520E-03
-394.500E-03,-530.653E-03,-107.095E-03
-393.000E-03,-337.688E-03,+54.143E-03
-391.500E-03,-546.734E-03,-163.618E-03
-390.000E-03,-1.286432E+00,+38.673E-03
-388.500E-03,-900.503E-03,+165.403E-03
-387.000E-03,-434.171E-03,-151.719E-03
-385.500E-03,+836.181E-03,-58.903E-03
-384.000E-03,-852.261E-03,-24.989E-03
-382.500E-03,+1.366834E+00,-249.889E-03
-381.000E-03,-337.688E-03,-179.682E-03
-379.500E-03,-1.013065E+00,+79.727E-03
-378.000E-03,-80.402E-03,+24.394E-03
-376.500E-03,+804.020E-03,-174.923E-03
-375.000E-03,-1.768844E+00,+240.965E-03
-373.500E-03,+1.061307E+00,+115.425E-03
-372.000E-03,+385.930E-03,-10.710E-03
-370.500E-03,+32.161E-03,+50.573E-03
-369.000E-03,-1.415075E+00,+153.504E-03
-367.500E-03,+482.412E-03,+35.698E-03
-366.000E-03,+627.136E-03,-123.755E-03
-364.500E-03,+868.342E-03,+57.118E-03
-363.000E-03,+96.482E-03,+56.523E-03
-361.500E-03,+1.045226E+00,-180.277E-03
-360.000E-03,-1.929648E+00,+208.241E-03
-358.500E-03,-273.367E-03,+140.414E-03
-357.000E-03,-1.206030E+00,-52.358E-03
-355.500E-03,+418.090E-03,+63.662E-03
-354.000E-03,-1.640201E+00,+118.400E-03
-352.500E-03,+1.688442E+00,+53.548E-03
-351.000E-03,-1.961809E+00,-7.140E-03
-349.500E-03,+675.377E-03,+71.397E-03
-348.000E-03,-1.382915E+00,+118.400E-03
-346.500E-03,+1.382915E+00,-29.154E-03
-345.000E-03,-160.804E-03,+136.844E-03
-343.500E-03,+1.447236E+00,+66.637E-03
-342.000E-03,+273.367E-03,+32.129E-03
-340.500E-03,+627.136E-03,+62.472E-03
-339.000E-03,-1.173869E+00,+202.886E-03
-337.500E-03,+2.170854E+00,-252.864E-03
-336.000E-03,-2.170854E+00,+117.210E-03
-334.500E-03,+128.643E-03,-2.380E-03
-333.000E-03,-980.905E-03,+45.813E-03
-331.500E-03,+1.382915E+00,-15.469E-03
-330.000E-03,-2.331658E+00,+199.317E-03
-328.500E-03,+1.849246E+00,-5.950E-03
-327.000E-03,+530.653E-03,-3.570E-03
-325.500E-03,-1.045226E+00,-20.229E-03
-324.000E-03,-1.624121E+00,-22.014E-03
-322.500E-03,+723.618E-03,+101.146E-03
-321.000E-03,-932.663E-03,+42.243E-03
-319.500E-03,-1.897487E+00,+10.710E-03
-318.000E-03,+305.528E-03,+48.193E-03
-316.500E-03,+1.913568E+00,-91.031E-03
-315.000E-03,-2.010050E+00,-77.347E-03
-313.500E-03,+48.241E-03,+166.593E-03
-312.000E-03,-2.460301E+00,-64.852E-03
-310.500E-03,+482.412E-03,+37.483E-03
-309.000E-03,-1.559799E+00,+123.160E-03
-307.500E-03,+2.090452E+00,-172.543E-03
-306.000E-03,-1.575879E+00,-89.246E-03
-304.500E-03,-546.734E-03,-122.565E-03
-303.000E-03,-1.672362E+00,+42.838E-03
-301.500E-03,+1.704523E+00,-174.923E-03
-300.000E-03,-2.814070E+00,+208.241E-03
-298.500E-03,-659.296E-03,+171.353E-03
-297.000E-03,-1.463317E+00,-101.146E-03
-295.500E-03,+611.055E-03,-74.372E-03
-294.000E-03,-996.985E-03,+32.129E-03
-292.500E-03,+2.653266E+00,-107.095E-03
-291.000E-03,+1.431156E+00,-113.045E-03
-289.500E-03,+707.538E-03,+1.785E-03
-288.000E-03,-1.366834E+00,-111.260E-03
-286.500E-03,+1.640201E+00,-141.009E-03
-285.000E-03,-2.974874E+00,-196.342E-03
-283.500E-03,+1.302513E+00,-38.078E-03
-282.000E-03,+1.093467E+00,-117.805E-03
-280.500E-03,-1.189950E+00,-36.888E-03
-279.000E-03,-1.817085E+00,+8.925E-03
-277.500E-03,+482.412E-03,+214.191E-03
-276.000E-03,-1.238191E+00,-135.059E-03
-274.500E-03,-241.206E-03,+14.279E-03
-273.000E-03,-2.524623E+00,+76.752E-03
-271.500E-03,+1.865327E+00,-101.741E-03
-270.000E-03,-1.125628E+00,-246.915E-03
-268.500E-03,+1.222111E+00,+110.665E-03
-267.000E-03,+2.315578E+00,-84.486E-03
-265.500E-03,+1.013065E+00,-40.458E-03
-264.000E-03,-1.431156E+00,+136.844E-03
-262.500E-03,+160.804E-03,-2.975E-03
-261.000E-03,-1.222111E+00,-158.858E-03
-259.500E-03,+1.913568E+00,+90.436E-03
-258.000E-03,-900.503E-03,+123.160E-03
-256.500E-03,+192.965E-03,-165.998E-03
-255.000E-03,-2.492462E+00,-246.915E-03
-253.500E-03,+1.543719E+00,+7.140E-03
-252.000E-03,-337.688E-03,+134.464E-03
-250.500E-03,+192.965E-03,-12.494E-03
-249.000E-03,-2.122613E+00,+64.852E-03
-247.500E-03,-562.814E-03,-83.296E-03
-246.000E-03,+1.784925E+00,-70.207E-03
-244.500E-03,+1.318593E+00,+107.690E-03
-243.000E-03,-755.779E-03,+47.003E-03
-241.500E-03,+1.286432E+00,-163.618E-03
-240.000E-03,-1.286432E+00,+246.915E-03
-238.500E-03,+2.058291E+00,+152.909E-03
-237.000E-03,-305.528E-03,+135.059E-03
-235.500E-03,+594.975E-03,+118.995E-03
-234.000E-03,-2.765829E+00,-168.973E-03
-232.500E-03,-804.020E-03,+205.266E-03
-231.000E-03,-1.849246E+00,+3.570E-03
-229.500E-03,-2.476382E+00,+49.978E-03
-228.000E-03,-611.055E-03,+98.766E-03
-226.500E-03,+2.090452E+00,+59.497E-03
-225.000E-03,+2.010050E+00,+148.744E-03
-223.500E-03,+2.492462E+00,+201.102E-03
-222.000E-03,+80.402E-03,-19.634E-03
-220.500E-03,+2.621105E+00,-57.713E-03
-219.000E-03,-1.624121E+00,-78.537E-03
-217.500E-03,+3.376884E+00,-237.990E-03
-216.000E-03,-1.833166E+00,+31.534E-03
-214.500E-03,+1.801005E+00,-152.314E-03
-213.000E-03,-1.093467E+00,+17.254E-03
-211.500E-03,+2.476382E+00,-130.894E-03
-210.000E-03,-3.055276E+00,-86.271E-03
-208.500E-03,+1.447236E+00,-7.735E-03
-207.000E-03,-2.749749E+00,+81.512E-03
-205.500E-03,+2.460301E+00,-66.637E-03
-204.000E-03,-659.296E-03,+162.428E-03
-202.500E-03,+1.768844E+00,+208.241E-03
-201.000E-03,-2.444221E+00,-152.909E-03
-199.500E-03,-1.768844E+00,-135.059E-03
-198.000E-03,-675.377E-03,-17.254E-03
-196.500E-03,+820.100E-03,-149.934E-03
-195.000E-03,-2.894472E+00,-47.598E-03
-193.500E-03,+2.556784E+00,+47.003E-03
-192.000E-03,-2.862312E+00,-27.369E-03
-190.500E-03,+369.849E-03,-69.612E-03
-189.000E-03,-2.910553E+00,-137.439E-03
-187.500E-03,+2.653266E+00,-107.095E-03
-186.000E-03,+1.688442E+00,-90.436E-03
-184.500E-03,-2.347739E+00,+46.408E-03
-183.000E-03,+16.080E-03,+86.271E-03
-181.500E-03,+739.698E-03,+102.931E-03
-180.000E-03,-3.216080E+00,-86.271E-03
-178.500E-03,+273.367E-03,+171.948E-03
-177.000E-03,-241.206E-03,-117.805E-03
-175.500E-03,-1.543719E+00,-89.246E-03
-174.000E-03,+369.849E-03,+13.089E-03
-172.500E-03,+4.100502E+00,+44.623E-03
-171.000E-03,-482.412E-03,-143.389E-03
-169.500E-03,+16.080E-03,-21.419E-03
-168.000E-03,-1.189950E+00,-17.254E-03
-166.500E-03,+1.977889E+00,-188.607E-03
-165.000E-03,+1.527638E+00,-246.915E-03
-163.500E-03,+1.656281E+00,-170.758E-03
-162.000E-03,-1.672362E+00,-110.070E-03
-160.500E-03,-1.029146E+00,-118.400E-03
-159.000E-03,-2.315578E+00,+99.361E-03
-157.500E-03,-2.492462E+00,-38.673E-03
-156.000E-03,-241.206E-03,+145.174E-03
-154.500E-03,-1.350754E+00,+141.009E-03
-153.000E-03,+241.206E-03,+76.752E-03
-151.500E-03,+1.929648E+00,-131.489E-03
-150.000E-03,+3.296482E+00,+130.894E-03
-148.500E-03,-3.119598E+00,+161.833E-03
-147.000E-03,+321.608E-03,-62.472E-03
-145.500E-03,+2.701508E+00,-57.118E-03
-144.000E-03,-2.540703E+00,-2.975E-03
-142.500E-03,+1.688442E+00,-249.889E-03
-141.000E-03,+2.862312E+00,-212.406E-03
-139.500E-03,-739.698E-03,+40.458E-03
-138.000E-03,-2.347739E+00,+77.942E-03
-136.500E-03,+2.444221E+00,-130.299E-03
-135.000E-03,-160.804E-03,+47.598E-03
-133.500E-03,-2.508543E+00,-25.584E-03
-132.000E-03,-723.618E-03,-51.168E-03
-130.500E-03,+932.663E-03,-124.945E-03
-129.000E-03,+1.061307E+00,+170.758E-03
-127.500E-03,+3.216080E+00,+86.271E-03
-126.000E-03,+2.283417E+00,-144.579E-03
-124.500E-03,-2.090452E+00,+14.279E-03
-123.000E-03,-1.029146E+00,+126.135E-03
-121.500E-03,+2.733668E+00,-92.816E-03
-120.000E-03,-3.296482E+00,-86.271E-03
-118.500E-03,-900.503E-03,-89.841E-03
-117.000E-03,+2.428141E+00,+113.045E-03
-115.500E-03,+900.503E-03,+120.185E-03
-114.000E-03,-2.685427E+00,+113.045E-03
-112.500E-03,+4.100502E+00,-92.221E-03
-111.000E-03,-16.080E-03,-38.078E-03
-109.500E-03,+514.573E-03,+11.305E-03
-108.000E-03,-884.422E-03,+47.598E-03
-106.500E-03,+2.588945E+00,-136.249E-03
-105.000E-03,-2.974874E+00,+229.065E-03
-103.500E-03,-739.698E-03,-83.296E-03
-102.000E-03,-900.503E-03,-74.967E-03
-100.500E-03,+948.744E-03,-78.537E-03
-99.000E-03,-3.135678E+00,+76.752E-03
-97.500E-03,+3.296482E+00,-232.040E-03
-96.000E-03,-739.698E-03,-111.260E-03
-94.500E-03,+32.161E-03,-10.115E-03
-93.000E-03,-900.503E-03,+45.218E-03
-91.500E-03,+578.894E-03,+86.866E-03
-90.000E-03,-1.366834E+00,-101.146E-03
-88.500E-03,-1.334673E+00,+70.207E-03
-87.000E-03,-3.071357E+00,-60.687E-03
-85.500E-03,-1.254271E+00,-91.031E-03
-84.000E-03,-1.206030E+00,+47.003E-03
-82.500E-03,+4.743719E+00,+2.975E-03
-81.000E-03,-3.183920E+00,-2.380E-03
-79.500E-03,-755.779E-03,+130.299E-03
-78.000E-03,-1.398995E+00,+92.221E-03
-76.500E-03,+1.382915E+00,+106.501E-03
-75.000E-03,-1.206030E+00,+214.191E-03
-73.500E-03,+64.322E-03,+18.444E-03
-72.000E-03,+1.543719E+00,-55.333E-03
-70.500E-03,-321.608E-03,-119.590E-03
-69.000E-03,-3.811055E+00,+95.791E-03
-67.500E-03,-884.422E-03,-172.543E-03
-66.000E-03,-3.409045E+00,+6.545E-03
-64.500E-03,+353.769E-03,-51.763E-03
-63.000E-03,-1.929648E+00,+38.673E-03
-61.500E-03,+3.023116E+00,-132.679E-03
-60.000E-03,-2.733668E+00,-89.246E-03
-58.500E-03,-2.749749E+00,-74.372E-03
-57.000E-03,+257.286E-03,-49.978E-03
-55.500E-03,+1.752764E+00,-39.268E-03
-54.000E-03,-2.990955E+00,+173.733E-03
-52.500E-03,+1.286432E+00,+92.221E-03
-51.000E-03,-1.222111E+00,-64.852E-03
-49.500E-03,-916.583E-03,+29.154E-03
-48.000E-03,-948.744E-03,+49.383E-03
-46.500E-03,-1.704523E+00,-149.934E-03
-45.000E-03,-2.010050E+00,-35.698E-03
-43.500E-03,-804.020E-03,+36.293E-03
-42.000E-03,+1.254271E+00,+82.702E-03
-40.500E-03,+1.029146E+00,-136.249E-03
-39.000E-03,-2.476382E+00,+95.196E-03
-37.500E-03,+482.412E-03,-235.015E-03
-36.000E-03,+1.591960E+00,-54.143E-03
-34.500E-03,-1.624121E+00,+73.182E-03
-33.000E-03,+466.332E-03,-41.053E-03
-31.500E-03,+3.039196E+00,-69.017E-03
-30.000E-03,-4.984925E+00,+130.894E-03
-28.500E-03,+1.704523E+00,+149.934E-03
-27.000E-03,-3.151759E+00,+95.791E-03
-25.500E-03,+2.299497E+00,-107.690E-03
-24.000E-03,-3.473367E+00,+63.662E-03
-22.500E-03,+2.572864E+00,-214.191E-03
-21.000E-03,+1.849246E+00,+71.397E-03
-19.500E-03,+578.894E-03,+89.246E-03
-18.000E-03,-546.734E-03,+6.545E-03
-16.500E-03,+2.444221E+00,-198.722E-03
-15.000E-03,-4.341708E+00,+83.296E-03
-13.500E-03,-2.588945E+00,+114.235E-03
-12.000E-03,+836.181E-03,-26.179E-03
-10.500E-03,+498.492E-03,-27.964E-03
-9.000E-03,-2.154774E+00,+47.003E-03
-7.500E-03,-804.020E-03,+145.769E-03
-6.000E-03,+3.730653E+00,-126.730E-03
-4.500E-03,-3.296482E+00,+47.598E-03
-3.000E-03,+739.698E-03,+12.494E-03
-1.500E-03,+948.744E-03,-67.232E-03
