x-axis,1,2
second,Volt,Volt
-1.200000E-03,+2.387939796E+00,-11.899497E-03
-1.198800E-03,+2.424120702E+00,-17.849246E-03
-1.197600E-03,+2.424120702E+00,-14.874372E-03
-1.196400E-03,+2.460301608E+00,-17.849246E-03
-1.195200E-03,+2.460301608E+00,-20.824120E-03
-1.194000E-03,+2.460301608E+00,-23.798995E-03
-1.192800E-03,+2.496482514E+00,-23.798995E-03
-1.191600E-03,+2.496482514E+00,-23.798995E-03
-1.190400E-03,+2.496482514E+00,-26.773869E-03
-1.189200E-03,+2.496482514E+00,-29.748743E-03
-1.188000E-03,+2.532663420E+00,-32.723618E-03
-1.186800E-03,+2.568844326E+00,-32.723618E-03
-1.185600E-03,+2.568844326E+00,-35.698492E-03
-1.184400E-03,+2.605025232E+00,-38.673366E-03
-1.183200E-03,+2.568844326E+00,-38.673366E-03
-1.182000E-03,+2.568844326E+00,-41.648241E-03
-1.180800E-03,+2.605025232E+00,-44.623115E-03
-1.179600E-03,+2.605025232E+00,-47.597989E-03
-1.178400E-03,+2.641206138E+00,-44.623115E-03
-1.177200E-03,+2.605025232E+00,-47.597989E-03
-1.176000E-03,+2.641206138E+00,-50.572864E-03
-1.174800E-03,+2.641206138E+00,-50.572864E-03
-1.173600E-03,+2.641206138E+00,-53.547738E-03
-1.172400E-03,+2.677387044E+00,-53.547738E-03
-1.171200E-03,+2.677387044E+00,-56.522612E-03
-1.170000E-03,+2.677387044E+00,-56.522612E-03
-1.168800E-03,+2.713567950E+00,-62.472361E-03
-1.167600E-03,+2.713567950E+00,-59.497487E-03
-1.166400E-03,+2.713567950E+00,-65.447235E-03
-1.165200E-03,+2.749748856E+00,-68.422110E-03
-1.164000E-03,+2.749748856E+00,-68.422110E-03
-1.162800E-03,+2.749748856E+00,-68.422110E-03
-1.161600E-03,+2.749748856E+00,-68.422110E-03
-1.160400E-03,+2.749748856E+00,-74.371858E-03
-1.159200E-03,+2.785929762E+00,-77.346733E-03
-1.158000E-03,+2.785929762E+00,-74.371859E-03
-1.156800E-03,+2.749748856E+00,-80.321607E-03
-1.155600E-03,+2.785929762E+00,-80.321607E-03
-1.154400E-03,+2.822110668E+00,-83.296482E-03
-1.153200E-03,+2.822110668E+00,-83.296482E-03
-1.152000E-03,+2.822110668E+00,-83.296482E-03
-1.150800E-03,+2.822110668E+00,-89.246230E-03
-1.149600E-03,+2.785929762E+00,-92.221105E-03
-1.148400E-03,+2.858291574E+00,-92.221105E-03
-1.147200E-03,+2.858291574E+00,-95.195979E-03
-1.146000E-03,+2.822110668E+00,-95.195979E-03
-1.144800E-03,+2.858291574E+00,-98.170853E-03
-1.143600E-03,+2.858291574E+00,-98.170853E-03
-1.142400E-03,+2.858291574E+00,-101.145728E-03
-1.141200E-03,+2.858291574E+00,-104.120602E-03
-1.140000E-03,+2.858291574E+00,-104.120602E-03
-1.138800E-03,+2.858291574E+00,-107.095476E-03
-1.137600E-03,+2.858291574E+00,-107.095476E-03
-1.136400E-03,+2.894472480E+00,-110.070351E-03
-1.135200E-03,+2.894472480E+00,-110.070351E-03
-1.134000E-03,+2.894472480E+00,-113.045225E-03
-1.132800E-03,+2.894472480E+00,-113.045225E-03
-1.131600E-03,+2.894472480E+00,-118.994974E-03
-1.130400E-03,+2.894472480E+00,-118.994974E-03
-1.129200E-03,+2.930653386E+00,-121.969848E-03
-1.128000E-03,+2.930653386E+00,-118.994974E-03
-1.126800E-03,+2.930653386E+00,-124.944722E-03
-1.125600E-03,+2.930653386E+00,-124.944722E-03
-1.124400E-03,+2.930653386E+00,-124.944722E-03
-1.123200E-03,+2.930653386E+00,-130.894471E-03
-1.122000E-03,+2.930653386E+00,-124.944722E-03
-1.120800E-03,+2.930653386E+00,-130.894471E-03
-1.119600E-03,+2.930653386E+00,-133.869345E-03
-1.118400E-03,+2.930653386E+00,-133.869345E-03
-1.117200E-03,+2.930653386E+00,-133.869345E-03
-1.116000E-03,+2.930653386E+00,-139.819094E-03
-1.114800E-03,+2.966834292E+00,-139.819094E-03
-1.113600E-03,+2.930653386E+00,-139.819094E-03
-1.112400E-03,+2.966834292E+00,-142.793968E-03
-1.111200E-03,+2.966834292E+00,-142.793968E-03
-1.110000E-03,+2.966834292E+00,-145.768843E-03
-1.108800E-03,+2.966834292E+00,-145.768843E-03
-1.107600E-03,+2.966834292E+00,-151.718591E-03
-1.106400E-03,+2.966834292E+00,-151.718591E-03
-1.105200E-03,+2.966834292E+00,-151.718591E-03
-1.104000E-03,+2.966834292E+00,-154.693466E-03
-1.102800E-03,+2.966834292E+00,-154.693466E-03
-1.101600E-03,+2.930653386E+00,-157.668340E-03
-1.100400E-03,+2.930653386E+00,-157.668340E-03
-1.099200E-03,+2.966834292E+00,-157.668340E-03
-1.098000E-03,+2.966834292E+00,-160.643214E-03
-1.096800E-03,+2.966834292E+00,-163.618089E-03
-1.095600E-03,+2.966834292E+00,-166.592963E-03
-1.094400E-03,+2.930653386E+00,-166.592963E-03
-1.093200E-03,+2.930653386E+00,-163.618089E-03
-1.092000E-03,+2.966834292E+00,-169.567837E-03
-1.090800E-03,+2.966834292E+00,-169.567837E-03
-1.089600E-03,+2.930653386E+00,-172.542712E-03
-1.088400E-03,+2.930653386E+00,-175.517586E-03
-1.087200E-03,+2.930653386E+00,-169.567837E-03
-1.086000E-03,+2.930653386E+00,-175.517586E-03
-1.084800E-03,+2.930653386E+00,-178.492460E-03
-1.083600E-03,+2.930653386E+00,-175.517586E-03
-1.082400E-03,+2.930653386E+00,-178.492460E-03
-1.081200E-03,+2.930653386E+00,-178.492460E-03
-1.080000E-03,+2.930653386E+00,-181.467335E-03
-1.078800E-03,+2.930653386E+00,-181.467335E-03
-1.077600E-03,+2.930653386E+00,-181.467335E-03
-1.076400E-03,+2.930653386E+00,-184.442209E-03
-1.075200E-03,+2.930653386E+00,-187.417083E-03
-1.074000E-03,+2.894472480E+00,-187.417083E-03
-1.072800E-03,+2.894472480E+00,-187.417083E-03
-1.071600E-03,+2.930653386E+00,-190.391958E-03
-1.070400E-03,+2.894472480E+00,-190.391958E-03
-1.069200E-03,+2.894472480E+00,-196.341706E-03
-1.068000E-03,+2.894472480E+00,-193.366832E-03
-1.066800E-03,+2.894472480E+00,-193.366832E-03
-1.065600E-03,+2.894472480E+00,-196.341706E-03
-1.064400E-03,+2.858291574E+00,-196.341706E-03
-1.063200E-03,+2.858291574E+00,-199.316581E-03
-1.062000E-03,+2.894472480E+00,-199.316581E-03
-1.060800E-03,+2.858291574E+00,-199.316581E-03
-1.059600E-03,+2.858291574E+00,-199.316581E-03
-1.058400E-03,+2.858291574E+00,-202.291455E-03
-1.057200E-03,+2.858291574E+00,-205.266329E-03
-1.056000E-03,+2.822110668E+00,-205.266329E-03
-1.054800E-03,+2.858291574E+00,-205.266329E-03
-1.053600E-03,+2.822110668E+00,-205.266329E-03
-1.052400E-03,+2.822110668E+00,-208.241204E-03
-1.051200E-03,+2.822110668E+00,-208.241204E-03
-1.050000E-03,+2.785929762E+00,-211.216078E-03
-1.048800E-03,+2.785929762E+00,-214.190952E-03
-1.047600E-03,+2.785929762E+00,-211.216078E-03
-1.046400E-03,+2.749748856E+00,-214.190952E-03
-1.045200E-03,+2.785929762E+00,-214.190952E-03
-1.044000E-03,+2.785929762E+00,-214.190952E-03
-1.042800E-03,+2.785929762E+00,-214.190952E-03
-1.041600E-03,+2.749748856E+00,-217.165827E-03
-1.040400E-03,+2.713567950E+00,-220.140701E-03
-1.039200E-03,+2.749748856E+00,-223.115575E-03
-1.038000E-03,+2.713567950E+00,-223.115575E-03
-1.036800E-03,+2.713567950E+00,-220.140701E-03
-1.035600E-03,+2.713567950E+00,-220.140701E-03
-1.034400E-03,+2.713567950E+00,-223.115575E-03
-1.033200E-03,+2.677387044E+00,-223.115575E-03
-1.032000E-03,+2.677387044E+00,-223.115575E-03
-1.030800E-03,+2.677387044E+00,-226.090450E-03
-1.029600E-03,+2.677387044E+00,-226.090450E-03
-1.028400E-03,+2.641206138E+00,-226.090450E-03
-1.027200E-03,+2.641206138E+00,-229.065324E-03
-1.026000E-03,+2.641206138E+00,-229.065324E-03
-1.024800E-03,+2.605025232E+00,-229.065324E-03
-1.023600E-03,+2.605025232E+00,-229.065324E-03
-1.022400E-03,+2.605025232E+00,-235.015073E-03
-1.021200E-03,+2.605025232E+00,-235.015073E-03
-1.020000E-03,+2.568844326E+00,-235.015073E-03
-1.018800E-03,+2.568844326E+00,-235.015073E-03
-1.017600E-03,+2.568844326E+00,-232.040199E-03
-1.016400E-03,+2.568844326E+00,-237.989947E-03
-1.015200E-03,+2.496482514E+00,-235.015073E-03
-1.014000E-03,+2.496482514E+00,-235.015073E-03
-1.012800E-03,+2.496482514E+00,-237.989947E-03
-1.011600E-03,+2.496482514E+00,-237.989947E-03
-1.010400E-03,+2.496482514E+00,-235.015073E-03
-1.009200E-03,+2.460301608E+00,-240.964822E-03
-1.008000E-03,+2.460301608E+00,-240.964822E-03
-1.006800E-03,+2.460301608E+00,-240.964822E-03
-1.005600E-03,+2.424120702E+00,-240.964822E-03
-1.004400E-03,+2.424120702E+00,-240.964822E-03
-1.003200E-03,+2.387939796E+00,-240.964822E-03
-1.002000E-03,+2.387939796E+00,-240.964822E-03
-1.000800E-03,+2.387939796E+00,-243.939696E-03
-999.600E-06,+2.351758890E+00,-243.939696E-03
-998.400E-06,+2.351758890E+00,-246.914570E-03
-997.200E-06,+2.351758890E+00,-243.939696E-03
-996.000E-06,+2.315577984E+00,-246.914570E-03
-994.800E-06,+2.279397078E+00,-243.939696E-03
-993.600E-06,+2.279397078E+00,-249.889445E-03
-992.400E-06,+2.279397078E+00,-246.914570E-03
-991.200E-06,+2.279397078E+00,-246.914570E-03
-990.000E-06,+2.279397078E+00,-249.889445E-03
-988.800E-06,+2.243216172E+00,-246.914570E-03
-987.600E-06,+2.207035266E+00,-249.889445E-03
-986.400E-06,+2.207035266E+00,-249.889445E-03
-985.200E-06,+2.170854360E+00,-246.914570E-03
-984.000E-06,+2.170854360E+00,-249.889445E-03
-982.800E-06,+2.170854360E+00,-249.889445E-03
-981.600E-06,+2.170854360E+00,-249.889445E-03
-980.400E-06,+2.134673454E+00,-249.889445E-03
-979.200E-06,+2.134673454E+00,-249.889445E-03
-978.000E-06,+2.098492548E+00,-249.889445E-03
-976.800E-06,+2.098492548E+00,-249.889445E-03
-975.600E-06,+2.062311642E+00,-249.889445E-03
-974.400E-06,+2.062311642E+00,-249.889445E-03
-973.200E-06,+2.026130736E+00,-252.864319E-03
-972.000E-06,+2.026130736E+00,-249.889445E-03
-970.800E-06,+2.026130736E+00,-249.889445E-03
-969.600E-06,+1.989949830E+00,-249.889445E-03
-968.400E-06,+1.989949830E+00,-252.864319E-03
-967.200E-06,+1.953768924E+00,-252.864319E-03
-966.000E-06,+1.953768924E+00,-249.889445E-03
-964.800E-06,+1.917588018E+00,-252.864319E-03
-963.600E-06,+1.917588018E+00,-249.889445E-03
-962.400E-06,+1.881407112E+00,-252.864319E-03
-961.200E-06,+1.881407112E+00,-252.864319E-03
-960.000E-06,+1.881407112E+00,-249.889445E-03
-958.800E-06,+1.845226206E+00,-252.864319E-03
-957.600E-06,+1.845226206E+00,-249.889445E-03
-956.400E-06,+1.809045300E+00,-249.889445E-03
-955.200E-06,+1.772864394E+00,-255.839193E-03
-954.000E-06,+1.772864394E+00,-252.864319E-03
-952.800E-06,+1.736683488E+00,-252.864319E-03
-951.600E-06,+1.700502582E+00,-249.889445E-03
-950.400E-06,+1.700502582E+00,-249.889445E-03
-949.200E-06,+1.664321676E+00,-249.889445E-03
-948.000E-06,+1.664321676E+00,-252.864319E-03
-946.800E-06,+1.664321676E+00,-252.864319E-03
-945.600E-06,+1.664321676E+00,-252.864319E-03
-944.400E-06,+1.628140770E+00,-255.839193E-03
-943.200E-06,+1.628140770E+00,-249.889445E-03
-942.000E-06,+1.591959864E+00,-249.889445E-03
-940.800E-06,+1.555778958E+00,-249.889445E-03
-939.600E-06,+1.555778958E+00,-249.889445E-03
-938.400E-06,+1.519598052E+00,-249.889445E-03
-937.200E-06,+1.519598052E+00,-252.864319E-03
-936.000E-06,+1.519598052E+00,-249.889445E-03
-934.800E-06,+1.483417146E+00,-249.889445E-03
-933.600E-06,+1.447236240E+00,-246.914570E-03
-932.400E-06,+1.447236240E+00,-249.889445E-03
-931.200E-06,+1.411055334E+00,-246.914570E-03
-930.000E-06,+1.374874428E+00,-249.889445E-03
-928.800E-06,+1.374874428E+00,-246.914570E-03
-927.600E-06,+1.338693522E+00,-246.914570E-03
-926.400E-06,+1.338693522E+00,-246.914570E-03
-925.200E-06,+1.302512616E+00,-246.914570E-03
-924.000E-06,+1.302512616E+00,-243.939696E-03
-922.800E-06,+1.266331710E+00,-240.964822E-03
-921.600E-06,+1.266331710E+00,-246.914570E-03
-920.400E-06,+1.230150804E+00,-243.939696E-03
-919.200E-06,+1.193969898E+00,-243.939696E-03
-918.000E-06,+1.157788992E+00,-243.939696E-03
-916.800E-06,+1.193969898E+00,-246.914570E-03
-915.600E-06,+1.157788992E+00,-243.939696E-03
-914.400E-06,+1.121608086E+00,-240.964822E-03
-913.200E-06,+1.085427180E+00,-246.914570E-03
-912.000E-06,+1.085427180E+00,-243.939696E-03
-910.800E-06,+1.049246274E+00,-243.939696E-03
-909.600E-06,+1.049246274E+00,-240.964822E-03
-908.400E-06,+1.013065368E+00,-240.964822E-03
-907.200E-06,+976.884462E-03,-240.964822E-03
-906.000E-06,+976.884462E-03,-240.964822E-03
-904.800E-06,+976.884462E-03,-240.964822E-03
-903.600E-06,+940.703556E-03,-237.989947E-03
-902.400E-06,+904.522650E-03,-237.989947E-03
-901.200E-06,+904.522650E-03,-237.989947E-03
-900.000E-06,+868.341744E-03,-235.015073E-03
-898.800E-06,+832.160838E-03,-237.989947E-03
-897.600E-06,+832.160838E-03,-235.015073E-03
-896.400E-06,+795.979932E-03,-235.015073E-03
-895.200E-06,+795.979932E-03,-232.040199E-03
-894.000E-06,+759.799026E-03,-235.015073E-03
-892.800E-06,+723.618120E-03,-232.040199E-03
-891.600E-06,+687.437214E-03,-229.065324E-03
-890.400E-06,+687.437214E-03,-226.090450E-03
-889.200E-06,+687.437214E-03,-229.065324E-03
-888.000E-06,+687.437214E-03,-226.090450E-03
-886.800E-06,+651.256308E-03,-226.090450E-03
-885.600E-06,+615.075402E-03,-229.065324E-03
-884.400E-06,+578.894496E-03,-226.090450E-03
-883.200E-06,+542.713590E-03,-226.090450E-03
-882.000E-06,+542.713590E-03,-226.090450E-03
-880.800E-06,+542.713590E-03,-229.065324E-03
-879.600E-06,+506.532684E-03,-220.140701E-03
-878.400E-06,+506.532684E-03,-223.115575E-03
-877.200E-06,+434.170872E-03,-217.165827E-03
-876.000E-06,+434.170872E-03,-220.140701E-03
-874.800E-06,+397.989966E-03,-220.140701E-03
-873.600E-06,+361.809060E-03,-217.165827E-03
-872.400E-06,+361.809060E-03,-214.190952E-03
-871.200E-06,+325.628154E-03,-214.190952E-03
-870.000E-06,+325.628154E-03,-217.165827E-03
-868.800E-06,+289.447248E-03,-214.190952E-03
-867.600E-06,+253.266342E-03,-217.165827E-03
-866.400E-06,+253.266342E-03,-211.216078E-03
-865.200E-06,+253.266342E-03,-214.190952E-03
-864.000E-06,+180.904530E-03,-208.241204E-03
-862.800E-06,+180.904530E-03,-208.241204E-03
-861.600E-06,+180.904530E-03,-208.241204E-03
-860.400E-06,+144.723624E-03,-205.266329E-03
-859.200E-06,+108.542718E-03,-205.266329E-03
-858.000E-06,+72.361812E-03,-205.266329E-03
-856.800E-06,+72.361812E-03,-202.291455E-03
-855.600E-06,+72.361812E-03,-202.291455E-03
-854.400E-06,+36.180906E-03,-202.291455E-03
-853.200E-06,+0.0E+00,-199.316581E-03
-852.000E-06,+0.0E+00,-199.316581E-03
-850.800E-06,-36.180906E-03,-199.316581E-03
-849.600E-06,-36.180906E-03,-196.341706E-03
-848.400E-06,-72.361812E-03,-196.341706E-03
-847.200E-06,-108.542718E-03,-196.341706E-03
-846.000E-06,-108.542718E-03,-196.341706E-03
-844.800E-06,-144.723624E-03,-193.366832E-03
-843.600E-06,-180.904530E-03,-193.366832E-03
-842.400E-06,-217.085436E-03,-190.391958E-03
-841.200E-06,-217.085436E-03,-190.391958E-03
-840.000E-06,-253.266342E-03,-187.417083E-03
-838.800E-06,-289.447248E-03,-187.417083E-03
-837.600E-06,-253.266342E-03,-187.417083E-03
-836.400E-06,-325.628154E-03,-181.467335E-03
-835.200E-06,-325.628154E-03,-181.467335E-03
-834.000E-06,-361.809060E-03,-181.467335E-03
-832.800E-06,-361.809060E-03,-181.467335E-03
-831.600E-06,-397.989966E-03,-181.467335E-03
-830.400E-06,-397.989966E-03,-178.492460E-03
-829.200E-06,-434.170872E-03,-175.517586E-03
-828.000E-06,-470.351778E-03,-175.517586E-03
-826.800E-06,-470.351778E-03,-172.542712E-03
-825.600E-06,-506.532684E-03,-172.542712E-03
-824.400E-06,-506.532684E-03,-169.567837E-03
-823.200E-06,-542.713590E-03,-169.567837E-03
-822.000E-06,-578.894496E-03,-169.567837E-03
-820.800E-06,-578.894496E-03,-166.592963E-03
-819.600E-06,-615.075402E-03,-163.618089E-03
-818.400E-06,-651.256308E-03,-163.618089E-03
-817.200E-06,-651.256308E-03,-160.643214E-03
-816.000E-06,-687.437214E-03,-157.668340E-03
-814.800E-06,-687.437214E-03,-157.668340E-03
-813.600E-06,-723.618120E-03,-157.668340E-03
-812.400E-06,-759.799026E-03,-151.718591E-03
-811.200E-06,-759.799026E-03,-154.693466E-03
-810.000E-06,-795.979932E-03,-154.693466E-03
-808.800E-06,-832.160838E-03,-145.768843E-03
-807.600E-06,-795.979932E-03,-151.718591E-03
-806.400E-06,-868.341744E-03,-145.768843E-03
-805.200E-06,-868.341744E-03,-145.768843E-03
-804.000E-06,-904.522650E-03,-145.768843E-03
-802.800E-06,-940.703556E-03,-148.743717E-03
-801.600E-06,-940.703556E-03,-139.819094E-03
-800.400E-06,-976.884462E-03,-139.819094E-03
-799.200E-06,-1.013065368E+00,-136.844220E-03
-798.000E-06,-1.013065368E+00,-139.819094E-03
-796.800E-06,-1.013065368E+00,-133.869345E-03
-795.600E-06,-1.049246274E+00,-133.869345E-03
-794.400E-06,-1.085427180E+00,-133.869345E-03
-793.200E-06,-1.121608086E+00,-127.919597E-03
-792.000E-06,-1.085427180E+00,-130.894471E-03
-790.800E-06,-1.121608086E+00,-127.919597E-03
-789.600E-06,-1.157788992E+00,-124.944722E-03
-788.400E-06,-1.193969898E+00,-121.969848E-03
-787.200E-06,-1.193969898E+00,-121.969848E-03
-786.000E-06,-1.230150804E+00,-118.994974E-03
-784.800E-06,-1.266331710E+00,-118.994974E-03
-783.600E-06,-1.266331710E+00,-116.020099E-03
-782.400E-06,-1.302512616E+00,-116.020099E-03
-781.200E-06,-1.302512616E+00,-116.020099E-03
-780.000E-06,-1.338693522E+00,-113.045225E-03
-778.800E-06,-1.338693522E+00,-113.045225E-03
-777.600E-06,-1.374874428E+00,-110.070351E-03
-776.400E-06,-1.374874428E+00,-107.095476E-03
-775.200E-06,-1.374874428E+00,-107.095476E-03
-774.000E-06,-1.411055334E+00,-101.145728E-03
-772.800E-06,-1.411055334E+00,-98.170853E-03
-771.600E-06,-1.483417146E+00,-98.170853E-03
-770.400E-06,-1.483417146E+00,-95.195979E-03
-769.200E-06,-1.519598052E+00,-98.170853E-03
-768.000E-06,-1.555778958E+00,-92.221105E-03
-766.800E-06,-1.519598052E+00,-95.195979E-03
-765.600E-06,-1.555778958E+00,-89.246230E-03
-764.400E-06,-1.591959864E+00,-89.246230E-03
-763.200E-06,-1.591959864E+00,-89.246230E-03
-762.000E-06,-1.628140770E+00,-86.271356E-03
-760.800E-06,-1.628140770E+00,-83.296482E-03
-759.600E-06,-1.664321676E+00,-80.321607E-03
-758.400E-06,-1.664321676E+00,-83.296482E-03
-757.200E-06,-1.700502582E+00,-80.321607E-03
-756.000E-06,-1.700502582E+00,-77.346733E-03
-754.800E-06,-1.736683488E+00,-74.371858E-03
-753.600E-06,-1.736683488E+00,-74.371858E-03
-752.400E-06,-1.772864394E+00,-71.396984E-03
-751.200E-06,-1.772864394E+00,-68.422110E-03
-750.000E-06,-1.772864394E+00,-68.422110E-03
-748.800E-06,-1.809045300E+00,-62.472361E-03
-747.600E-06,-1.845226206E+00,-62.472361E-03
-746.400E-06,-1.845226206E+00,-62.472361E-03
-745.200E-06,-1.881407112E+00,-59.497487E-03
-744.000E-06,-1.917588018E+00,-56.522612E-03
-742.800E-06,-1.917588018E+00,-56.522612E-03
-741.600E-06,-1.917588018E+00,-56.522612E-03
-740.400E-06,-1.953768924E+00,-53.547738E-03
-739.200E-06,-1.989949830E+00,-56.522612E-03
-738.000E-06,-1.989949830E+00,-50.572864E-03
-736.800E-06,-1.989949830E+00,-47.597989E-03
-735.600E-06,-1.989949830E+00,-44.623115E-03
-734.400E-06,-2.026130736E+00,-41.648241E-03
-733.200E-06,-2.062311642E+00,-44.623115E-03
-732.000E-06,-2.062311642E+00,-38.673366E-03
-730.800E-06,-2.098492548E+00,-41.648241E-03
-729.600E-06,-2.098492548E+00,-32.723618E-03
-728.400E-06,-2.134673454E+00,-32.723618E-03
-727.200E-06,-2.098492548E+00,-32.723618E-03
-726.000E-06,-2.134673454E+00,-29.748743E-03
-724.800E-06,-2.134673454E+00,-29.748743E-03
-723.600E-06,-2.170854360E+00,-26.773869E-03
-722.400E-06,-2.207035266E+00,-23.798995E-03
-721.200E-06,-2.170854360E+00,-23.798995E-03
-720.000E-06,-2.207035266E+00,-23.798995E-03
-718.800E-06,-2.243216172E+00,-20.824120E-03
-717.600E-06,-2.243216172E+00,-17.849246E-03
-716.400E-06,-2.279397078E+00,-14.874372E-03
-715.200E-06,-2.279397078E+00,-11.899497E-03
-714.000E-06,-2.279397078E+00,-11.899497E-03
-712.800E-06,-2.315577984E+00,-11.899497E-03
-711.600E-06,-2.315577984E+00,-8.924623E-03
-710.400E-06,-2.351758890E+00,-5.949749E-03
-709.200E-06,-2.351758890E+00,-5.949749E-03
-708.000E-06,-2.351758890E+00,-2.974874E-03
-706.800E-06,-2.351758890E+00,+0.0E+00
-705.600E-06,-2.387939796E+00,+2.974874E-03
-704.400E-06,-2.387939796E+00,+2.974874E-03
-703.200E-06,-2.424120702E+00,+5.949749E-03
-702.000E-06,-2.424120702E+00,+5.949749E-03
-700.800E-06,-2.424120702E+00,+8.924623E-03
-699.600E-06,-2.460301608E+00,+11.899497E-03
-698.400E-06,-2.460301608E+00,+11.899497E-03
-697.200E-06,-2.496482514E+00,+11.899497E-03
-696.000E-06,-2.496482514E+00,+17.849246E-03
-694.800E-06,-2.496482514E+00,+14.874372E-03
-693.600E-06,-2.532663420E+00,+20.824120E-03
-692.400E-06,-2.532663420E+00,+20.824120E-03
-691.200E-06,-2.532663420E+00,+20.824120E-03
-690.000E-06,-2.568844326E+00,+26.773869E-03
-688.800E-06,-2.568844326E+00,+23.798995E-03
-687.600E-06,-2.568844326E+00,+29.748743E-03
-686.400E-06,-2.568844326E+00,+29.748743E-03
-685.200E-06,-2.568844326E+00,+32.723618E-03
-684.000E-06,-2.605025232E+00,+35.698492E-03
-682.800E-06,-2.641206138E+00,+35.698492E-03
-681.600E-06,-2.641206138E+00,+38.673366E-03
-680.400E-06,-2.641206138E+00,+38.673366E-03
-679.200E-06,-2.641206138E+00,+41.648241E-03
-678.000E-06,-2.677387044E+00,+44.623115E-03
-676.800E-06,-2.677387044E+00,+47.597989E-03
-675.600E-06,-2.677387044E+00,+50.572864E-03
-674.400E-06,-2.677387044E+00,+50.572864E-03
-673.200E-06,-2.677387044E+00,+50.572864E-03
-672.000E-06,-2.713567950E+00,+53.547738E-03
-670.800E-06,-2.749748856E+00,+53.547738E-03
-669.600E-06,-2.749748856E+00,+59.497487E-03
-668.400E-06,-2.749748856E+00,+59.497487E-03
-667.200E-06,-2.749748856E+00,+59.497487E-03
-666.000E-06,-2.749748856E+00,+62.472361E-03
-664.800E-06,-2.749748856E+00,+65.447235E-03
-663.600E-06,-2.785929762E+00,+65.447235E-03
-662.400E-06,-2.785929762E+00,+68.422110E-03
-661.200E-06,-2.785929762E+00,+71.396984E-03
-660.000E-06,-2.785929762E+00,+71.396984E-03
-658.800E-06,-2.822110668E+00,+71.396984E-03
-657.600E-06,-2.785929762E+00,+77.346733E-03
-656.400E-06,-2.822110668E+00,+77.346733E-03
-655.200E-06,-2.822110668E+00,+77.346733E-03
-654.000E-06,-2.858291574E+00,+77.346733E-03
-652.800E-06,-2.858291574E+00,+83.296482E-03
-651.600E-06,-2.894472480E+00,+89.246230E-03
-650.400E-06,-2.858291574E+00,+86.271356E-03
-649.200E-06,-2.858291574E+00,+83.296482E-03
-648.000E-06,-2.894472480E+00,+92.221105E-03
-646.800E-06,-2.894472480E+00,+92.221105E-03
-645.600E-06,-2.894472480E+00,+95.195979E-03
-644.400E-06,-2.894472480E+00,+95.195979E-03
-643.200E-06,-2.894472480E+00,+98.170853E-03
-642.000E-06,-2.894472480E+00,+98.170853E-03
-640.800E-06,-2.930653386E+00,+101.145728E-03
-639.600E-06,-2.930653386E+00,+101.145728E-03
-638.400E-06,-2.930653386E+00,+101.145728E-03
-637.200E-06,-2.930653386E+00,+107.095476E-03
-636.000E-06,-2.930653386E+00,+107.095476E-03
-634.800E-06,-2.930653386E+00,+110.070351E-03
-633.600E-06,-2.930653386E+00,+107.095476E-03
-632.400E-06,-2.930653386E+00,+113.045225E-03
-631.200E-06,-2.966834292E+00,+113.045225E-03
-630.000E-06,-2.930653386E+00,+116.020099E-03
-628.800E-06,-2.966834292E+00,+118.994974E-03
-627.600E-06,-2.966834292E+00,+118.994974E-03
-626.400E-06,-2.966834292E+00,+121.969848E-03
-625.200E-06,-2.966834292E+00,+124.944722E-03
-624.000E-06,-2.966834292E+00,+124.944722E-03
-622.800E-06,-2.966834292E+00,+124.944722E-03
-621.600E-06,-2.966834292E+00,+127.919597E-03
-620.400E-06,-2.966834292E+00,+127.919597E-03
-619.200E-06,-2.966834292E+00,+127.919597E-03
-618.000E-06,-3.003015198E+00,+130.894471E-03
-616.800E-06,-2.966834292E+00,+130.894471E-03
-615.600E-06,-3.003015198E+00,+133.869345E-03
-614.400E-06,-2.966834292E+00,+136.844220E-03
-613.200E-06,-3.003015198E+00,+136.844220E-03
-612.000E-06,-2.966834292E+00,+142.793968E-03
-610.800E-06,-3.003015198E+00,+139.819094E-03
-609.600E-06,-3.003015198E+00,+142.793968E-03
-608.400E-06,-3.003015198E+00,+142.793968E-03
-607.200E-06,-3.003015198E+00,+145.768843E-03
-606.000E-06,-3.003015198E+00,+151.718591E-03
-604.800E-06,-3.003015198E+00,+148.743717E-03
-603.600E-06,-3.003015198E+00,+148.743717E-03
-602.400E-06,-3.003015198E+00,+151.718591E-03
-601.200E-06,-3.003015198E+00,+154.693466E-03
-600.000E-06,-3.003015198E+00,+154.693466E-03
-598.800E-06,-3.003015198E+00,+157.668340E-03
-597.600E-06,-3.003015198E+00,+157.668340E-03
-596.400E-06,-3.003015198E+00,+160.643214E-03
-595.200E-06,-3.003015198E+00,+160.643214E-03
-594.000E-06,-3.003015198E+00,+160.643214E-03
-592.800E-06,-3.003015198E+00,+163.618089E-03
-591.600E-06,-2.966834292E+00,+166.592963E-03
-590.400E-06,-2.966834292E+00,+169.567837E-03
-589.200E-06,-3.003015198E+00,+166.592963E-03
-588.000E-06,-3.003015198E+00,+169.567837E-03
-586.800E-06,-2.966834292E+00,+166.592963E-03
-585.600E-06,-2.966834292E+00,+172.542712E-03
-584.400E-06,-2.966834292E+00,+172.542712E-03
-583.200E-06,-2.966834292E+00,+172.542712E-03
-582.000E-06,-3.003015198E+00,+178.492460E-03
-580.800E-06,-2.966834292E+00,+178.492460E-03
-579.600E-06,-2.966834292E+00,+178.492460E-03
-578.400E-06,-2.966834292E+00,+178.492460E-03
-577.200E-06,-2.966834292E+00,+181.467335E-03
-576.000E-06,-2.966834292E+00,+184.442209E-03
-574.800E-06,-2.966834292E+00,+184.442209E-03
-573.600E-06,-2.930653386E+00,+184.442209E-03
-572.400E-06,-2.930653386E+00,+187.417083E-03
-571.200E-06,-2.930653386E+00,+184.442209E-03
-570.000E-06,-2.930653386E+00,+184.442209E-03
-568.800E-06,-2.930653386E+00,+190.391958E-03
-567.600E-06,-2.930653386E+00,+193.366832E-03
-566.400E-06,-2.930653386E+00,+193.366832E-03
-565.200E-06,-2.930653386E+00,+196.341706E-03
-564.000E-06,-2.894472480E+00,+196.341706E-03
-562.800E-06,-2.930653386E+00,+196.341706E-03
-561.600E-06,-2.930653386E+00,+196.341706E-03
-560.400E-06,-2.894472480E+00,+199.316581E-03
-559.200E-06,-2.894472480E+00,+199.316581E-03
-558.000E-06,-2.894472480E+00,+202.291455E-03
-556.800E-06,-2.894472480E+00,+205.266329E-03
-555.600E-06,-2.894472480E+00,+205.266329E-03
-554.400E-06,-2.858291574E+00,+202.291455E-03
-553.200E-06,-2.894472480E+00,+205.266329E-03
-552.000E-06,-2.858291574E+00,+211.216078E-03
-550.800E-06,-2.858291574E+00,+205.266329E-03
-549.600E-06,-2.822110668E+00,+205.266329E-03
-548.400E-06,-2.822110668E+00,+211.216078E-03
-547.200E-06,-2.822110668E+00,+211.216078E-03
-546.000E-06,-2.822110668E+00,+211.216078E-03
-544.800E-06,-2.822110668E+00,+208.241204E-03
-543.600E-06,-2.785929762E+00,+214.190952E-03
-542.400E-06,-2.822110668E+00,+214.190952E-03
-541.200E-06,-2.785929762E+00,+220.140701E-03
-540.000E-06,-2.785929762E+00,+217.165827E-03
-538.800E-06,-2.785929762E+00,+217.165827E-03
-537.600E-06,-2.749748856E+00,+220.140701E-03
-536.400E-06,-2.749748856E+00,+217.165827E-03
-535.200E-06,-2.713567950E+00,+220.140701E-03
-534.000E-06,-2.749748856E+00,+223.115575E-03
-532.800E-06,-2.713567950E+00,+223.115575E-03
-531.600E-06,-2.713567950E+00,+223.115575E-03
-530.400E-06,-2.713567950E+00,+220.140701E-03
-529.200E-06,-2.713567950E+00,+223.115576E-03
-528.000E-06,-2.677387044E+00,+223.115576E-03
-526.800E-06,-2.677387044E+00,+223.115576E-03
-525.600E-06,-2.677387044E+00,+226.090450E-03
-524.400E-06,-2.641206138E+00,+226.090450E-03
-523.200E-06,-2.641206138E+00,+229.065324E-03
-522.000E-06,-2.605025232E+00,+226.090450E-03
-520.800E-06,-2.605025232E+00,+229.065324E-03
-519.600E-06,-2.605025232E+00,+229.065324E-03
-518.400E-06,-2.605025232E+00,+229.065324E-03
-517.200E-06,-2.568844326E+00,+229.065324E-03
-516.000E-06,-2.568844326E+00,+235.015073E-03
-514.800E-06,-2.568844326E+00,+235.015073E-03
-513.600E-06,-2.568844326E+00,+235.015073E-03
-512.400E-06,-2.532663420E+00,+232.040199E-03
-511.200E-06,-2.532663420E+00,+235.015073E-03
-510.000E-06,-2.532663420E+00,+237.989947E-03
-508.800E-06,-2.496482514E+00,+235.015073E-03
-507.600E-06,-2.496482514E+00,+237.989947E-03
-506.400E-06,-2.460301608E+00,+235.015073E-03
-505.200E-06,-2.460301608E+00,+237.989947E-03
-504.000E-06,-2.460301608E+00,+237.989947E-03
-502.800E-06,-2.460301608E+00,+237.989947E-03
-501.600E-06,-2.424120702E+00,+240.964822E-03
-500.400E-06,-2.424120702E+00,+237.989947E-03
-499.200E-06,-2.387939796E+00,+237.989947E-03
-498.000E-06,-2.387939796E+00,+240.964822E-03
-496.800E-06,-2.387939796E+00,+240.964822E-03
-495.600E-06,-2.387939796E+00,+240.964822E-03
-494.400E-06,-2.351758890E+00,+240.964822E-03
-493.200E-06,-2.351758890E+00,+243.939696E-03
-492.000E-06,-2.315577984E+00,+243.939696E-03
-490.800E-06,-2.315577984E+00,+240.964822E-03
-489.600E-06,-2.279397078E+00,+240.964822E-03
-488.400E-06,-2.279397078E+00,+246.914570E-03
-487.200E-06,-2.279397078E+00,+243.939696E-03
-486.000E-06,-2.243216172E+00,+243.939696E-03
-484.800E-06,-2.243216172E+00,+243.939696E-03
-483.600E-06,-2.207035266E+00,+243.939696E-03
-482.400E-06,-2.207035266E+00,+246.914570E-03
-481.200E-06,-2.207035266E+00,+246.914570E-03
-480.000E-06,-2.170854360E+00,+246.914570E-03
-478.800E-06,-2.134673454E+00,+246.914570E-03
-477.600E-06,-2.170854360E+00,+243.939696E-03
-476.400E-06,-2.134673454E+00,+249.889445E-03
-475.200E-06,-2.098492548E+00,+243.939696E-03
-474.000E-06,-2.098492548E+00,+246.914570E-03
-472.800E-06,-2.062311642E+00,+249.889445E-03
-471.600E-06,-2.062311642E+00,+249.889445E-03
-470.400E-06,-2.062311642E+00,+246.914570E-03
-469.200E-06,-2.026130736E+00,+246.914570E-03
-468.000E-06,-2.026130736E+00,+249.889445E-03
-466.800E-06,-1.989949830E+00,+249.889445E-03
-465.600E-06,-1.989949830E+00,+249.889445E-03
-464.400E-06,-1.953768924E+00,+249.889445E-03
-463.200E-06,-1.917588018E+00,+246.914570E-03
-462.000E-06,-1.953768924E+00,+246.914570E-03
-460.800E-06,-1.917588018E+00,+249.889445E-03
-459.600E-06,-1.881407112E+00,+249.889445E-03
-458.400E-06,-1.845226206E+00,+249.889445E-03
-457.200E-06,-1.845226206E+00,+249.889445E-03
-456.000E-06,-1.845226206E+00,+246.914570E-03
-454.800E-06,-1.809045300E+00,+249.889445E-03
-453.600E-06,-1.772864394E+00,+246.914570E-03
-452.400E-06,-1.772864394E+00,+246.914570E-03
-451.200E-06,-1.772864394E+00,+246.914570E-03
-450.000E-06,-1.772864394E+00,+249.889445E-03
-448.800E-06,-1.736683488E+00,+249.889445E-03
-447.600E-06,-1.736683488E+00,+249.889445E-03
-446.400E-06,-1.664321676E+00,+249.889445E-03
-445.200E-06,-1.664321676E+00,+249.889445E-03
-444.000E-06,-1.628140770E+00,+246.914570E-03
-442.800E-06,-1.628140770E+00,+246.914570E-03
-441.600E-06,-1.591959864E+00,+249.889445E-03
-440.400E-06,-1.591959864E+00,+249.889445E-03
-439.200E-06,-1.591959864E+00,+243.939696E-03
-438.000E-06,-1.591959864E+00,+246.914570E-03
-436.800E-06,-1.555778958E+00,+246.914570E-03
-435.600E-06,-1.519598052E+00,+249.889445E-03
-434.400E-06,-1.483417146E+00,+246.914570E-03
-433.200E-06,-1.483417146E+00,+246.914570E-03
-432.000E-06,-1.447236240E+00,+243.939696E-03
-430.800E-06,-1.447236240E+00,+246.914570E-03
-429.600E-06,-1.447236240E+00,+246.914570E-03
-428.400E-06,-1.411055334E+00,+243.939696E-03
-427.200E-06,-1.374874428E+00,+243.939696E-03
-426.000E-06,-1.374874428E+00,+243.939696E-03
-424.800E-06,-1.338693522E+00,+243.939696E-03
-423.600E-06,-1.302512616E+00,+240.964822E-03
-422.400E-06,-1.302512616E+00,+243.939696E-03
-421.200E-06,-1.266331710E+00,+243.939696E-03
-420.000E-06,-1.266331710E+00,+240.964822E-03
-418.800E-06,-1.230150804E+00,+240.964822E-03
-417.600E-06,-1.230150804E+00,+240.964822E-03
-416.400E-06,-1.193969898E+00,+243.939696E-03
-415.200E-06,-1.193969898E+00,+240.964822E-03
-414.000E-06,-1.157788992E+00,+237.989947E-03
-412.800E-06,-1.121608086E+00,+240.964822E-03
-411.600E-06,-1.121608086E+00,+237.989947E-03
-410.400E-06,-1.085427180E+00,+237.989947E-03
-409.200E-06,-1.085427180E+00,+232.040199E-03
-408.000E-06,-1.049246274E+00,+235.015073E-03
-406.800E-06,-1.013065368E+00,+237.989947E-03
-405.600E-06,-1.013065368E+00,+232.040199E-03
-404.400E-06,-976.884462E-03,+235.015073E-03
-403.200E-06,-940.703556E-03,+235.015073E-03
-402.000E-06,-940.703556E-03,+235.015073E-03
-400.800E-06,-940.703556E-03,+232.040199E-03
-399.600E-06,-904.522650E-03,+235.015073E-03
-398.400E-06,-904.522650E-03,+232.040199E-03
-397.200E-06,-868.341744E-03,+229.065324E-03
-396.000E-06,-832.160838E-03,+235.015073E-03
-394.800E-06,-795.979932E-03,+229.065324E-03
-393.600E-06,-795.979932E-03,+232.040199E-03
-392.400E-06,-795.979932E-03,+229.065324E-03
-391.200E-06,-759.799026E-03,+226.090450E-03
-390.000E-06,-723.618120E-03,+229.065324E-03
-388.800E-06,-687.437214E-03,+226.090450E-03
-387.600E-06,-687.437214E-03,+223.115576E-03
-386.400E-06,-651.256308E-03,+226.090450E-03
-385.200E-06,-651.256308E-03,+226.090450E-03
-384.000E-06,-615.075402E-03,+226.090450E-03
-382.800E-06,-578.894496E-03,+223.115575E-03
-381.600E-06,-578.894496E-03,+223.115575E-03
-380.400E-06,-578.894496E-03,+220.140701E-03
-379.200E-06,-542.713590E-03,+220.140701E-03
-378.000E-06,-506.532684E-03,+217.165827E-03
-376.800E-06,-470.351778E-03,+217.165827E-03
-375.600E-06,-470.351778E-03,+217.165827E-03
-374.400E-06,-434.170872E-03,+214.190952E-03
-373.200E-06,-397.989966E-03,+217.165827E-03
-372.000E-06,-361.809060E-03,+211.216078E-03
-370.800E-06,-361.809060E-03,+211.216078E-03
-369.600E-06,-325.628154E-03,+211.216078E-03
-368.400E-06,-325.628154E-03,+208.241204E-03
-367.200E-06,-325.628154E-03,+211.216078E-03
-366.000E-06,-289.447248E-03,+208.241204E-03
-364.800E-06,-253.266342E-03,+208.241204E-03
-363.600E-06,-253.266342E-03,+205.266329E-03
-362.400E-06,-217.085436E-03,+205.266329E-03
-361.200E-06,-217.085436E-03,+205.266329E-03
-360.000E-06,-180.904530E-03,+205.266329E-03
-358.800E-06,-144.723624E-03,+202.291455E-03
-357.600E-06,-108.542718E-03,+202.291455E-03
-356.400E-06,-108.542718E-03,+199.316581E-03
-355.200E-06,-108.542718E-03,+199.316581E-03
-354.000E-06,-36.180906E-03,+196.341706E-03
-352.800E-06,-36.180906E-03,+196.341706E-03
-351.600E-06,-36.180906E-03,+199.316581E-03
-350.400E-06,+0.0E+00,+193.366832E-03
-349.200E-06,+36.180906E-03,+193.366832E-03
-348.000E-06,+72.361812E-03,+190.391958E-03
-346.800E-06,+108.542718E-03,+190.391958E-03
-345.600E-06,+72.361812E-03,+190.391958E-03
-344.400E-06,+108.542718E-03,+187.417083E-03
-343.200E-06,+144.723624E-03,+187.417083E-03
-342.000E-06,+180.904530E-03,+187.417083E-03
-340.800E-06,+180.904530E-03,+184.442209E-03
-339.600E-06,+217.085436E-03,+184.442209E-03
-338.400E-06,+253.266342E-03,+181.467335E-03
-337.200E-06,+253.266342E-03,+181.467335E-03
-336.000E-06,+253.266342E-03,+178.492460E-03
-334.800E-06,+325.628154E-03,+178.492460E-03
-333.600E-06,+325.628154E-03,+178.492460E-03
-332.400E-06,+325.628154E-03,+175.517586E-03
-331.200E-06,+361.809060E-03,+172.542712E-03
-330.000E-06,+361.809060E-03,+172.542712E-03
-328.800E-06,+397.989966E-03,+169.567837E-03
-327.600E-06,+434.170872E-03,+169.567837E-03
-326.400E-06,+434.170872E-03,+169.567837E-03
-325.200E-06,+470.351778E-03,+169.567837E-03
-324.000E-06,+506.532684E-03,+166.592963E-03
-322.800E-06,+506.532684E-03,+169.567837E-03
-321.600E-06,+542.713590E-03,+163.618089E-03
-320.400E-06,+578.894496E-03,+160.643214E-03
-319.200E-06,+578.894496E-03,+163.618089E-03
-318.000E-06,+615.075402E-03,+160.643214E-03
-316.800E-06,+615.075402E-03,+157.668340E-03
-315.600E-06,+651.256308E-03,+157.668340E-03
-314.400E-06,+651.256308E-03,+151.718591E-03
-313.200E-06,+687.437214E-03,+151.718591E-03
-312.000E-06,+723.618120E-03,+154.693466E-03
-310.800E-06,+723.618120E-03,+145.768843E-03
-309.600E-06,+759.799026E-03,+148.743717E-03
-308.400E-06,+759.799026E-03,+148.743717E-03
-307.200E-06,+795.979932E-03,+142.793968E-03
-306.000E-06,+832.160838E-03,+145.768843E-03
-304.800E-06,+832.160838E-03,+142.793968E-03
-303.600E-06,+868.341744E-03,+139.819094E-03
-302.400E-06,+904.522650E-03,+139.819094E-03
-301.200E-06,+904.522650E-03,+139.819094E-03
-300.000E-06,+904.522650E-03,+133.869345E-03
-298.800E-06,+940.703556E-03,+136.844220E-03
-297.600E-06,+976.884462E-03,+133.869345E-03
-296.400E-06,+1.013065368E+00,+130.894471E-03
-295.200E-06,+1.013065368E+00,+130.894471E-03
-294.000E-06,+1.049246274E+00,+127.919597E-03
-292.800E-06,+1.049246274E+00,+130.894471E-03
-291.600E-06,+1.085427180E+00,+124.944722E-03
-290.400E-06,+1.085427180E+00,+121.969848E-03
-289.200E-06,+1.121608086E+00,+124.944722E-03
-288.000E-06,+1.157788992E+00,+121.969848E-03
-286.800E-06,+1.157788992E+00,+121.969848E-03
-285.600E-06,+1.193969898E+00,+116.020099E-03
-284.400E-06,+1.193969898E+00,+118.994974E-03
-283.200E-06,+1.230150804E+00,+116.020099E-03
-282.000E-06,+1.266331710E+00,+110.070351E-03
-280.800E-06,+1.266331710E+00,+110.070351E-03
-279.600E-06,+1.266331710E+00,+107.095476E-03
-278.400E-06,+1.302512616E+00,+107.095476E-03
-277.200E-06,+1.338693522E+00,+101.145728E-03
-276.000E-06,+1.338693522E+00,+107.095476E-03
-274.800E-06,+1.374874428E+00,+101.145728E-03
-273.600E-06,+1.374874428E+00,+98.170853E-03
-272.400E-06,+1.411055334E+00,+98.170853E-03
-271.200E-06,+1.447236240E+00,+95.195979E-03
-270.000E-06,+1.447236240E+00,+98.170853E-03
-268.800E-06,+1.483417146E+00,+95.195979E-03
-267.600E-06,+1.483417146E+00,+89.246230E-03
-266.400E-06,+1.483417146E+00,+89.246230E-03
-265.200E-06,+1.519598052E+00,+86.271356E-03
-264.000E-06,+1.555778958E+00,+83.296482E-03
-262.800E-06,+1.555778958E+00,+83.296482E-03
-261.600E-06,+1.591959864E+00,+83.296482E-03
-260.400E-06,+1.591959864E+00,+80.321607E-03
-259.200E-06,+1.628140770E+00,+77.346733E-03
-258.000E-06,+1.628140770E+00,+77.346733E-03
-256.800E-06,+1.664321676E+00,+74.371858E-03
-255.600E-06,+1.664321676E+00,+71.396984E-03
-254.400E-06,+1.664321676E+00,+71.396984E-03
-253.200E-06,+1.736683488E+00,+68.422110E-03
-252.000E-06,+1.736683488E+00,+65.447235E-03
-250.800E-06,+1.736683488E+00,+68.422110E-03
-249.600E-06,+1.772864394E+00,+62.472361E-03
-248.400E-06,+1.772864394E+00,+62.472361E-03
-247.200E-06,+1.809045300E+00,+56.522612E-03
-246.000E-06,+1.845226206E+00,+56.522612E-03
-244.800E-06,+1.845226206E+00,+59.497487E-03
-243.600E-06,+1.845226206E+00,+53.547738E-03
-242.400E-06,+1.845226206E+00,+56.522612E-03
-241.200E-06,+1.881407112E+00,+50.572864E-03
-240.000E-06,+1.917588018E+00,+50.572864E-03
-238.800E-06,+1.953768924E+00,+47.597989E-03
-237.600E-06,+1.953768924E+00,+44.623115E-03
-236.400E-06,+1.953768924E+00,+41.648241E-03
-235.200E-06,+1.953768924E+00,+41.648241E-03
-234.000E-06,+1.989949830E+00,+38.673366E-03
-232.800E-06,+1.989949830E+00,+38.673366E-03
-231.600E-06,+2.026130736E+00,+38.673366E-03
-230.400E-06,+2.062311642E+00,+35.698492E-03
-229.200E-06,+2.062311642E+00,+32.723618E-03
-228.000E-06,+2.062311642E+00,+29.748743E-03
-226.800E-06,+2.098492548E+00,+26.773869E-03
-225.600E-06,+2.098492548E+00,+26.773869E-03
-224.400E-06,+2.134673454E+00,+26.773869E-03
-223.200E-06,+2.134673454E+00,+23.798995E-03
-222.000E-06,+2.134673454E+00,+17.849246E-03
-220.800E-06,+2.170854360E+00,+17.849246E-03
-219.600E-06,+2.170854360E+00,+17.849246E-03
-218.400E-06,+2.207035266E+00,+14.874372E-03
-217.200E-06,+2.207035266E+00,+17.849246E-03
-216.000E-06,+2.243216172E+00,+11.899497E-03
-214.800E-06,+2.243216172E+00,+11.899497E-03
-213.600E-06,+2.243216172E+00,+8.924623E-03
-212.400E-06,+2.243216172E+00,+2.974874E-03
-211.200E-06,+2.279397078E+00,+0.0E+00
-210.000E-06,+2.315577984E+00,+2.974874E-03
-208.800E-06,+2.315577984E+00,+0.0E+00
-207.600E-06,+2.315577984E+00,-2.974874E-03
-206.400E-06,+2.351758890E+00,-2.974874E-03
-205.200E-06,+2.351758890E+00,-5.949749E-03
-204.000E-06,+2.387939796E+00,-5.949749E-03
-202.800E-06,+2.387939796E+00,-8.924623E-03
-201.600E-06,+2.387939796E+00,-8.924623E-03
-200.400E-06,+2.387939796E+00,-11.899497E-03
-199.200E-06,+2.424120702E+00,-14.874372E-03
-198.000E-06,+2.424120702E+00,-11.899497E-03
-196.800E-06,+2.424120702E+00,-14.874372E-03
-195.600E-06,+2.460301608E+00,-17.849246E-03
-194.400E-06,+2.460301608E+00,-23.798995E-03
-193.200E-06,+2.496482514E+00,-23.798995E-03
-192.000E-06,+2.496482514E+00,-26.773869E-03
-190.800E-06,+2.496482514E+00,-29.748743E-03
-189.600E-06,+2.496482514E+00,-29.748743E-03
-188.400E-06,+2.532663420E+00,-29.748743E-03
-187.200E-06,+2.568844326E+00,-32.723618E-03
-186.000E-06,+2.568844326E+00,-32.723618E-03
-184.800E-06,+2.568844326E+00,-35.698492E-03
-183.600E-06,+2.568844326E+00,-38.673366E-03
-182.400E-06,+2.605025232E+00,-41.648241E-03
-181.200E-06,+2.605025232E+00,-44.623115E-03
-180.000E-06,+2.605025232E+00,-41.648241E-03
-178.800E-06,+2.605025232E+00,-44.623115E-03
-177.600E-06,+2.641206138E+00,-47.597989E-03
-176.400E-06,+2.641206138E+00,-50.572864E-03
-175.200E-06,+2.677387044E+00,-50.572864E-03
-174.000E-06,+2.641206138E+00,-53.547738E-03
-172.800E-06,+2.677387044E+00,-56.522612E-03
-171.600E-06,+2.677387044E+00,-53.547738E-03
-170.400E-06,+2.677387044E+00,-56.522612E-03
-169.200E-06,+2.677387044E+00,-59.497487E-03
-168.000E-06,+2.713567950E+00,-59.497487E-03
-166.800E-06,+2.713567950E+00,-65.447235E-03
-165.600E-06,+2.713567950E+00,-68.422110E-03
-164.400E-06,+2.749748856E+00,-68.422110E-03
-163.200E-06,+2.713567950E+00,-68.422110E-03
-162.000E-06,+2.749748856E+00,-74.371858E-03
-160.800E-06,+2.749748856E+00,-74.371858E-03
-159.600E-06,+2.749748856E+00,-74.371859E-03
-158.400E-06,+2.785929762E+00,-77.346733E-03
-157.200E-06,+2.749748856E+00,-80.321607E-03
-156.000E-06,+2.785929762E+00,-83.296482E-03
-154.800E-06,+2.785929762E+00,-83.296482E-03
-153.600E-06,+2.822110668E+00,-83.296482E-03
-152.400E-06,+2.822110668E+00,-86.271356E-03
-151.200E-06,+2.822110668E+00,-86.271356E-03
-150.000E-06,+2.822110668E+00,-89.246230E-03
-148.800E-06,+2.822110668E+00,-92.221105E-03
-147.600E-06,+2.822110668E+00,-92.221105E-03
-146.400E-06,+2.858291574E+00,-92.221105E-03
-145.200E-06,+2.822110668E+00,-98.170853E-03
-144.000E-06,+2.858291574E+00,-98.170853E-03
-142.800E-06,+2.858291574E+00,-101.145728E-03
-141.600E-06,+2.858291574E+00,-101.145728E-03
-140.400E-06,+2.894472480E+00,-104.120602E-03
-139.200E-06,+2.858291574E+00,-104.120602E-03
-138.000E-06,+2.894472480E+00,-107.095476E-03
-136.800E-06,+2.894472480E+00,-113.045225E-03
-135.600E-06,+2.894472480E+00,-113.045225E-03
-134.400E-06,+2.894472480E+00,-113.045225E-03
-133.200E-06,+2.894472480E+00,-113.045225E-03
-132.000E-06,+2.894472480E+00,-113.045225E-03
-130.800E-06,+2.930653386E+00,-116.020099E-03
-129.600E-06,+2.930653386E+00,-116.020099E-03
-128.400E-06,+2.894472480E+00,-121.969848E-03
-127.200E-06,+2.894472480E+00,-121.969848E-03
-126.000E-06,+2.930653386E+00,-124.944722E-03
-124.800E-06,+2.930653386E+00,-127.919597E-03
-123.600E-06,+2.930653386E+00,-127.919597E-03
-122.400E-06,+2.930653386E+00,-130.894471E-03
-121.200E-06,+2.930653386E+00,-130.894471E-03
-120.000E-06,+2.930653386E+00,-133.869345E-03
-118.800E-06,+2.930653386E+00,-133.869345E-03
-117.600E-06,+2.930653386E+00,-136.844220E-03
-116.400E-06,+2.930653386E+00,-136.844220E-03
-115.200E-06,+2.930653386E+00,-136.844220E-03
-114.000E-06,+2.966834292E+00,-136.844220E-03
-112.800E-06,+2.930653386E+00,-139.819094E-03
-111.600E-06,+2.966834292E+00,-142.793968E-03
-110.400E-06,+2.966834292E+00,-145.768843E-03
-109.200E-06,+2.966834292E+00,-148.743717E-03
-108.000E-06,+2.966834292E+00,-145.768843E-03
-106.800E-06,+2.930653386E+00,-148.743717E-03
-105.600E-06,+2.966834292E+00,-145.768843E-03
-104.400E-06,+2.966834292E+00,-151.718591E-03
-103.200E-06,+2.966834292E+00,-151.718591E-03
-102.000E-06,+2.966834292E+00,-154.693466E-03
-100.800E-06,+2.930653386E+00,-154.693466E-03
-99.600E-06,+2.966834292E+00,-160.643214E-03
-98.400E-06,+2.966834292E+00,-163.618089E-03
-97.200E-06,+2.966834292E+00,-166.592963E-03
-96.000E-06,+2.966834292E+00,-163.618089E-03
-94.800E-06,+2.930653386E+00,-163.618089E-03
-93.600E-06,+2.966834292E+00,-163.618089E-03
-92.400E-06,+2.966834292E+00,-166.592963E-03
-91.200E-06,+2.966834292E+00,-169.567837E-03
-90.000E-06,+2.930653386E+00,-172.542712E-03
-88.800E-06,+2.930653386E+00,-172.542712E-03
-87.600E-06,+2.930653386E+00,-172.542712E-03
-86.400E-06,+2.930653386E+00,-172.542712E-03
-85.200E-06,+2.930653386E+00,-175.517586E-03
-84.000E-06,+2.930653386E+00,-178.492460E-03
-82.800E-06,+2.894472480E+00,-178.492460E-03
-81.600E-06,+2.930653386E+00,-181.467335E-03
-80.400E-06,+2.930653386E+00,-181.467335E-03
-79.200E-06,+2.930653386E+00,-181.467335E-03
-78.000E-06,+2.930653386E+00,-181.467335E-03
-76.800E-06,+2.930653386E+00,-187.417083E-03
-75.600E-06,+2.930653386E+00,-187.417083E-03
-74.400E-06,+2.894472480E+00,-190.391958E-03
-73.200E-06,+2.894472480E+00,-190.391958E-03
-72.000E-06,+2.894472480E+00,-187.417083E-03
-70.800E-06,+2.930653386E+00,-193.366832E-03
-69.600E-06,+2.894472480E+00,-190.391958E-03
-68.400E-06,+2.894472480E+00,-193.366832E-03
-67.200E-06,+2.894472480E+00,-196.341706E-03
-66.000E-06,+2.894472480E+00,-193.366832E-03
-64.800E-06,+2.858291574E+00,-199.316581E-03
-63.600E-06,+2.894472480E+00,-196.341706E-03
-62.400E-06,+2.858291574E+00,-199.316581E-03
-61.200E-06,+2.858291574E+00,-202.291455E-03
-60.000E-06,+2.858291574E+00,-199.316581E-03
-58.800E-06,+2.858291574E+00,-205.266329E-03
-57.600E-06,+2.858291574E+00,-205.266329E-03
-56.400E-06,+2.822110668E+00,-205.266329E-03
-55.200E-06,+2.822110668E+00,-208.241204E-03
-54.000E-06,+2.822110668E+00,-208.241204E-03
-52.800E-06,+2.822110668E+00,-208.241204E-03
-51.600E-06,+2.822110668E+00,-211.216078E-03
-50.400E-06,+2.822110668E+00,-208.241204E-03
-49.200E-06,+2.822110668E+00,-208.241204E-03
-48.000E-06,+2.785929762E+00,-214.190952E-03
-46.800E-06,+2.785929762E+00,-214.190952E-03
-45.600E-06,+2.749748856E+00,-217.165827E-03
-44.400E-06,+2.785929762E+00,-214.190952E-03
-43.200E-06,+2.749748856E+00,-220.140701E-03
-42.000E-06,+2.749748856E+00,-220.140701E-03
-40.800E-06,+2.749748856E+00,-220.140701E-03
-39.600E-06,+2.749748856E+00,-220.140701E-03
-38.400E-06,+2.749748856E+00,-220.140701E-03
-37.200E-06,+2.713567950E+00,-220.140701E-03
-36.000E-06,+2.677387044E+00,-223.115575E-03
-34.800E-06,+2.713567950E+00,-223.115575E-03
-33.600E-06,+2.677387044E+00,-220.140701E-03
-32.400E-06,+2.677387044E+00,-226.090450E-03
-31.200E-06,+2.677387044E+00,-223.115576E-03
-30.000E-06,+2.677387044E+00,-226.090450E-03
-28.800E-06,+2.641206138E+00,-226.090450E-03
-27.600E-06,+2.641206138E+00,-229.065324E-03
-26.400E-06,+2.641206138E+00,-229.065324E-03
-25.200E-06,+2.605025232E+00,-229.065324E-03
-24.000E-06,+2.605025232E+00,-235.015073E-03
-22.800E-06,+2.605025232E+00,-232.040199E-03
-21.600E-06,+2.605025232E+00,-235.015073E-03
-20.400E-06,+2.605025232E+00,-232.040199E-03
-19.200E-06,+2.568844326E+00,-232.040199E-03
-18.000E-06,+2.532663420E+00,-235.015073E-03
-16.800E-06,+2.532663420E+00,-235.015073E-03
-15.600E-06,+2.532663420E+00,-235.015073E-03
-14.400E-06,+2.496482514E+00,-237.989947E-03
-13.200E-06,+2.496482514E+00,-237.989947E-03
-12.000E-06,+2.496482514E+00,-237.989947E-03
-10.800E-06,+2.496482514E+00,-237.989947E-03
-9.600E-06,+2.460301608E+00,-237.989947E-03
-8.400E-06,+2.460301608E+00,-237.989947E-03
-7.200E-06,+2.460301608E+00,-240.964822E-03
-6.000E-06,+2.424120702E+00,-240.964822E-03
-4.800E-06,+2.424120702E+00,-240.964822E-03
-3.600E-06,+2.424120702E+00,-240.964822E-03
-2.400E-06,+2.387939796E+00,-240.964822E-03
-1.200E-06,+2.387939796E+00,-243.939696E-03
+0.0E+00,+2.351758890E+00,-240.964822E-03
+1.200E-06,+2.351758890E+00,-243.939696E-03
+2.400E-06,+2.351758890E+00,-243.939696E-03
+3.600E-06,+2.315577984E+00,-246.914570E-03
+4.800E-06,+2.315577984E+00,-243.939696E-03
+6.000E-06,+2.315577984E+00,-246.914570E-03
+7.200E-06,+2.315577984E+00,-246.914570E-03
+8.400E-06,+2.279397078E+00,-246.914570E-03
+9.600E-06,+2.279397078E+00,-243.939696E-03
+10.800E-06,+2.243216172E+00,-246.914570E-03
+12.000E-06,+2.243216172E+00,-243.939696E-03
+13.200E-06,+2.207035266E+00,-246.914570E-03
+14.400E-06,+2.170854360E+00,-249.889445E-03
+15.600E-06,+2.207035266E+00,-246.914570E-03
+16.800E-06,+2.170854360E+00,-249.889445E-03
+18.000E-06,+2.134673454E+00,-249.889445E-03
+19.200E-06,+2.134673454E+00,-249.889445E-03
+20.400E-06,+2.134673454E+00,-243.939696E-03
+21.600E-06,+2.098492548E+00,-249.889445E-03
+22.800E-06,+2.098492548E+00,-249.889445E-03
+24.000E-06,+2.062311642E+00,-249.889445E-03
+25.200E-06,+2.062311642E+00,-252.864319E-03
+26.400E-06,+2.026130736E+00,-249.889445E-03
+27.600E-06,+2.026130736E+00,-249.889445E-03
+28.800E-06,+2.026130736E+00,-252.864319E-03
+30.000E-06,+1.989949830E+00,-249.889445E-03
+31.200E-06,+1.989949830E+00,-249.889445E-03
+32.400E-06,+1.989949830E+00,-252.864319E-03
+33.600E-06,+1.953768924E+00,-249.889445E-03
+34.800E-06,+1.953768924E+00,-249.889445E-03
+36.000E-06,+1.917588018E+00,-249.889445E-03
+37.200E-06,+1.917588018E+00,-255.839193E-03
+38.400E-06,+1.881407112E+00,-252.864319E-03
+39.600E-06,+1.881407112E+00,-252.864319E-03
+40.800E-06,+1.809045300E+00,-249.889445E-03
+42.000E-06,+1.809045300E+00,-249.889445E-03
+43.200E-06,+1.809045300E+00,-249.889445E-03
+44.400E-06,+1.809045300E+00,-252.864319E-03
+45.600E-06,+1.772864394E+00,-255.839193E-03
+46.800E-06,+1.736683488E+00,-249.889445E-03
+48.000E-06,+1.736683488E+00,-255.839193E-03
+49.200E-06,+1.736683488E+00,-252.864319E-03
+50.400E-06,+1.700502582E+00,-249.889445E-03
+51.600E-06,+1.664321676E+00,-252.864319E-03
+52.800E-06,+1.700502582E+00,-255.839193E-03
+54.000E-06,+1.664321676E+00,-249.889445E-03
+55.200E-06,+1.628140770E+00,-252.864319E-03
+56.400E-06,+1.628140770E+00,-249.889445E-03
+57.600E-06,+1.591959864E+00,-252.864319E-03
+58.800E-06,+1.591959864E+00,-249.889445E-03
+60.000E-06,+1.555778958E+00,-252.864319E-03
+61.200E-06,+1.519598052E+00,-249.889445E-03
+62.400E-06,+1.519598052E+00,-249.889445E-03
+63.600E-06,+1.483417146E+00,-246.914570E-03
+64.800E-06,+1.483417146E+00,-249.889445E-03
+66.000E-06,+1.447236240E+00,-249.889445E-03
+67.200E-06,+1.411055334E+00,-249.889445E-03
+68.400E-06,+1.411055334E+00,-249.889445E-03
+69.600E-06,+1.411055334E+00,-246.914570E-03
+70.800E-06,+1.374874428E+00,-246.914570E-03
+72.000E-06,+1.374874428E+00,-249.889445E-03
+73.200E-06,+1.374874428E+00,-249.889445E-03
+74.400E-06,+1.302512616E+00,-243.939696E-03
+75.600E-06,+1.302512616E+00,-246.914570E-03
+76.800E-06,+1.302512616E+00,-246.914570E-03
+78.000E-06,+1.266331710E+00,-246.914570E-03
+79.200E-06,+1.230150804E+00,-243.939696E-03
+80.400E-06,+1.230150804E+00,-243.939696E-03
+81.600E-06,+1.193969898E+00,-240.964822E-03
+82.800E-06,+1.157788992E+00,-246.914570E-03
+84.000E-06,+1.157788992E+00,-243.939696E-03
+85.200E-06,+1.121608086E+00,-240.964822E-03
+86.400E-06,+1.085427180E+00,-240.964822E-03
+87.600E-06,+1.085427180E+00,-243.939696E-03
+88.800E-06,+1.085427180E+00,-240.964822E-03
+90.000E-06,+1.049246274E+00,-240.964822E-03
+91.200E-06,+1.013065368E+00,-240.964822E-03
+92.400E-06,+1.013065368E+00,-240.964822E-03
+93.600E-06,+976.884462E-03,-237.989947E-03
+94.800E-06,+976.884462E-03,-237.989947E-03
+96.000E-06,+940.703556E-03,-237.989947E-03
+97.200E-06,+904.522650E-03,-237.989947E-03
+98.400E-06,+904.522650E-03,-235.015073E-03
+99.600E-06,+868.341744E-03,-237.989947E-03
+100.800E-06,+832.160838E-03,-235.015073E-03
+102.000E-06,+832.160838E-03,-235.015073E-03
+103.200E-06,+795.979932E-03,-235.015073E-03
+104.400E-06,+759.799026E-03,-235.015073E-03
+105.600E-06,+759.799026E-03,-232.040199E-03
+106.800E-06,+759.799026E-03,-232.040199E-03
+108.000E-06,+723.618120E-03,-229.065324E-03
+109.200E-06,+723.618120E-03,-232.040199E-03
+110.400E-06,+687.437214E-03,-232.040199E-03
+111.600E-06,+651.256308E-03,-229.065324E-03
+112.800E-06,+651.256308E-03,-229.065324E-03
+114.000E-06,+615.075402E-03,-226.090450E-03
+115.200E-06,+578.894496E-03,-229.065324E-03
+116.400E-06,+578.894496E-03,-226.090450E-03
+117.600E-06,+542.713590E-03,-226.090450E-03
+118.800E-06,+506.532684E-03,-226.090450E-03
+120.000E-06,+506.532684E-03,-223.115576E-03
+121.200E-06,+470.351778E-03,-223.115575E-03
+122.400E-06,+470.351778E-03,-223.115575E-03
+123.600E-06,+434.170872E-03,-217.165827E-03
+124.800E-06,+434.170872E-03,-223.115575E-03
+126.000E-06,+397.989966E-03,-217.165827E-03
+127.200E-06,+361.809060E-03,-217.165827E-03
+128.400E-06,+361.809060E-03,-214.190952E-03
+129.600E-06,+325.628154E-03,-217.165827E-03
+130.800E-06,+325.628154E-03,-220.140701E-03
+132.000E-06,+253.266342E-03,-217.165827E-03
+133.200E-06,+253.266342E-03,-214.190952E-03
+134.400E-06,+253.266342E-03,-214.190952E-03
+135.600E-06,+217.085436E-03,-208.241204E-03
+136.800E-06,+180.904530E-03,-211.216078E-03
+138.000E-06,+180.904530E-03,-208.241204E-03
+139.200E-06,+144.723624E-03,-205.266329E-03
+140.400E-06,+108.542718E-03,-202.291455E-03
+141.600E-06,+108.542718E-03,-208.241204E-03
+142.800E-06,+72.361812E-03,-205.266329E-03
+144.000E-06,+36.180906E-03,-205.266329E-03
+145.200E-06,+36.180906E-03,-202.291455E-03
+146.400E-06,+36.180906E-03,-199.316581E-03
+147.600E-06,+0.0E+00,-199.316581E-03
+148.800E-06,-36.180906E-03,-199.316581E-03
+150.000E-06,-36.180906E-03,-196.341706E-03
+151.200E-06,-108.542718E-03,-196.341706E-03
+152.400E-06,-72.361812E-03,-196.341706E-03
+153.600E-06,-108.542718E-03,-193.366832E-03
+154.800E-06,-144.723624E-03,-190.391958E-03
+156.000E-06,-180.904530E-03,-193.366832E-03
+157.200E-06,-180.904530E-03,-190.391958E-03
+158.400E-06,-180.904530E-03,-187.417083E-03
+159.600E-06,-217.085436E-03,-190.391958E-03
+160.800E-06,-253.266342E-03,-187.417083E-03
+162.000E-06,-289.447248E-03,-184.442209E-03
+163.200E-06,-289.447248E-03,-187.417083E-03
+164.400E-06,-325.628154E-03,-181.467335E-03
+165.600E-06,-361.809060E-03,-178.492460E-03
+166.800E-06,-361.809060E-03,-181.467335E-03
+168.000E-06,-397.989966E-03,-178.492460E-03
+169.200E-06,-397.989966E-03,-178.492460E-03
+170.400E-06,-434.170872E-03,-178.492460E-03
+171.600E-06,-434.170872E-03,-172.542712E-03
+172.800E-06,-470.351778E-03,-172.542712E-03
+174.000E-06,-506.532684E-03,-172.542712E-03
+175.200E-06,-542.713590E-03,-172.542712E-03
+176.400E-06,-542.713590E-03,-166.592963E-03
+177.600E-06,-578.894496E-03,-166.592963E-03
+178.800E-06,-578.894496E-03,-166.592963E-03
+180.000E-06,-615.075402E-03,-163.618089E-03
+181.200E-06,-651.256308E-03,-160.643214E-03
+182.400E-06,-651.256308E-03,-163.618089E-03
+183.600E-06,-687.437214E-03,-160.643214E-03
+184.800E-06,-687.437214E-03,-160.643214E-03
+186.000E-06,-723.618120E-03,-157.668340E-03
+187.200E-06,-723.618120E-03,-154.693466E-03
+188.400E-06,-759.799026E-03,-151.718591E-03
+189.600E-06,-795.979932E-03,-151.718591E-03
+190.800E-06,-795.979932E-03,-151.718591E-03
+192.000E-06,-832.160838E-03,-148.743717E-03
+193.200E-06,-868.341744E-03,-148.743717E-03
+194.400E-06,-868.341744E-03,-145.768843E-03
+195.600E-06,-904.522650E-03,-145.768843E-03
+196.800E-06,-940.703556E-03,-142.793968E-03
+198.000E-06,-940.703556E-03,-139.819094E-03
+199.200E-06,-940.703556E-03,-142.793968E-03
+200.400E-06,-976.884462E-03,-139.819094E-03
+201.600E-06,-976.884462E-03,-139.819094E-03
+202.800E-06,-1.013065368E+00,-139.819094E-03
+204.000E-06,-1.049246274E+00,-133.869345E-03
+205.200E-06,-1.085427180E+00,-130.894471E-03
+206.400E-06,-1.085427180E+00,-127.919597E-03
+207.600E-06,-1.085427180E+00,-127.919597E-03
+208.800E-06,-1.121608086E+00,-130.894471E-03
+210.000E-06,-1.157788992E+00,-124.944722E-03
+211.200E-06,-1.157788992E+00,-124.944722E-03
+212.400E-06,-1.193969898E+00,-121.969848E-03
+213.600E-06,-1.193969898E+00,-116.020099E-03
+214.800E-06,-1.230150804E+00,-121.969848E-03
+216.000E-06,-1.230150804E+00,-116.020099E-03
+217.200E-06,-1.266331710E+00,-116.020099E-03
+218.400E-06,-1.266331710E+00,-113.045225E-03
+219.600E-06,-1.338693522E+00,-113.045225E-03
+220.800E-06,-1.338693522E+00,-110.070351E-03
+222.000E-06,-1.338693522E+00,-113.045225E-03
+223.200E-06,-1.374874428E+00,-110.070351E-03
+224.400E-06,-1.411055334E+00,-104.120602E-03
+225.600E-06,-1.411055334E+00,-104.120602E-03
+226.800E-06,-1.411055334E+00,-101.145728E-03
+228.000E-06,-1.447236240E+00,-101.145728E-03
+229.200E-06,-1.447236240E+00,-98.170853E-03
+230.400E-06,-1.483417146E+00,-98.170853E-03
+231.600E-06,-1.555778958E+00,-95.195979E-03
+232.800E-06,-1.555778958E+00,-92.221105E-03
+234.000E-06,-1.555778958E+00,-92.221105E-03
+235.200E-06,-1.555778958E+00,-89.246230E-03
+236.400E-06,-1.591959864E+00,-86.271356E-03
+237.600E-06,-1.628140770E+00,-86.271356E-03
+238.800E-06,-1.628140770E+00,-86.271356E-03
+240.000E-06,-1.628140770E+00,-83.296482E-03
+241.200E-06,-1.664321676E+00,-80.321607E-03
+242.400E-06,-1.664321676E+00,-77.346733E-03
+243.600E-06,-1.700502582E+00,-74.371858E-03
+244.800E-06,-1.736683488E+00,-77.346733E-03
+246.000E-06,-1.736683488E+00,-74.371858E-03
+247.200E-06,-1.772864394E+00,-74.371858E-03
+248.400E-06,-1.772864394E+00,-71.396984E-03
+249.600E-06,-1.772864394E+00,-68.422110E-03
+250.800E-06,-1.809045300E+00,-68.422110E-03
+252.000E-06,-1.809045300E+00,-62.472361E-03
+253.200E-06,-1.845226206E+00,-62.472361E-03
+254.400E-06,-1.881407112E+00,-62.472361E-03
+255.600E-06,-1.881407112E+00,-59.497487E-03
+256.800E-06,-1.881407112E+00,-59.497487E-03
+258.000E-06,-1.917588018E+00,-56.522612E-03
+259.200E-06,-1.953768924E+00,-50.572864E-03
+260.400E-06,-1.953768924E+00,-50.572864E-03
+261.600E-06,-1.989949830E+00,-50.572864E-03
+262.800E-06,-1.989949830E+00,-50.572864E-03
+264.000E-06,-1.989949830E+00,-44.623115E-03
+265.200E-06,-2.026130736E+00,-44.623115E-03
+266.400E-06,-2.062311642E+00,-44.623115E-03
+267.600E-06,-2.062311642E+00,-41.648241E-03
+268.800E-06,-2.062311642E+00,-41.648241E-03
+270.000E-06,-2.062311642E+00,-38.673366E-03
+271.200E-06,-2.098492548E+00,-35.698492E-03
+272.400E-06,-2.134673454E+00,-35.698492E-03
+273.600E-06,-2.134673454E+00,-32.723618E-03
+274.800E-06,-2.134673454E+00,-29.748743E-03
+276.000E-06,-2.170854360E+00,-26.773869E-03
+277.200E-06,-2.170854360E+00,-26.773869E-03
+278.400E-06,-2.207035266E+00,-23.798995E-03
+279.600E-06,-2.207035266E+00,-20.824120E-03
+280.800E-06,-2.243216172E+00,-23.798995E-03
+282.000E-06,-2.243216172E+00,-14.874372E-03
+283.200E-06,-2.243216172E+00,-14.874372E-03
+284.400E-06,-2.243216172E+00,-11.899497E-03
+285.600E-06,-2.279397078E+00,-14.874372E-03
+286.800E-06,-2.315577984E+00,-8.924623E-03
+288.000E-06,-2.315577984E+00,-5.949749E-03
+289.200E-06,-2.315577984E+00,-5.949749E-03
+290.400E-06,-2.351758890E+00,-2.974874E-03
+291.600E-06,-2.351758890E+00,-2.974874E-03
+292.800E-06,-2.351758890E+00,+0.0E+00
+294.000E-06,-2.387939796E+00,+0.0E+00
+295.200E-06,-2.387939796E+00,+5.949749E-03
+296.400E-06,-2.387939796E+00,+5.949749E-03
+297.600E-06,-2.424120702E+00,+5.949749E-03
+298.800E-06,-2.424120702E+00,+5.949749E-03
+300.000E-06,-2.460301608E+00,+8.924623E-03
+301.200E-06,-2.460301608E+00,+8.924623E-03
+302.400E-06,-2.460301608E+00,+11.899497E-03
+303.600E-06,-2.496482514E+00,+14.874372E-03
+304.800E-06,-2.496482514E+00,+14.874372E-03
+306.000E-06,-2.532663420E+00,+14.874372E-03
+307.200E-06,-2.532663420E+00,+20.824120E-03
+308.400E-06,-2.532663420E+00,+23.798995E-03
+309.600E-06,-2.532663420E+00,+23.798995E-03
+310.800E-06,-2.568844326E+00,+26.773869E-03
+312.000E-06,-2.568844326E+00,+32.723618E-03
+313.200E-06,-2.568844326E+00,+29.748743E-03
+314.400E-06,-2.605025232E+00,+32.723618E-03
+315.600E-06,-2.605025232E+00,+35.698492E-03
+316.800E-06,-2.641206138E+00,+38.673366E-03
+318.000E-06,-2.641206138E+00,+38.673366E-03
+319.200E-06,-2.641206138E+00,+38.673366E-03
+320.400E-06,-2.641206138E+00,+44.623115E-03
+321.600E-06,-2.641206138E+00,+44.623115E-03
+322.800E-06,-2.641206138E+00,+41.648241E-03
+324.000E-06,-2.677387044E+00,+47.597989E-03
+325.200E-06,-2.713567950E+00,+47.597989E-03
+326.400E-06,-2.713567950E+00,+50.572864E-03
+327.600E-06,-2.713567950E+00,+47.597989E-03
+328.800E-06,-2.713567950E+00,+53.547738E-03
+330.000E-06,-2.749748856E+00,+56.522612E-03
+331.200E-06,-2.749748856E+00,+59.497487E-03
+332.400E-06,-2.785929762E+00,+59.497487E-03
+333.600E-06,-2.749748856E+00,+62.472361E-03
+334.800E-06,-2.749748856E+00,+62.472361E-03
+336.000E-06,-2.785929762E+00,+65.447235E-03
+337.200E-06,-2.785929762E+00,+68.422110E-03
+338.400E-06,-2.785929762E+00,+68.422110E-03
+339.600E-06,-2.822110668E+00,+71.396984E-03
+340.800E-06,-2.785929762E+00,+74.371858E-03
+342.000E-06,-2.822110668E+00,+71.396984E-03
+343.200E-06,-2.822110668E+00,+77.346733E-03
+344.400E-06,-2.822110668E+00,+77.346733E-03
+345.600E-06,-2.858291574E+00,+80.321607E-03
+346.800E-06,-2.858291574E+00,+83.296482E-03
+348.000E-06,-2.858291574E+00,+86.271356E-03
+349.200E-06,-2.858291574E+00,+86.271356E-03
+350.400E-06,-2.858291574E+00,+89.246230E-03
+351.600E-06,-2.894472480E+00,+89.246230E-03
+352.800E-06,-2.858291574E+00,+92.221105E-03
+354.000E-06,-2.894472480E+00,+95.195979E-03
+355.200E-06,-2.894472480E+00,+98.170853E-03
+356.400E-06,-2.894472480E+00,+98.170853E-03
+357.600E-06,-2.894472480E+00,+98.170853E-03
+358.800E-06,-2.894472480E+00,+101.145728E-03
+360.000E-06,-2.894472480E+00,+101.145728E-03
+361.200E-06,-2.930653386E+00,+104.120602E-03
+362.400E-06,-2.930653386E+00,+104.120602E-03
+363.600E-06,-2.930653386E+00,+107.095476E-03
+364.800E-06,-2.930653386E+00,+107.095476E-03
+366.000E-06,-2.930653386E+00,+110.070351E-03
+367.200E-06,-2.930653386E+00,+110.070351E-03
+368.400E-06,-2.930653386E+00,+113.045225E-03
+369.600E-06,-2.930653386E+00,+118.994974E-03
+370.800E-06,-2.966834292E+00,+116.020099E-03
+372.000E-06,-2.930653386E+00,+116.020099E-03
+373.200E-06,-2.966834292E+00,+118.994974E-03
+374.400E-06,-2.966834292E+00,+121.969848E-03
+375.600E-06,-2.966834292E+00,+118.994974E-03
+376.800E-06,-2.966834292E+00,+124.944722E-03
+378.000E-06,-2.966834292E+00,+127.919597E-03
+379.200E-06,-2.966834292E+00,+127.919597E-03
+380.400E-06,-3.003015198E+00,+130.894471E-03
+381.600E-06,-3.003015198E+00,+133.869345E-03
+382.800E-06,-3.003015198E+00,+136.844220E-03
+384.000E-06,-2.966834292E+00,+133.869345E-03
+385.200E-06,-2.966834292E+00,+136.844220E-03
+386.400E-06,-3.003015198E+00,+136.844220E-03
+387.600E-06,-3.003015198E+00,+136.844220E-03
+388.800E-06,-3.003015198E+00,+139.819094E-03
+390.000E-06,-2.966834292E+00,+145.768843E-03
+391.200E-06,-3.003015198E+00,+139.819094E-03
+392.400E-06,-3.003015198E+00,+142.793968E-03
+393.600E-06,-2.966834292E+00,+145.768843E-03
+394.800E-06,-3.003015198E+00,+148.743717E-03
+396.000E-06,-3.003015198E+00,+148.743717E-03
+397.200E-06,-3.003015198E+00,+151.718591E-03
+398.400E-06,-3.003015198E+00,+154.693466E-03
+399.600E-06,-3.003015198E+00,+154.693466E-03
+400.800E-06,-3.003015198E+00,+154.693466E-03
+402.000E-06,-3.003015198E+00,+160.643214E-03
+403.200E-06,-2.966834292E+00,+157.668340E-03
+404.400E-06,-3.003015198E+00,+157.668340E-03
+405.600E-06,-3.003015198E+00,+160.643214E-03
+406.800E-06,-2.966834292E+00,+166.592963E-03
+408.000E-06,-3.003015198E+00,+166.592963E-03
+409.200E-06,-3.003015198E+00,+169.567837E-03
+410.400E-06,-3.003015198E+00,+166.592963E-03
+411.600E-06,-3.003015198E+00,+169.567837E-03
+412.800E-06,-2.966834292E+00,+166.592963E-03
+414.000E-06,-2.966834292E+00,+169.567837E-03
+415.200E-06,-2.966834292E+00,+175.517586E-03
+416.400E-06,-2.966834292E+00,+175.517586E-03
+417.600E-06,-2.966834292E+00,+175.517586E-03
+418.800E-06,-2.966834292E+00,+181.467335E-03
+420.000E-06,-2.966834292E+00,+178.492460E-03
+421.200E-06,-2.930653386E+00,+181.467335E-03
+422.400E-06,-2.966834292E+00,+181.467335E-03
+423.600E-06,-2.966834292E+00,+181.467335E-03
+424.800E-06,-2.930653386E+00,+184.442209E-03
+426.000E-06,-2.966834292E+00,+184.442209E-03
+427.200E-06,-2.966834292E+00,+184.442209E-03
+428.400E-06,-2.930653386E+00,+187.417083E-03
+429.600E-06,-2.930653386E+00,+187.417083E-03
+430.800E-06,-2.930653386E+00,+190.391958E-03
+432.000E-06,-2.930653386E+00,+190.391958E-03
+433.200E-06,-2.930653386E+00,+190.391958E-03
+434.400E-06,-2.930653386E+00,+193.366832E-03
+435.600E-06,-2.894472480E+00,+196.341706E-03
+436.800E-06,-2.894472480E+00,+196.341706E-03
+438.000E-06,-2.930653386E+00,+199.316581E-03
+439.200E-06,-2.930653386E+00,+196.341706E-03
+440.400E-06,-2.894472480E+00,+202.291455E-03
+441.600E-06,-2.894472480E+00,+199.316581E-03
+442.800E-06,-2.894472480E+00,+199.316581E-03
+444.000E-06,-2.858291574E+00,+199.316581E-03
+445.200E-06,-2.858291574E+00,+205.266329E-03
+446.400E-06,-2.858291574E+00,+202.291455E-03
+447.600E-06,-2.858291574E+00,+205.266329E-03
+448.800E-06,-2.858291574E+00,+208.241204E-03
+450.000E-06,-2.858291574E+00,+211.216078E-03
+451.200E-06,-2.822110668E+00,+211.216078E-03
+452.400E-06,-2.822110668E+00,+211.216078E-03
+453.600E-06,-2.822110668E+00,+211.216078E-03
+454.800E-06,-2.822110668E+00,+214.190952E-03
+456.000E-06,-2.785929762E+00,+214.190952E-03
+457.200E-06,-2.785929762E+00,+214.190952E-03
+458.400E-06,-2.785929762E+00,+214.190952E-03
+459.600E-06,-2.785929762E+00,+217.165827E-03
+460.800E-06,-2.749748856E+00,+217.165827E-03
+462.000E-06,-2.749748856E+00,+214.190952E-03
+463.200E-06,-2.749748856E+00,+217.165827E-03
+464.400E-06,-2.749748856E+00,+223.115575E-03
+465.600E-06,-2.749748856E+00,+220.140701E-03
+466.800E-06,-2.713567950E+00,+223.115575E-03
+468.000E-06,-2.713567950E+00,+223.115576E-03
+469.200E-06,-2.713567950E+00,+223.115575E-03
+470.400E-06,-2.677387044E+00,+223.115576E-03
+471.600E-06,-2.677387044E+00,+226.090450E-03
+472.800E-06,-2.677387044E+00,+226.090450E-03
+474.000E-06,-2.677387044E+00,+226.090450E-03
+475.200E-06,-2.677387044E+00,+226.090450E-03
+476.400E-06,-2.641206138E+00,+229.065324E-03
+477.600E-06,-2.641206138E+00,+229.065324E-03
+478.800E-06,-2.641206138E+00,+232.040199E-03
+480.000E-06,-2.605025232E+00,+229.065324E-03
+481.200E-06,-2.605025232E+00,+232.040199E-03
+482.400E-06,-2.605025232E+00,+232.040199E-03
+483.600E-06,-2.605025232E+00,+229.065324E-03
+484.800E-06,-2.568844326E+00,+235.015073E-03
+486.000E-06,-2.568844326E+00,+232.040199E-03
+487.200E-06,-2.532663420E+00,+237.989947E-03
+488.400E-06,-2.532663420E+00,+235.015073E-03
+489.600E-06,-2.532663420E+00,+232.040199E-03
+490.800E-06,-2.532663420E+00,+237.989947E-03
+492.000E-06,-2.496482514E+00,+235.015073E-03
+493.200E-06,-2.460301608E+00,+237.989947E-03
+494.400E-06,-2.460301608E+00,+235.015073E-03
+495.600E-06,-2.424120702E+00,+240.964822E-03
+496.800E-06,-2.460301608E+00,+240.964822E-03
+498.000E-06,-2.424120702E+00,+240.964822E-03
+499.200E-06,-2.424120702E+00,+237.989947E-03
+500.400E-06,-2.424120702E+00,+240.964822E-03
+501.600E-06,-2.387939796E+00,+240.964822E-03
+502.800E-06,-2.387939796E+00,+243.939696E-03
+504.000E-06,-2.351758890E+00,+243.939696E-03
+505.200E-06,-2.351758890E+00,+240.964822E-03
+506.400E-06,-2.315577984E+00,+243.939696E-03
+507.600E-06,-2.315577984E+00,+243.939696E-03
+508.800E-06,-2.279397078E+00,+243.939696E-03
+510.000E-06,-2.279397078E+00,+243.939696E-03
+511.200E-06,-2.279397078E+00,+240.964822E-03
+512.400E-06,-2.279397078E+00,+243.939696E-03
+513.600E-06,-2.243216172E+00,+246.914570E-03
+514.800E-06,-2.243216172E+00,+249.889445E-03
+516.000E-06,-2.243216172E+00,+246.914570E-03
+517.200E-06,-2.207035266E+00,+246.914570E-03
+518.400E-06,-2.170854360E+00,+246.914570E-03
+519.600E-06,-2.170854360E+00,+246.914570E-03
+520.800E-06,-2.170854360E+00,+246.914570E-03
+522.000E-06,-2.134673454E+00,+246.914570E-03
+523.200E-06,-2.134673454E+00,+246.914570E-03
+524.400E-06,-2.098492548E+00,+246.914570E-03
+525.600E-06,-2.098492548E+00,+246.914570E-03
+526.800E-06,-2.062311642E+00,+246.914570E-03
+528.000E-06,-2.062311642E+00,+246.914570E-03
+529.200E-06,-2.062311642E+00,+246.914570E-03
+530.400E-06,-2.026130736E+00,+249.889445E-03
+531.600E-06,-1.989949830E+00,+249.889445E-03
+532.800E-06,-1.989949830E+00,+246.914570E-03
+534.000E-06,-1.989949830E+00,+249.889445E-03
+535.200E-06,-1.953768924E+00,+246.914570E-03
+536.400E-06,-1.953768924E+00,+249.889445E-03
+537.600E-06,-1.953768924E+00,+249.889445E-03
+538.800E-06,-1.881407112E+00,+246.914570E-03
+540.000E-06,-1.917588018E+00,+252.864319E-03
+541.200E-06,-1.881407112E+00,+246.914570E-03
+542.400E-06,-1.845226206E+00,+249.889445E-03
+543.600E-06,-1.845226206E+00,+246.914570E-03
+544.800E-06,-1.809045300E+00,+246.914570E-03
+546.000E-06,-1.809045300E+00,+249.889445E-03
+547.200E-06,-1.809045300E+00,+249.889445E-03
+548.400E-06,-1.772864394E+00,+246.914570E-03
+549.600E-06,-1.772864394E+00,+243.939696E-03
+550.800E-06,-1.736683488E+00,+246.914570E-03
+552.000E-06,-1.700502582E+00,+249.889445E-03
+553.200E-06,-1.700502582E+00,+246.914570E-03
+554.400E-06,-1.664321676E+00,+249.889445E-03
+555.600E-06,-1.664321676E+00,+246.914570E-03
+556.800E-06,-1.628140770E+00,+246.914570E-03
+558.000E-06,-1.628140770E+00,+246.914570E-03
+559.200E-06,-1.591959864E+00,+243.939696E-03
+560.400E-06,-1.591959864E+00,+246.914570E-03
+561.600E-06,-1.555778958E+00,+249.889445E-03
+562.800E-06,-1.555778958E+00,+243.939696E-03
+564.000E-06,-1.519598052E+00,+243.939696E-03
+565.200E-06,-1.483417146E+00,+246.914570E-03
+566.400E-06,-1.483417146E+00,+243.939696E-03
+567.600E-06,-1.447236240E+00,+246.914570E-03
+568.800E-06,-1.447236240E+00,+246.914570E-03
+570.000E-06,-1.447236240E+00,+243.939696E-03
+571.200E-06,-1.411055334E+00,+246.914570E-03
+572.400E-06,-1.374874428E+00,+243.939696E-03
+573.600E-06,-1.374874428E+00,+240.964822E-03
+574.800E-06,-1.338693522E+00,+243.939696E-03
+576.000E-06,-1.302512616E+00,+240.964822E-03
+577.200E-06,-1.302512616E+00,+240.964822E-03
+578.400E-06,-1.302512616E+00,+240.964822E-03
+579.600E-06,-1.266331710E+00,+240.964822E-03
+580.800E-06,-1.230150804E+00,+237.989947E-03
+582.000E-06,-1.230150804E+00,+237.989947E-03
+583.200E-06,-1.193969898E+00,+237.989947E-03
+584.400E-06,-1.193969898E+00,+240.964822E-03
+585.600E-06,-1.157788992E+00,+237.989947E-03
+586.800E-06,-1.121608086E+00,+237.989947E-03
+588.000E-06,-1.121608086E+00,+237.989947E-03
+589.200E-06,-1.085427180E+00,+237.989947E-03
+590.400E-06,-1.085427180E+00,+240.964822E-03
+591.600E-06,-1.049246274E+00,+235.015073E-03
+592.800E-06,-1.013065368E+00,+237.989947E-03
+594.000E-06,-1.013065368E+00,+237.989947E-03
+595.200E-06,-976.884462E-03,+235.015073E-03
+596.400E-06,-976.884462E-03,+237.989947E-03
+597.600E-06,-940.703556E-03,+235.015073E-03
+598.800E-06,-904.522650E-03,+232.040199E-03
+600.000E-06,-904.522650E-03,+235.015073E-03
+601.200E-06,-868.341744E-03,+232.040199E-03
+602.400E-06,-868.341744E-03,+235.015073E-03
+603.600E-06,-832.160838E-03,+232.040199E-03
+604.800E-06,-832.160838E-03,+229.065324E-03
+606.000E-06,-795.979932E-03,+229.065324E-03
+607.200E-06,-759.799026E-03,+226.090450E-03
+608.400E-06,-759.799026E-03,+229.065324E-03
+609.600E-06,-723.618120E-03,+226.090450E-03
+610.800E-06,-723.618120E-03,+226.090450E-03
+612.000E-06,-687.437214E-03,+229.065324E-03
+613.200E-06,-687.437214E-03,+226.090450E-03
+614.400E-06,-651.256308E-03,+226.090450E-03
+615.600E-06,-615.075402E-03,+223.115575E-03
+616.800E-06,-615.075402E-03,+220.140701E-03
+618.000E-06,-578.894496E-03,+217.165827E-03
+619.200E-06,-542.713590E-03,+220.140701E-03
+620.400E-06,-506.532684E-03,+220.140701E-03
+621.600E-06,-542.713590E-03,+220.140701E-03
+622.800E-06,-470.351778E-03,+220.140701E-03
+624.000E-06,-470.351778E-03,+217.165827E-03
+625.200E-06,-434.170872E-03,+217.165827E-03
+626.400E-06,-434.170872E-03,+217.165827E-03
+627.600E-06,-397.989966E-03,+214.190952E-03
+628.800E-06,-361.809060E-03,+211.216078E-03
+630.000E-06,-361.809060E-03,+211.216078E-03
+631.200E-06,-361.809060E-03,+214.190952E-03
+632.400E-06,-325.628154E-03,+211.216078E-03
+633.600E-06,-289.447248E-03,+211.216078E-03
+634.800E-06,-289.447248E-03,+211.216078E-03
+636.000E-06,-217.085436E-03,+208.241204E-03
+637.200E-06,-217.085436E-03,+208.241204E-03
+638.400E-06,-217.085436E-03,+205.266329E-03
+639.600E-06,-180.904530E-03,+205.266329E-03
+640.800E-06,-144.723624E-03,+205.266329E-03
+642.000E-06,-144.723624E-03,+199.316581E-03
+643.200E-06,-108.542718E-03,+202.291455E-03
+644.400E-06,-72.361812E-03,+202.291455E-03
+645.600E-06,-72.361812E-03,+202.291455E-03
+646.800E-06,-36.180906E-03,+199.316581E-03
+648.000E-06,-36.180906E-03,+196.341706E-03
+649.200E-06,+0.0E+00,+196.341706E-03
+650.400E-06,+36.180906E-03,+196.341706E-03
+651.600E-06,+36.180906E-03,+196.341706E-03
+652.800E-06,+36.180906E-03,+190.391958E-03
+654.000E-06,+72.361812E-03,+193.366832E-03
+655.200E-06,+108.542718E-03,+190.391958E-03
+656.400E-06,+144.723624E-03,+187.417083E-03
+657.600E-06,+180.904530E-03,+187.417083E-03
+658.800E-06,+180.904530E-03,+184.442209E-03
+660.000E-06,+180.904530E-03,+184.442209E-03
+661.200E-06,+217.085436E-03,+181.467335E-03
+662.400E-06,+253.266342E-03,+181.467335E-03
+663.600E-06,+253.266342E-03,+178.492460E-03
+664.800E-06,+289.447248E-03,+175.517586E-03
+666.000E-06,+325.628154E-03,+181.467335E-03
+667.200E-06,+325.628154E-03,+178.492460E-03
+668.400E-06,+361.809060E-03,+172.542712E-03
+669.600E-06,+397.989966E-03,+175.517586E-03
+670.800E-06,+397.989966E-03,+172.542712E-03
+672.000E-06,+434.170872E-03,+172.542712E-03
+673.200E-06,+470.351778E-03,+172.542712E-03
+674.400E-06,+470.351778E-03,+169.567837E-03
+675.600E-06,+506.532684E-03,+166.592963E-03
+676.800E-06,+506.532684E-03,+166.592963E-03
+678.000E-06,+542.713590E-03,+163.618089E-03
+679.200E-06,+542.713590E-03,+160.643214E-03
+680.400E-06,+578.894496E-03,+163.618089E-03
+681.600E-06,+578.894496E-03,+160.643214E-03
+682.800E-06,+615.075402E-03,+160.643214E-03
+684.000E-06,+615.075402E-03,+157.668340E-03
+685.200E-06,+651.256308E-03,+154.693466E-03
+686.400E-06,+687.437214E-03,+154.693466E-03
+687.600E-06,+723.618120E-03,+148.743717E-03
+688.800E-06,+723.618120E-03,+151.718591E-03
+690.000E-06,+759.799026E-03,+148.743717E-03
+691.200E-06,+759.799026E-03,+148.743717E-03
+692.400E-06,+795.979932E-03,+145.768843E-03
+693.600E-06,+795.979932E-03,+142.793968E-03
+694.800E-06,+868.341744E-03,+142.793968E-03
+696.000E-06,+868.341744E-03,+142.793968E-03
+697.200E-06,+904.522650E-03,+136.844220E-03
+698.400E-06,+868.341744E-03,+136.844220E-03
+699.600E-06,+940.703556E-03,+136.844220E-03
+700.800E-06,+940.703556E-03,+133.869345E-03
+702.000E-06,+976.884462E-03,+133.869345E-03
+703.200E-06,+976.884462E-03,+133.869345E-03
+704.400E-06,+1.013065368E+00,+133.869345E-03
+705.600E-06,+1.049246274E+00,+130.894471E-03
+706.800E-06,+1.049246274E+00,+130.894471E-03
+708.000E-06,+1.085427180E+00,+124.944722E-03
+709.200E-06,+1.121608086E+00,+127.919597E-03
+710.400E-06,+1.121608086E+00,+121.969848E-03
+711.600E-06,+1.157788992E+00,+121.969848E-03
+712.800E-06,+1.157788992E+00,+116.020099E-03
+714.000E-06,+1.193969898E+00,+116.020099E-03
+715.200E-06,+1.193969898E+00,+116.020099E-03
+716.400E-06,+1.230150804E+00,+113.045225E-03
+717.600E-06,+1.230150804E+00,+116.020099E-03
+718.800E-06,+1.266331710E+00,+113.045225E-03
+720.000E-06,+1.302512616E+00,+107.095476E-03
+721.200E-06,+1.302512616E+00,+107.095476E-03
+722.400E-06,+1.338693522E+00,+107.095476E-03
+723.600E-06,+1.338693522E+00,+104.120602E-03
+724.800E-06,+1.374874428E+00,+101.145728E-03
+726.000E-06,+1.374874428E+00,+98.170853E-03
+727.200E-06,+1.411055334E+00,+98.170853E-03
+728.400E-06,+1.411055334E+00,+95.195979E-03
+729.600E-06,+1.447236240E+00,+92.221105E-03
+730.800E-06,+1.447236240E+00,+95.195979E-03
+732.000E-06,+1.483417146E+00,+92.221105E-03
+733.200E-06,+1.483417146E+00,+89.246230E-03
+734.400E-06,+1.519598052E+00,+86.271356E-03
+735.600E-06,+1.555778958E+00,+86.271356E-03
+736.800E-06,+1.555778958E+00,+83.296482E-03
+738.000E-06,+1.591959864E+00,+83.296482E-03
+739.200E-06,+1.591959864E+00,+83.296482E-03
+740.400E-06,+1.628140770E+00,+77.346733E-03
+741.600E-06,+1.628140770E+00,+74.371859E-03
+742.800E-06,+1.664321676E+00,+77.346733E-03
+744.000E-06,+1.664321676E+00,+74.371858E-03
+745.200E-06,+1.700502582E+00,+77.346733E-03
+746.400E-06,+1.700502582E+00,+71.396984E-03
+747.600E-06,+1.736683488E+00,+71.396984E-03
+748.800E-06,+1.736683488E+00,+65.447235E-03
+750.000E-06,+1.772864394E+00,+62.472361E-03
+751.200E-06,+1.772864394E+00,+62.472361E-03
+752.400E-06,+1.809045300E+00,+65.447235E-03
+753.600E-06,+1.809045300E+00,+59.497487E-03
+754.800E-06,+1.845226206E+00,+56.522612E-03
+756.000E-06,+1.845226206E+00,+53.547738E-03
+757.200E-06,+1.881407112E+00,+50.572864E-03
+758.400E-06,+1.881407112E+00,+50.572864E-03
+759.600E-06,+1.881407112E+00,+50.572864E-03
+760.800E-06,+1.917588018E+00,+50.572864E-03
+762.000E-06,+1.917588018E+00,+44.623115E-03
+763.200E-06,+1.953768924E+00,+44.623115E-03
+764.400E-06,+1.989949830E+00,+44.623115E-03
+765.600E-06,+1.989949830E+00,+41.648241E-03
+766.800E-06,+1.989949830E+00,+41.648241E-03
+768.000E-06,+1.989949830E+00,+35.698492E-03
+769.200E-06,+2.026130736E+00,+35.698492E-03
+770.400E-06,+2.062311642E+00,+35.698492E-03
+771.600E-06,+2.062311642E+00,+32.723618E-03
+772.800E-06,+2.062311642E+00,+26.773869E-03
+774.000E-06,+2.098492548E+00,+29.748743E-03
+775.200E-06,+2.134673454E+00,+23.798995E-03
+776.400E-06,+2.134673454E+00,+23.798995E-03
+777.600E-06,+2.134673454E+00,+20.824120E-03
+778.800E-06,+2.170854360E+00,+17.849246E-03
+780.000E-06,+2.170854360E+00,+17.849246E-03
+781.200E-06,+2.170854360E+00,+14.874372E-03
+782.400E-06,+2.207035266E+00,+14.874372E-03
+783.600E-06,+2.243216172E+00,+11.899497E-03
+784.800E-06,+2.243216172E+00,+8.924623E-03
+786.000E-06,+2.243216172E+00,+8.924623E-03
+787.200E-06,+2.279397078E+00,+8.924623E-03
+788.400E-06,+2.279397078E+00,+5.949749E-03
+789.600E-06,+2.279397078E+00,+5.949749E-03
+790.800E-06,+2.315577984E+00,+0.0E+00
+792.000E-06,+2.315577984E+00,+0.0E+00
+793.200E-06,+2.351758890E+00,-0.0E+00
+794.400E-06,+2.351758890E+00,-2.974874E-03
+795.600E-06,+2.351758890E+00,-2.974874E-03
+796.800E-06,+2.387939796E+00,-8.924623E-03
+798.000E-06,+2.387939796E+00,-8.924623E-03
+799.200E-06,+2.424120702E+00,-11.899497E-03
+800.400E-06,+2.424120702E+00,-11.899497E-03
+801.600E-06,+2.424120702E+00,-14.874372E-03
+802.800E-06,+2.424120702E+00,-17.849246E-03
+804.000E-06,+2.460301608E+00,-14.874372E-03
+805.200E-06,+2.460301608E+00,-17.849246E-03
+806.400E-06,+2.460301608E+00,-23.798995E-03
+807.600E-06,+2.496482514E+00,-26.773869E-03
+808.800E-06,+2.496482514E+00,-26.773869E-03
+810.000E-06,+2.532663420E+00,-26.773869E-03
+811.200E-06,+2.532663420E+00,-29.748743E-03
+812.400E-06,+2.568844326E+00,-29.748743E-03
+813.600E-06,+2.532663420E+00,-35.698492E-03
+814.800E-06,+2.568844326E+00,-35.698492E-03
+816.000E-06,+2.568844326E+00,-32.723618E-03
+817.200E-06,+2.568844326E+00,-41.648241E-03
+818.400E-06,+2.605025232E+00,-41.648241E-03
+819.600E-06,+2.605025232E+00,-41.648241E-03
+820.800E-06,+2.605025232E+00,-44.623115E-03
+822.000E-06,+2.605025232E+00,-47.597989E-03
+823.200E-06,+2.641206138E+00,-50.572864E-03
+824.400E-06,+2.641206138E+00,-50.572864E-03
+825.600E-06,+2.641206138E+00,-50.572864E-03
+826.800E-06,+2.677387044E+00,-53.547738E-03
+828.000E-06,+2.677387044E+00,-59.497487E-03
+829.200E-06,+2.677387044E+00,-59.497487E-03
+830.400E-06,+2.677387044E+00,-59.497487E-03
+831.600E-06,+2.713567950E+00,-62.472361E-03
+832.800E-06,+2.713567950E+00,-62.472361E-03
+834.000E-06,+2.713567950E+00,-65.447235E-03
+835.200E-06,+2.713567950E+00,-68.422110E-03
+836.400E-06,+2.713567950E+00,-65.447235E-03
+837.600E-06,+2.749748856E+00,-68.422110E-03
+838.800E-06,+2.749748856E+00,-71.396984E-03
+840.000E-06,+2.749748856E+00,-77.346733E-03
+841.200E-06,+2.785929762E+00,-77.346733E-03
+842.400E-06,+2.785929762E+00,-77.346733E-03
+843.600E-06,+2.785929762E+00,-77.346733E-03
+844.800E-06,+2.785929762E+00,-83.296482E-03
+846.000E-06,+2.785929762E+00,-83.296482E-03
+847.200E-06,+2.785929762E+00,-89.246230E-03
+848.400E-06,+2.822110668E+00,-86.271356E-03
+849.600E-06,+2.785929762E+00,-89.246230E-03
+850.800E-06,+2.822110668E+00,-92.221105E-03
+852.000E-06,+2.822110668E+00,-92.221105E-03
+853.200E-06,+2.858291574E+00,-95.195979E-03
+854.400E-06,+2.858291574E+00,-95.195979E-03
+855.600E-06,+2.858291574E+00,-101.145728E-03
+856.800E-06,+2.858291574E+00,-101.145728E-03
+858.000E-06,+2.858291574E+00,-104.120602E-03
+859.200E-06,+2.858291574E+00,-104.120602E-03
+860.400E-06,+2.858291574E+00,-107.095476E-03
+861.600E-06,+2.894472480E+00,-107.095476E-03
+862.800E-06,+2.894472480E+00,-110.070351E-03
+864.000E-06,+2.894472480E+00,-110.070351E-03
+865.200E-06,+2.894472480E+00,-113.045225E-03
+866.400E-06,+2.894472480E+00,-113.045225E-03
+867.600E-06,+2.894472480E+00,-116.020099E-03
+868.800E-06,+2.894472480E+00,-113.045225E-03
+870.000E-06,+2.930653386E+00,-116.020099E-03
+871.200E-06,+2.894472480E+00,-118.994974E-03
+872.400E-06,+2.930653386E+00,-121.969848E-03
+873.600E-06,+2.930653386E+00,-121.969848E-03
+874.800E-06,+2.930653386E+00,-127.919597E-03
+876.000E-06,+2.930653386E+00,-127.919597E-03
+877.200E-06,+2.930653386E+00,-130.894471E-03
+878.400E-06,+2.930653386E+00,-130.894471E-03
+879.600E-06,+2.930653386E+00,-130.894471E-03
+880.800E-06,+2.930653386E+00,-130.894471E-03
+882.000E-06,+2.930653386E+00,-133.869345E-03
+883.200E-06,+2.930653386E+00,-136.844220E-03
+884.400E-06,+2.966834292E+00,-139.819094E-03
+885.600E-06,+2.930653386E+00,-142.793968E-03
+886.800E-06,+2.930653386E+00,-139.819094E-03
+888.000E-06,+2.966834292E+00,-139.819094E-03
+889.200E-06,+2.966834292E+00,-142.793968E-03
+890.400E-06,+2.966834292E+00,-145.768843E-03
+891.600E-06,+2.966834292E+00,-145.768843E-03
+892.800E-06,+2.966834292E+00,-151.718591E-03
+894.000E-06,+2.930653386E+00,-151.718591E-03
+895.200E-06,+2.966834292E+00,-151.718591E-03
+896.400E-06,+2.930653386E+00,-151.718591E-03
+897.600E-06,+2.966834292E+00,-154.693466E-03
+898.800E-06,+2.966834292E+00,-157.668340E-03
+900.000E-06,+2.966834292E+00,-154.693466E-03
+901.200E-06,+2.966834292E+00,-160.643214E-03
+902.400E-06,+2.966834292E+00,-160.643214E-03
+903.600E-06,+2.966834292E+00,-160.643214E-03
+904.800E-06,+2.966834292E+00,-163.618089E-03
+906.000E-06,+2.966834292E+00,-163.618089E-03
+907.200E-06,+2.930653386E+00,-163.618089E-03
+908.400E-06,+2.966834292E+00,-169.567837E-03
+909.600E-06,+2.966834292E+00,-169.567837E-03
+910.800E-06,+2.930653386E+00,-172.542712E-03
+912.000E-06,+2.966834292E+00,-172.542712E-03
+913.200E-06,+2.930653386E+00,-175.517586E-03
+914.400E-06,+2.966834292E+00,-175.517586E-03
+915.600E-06,+2.966834292E+00,-178.492460E-03
+916.800E-06,+2.930653386E+00,-178.492460E-03
+918.000E-06,+2.930653386E+00,-178.492460E-03
+919.200E-06,+2.930653386E+00,-178.492460E-03
+920.400E-06,+2.930653386E+00,-178.492460E-03
+921.600E-06,+2.930653386E+00,-181.467335E-03
+922.800E-06,+2.930653386E+00,-184.442209E-03
+924.000E-06,+2.894472480E+00,-184.442209E-03
+925.200E-06,+2.894472480E+00,-184.442209E-03
+926.400E-06,+2.930653386E+00,-190.391958E-03
+927.600E-06,+2.930653386E+00,-190.391958E-03
+928.800E-06,+2.894472480E+00,-190.391958E-03
+930.000E-06,+2.930653386E+00,-190.391958E-03
+931.200E-06,+2.894472480E+00,-193.366832E-03
+932.400E-06,+2.894472480E+00,-193.366832E-03
+933.600E-06,+2.894472480E+00,-196.341706E-03
+934.800E-06,+2.894472480E+00,-193.366832E-03
+936.000E-06,+2.858291574E+00,-193.366832E-03
+937.200E-06,+2.858291574E+00,-202.291455E-03
+938.400E-06,+2.894472480E+00,-199.316581E-03
+939.600E-06,+2.858291574E+00,-199.316581E-03
+940.800E-06,+2.858291574E+00,-199.316581E-03
+942.000E-06,+2.858291574E+00,-202.291455E-03
+943.200E-06,+2.858291574E+00,-205.266329E-03
+944.400E-06,+2.822110668E+00,-205.266329E-03
+945.600E-06,+2.822110668E+00,-205.266329E-03
+946.800E-06,+2.822110668E+00,-211.216078E-03
+948.000E-06,+2.822110668E+00,-208.241204E-03
+949.200E-06,+2.822110668E+00,-211.216078E-03
+950.400E-06,+2.785929762E+00,-208.241204E-03
+951.600E-06,+2.822110668E+00,-208.241204E-03
+952.800E-06,+2.785929762E+00,-211.216078E-03
+954.000E-06,+2.785929762E+00,-214.190952E-03
+955.200E-06,+2.785929762E+00,-214.190952E-03
+956.400E-06,+2.749748856E+00,-214.190952E-03
+957.600E-06,+2.749748856E+00,-220.140701E-03
+958.800E-06,+2.749748856E+00,-220.140701E-03
+960.000E-06,+2.749748856E+00,-220.140701E-03
+961.200E-06,+2.749748856E+00,-217.165827E-03
+962.400E-06,+2.713567950E+00,-223.115576E-03
+963.600E-06,+2.713567950E+00,-223.115575E-03
+964.800E-06,+2.713567950E+00,-223.115575E-03
+966.000E-06,+2.677387044E+00,-220.140701E-03
+967.200E-06,+2.677387044E+00,-220.140701E-03
+968.400E-06,+2.677387044E+00,-220.140701E-03
+969.600E-06,+2.641206138E+00,-226.090450E-03
+970.800E-06,+2.641206138E+00,-229.065324E-03
+972.000E-06,+2.677387044E+00,-226.090450E-03
+973.200E-06,+2.641206138E+00,-229.065324E-03
+974.400E-06,+2.641206138E+00,-229.065324E-03
+975.600E-06,+2.605025232E+00,-232.040199E-03
+976.800E-06,+2.605025232E+00,-235.015073E-03
+978.000E-06,+2.605025232E+00,-232.040199E-03
+979.200E-06,+2.568844326E+00,-235.015073E-03
+980.400E-06,+2.605025232E+00,-232.040199E-03
+981.600E-06,+2.568844326E+00,-237.989947E-03
+982.800E-06,+2.568844326E+00,-235.015073E-03
+984.000E-06,+2.532663420E+00,-235.015073E-03
+985.200E-06,+2.532663420E+00,-235.015073E-03
+986.400E-06,+2.532663420E+00,-240.964822E-03
+987.600E-06,+2.496482514E+00,-235.015073E-03
+988.800E-06,+2.460301608E+00,-235.015073E-03
+990.000E-06,+2.460301608E+00,-235.015073E-03
+991.200E-06,+2.460301608E+00,-240.964822E-03
+992.400E-06,+2.460301608E+00,-240.964822E-03
+993.600E-06,+2.460301608E+00,-240.964822E-03
+994.800E-06,+2.424120702E+00,-243.939696E-03
+996.000E-06,+2.424120702E+00,-237.989947E-03
+997.200E-06,+2.387939796E+00,-240.964822E-03
+998.400E-06,+2.387939796E+00,-243.939696E-03
+999.600E-06,+2.351758890E+00,-243.939696E-03
+1.000800E-03,+2.351758890E+00,-240.964822E-03
+1.002000E-03,+2.351758890E+00,-246.914570E-03
+1.003200E-03,+2.315577984E+00,-243.939696E-03
+1.004400E-03,+2.315577984E+00,-243.939696E-03
+1.005600E-03,+2.279397078E+00,-246.914570E-03
+1.006800E-03,+2.279397078E+00,-246.914570E-03
+1.008000E-03,+2.279397078E+00,-246.914570E-03
+1.009200E-03,+2.243216172E+00,-249.889445E-03
+1.010400E-03,+2.243216172E+00,-243.939696E-03
+1.011600E-03,+2.243216172E+00,-246.914570E-03
+1.012800E-03,+2.207035266E+00,-249.889445E-03
+1.014000E-03,+2.207035266E+00,-246.914570E-03
+1.015200E-03,+2.170854360E+00,-246.914570E-03
+1.016400E-03,+2.170854360E+00,-249.889445E-03
+1.017600E-03,+2.134673454E+00,-252.864319E-03
+1.018800E-03,+2.134673454E+00,-246.914570E-03
+1.020000E-03,+2.134673454E+00,-249.889445E-03
+1.021200E-03,+2.098492548E+00,-249.889445E-03
+1.022400E-03,+2.098492548E+00,-246.914570E-03
+1.023600E-03,+2.062311642E+00,-249.889445E-03
+1.024800E-03,+2.062311642E+00,-249.889445E-03
+1.026000E-03,+2.062311642E+00,-252.864319E-03
+1.027200E-03,+2.062311642E+00,-249.889445E-03
+1.028400E-03,+2.026130736E+00,-252.864319E-03
+1.029600E-03,+1.989949830E+00,-249.889445E-03
+1.030800E-03,+1.989949830E+00,-252.864319E-03
+1.032000E-03,+1.953768924E+00,-249.889445E-03
+1.033200E-03,+1.953768924E+00,-252.864319E-03
+1.034400E-03,+1.917588018E+00,-249.889445E-03
+1.035600E-03,+1.917588018E+00,-249.889445E-03
+1.036800E-03,+1.917588018E+00,-252.864319E-03
+1.038000E-03,+1.881407112E+00,-249.889445E-03
+1.039200E-03,+1.881407112E+00,-255.839193E-03
+1.040400E-03,+1.845226206E+00,-252.864319E-03
+1.041600E-03,+1.845226206E+00,-252.864319E-03
+1.042800E-03,+1.809045300E+00,-255.839193E-03
+1.044000E-03,+1.772864394E+00,-252.864319E-03
+1.045200E-03,+1.772864394E+00,-252.864319E-03
+1.046400E-03,+1.772864394E+00,-252.864319E-03
+1.047600E-03,+1.736683488E+00,-249.889445E-03
+1.048800E-03,+1.736683488E+00,-249.889445E-03
+1.050000E-03,+1.700502582E+00,-249.889445E-03
+1.051200E-03,+1.700502582E+00,-249.889445E-03
+1.052400E-03,+1.664321676E+00,-252.864319E-03
+1.053600E-03,+1.628140770E+00,-249.889445E-03
+1.054800E-03,+1.628140770E+00,-252.864319E-03
+1.056000E-03,+1.591959864E+00,-249.889445E-03
+1.057200E-03,+1.591959864E+00,-252.864319E-03
+1.058400E-03,+1.591959864E+00,-255.839193E-03
+1.059600E-03,+1.555778958E+00,-252.864319E-03
+1.060800E-03,+1.519598052E+00,-249.889445E-03
+1.062000E-03,+1.519598052E+00,-249.889445E-03
+1.063200E-03,+1.483417146E+00,-246.914570E-03
+1.064400E-03,+1.483417146E+00,-249.889445E-03
+1.065600E-03,+1.483417146E+00,-249.889445E-03
+1.066800E-03,+1.447236240E+00,-249.889445E-03
+1.068000E-03,+1.447236240E+00,-246.914570E-03
+1.069200E-03,+1.411055334E+00,-249.889445E-03
+1.070400E-03,+1.374874428E+00,-246.914570E-03
+1.071600E-03,+1.374874428E+00,-249.889445E-03
+1.072800E-03,+1.338693522E+00,-249.889445E-03
+1.074000E-03,+1.338693522E+00,-243.939696E-03
+1.075200E-03,+1.302512616E+00,-246.914570E-03
+1.076400E-03,+1.302512616E+00,-246.914570E-03
+1.077600E-03,+1.266331710E+00,-243.939696E-03
+1.078800E-03,+1.266331710E+00,-246.914570E-03
+1.080000E-03,+1.230150804E+00,-246.914570E-03
+1.081200E-03,+1.193969898E+00,-243.939696E-03
+1.082400E-03,+1.193969898E+00,-240.964822E-03
+1.083600E-03,+1.157788992E+00,-243.939696E-03
+1.084800E-03,+1.157788992E+00,-240.964822E-03
+1.086000E-03,+1.121608086E+00,-243.939696E-03
+1.087200E-03,+1.121608086E+00,-243.939696E-03
+1.088400E-03,+1.085427180E+00,-243.939696E-03
+1.089600E-03,+1.049246274E+00,-240.964822E-03
+1.090800E-03,+1.049246274E+00,-240.964822E-03
+1.092000E-03,+1.013065368E+00,-237.989947E-03
+1.093200E-03,+1.013065368E+00,-240.964822E-03
+1.094400E-03,+976.884462E-03,-240.964822E-03
+1.095600E-03,+940.703556E-03,-237.989947E-03
+1.096800E-03,+940.703556E-03,-237.989947E-03
+1.098000E-03,+904.522650E-03,-237.989947E-03
+1.099200E-03,+904.522650E-03,-235.015073E-03
+1.100400E-03,+868.341744E-03,-235.015073E-03
+1.101600E-03,+832.160838E-03,-237.989947E-03
+1.102800E-03,+832.160838E-03,-235.015073E-03
+1.104000E-03,+795.979932E-03,-235.015073E-03
+1.105200E-03,+759.799026E-03,-232.040199E-03
+1.106400E-03,+759.799026E-03,-232.040199E-03
+1.107600E-03,+759.799026E-03,-232.040199E-03
+1.108800E-03,+723.618120E-03,-235.015073E-03
+1.110000E-03,+687.437214E-03,-232.040199E-03
+1.111200E-03,+687.437214E-03,-232.040199E-03
+1.112400E-03,+651.256308E-03,-229.065324E-03
+1.113600E-03,+615.075402E-03,-229.065324E-03
+1.114800E-03,+615.075402E-03,-229.065324E-03
+1.116000E-03,+578.894496E-03,-229.065324E-03
+1.117200E-03,+542.713590E-03,-226.090450E-03
+1.118400E-03,+542.713590E-03,-226.090450E-03
+1.119600E-03,+506.532684E-03,-226.090450E-03
+1.120800E-03,+506.532684E-03,-223.115575E-03
+1.122000E-03,+470.351778E-03,-220.140701E-03
+1.123200E-03,+470.351778E-03,-220.140701E-03
+1.124400E-03,+397.989966E-03,-220.140701E-03
+1.125600E-03,+397.989966E-03,-217.165827E-03
+1.126800E-03,+361.809060E-03,-214.190952E-03
+1.128000E-03,+361.809060E-03,-217.165827E-03
+1.129200E-03,+325.628154E-03,-217.165827E-03
+1.130400E-03,+325.628154E-03,-214.190952E-03
+1.131600E-03,+289.447248E-03,-211.216078E-03
+1.132800E-03,+289.447248E-03,-214.190952E-03
+1.134000E-03,+253.266342E-03,-208.241204E-03
+1.135200E-03,+217.085436E-03,-208.241204E-03
+1.136400E-03,+217.085436E-03,-208.241204E-03
+1.137600E-03,+180.904530E-03,-208.241204E-03
+1.138800E-03,+144.723624E-03,-208.241204E-03
+1.140000E-03,+108.542718E-03,-208.241204E-03
+1.141200E-03,+108.542718E-03,-202.291455E-03
+1.142400E-03,+72.361812E-03,-202.291455E-03
+1.143600E-03,+72.361812E-03,-202.291455E-03
+1.144800E-03,+36.180906E-03,-202.291455E-03
+1.146000E-03,+36.180906E-03,-202.291455E-03
+1.147200E-03,+0.0E+00,-199.316581E-03
+1.148400E-03,-36.180906E-03,-196.341706E-03
+1.149600E-03,-36.180906E-03,-199.316581E-03
+1.150800E-03,-72.361812E-03,-193.366832E-03
+1.152000E-03,-108.542718E-03,-196.341706E-03
+1.153200E-03,-108.542718E-03,-196.341706E-03
+1.154400E-03,-144.723624E-03,-190.391958E-03
+1.155600E-03,-180.904530E-03,-193.366832E-03
+1.156800E-03,-180.904530E-03,-190.391958E-03
+1.158000E-03,-180.904530E-03,-190.391958E-03
+1.159200E-03,-253.266342E-03,-190.391958E-03
+1.160400E-03,-217.085436E-03,-190.391958E-03
+1.161600E-03,-253.266342E-03,-187.417083E-03
+1.162800E-03,-325.628154E-03,-184.442209E-03
+1.164000E-03,-325.628154E-03,-184.442209E-03
+1.165200E-03,-325.628154E-03,-181.467335E-03
+1.166400E-03,-361.809060E-03,-178.492460E-03
+1.167600E-03,-397.989966E-03,-181.467335E-03
+1.168800E-03,-434.170872E-03,-178.492460E-03
+1.170000E-03,-434.170872E-03,-175.517586E-03
+1.171200E-03,-434.170872E-03,-175.517586E-03
+1.172400E-03,-470.351778E-03,-172.542712E-03
+1.173600E-03,-506.532684E-03,-169.567837E-03
+1.174800E-03,-506.532684E-03,-172.542712E-03
+1.176000E-03,-506.532684E-03,-169.567837E-03
+1.177200E-03,-542.713590E-03,-169.567837E-03
+1.178400E-03,-578.894496E-03,-166.592963E-03
+1.179600E-03,-578.894496E-03,-163.618089E-03
+1.180800E-03,-651.256308E-03,-163.618089E-03
+1.182000E-03,-651.256308E-03,-163.618089E-03
+1.183200E-03,-651.256308E-03,-157.668340E-03
+1.184400E-03,-687.437214E-03,-160.643214E-03
+1.185600E-03,-723.618120E-03,-160.643214E-03
+1.186800E-03,-723.618120E-03,-157.668340E-03
+1.188000E-03,-759.799026E-03,-157.668340E-03
+1.189200E-03,-795.979932E-03,-151.718591E-03
+1.190400E-03,-795.979932E-03,-151.718591E-03
+1.191600E-03,-832.160838E-03,-148.743717E-03
+1.192800E-03,-832.160838E-03,-145.768843E-03
+1.194000E-03,-868.341744E-03,-145.768843E-03
+1.195200E-03,-868.341744E-03,-145.768843E-03
+1.196400E-03,-904.522650E-03,-142.793968E-03
+1.197600E-03,-940.703556E-03,-142.793968E-03
+1.198800E-03,-940.703556E-03,-139.819094E-03
