x-axis,1,2
second,Volt,Volt
-251.0000E-03,,
-250.7500E-03,-9.3138962E+00,-1.7381E-03
-250.5000E-03,-9.3075685E+00,-1.7242E-03
-250.2500E-03,-9.3020489E+00,-1.7143E-03
-250.0000E-03,-9.2963548E+00,-1.7068E-03
-249.7500E-03,-9.2907618E+00,-1.7096E-03
-249.5000E-03,-9.2851137E+00,-1.7032E-03
-249.2500E-03,-9.2795845E+00,-1.7003E-03
-249.0000E-03,-9.2739529E+00,-1.7037E-03
-248.7500E-03,-9.2681363E+00,-1.7090E-03
-248.5000E-03,-9.2621208E+00,-1.7225E-03
-248.2500E-03,-9.2559663E+00,-1.7237E-03
-248.0000E-03,-9.2501039E+00,-1.7211E-03
-247.7500E-03,-9.2439554E+00,-1.7269E-03
-247.5000E-03,-9.2384507E+00,-1.7349E-03
-247.2500E-03,-9.2324705E+00,-1.7421E-03
-247.0000E-03,-9.2263795E+00,-1.7467E-03
-246.7500E-03,-9.2206199E+00,-1.7404E-03
-246.5000E-03,-9.2152540E+00,-1.7345E-03
-246.2500E-03,-9.2096231E+00,-1.7239E-03
-246.0000E-03,-9.2046843E+00,-1.7221E-03
-245.7500E-03,-9.1994780E+00,-1.7233E-03
-245.5000E-03,-9.1936435E+00,-1.7182E-03
-245.2500E-03,-9.1882141E+00,-1.7150E-03
-245.0000E-03,-9.1828382E+00,-1.7122E-03
-244.7500E-03,-9.1773543E+00,-1.7175E-03
-244.5000E-03,-9.1722468E+00,-1.7168E-03
-244.2500E-03,-9.1667481E+00,-1.7113E-03
-244.0000E-03,-9.1620050E+00,-1.7039E-03
-243.7500E-03,-9.1566941E+00,-1.6983E-03
-243.5000E-03,-9.1515815E+00,-1.6980E-03
-243.2500E-03,-9.1472054E+00,-1.6869E-03
-243.0000E-03,-9.1425790E+00,-1.6756E-03
-242.7500E-03,-9.1387230E+00,-1.6640E-03
-242.5000E-03,-9.1345382E+00,-1.6543E-03
-242.2500E-03,-9.1306298E+00,-1.6481E-03
-242.0000E-03,-9.1269880E+00,-1.6354E-03
-241.7500E-03,-9.1231433E+00,-1.6247E-03
-241.5000E-03,-9.1196111E+00,-1.6165E-03
-241.2500E-03,-9.1160755E+00,-1.6258E-03
-241.0000E-03,-9.1120577E+00,-1.6264E-03
-240.7500E-03,-9.1085497E+00,-1.6264E-03
-240.5000E-03,-9.1045269E+00,-1.6332E-03
-240.2500E-03,-9.1008053E+00,-1.6338E-03
-240.0000E-03,-9.0965880E+00,-1.6428E-03
-239.7500E-03,-9.0925660E+00,-1.6437E-03
-239.5000E-03,-9.0884626E+00,-1.6402E-03
-239.2500E-03,-9.0845921E+00,-1.6372E-03
-239.0000E-03,-9.0807566E+00,-1.6237E-03
-238.7500E-03,-9.0774015E+00,-1.6178E-03
-238.5000E-03,-9.0736242E+00,-1.6078E-03
-238.2500E-03,-9.0702432E+00,-1.5917E-03
-238.0000E-03,-9.0670433E+00,-1.5807E-03
-237.7500E-03,-9.0646591E+00,-1.5661E-03
-237.5000E-03,-9.0622998E+00,-1.5578E-03
-237.2500E-03,-9.0597677E+00,-1.5492E-03
-237.0000E-03,-9.0575462E+00,-1.5438E-03
-236.7500E-03,-9.0551491E+00,-1.5365E-03
-236.5000E-03,-9.0525847E+00,-1.5297E-03
-236.2500E-03,-9.0502035E+00,-1.5291E-03
-236.0000E-03,-9.0483548E+00,-1.5243E-03
-235.7500E-03,-9.0460674E+00,-1.5179E-03
-235.5000E-03,-9.0441648E+00,-1.5097E-03
-235.2500E-03,-9.0422062E+00,-1.5037E-03
-235.0000E-03,-9.0404001E+00,-1.5019E-03
-234.7500E-03,-9.0390799E+00,-1.4925E-03
-234.5000E-03,-9.0376280E+00,-1.4821E-03
-234.2500E-03,-9.0360788E+00,-1.4685E-03
-234.0000E-03,-9.0343702E+00,-1.4616E-03
-233.7500E-03,-9.0326648E+00,-1.4635E-03
-233.5000E-03,-9.0314452E+00,-1.4645E-03
-233.2500E-03,-9.0298407E+00,-1.4647E-03
-233.0000E-03,-9.0284570E+00,-1.4581E-03
-232.7500E-03,-9.0265184E+00,-1.4526E-03
-232.5000E-03,-9.0250174E+00,-1.4509E-03
-232.2500E-03,-9.0235008E+00,-1.4510E-03
-232.0000E-03,-9.0220436E+00,-1.4453E-03
-231.7500E-03,-9.0210228E+00,-1.4406E-03
-231.5000E-03,-9.0197667E+00,-1.4334E-03
-231.2500E-03,-9.0185203E+00,-1.4252E-03
-231.0000E-03,-9.0176959E+00,-1.4102E-03
-230.7500E-03,-9.0170851E+00,-1.3930E-03
-230.5000E-03,-9.0171265E+00,-1.3684E-03
-230.2500E-03,-9.0168420E+00,-1.3525E-03
-230.0000E-03,-9.0165572E+00,-1.3407E-03
-229.7500E-03,-9.0168100E+00,-1.3330E-03
-229.5000E-03,-9.0174305E+00,-1.3260E-03
-229.2500E-03,-9.0177692E+00,-1.3132E-03
-229.0000E-03,-9.0184367E+00,-1.3062E-03
-228.7500E-03,-9.0189174E+00,-1.3037E-03
-228.5000E-03,-9.0195805E+00,-1.3068E-03
-228.2500E-03,-9.0194331E+00,-1.3068E-03
-228.0000E-03,-9.0197420E+00,-1.2999E-03
-227.7500E-03,-9.0198633E+00,-1.2926E-03
-227.5000E-03,-9.0201784E+00,-1.2904E-03
-227.2500E-03,-9.0208464E+00,-1.2847E-03
-227.0000E-03,-9.0211605E+00,-1.2782E-03
-226.7500E-03,-9.0219765E+00,-1.2635E-03
-226.5000E-03,-9.0225621E+00,-1.2544E-03
-226.2500E-03,-9.0236162E+00,-1.2433E-03
-226.0000E-03,-9.0245797E+00,-1.2286E-03
-225.7500E-03,-9.0258277E+00,-1.2160E-03
-225.5000E-03,-9.0270475E+00,-1.2057E-03
-225.2500E-03,-9.0284391E+00,-1.1942E-03
-225.0000E-03,-9.0298784E+00,-1.1837E-03
-224.7500E-03,-9.0311763E+00,-1.1805E-03
-224.5000E-03,-9.0325042E+00,-1.1781E-03
-224.2500E-03,-9.0344002E+00,-1.1682E-03
-224.0000E-03,-9.0363938E+00,-1.1494E-03
-223.7500E-03,-9.0383829E+00,-1.1402E-03
-223.5000E-03,-9.0406304E+00,-1.1269E-03
-223.2500E-03,-9.0426337E+00,-1.1094E-03
-223.0000E-03,-9.0455350E+00,-1.0885E-03
-222.7500E-03,-9.0483749E+00,-1.0715E-03
-222.5000E-03,-9.0516458E+00,-1.0599E-03
-222.2500E-03,-9.0544659E+00,-1.0484E-03
-222.0000E-03,-9.0575503E+00,-1.0321E-03
-221.7500E-03,-9.0612838E+00,-1.0153E-03
-221.5000E-03,-9.0649626E+00,-999.4E-06
-221.2500E-03,-9.0684237E+00,-1.0001E-03
-221.0000E-03,-9.0719942E+00,-996.7E-06
-220.7500E-03,-9.0758184E+00,-991.3E-06
-220.5000E-03,-9.0795282E+00,-989.8E-06
-220.2500E-03,-9.0831204E+00,-984.6E-06
-220.0000E-03,-9.0858738E+00,-988.8E-06
-219.7500E-03,-9.0890904E+00,-983.7E-06
-219.5000E-03,-9.0921910E+00,-972.0E-06
-219.2500E-03,-9.0955740E+00,-961.9E-06
-219.0000E-03,-9.0992622E+00,-946.7E-06
-218.7500E-03,-9.1032487E+00,-934.3E-06
-218.5000E-03,-9.1073283E+00,-916.5E-06
-218.2500E-03,-9.1114786E+00,-897.7E-06
-218.0000E-03,-9.1162524E+00,-880.1E-06
-217.7500E-03,-9.1209597E+00,-862.1E-06
-217.5000E-03,-9.1253371E+00,-849.6E-06
-217.2500E-03,-9.1307589E+00,-828.8E-06
-217.0000E-03,-9.1357941E+00,-819.8E-06
-216.7500E-03,-9.1406156E+00,-805.9E-06
-216.5000E-03,-9.1458452E+00,-796.3E-06
-216.2500E-03,-9.1510490E+00,-790.1E-06
-216.0000E-03,-9.1561794E+00,-780.3E-06
-215.7500E-03,-9.1618311E+00,-771.0E-06
-215.5000E-03,-9.1669245E+00,-763.0E-06
-215.2500E-03,-9.1726511E+00,-749.8E-06
-215.0000E-03,-9.1780436E+00,-740.7E-06
-214.7500E-03,-9.1842451E+00,-727.8E-06
-214.5000E-03,-9.1901322E+00,-718.2E-06
-214.2500E-03,-9.1959215E+00,-696.4E-06
-214.0000E-03,-9.2022021E+00,-690.9E-06
-213.7500E-03,-9.2079046E+00,-681.8E-06
-213.5000E-03,-9.2140531E+00,-674.7E-06
-213.2500E-03,-9.2200095E+00,-672.9E-06
-213.0000E-03,-9.2256759E+00,-664.8E-06
-212.7500E-03,-9.2313995E+00,-655.3E-06
-212.5000E-03,-9.2373827E+00,-649.2E-06
-212.2500E-03,-9.2432304E+00,-644.1E-06
-212.0000E-03,-9.2493805E+00,-642.9E-06
-211.7500E-03,-9.2554027E+00,-628.7E-06
-211.5000E-03,-9.2610431E+00,-619.9E-06
-211.2500E-03,-9.2675842E+00,-608.3E-06
-211.0000E-03,-9.2738671E+00,-588.0E-06
-210.7500E-03,-9.2802225E+00,-574.8E-06
-210.5000E-03,-9.2873745E+00,-550.9E-06
-210.2500E-03,-9.2942640E+00,-529.2E-06
-210.0000E-03,-9.3015721E+00,-511.8E-06
-209.7500E-03,-9.3091421E+00,-501.8E-06
-209.5000E-03,-9.3164207E+00,-489.1E-06
-209.2500E-03,-9.3238814E+00,-471.3E-06
-209.0000E-03,-9.3316493E+00,-467.1E-06
-208.7500E-03,-9.3389461E+00,-461.8E-06
-208.5000E-03,-9.3466051E+00,-464.8E-06
-208.2500E-03,-9.3537752E+00,-459.8E-06
-208.0000E-03,-9.3608690E+00,-455.8E-06
-207.7500E-03,-9.3682369E+00,-444.6E-06
-207.5000E-03,-9.3756226E+00,-441.1E-06
-207.2500E-03,-9.3830306E+00,-441.9E-06
-207.0000E-03,-9.3903407E+00,-429.9E-06
-206.7500E-03,-9.3973815E+00,-412.3E-06
-206.5000E-03,-9.4049196E+00,-399.1E-06
-206.2500E-03,-9.4126801E+00,-387.9E-06
-206.0000E-03,-9.4201255E+00,-377.2E-06
-205.7500E-03,-9.4281548E+00,-365.5E-06
-205.5000E-03,-9.4361932E+00,-353.2E-06
-205.2500E-03,-9.4440960E+00,-340.4E-06
-205.0000E-03,-9.4523578E+00,-329.7E-06
-204.7500E-03,-9.4600284E+00,-326.1E-06
-204.5000E-03,-9.4679691E+00,-319.9E-06
-204.2500E-03,-9.4760219E+00,-311.2E-06
-204.0000E-03,-9.4843166E+00,-292.0E-06
-203.7500E-03,-9.4926328E+00,-284.1E-06
-203.5000E-03,-9.5011211E+00,-275.7E-06
-203.2500E-03,-9.5097433E+00,-258.8E-06
-203.0000E-03,-9.5186081E+00,-238.8E-06
-202.7500E-03,-9.5277816E+00,-225.4E-06
-202.5000E-03,-9.5368672E+00,-213.8E-06
-202.2500E-03,-9.5460555E+00,-199.9E-06
-202.0000E-03,-9.5548496E+00,-180.4E-06
-201.7500E-03,-9.5645700E+00,-170.3E-06
-201.5000E-03,-9.5740066E+00,-155.6E-06
-201.2500E-03,-9.5831432E+00,-154.7E-06
-201.0000E-03,-9.5918630E+00,-149.9E-06
-200.7500E-03,-9.6011371E+00,-149.6E-06
-200.5000E-03,-9.6104214E+00,-150.3E-06
-200.2500E-03,-9.6195043E+00,-147.6E-06
-200.0000E-03,-9.6284302E+00,-148.2E-06
-199.7500E-03,-9.6369783E+00,-144.6E-06
-199.5000E-03,-9.6457152E+00,-131.6E-06
-199.2500E-03,-9.6546975E+00,-122.6E-06
-199.0000E-03,-9.6631892E+00,-110.8E-06
-198.7500E-03,-9.6722352E+00,-106.9E-06
-198.5000E-03,-9.6815020E+00,-89.8E-06
-198.2500E-03,-9.6906558E+00,-73.8E-06
-198.0000E-03,-9.7002541E+00,-52.4E-06
-197.7500E-03,-9.7103037E+00,-37.2E-06
-197.5000E-03,-9.7199135E+00,-24.9E-06
-197.2500E-03,-9.7299026E+00,-20.5E-06
-197.0000E-03,-9.7402518E+00,-9.7E-06
-196.7500E-03,-9.7498741E+00,+800E-09
-196.5000E-03,-9.7598593E+00,+5.0E-06
-196.2500E-03,-9.7694243E+00,+11.0E-06
-196.0000E-03,-9.7796150E+00,+15.7E-06
-195.7500E-03,-9.7892089E+00,+24.8E-06
-195.5000E-03,-9.7991800E+00,+32.9E-06
-195.2500E-03,-9.8091212E+00,+37.9E-06
-195.0000E-03,-9.8190808E+00,+43.8E-06
-194.7500E-03,-9.8287919E+00,+55.3E-06
-194.5000E-03,-9.8388288E+00,+63.6E-06
-194.2500E-03,-9.8492519E+00,+82.6E-06
-194.0000E-03,-9.8594541E+00,+82.8E-06
-193.7500E-03,-9.8692962E+00,+84.4E-06
-193.5000E-03,-9.8787162E+00,+85.8E-06
-193.2500E-03,-9.8880294E+00,+82.1E-06
-193.0000E-03,-9.8975208E+00,+85.5E-06
-192.7500E-03,-9.9070530E+00,+90.1E-06
-192.5000E-03,-9.9163531E+00,+93.1E-06
-192.2500E-03,-9.9255851E+00,+88.9E-06
-192.0000E-03,-9.9349913E+00,+95.5E-06
-191.7500E-03,-9.9436497E+00,+102.8E-06
-191.5000E-03,-9.9530934E+00,+106.1E-06
-191.2500E-03,-9.9623800E+00,+104.9E-06
-191.0000E-03,-9.9717451E+00,+115.3E-06
-190.7500E-03,-9.9805493E+00,+131.8E-06
-190.5000E-03,-9.9903968E+00,+149.9E-06
-190.2500E-03,-10.0003666E+00,+163.6E-06
-190.0000E-03,-10.0101429E+00,+176.2E-06
-189.7500E-03,-10.0197999E+00,+182.3E-06
-189.5000E-03,-10.0292280E+00,+192.5E-06
-189.2500E-03,-10.0385857E+00,+198.3E-06
-189.0000E-03,-10.0477503E+00,+196.9E-06
-188.7500E-03,-10.0561372E+00,+195.6E-06
-188.5000E-03,-10.0644937E+00,+190.0E-06
-188.2500E-03,-10.0718616E+00,+189.3E-06
-188.0000E-03,-10.0790642E+00,+191.3E-06
-187.7500E-03,-10.0859693E+00,+192.0E-06
-187.5000E-03,-10.0915912E+00,+188.9E-06
-187.2500E-03,-10.0973546E+00,+184.4E-06
-187.0000E-03,-10.1019751E+00,+185.7E-06
-186.7500E-03,-10.1065614E+00,+193.7E-06
-186.5000E-03,-10.1109550E+00,+202.1E-06
-186.2500E-03,-10.1148147E+00,+212.1E-06
-186.0000E-03,-10.1180844E+00,+219.7E-06
-185.7500E-03,-10.1213868E+00,+220.9E-06
-185.5000E-03,-10.1243860E+00,+221.4E-06
-185.2500E-03,-10.1265894E+00,+227.2E-06
-185.0000E-03,-10.1284441E+00,+227.8E-06
-184.7500E-03,-10.1302511E+00,+228.3E-06
-184.5000E-03,-10.1315808E+00,+225.7E-06
-184.2500E-03,-10.1322629E+00,+229.9E-06
-184.0000E-03,-10.1328872E+00,+234.1E-06
-183.7500E-03,-10.1338477E+00,+239.6E-06
-183.5000E-03,-10.1343202E+00,+243.8E-06
-183.2500E-03,-10.1347394E+00,+253.0E-06
-183.0000E-03,-10.1354036E+00,+259.8E-06
-182.7500E-03,-10.1359281E+00,+269.6E-06
-182.5000E-03,-10.1364107E+00,+277.2E-06
-182.2500E-03,-10.1367384E+00,+281.8E-06
-182.0000E-03,-10.1373448E+00,+289.2E-06
-181.7500E-03,-10.1376021E+00,+296.8E-06
-181.5000E-03,-10.1379790E+00,+305.0E-06
-181.2500E-03,-10.1382582E+00,+295.4E-06
-181.0000E-03,-10.1384658E+00,+287.7E-06
-180.7500E-03,-10.1384393E+00,+279.9E-06
-180.5000E-03,-10.1380790E+00,+280.2E-06
-180.2500E-03,-10.1382318E+00,+271.7E-06
-180.0000E-03,-10.1377502E+00,+258.1E-06
-179.7500E-03,-10.1369443E+00,+253.3E-06
-179.5000E-03,-10.1364954E+00,+249.2E-06
-179.2500E-03,-10.1362362E+00,+254.5E-06
-179.0000E-03,-10.1361503E+00,+262.0E-06
-178.7500E-03,-10.1362150E+00,+258.1E-06
-178.5000E-03,-10.1362900E+00,+261.6E-06
-178.2500E-03,-10.1365993E+00,+267.0E-06
-178.0000E-03,-10.1367958E+00,+279.3E-06
-177.7500E-03,-10.1371404E+00,+288.3E-06
-177.5000E-03,-10.1376679E+00,+290.7E-06
-177.2500E-03,-10.1377475E+00,+298.9E-06
-177.0000E-03,-10.1379757E+00,+292.6E-06
-176.7500E-03,-10.1382302E+00,+288.2E-06
-176.5000E-03,-10.1381854E+00,+288.7E-06
-176.2500E-03,-10.1380732E+00,+283.5E-06
-176.0000E-03,-10.1379346E+00,+278.4E-06
-175.7500E-03,-10.1377817E+00,+279.6E-06
-175.5000E-03,-10.1376021E+00,+276.3E-06
-175.2500E-03,-10.1376178E+00,+275.5E-06
-175.0000E-03,-10.1378361E+00,+274.8E-06
-174.7500E-03,-10.1376806E+00,+273.4E-06
-174.5000E-03,-10.1375521E+00,+274.9E-06
-174.2500E-03,-10.1376806E+00,+277.2E-06
-174.0000E-03,-10.1375031E+00,+275.7E-06
-173.7500E-03,-10.1373608E+00,+269.2E-06
-173.5000E-03,-10.1369739E+00,+261.5E-06
-173.2500E-03,-10.1366052E+00,+251.3E-06
-173.0000E-03,-10.1361502E+00,+240.9E-06
-172.7500E-03,-10.1359406E+00,+231.2E-06
-172.5000E-03,-10.1357332E+00,+226.9E-06
-172.2500E-03,-10.1357918E+00,+215.2E-06
-172.0000E-03,-10.1355012E+00,+208.6E-06
-171.7500E-03,-10.1355437E+00,+206.9E-06
-171.5000E-03,-10.1354036E+00,+199.0E-06
-171.2500E-03,-10.1352465E+00,+198.3E-06
-171.0000E-03,-10.1348142E+00,+198.8E-06
-170.7500E-03,-10.1351039E+00,+199.1E-06
-170.5000E-03,-10.1350312E+00,+212.8E-06
-170.2500E-03,-10.1354036E+00,+220.0E-06
-170.0000E-03,-10.1353937E+00,+218.0E-06
-169.7500E-03,-10.1354137E+00,+212.0E-06
-169.5000E-03,-10.1357962E+00,+211.3E-06
-169.2500E-03,-10.1353373E+00,+209.9E-06
-169.0000E-03,-10.1355410E+00,+203.2E-06
-168.7500E-03,-10.1354306E+00,+186.9E-06
-168.5000E-03,-10.1351582E+00,+171.1E-06
-168.2500E-03,-10.1342358E+00,+160.9E-06
-168.0000E-03,-10.1338332E+00,+155.5E-06
-167.7500E-03,-10.1330826E+00,+146.8E-06
-167.5000E-03,-10.1328471E+00,+136.4E-06
-167.2500E-03,-10.1324694E+00,+120.7E-06
-167.0000E-03,-10.1317918E+00,+115.9E-06
-166.7500E-03,-10.1316498E+00,+113.4E-06
-166.5000E-03,-10.1315264E+00,+114.8E-06
-166.2500E-03,-10.1314437E+00,+109.0E-06
-166.0000E-03,-10.1310362E+00,+109.7E-06
-165.7500E-03,-10.1309281E+00,+98.7E-06
-165.5000E-03,-10.1306243E+00,+96.6E-06
-165.2500E-03,-10.1304302E+00,+93.3E-06
-165.0000E-03,-10.1303591E+00,+84.6E-06
-164.7500E-03,-10.1300405E+00,+71.6E-06
-164.5000E-03,-10.1295704E+00,+60.1E-06
-164.2500E-03,-10.1289679E+00,+56.9E-06
-164.0000E-03,-10.1288183E+00,+57.2E-06
-163.7500E-03,-10.1284506E+00,+47.6E-06
-163.5000E-03,-10.1282834E+00,+42.4E-06
-163.2500E-03,-10.1283370E+00,+42.4E-06
-163.0000E-03,-10.1284155E+00,+46.5E-06
-162.7500E-03,-10.1283841E+00,+42.9E-06
-162.5000E-03,-10.1283610E+00,+37.4E-06
-162.2500E-03,-10.1283037E+00,+35.7E-06
-162.0000E-03,-10.1280921E+00,+33.9E-06
-161.7500E-03,-10.1283408E+00,+36.1E-06
-161.5000E-03,-10.1284100E+00,+32.7E-06
-161.2500E-03,-10.1281271E+00,+13.7E-06
-161.0000E-03,-10.1276708E+00,-4.9E-06
-160.7500E-03,-10.1275009E+00,-17.2E-06
-160.5000E-03,-10.1268187E+00,-31.7E-06
-160.2500E-03,-10.1261148E+00,-46.0E-06
-160.0000E-03,-10.1249530E+00,-64.0E-06
-159.7500E-03,-10.1242113E+00,-78.3E-06
-159.5000E-03,-10.1236205E+00,-86.4E-06
-159.2500E-03,-10.1228341E+00,-92.5E-06
-159.0000E-03,-10.1222141E+00,-94.5E-06
-158.7500E-03,-10.1214437E+00,-102.5E-06
-158.5000E-03,-10.1211134E+00,-106.3E-06
-158.2500E-03,-10.1208549E+00,-110.5E-06
-158.0000E-03,-10.1206423E+00,-110.3E-06
-157.7500E-03,-10.1206831E+00,-107.7E-06
-157.5000E-03,-10.1204852E+00,-111.4E-06
-157.2500E-03,-10.1204328E+00,-120.9E-06
-157.0000E-03,-10.1202347E+00,-129.5E-06
-156.7500E-03,-10.1198012E+00,-133.3E-06
-156.5000E-03,-10.1195470E+00,-144.3E-06
-156.2500E-03,-10.1191573E+00,-162.0E-06
-156.0000E-03,-10.1186685E+00,-173.6E-06
-155.7500E-03,-10.1182685E+00,-186.7E-06
-155.5000E-03,-10.1177609E+00,-196.3E-06
-155.2500E-03,-10.1175675E+00,-202.8E-06
-155.0000E-03,-10.1169541E+00,-210.5E-06
-154.7500E-03,-10.1162314E+00,-220.1E-06
-154.5000E-03,-10.1159395E+00,-226.5E-06
-154.2500E-03,-10.1153816E+00,-234.9E-06
-154.0000E-03,-10.1146490E+00,-243.4E-06
-153.7500E-03,-10.1138872E+00,-258.5E-06
-153.5000E-03,-10.1131229E+00,-275.0E-06
-153.2500E-03,-10.1122163E+00,-290.5E-06
-153.0000E-03,-10.1115551E+00,-301.8E-06
-152.7500E-03,-10.1105920E+00,-313.9E-06
-152.5000E-03,-10.1095211E+00,-332.7E-06
-152.2500E-03,-10.1083300E+00,-349.7E-06
-152.0000E-03,-10.1070247E+00,-363.2E-06
-151.7500E-03,-10.1060958E+00,-372.6E-06
-151.5000E-03,-10.1052511E+00,-385.4E-06
-151.2500E-03,-10.1041176E+00,-396.0E-06
-151.0000E-03,-10.1031384E+00,-401.1E-06
-150.7500E-03,-10.1023652E+00,-402.0E-06
-150.5000E-03,-10.1018927E+00,-395.1E-06
-150.2500E-03,-10.1014604E+00,-398.6E-06
-150.0000E-03,-10.1013436E+00,-401.4E-06
-149.7500E-03,-10.1008156E+00,-415.3E-06
-149.5000E-03,-10.0995996E+00,-424.8E-06
-149.2500E-03,-10.0989714E+00,-430.4E-06
-149.0000E-03,-10.0980716E+00,-444.1E-06
-148.7500E-03,-10.0971905E+00,-459.2E-06
-148.5000E-03,-10.0961249E+00,-480.6E-06
-148.2500E-03,-10.0945244E+00,-500.9E-06
-148.0000E-03,-10.0929713E+00,-513.0E-06
-147.7500E-03,-10.0917822E+00,-530.2E-06
-147.5000E-03,-10.0902823E+00,-549.5E-06
-147.2500E-03,-10.0885844E+00,-568.9E-06
-147.0000E-03,-10.0870060E+00,-580.7E-06
-146.7500E-03,-10.0856780E+00,-585.5E-06
-146.5000E-03,-10.0841417E+00,-589.0E-06
-146.2500E-03,-10.0826258E+00,-603.5E-06
-146.0000E-03,-10.0809507E+00,-610.4E-06
-145.7500E-03,-10.0795743E+00,-619.7E-06
-145.5000E-03,-10.0778973E+00,-631.2E-06
-145.2500E-03,-10.0762295E+00,-644.4E-06
-145.0000E-03,-10.0743673E+00,-651.1E-06
-144.7500E-03,-10.0727420E+00,-667.3E-06
-144.5000E-03,-10.0707656E+00,-681.1E-06
-144.2500E-03,-10.0688120E+00,-695.5E-06
-144.0000E-03,-10.0668262E+00,-696.4E-06
-143.7500E-03,-10.0654424E+00,-707.9E-06
-143.5000E-03,-10.0637191E+00,-719.1E-06
-143.2500E-03,-10.0618843E+00,-720.1E-06
-143.0000E-03,-10.0602784E+00,-721.5E-06
-142.7500E-03,-10.0585631E+00,-721.8E-06
-142.5000E-03,-10.0572504E+00,-733.8E-06
-142.2500E-03,-10.0555693E+00,-743.8E-06
-142.0000E-03,-10.0539500E+00,-747.0E-06
-141.7500E-03,-10.0526051E+00,-749.4E-06
-141.5000E-03,-10.0508824E+00,-758.9E-06
-141.2500E-03,-10.0492818E+00,-779.4E-06
-141.0000E-03,-10.0472458E+00,-797.8E-06
-140.7500E-03,-10.0454788E+00,-815.5E-06
-140.5000E-03,-10.0430427E+00,-834.8E-06
-140.2500E-03,-10.0406610E+00,-858.1E-06
-140.0000E-03,-10.0378726E+00,-883.7E-06
-139.7500E-03,-10.0346634E+00,-894.6E-06
-139.5000E-03,-10.0317415E+00,-906.5E-06
-139.2500E-03,-10.0285933E+00,-918.7E-06
-139.0000E-03,-10.0258486E+00,-920.8E-06
-138.7500E-03,-10.0229656E+00,-930.8E-06
-138.5000E-03,-10.0203107E+00,-935.0E-06
-138.2500E-03,-10.0177297E+00,-937.9E-06
-138.0000E-03,-10.0149769E+00,-936.8E-06
-137.7500E-03,-10.0120523E+00,-938.1E-06
-137.5000E-03,-10.0090074E+00,-946.4E-06
-137.2500E-03,-10.0062915E+00,-954.1E-06
-137.0000E-03,-10.0032441E+00,-968.2E-06
-136.7500E-03,-10.0000987E+00,-979.2E-06
-136.5000E-03,-9.9967546E+00,-990.1E-06
-136.2500E-03,-9.9937837E+00,-1.0081E-03
-136.0000E-03,-9.9907410E+00,-1.0215E-03
-135.7500E-03,-9.9873405E+00,-1.0336E-03
-135.5000E-03,-9.9840697E+00,-1.0358E-03
-135.2500E-03,-9.9810597E+00,-1.0482E-03
-135.0000E-03,-9.9773795E+00,-1.0618E-03
-134.7500E-03,-9.9740032E+00,-1.0704E-03
-134.5000E-03,-9.9704726E+00,-1.0778E-03
-134.2500E-03,-9.9670742E+00,-1.0880E-03
-134.0000E-03,-9.9634757E+00,-1.0992E-03
-133.7500E-03,-9.9592526E+00,-1.1099E-03
-133.5000E-03,-9.9553447E+00,-1.1204E-03
-133.2500E-03,-9.9513153E+00,-1.1404E-03
-133.0000E-03,-9.9467090E+00,-1.1526E-03
-132.7500E-03,-9.9420207E+00,-1.1673E-03
-132.5000E-03,-9.9370352E+00,-1.1826E-03
-132.2500E-03,-9.9325833E+00,-1.2039E-03
-132.0000E-03,-9.9276668E+00,-1.2218E-03
-131.7500E-03,-9.9221388E+00,-1.2310E-03
-131.5000E-03,-9.9171715E+00,-1.2418E-03
-131.2500E-03,-9.9118979E+00,-1.2497E-03
-131.0000E-03,-9.9064693E+00,-1.2519E-03
-130.7500E-03,-9.9014007E+00,-1.2539E-03
-130.5000E-03,-9.8962301E+00,-1.2499E-03
-130.2500E-03,-9.8919863E+00,-1.2485E-03
-130.0000E-03,-9.8873434E+00,-1.2514E-03
-129.7500E-03,-9.8821947E+00,-1.2591E-03
-129.5000E-03,-9.8773030E+00,-1.2705E-03
-129.2500E-03,-9.8724739E+00,-1.2782E-03
-129.0000E-03,-9.8674730E+00,-1.2956E-03
-128.7500E-03,-9.8625659E+00,-1.3087E-03
-128.5000E-03,-9.8562761E+00,-1.3305E-03
-128.2500E-03,-9.8509798E+00,-1.3434E-03
-128.0000E-03,-9.8451490E+00,-1.3498E-03
-127.7500E-03,-9.8391312E+00,-1.3654E-03
-127.5000E-03,-9.8331723E+00,-1.3819E-03
-127.2500E-03,-9.8269085E+00,-1.4031E-03
-127.0000E-03,-9.8204599E+00,-1.4123E-03
-126.7500E-03,-9.8141085E+00,-1.4181E-03
-126.5000E-03,-9.8078749E+00,-1.4184E-03
-126.2500E-03,-9.8014801E+00,-1.4208E-03
-126.0000E-03,-9.7950776E+00,-1.4277E-03
-125.7500E-03,-9.7891211E+00,-1.4394E-03
-125.5000E-03,-9.7823975E+00,-1.4477E-03
-125.2500E-03,-9.7760831E+00,-1.4500E-03
-125.0000E-03,-9.7694694E+00,-1.4583E-03
-124.7500E-03,-9.7627575E+00,-1.4730E-03
-124.5000E-03,-9.7557366E+00,-1.4821E-03
-124.2500E-03,-9.7488175E+00,-1.4914E-03
-124.0000E-03,-9.7420748E+00,-1.4932E-03
-123.7500E-03,-9.7353988E+00,-1.5023E-03
-123.5000E-03,-9.7287789E+00,-1.5030E-03
-123.2500E-03,-9.7219758E+00,-1.5019E-03
-123.0000E-03,-9.7155562E+00,-1.4999E-03
-122.7500E-03,-9.7096368E+00,-1.5011E-03
-122.5000E-03,-9.7030969E+00,-1.5089E-03
-122.2500E-03,-9.6967044E+00,-1.5126E-03
-122.0000E-03,-9.6901706E+00,-1.5144E-03
-121.7500E-03,-9.6841865E+00,-1.5166E-03
-121.5000E-03,-9.6778969E+00,-1.5148E-03
-121.2500E-03,-9.6714345E+00,-1.5308E-03
-121.0000E-03,-9.6649778E+00,-1.5408E-03
-120.7500E-03,-9.6585225E+00,-1.5517E-03
-120.5000E-03,-9.6513562E+00,-1.5682E-03
-120.2500E-03,-9.6445049E+00,-1.5865E-03
-120.0000E-03,-9.6373542E+00,-1.6014E-03
-119.7500E-03,-9.6296870E+00,-1.6094E-03
-119.5000E-03,-9.6227156E+00,-1.6146E-03
-119.2500E-03,-9.6154587E+00,-1.6247E-03
-119.0000E-03,-9.6081771E+00,-1.6271E-03
-118.7500E-03,-9.6008239E+00,-1.6273E-03
-118.5000E-03,-9.5938447E+00,-1.6272E-03
-118.2500E-03,-9.5871912E+00,-1.6264E-03
-118.0000E-03,-9.5805151E+00,-1.6203E-03
-117.7500E-03,-9.5737668E+00,-1.6166E-03
-117.5000E-03,-9.5674593E+00,-1.6165E-03
-117.2500E-03,-9.5608990E+00,-1.6163E-03
-117.0000E-03,-9.5541088E+00,-1.6227E-03
-116.7500E-03,-9.5475979E+00,-1.6246E-03
-116.5000E-03,-9.5406953E+00,-1.6279E-03
-116.2500E-03,-9.5338680E+00,-1.6355E-03
-116.0000E-03,-9.5269358E+00,-1.6455E-03
-115.7500E-03,-9.5199239E+00,-1.6569E-03
-115.5000E-03,-9.5130481E+00,-1.6574E-03
-115.2500E-03,-9.5064930E+00,-1.6611E-03
-115.0000E-03,-9.4996526E+00,-1.6652E-03
-114.7500E-03,-9.4929602E+00,-1.6684E-03
-114.5000E-03,-9.4860502E+00,-1.6700E-03
-114.2500E-03,-9.4796820E+00,-1.6684E-03
-114.0000E-03,-9.4728514E+00,-1.6700E-03
-113.7500E-03,-9.4660822E+00,-1.6793E-03
-113.5000E-03,-9.4592149E+00,-1.6864E-03
-113.2500E-03,-9.4522904E+00,-1.6980E-03
-113.0000E-03,-9.4452300E+00,-1.7076E-03
-112.7500E-03,-9.4383712E+00,-1.7110E-03
-112.5000E-03,-9.4309330E+00,-1.7183E-03
-112.2500E-03,-9.4241025E+00,-1.7265E-03
-112.0000E-03,-9.4168426E+00,-1.7369E-03
-111.7500E-03,-9.4095218E+00,-1.7402E-03
-111.5000E-03,-9.4021486E+00,-1.7365E-03
-111.2500E-03,-9.3949201E+00,-1.7383E-03
-111.0000E-03,-9.3880853E+00,-1.7343E-03
-110.7500E-03,-9.3809547E+00,-1.7289E-03
-110.5000E-03,-9.3743452E+00,-1.7123E-03
-110.2500E-03,-9.3680351E+00,-1.7076E-03
-110.0000E-03,-9.3620687E+00,-1.7037E-03
-109.7500E-03,-9.3562059E+00,-1.7097E-03
-109.5000E-03,-9.3498396E+00,-1.7112E-03
-109.2500E-03,-9.3438925E+00,-1.7059E-03
-109.0000E-03,-9.3374297E+00,-1.7082E-03
-108.7500E-03,-9.3315237E+00,-1.7212E-03
-108.5000E-03,-9.3248630E+00,-1.7327E-03
-108.2500E-03,-9.3179656E+00,-1.7403E-03
-108.0000E-03,-9.3116240E+00,-1.7425E-03
-107.7500E-03,-9.3051801E+00,-1.7473E-03
-107.5000E-03,-9.2984727E+00,-1.7538E-03
-107.2500E-03,-9.2919436E+00,-1.7632E-03
-107.0000E-03,-9.2852777E+00,-1.7676E-03
-106.7500E-03,-9.2787587E+00,-1.7612E-03
-106.5000E-03,-9.2723771E+00,-1.7522E-03
-106.2500E-03,-9.2660593E+00,-1.7489E-03
-106.0000E-03,-9.2598640E+00,-1.7465E-03
-105.7500E-03,-9.2538530E+00,-1.7472E-03
-105.5000E-03,-9.2476654E+00,-1.7421E-03
-105.2500E-03,-9.2417302E+00,-1.7375E-03
-105.0000E-03,-9.2356382E+00,-1.7339E-03
-104.7500E-03,-9.2300904E+00,-1.7408E-03
-104.5000E-03,-9.2240130E+00,-1.7447E-03
-104.2500E-03,-9.2178871E+00,-1.7448E-03
-104.0000E-03,-9.2124376E+00,-1.7377E-03
-103.7500E-03,-9.2067675E+00,-1.7407E-03
-103.5000E-03,-9.2012545E+00,-1.7390E-03
-103.2500E-03,-9.1955889E+00,-1.7227E-03
-103.0000E-03,-9.1906055E+00,-1.7116E-03
-102.7500E-03,-9.1855665E+00,-1.7051E-03
-102.5000E-03,-9.1805172E+00,-1.7005E-03
-102.2500E-03,-9.1760142E+00,-1.6949E-03
-102.0000E-03,-9.1713883E+00,-1.6818E-03
-101.7500E-03,-9.1671584E+00,-1.6730E-03
-101.5000E-03,-9.1628500E+00,-1.6679E-03
-101.2500E-03,-9.1581706E+00,-1.6713E-03
-101.0000E-03,-9.1538904E+00,-1.6752E-03
-100.7500E-03,-9.1491903E+00,-1.6846E-03
-100.5000E-03,-9.1442052E+00,-1.6881E-03
-100.2500E-03,-9.1395961E+00,-1.6932E-03
-100.0000E-03,-9.1347200E+00,-1.7031E-03
-99.7500E-03,-9.1299548E+00,-1.7023E-03
-99.5000E-03,-9.1252233E+00,-1.6969E-03
-99.2500E-03,-9.1200286E+00,-1.6925E-03
-99.0000E-03,-9.1153122E+00,-1.6821E-03
-98.7500E-03,-9.1107984E+00,-1.6810E-03
-98.5000E-03,-9.1066164E+00,-1.6691E-03
-98.2500E-03,-9.1027227E+00,-1.6580E-03
-98.0000E-03,-9.0987590E+00,-1.6458E-03
-97.7500E-03,-9.0953123E+00,-1.6366E-03
-97.5000E-03,-9.0917953E+00,-1.6295E-03
-97.2500E-03,-9.0886647E+00,-1.6130E-03
-97.0000E-03,-9.0855367E+00,-1.6072E-03
-96.7500E-03,-9.0819913E+00,-1.6031E-03
-96.5000E-03,-9.0789556E+00,-1.5980E-03
-96.2500E-03,-9.0758591E+00,-1.6022E-03
-96.0000E-03,-9.0727996E+00,-1.6001E-03
-95.7500E-03,-9.0697564E+00,-1.5931E-03
-95.5000E-03,-9.0667680E+00,-1.5883E-03
-95.2500E-03,-9.0641754E+00,-1.5794E-03
-95.0000E-03,-9.0610268E+00,-1.5790E-03
-94.7500E-03,-9.0585227E+00,-1.5716E-03
-94.5000E-03,-9.0556202E+00,-1.5622E-03
-94.2500E-03,-9.0534976E+00,-1.5525E-03
-94.0000E-03,-9.0509224E+00,-1.5508E-03
-93.7500E-03,-9.0483192E+00,-1.5511E-03
-93.5000E-03,-9.0459652E+00,-1.5418E-03
-93.2500E-03,-9.0437200E+00,-1.5465E-03
-93.0000E-03,-9.0409945E+00,-1.5450E-03
-92.7500E-03,-9.0386258E+00,-1.5384E-03
-92.5000E-03,-9.0361671E+00,-1.5342E-03
-92.2500E-03,-9.0340012E+00,-1.5374E-03
-92.0000E-03,-9.0314945E+00,-1.5351E-03
-91.7500E-03,-9.0288607E+00,-1.5343E-03
-91.5000E-03,-9.0265569E+00,-1.5268E-03
-91.2500E-03,-9.0242556E+00,-1.5131E-03
-91.0000E-03,-9.0223993E+00,-1.5019E-03
-90.7500E-03,-9.0205605E+00,-1.4905E-03
-90.5000E-03,-9.0194147E+00,-1.4659E-03
-90.2500E-03,-9.0184124E+00,-1.4485E-03
-90.0000E-03,-9.0177770E+00,-1.4367E-03
-89.7500E-03,-9.0166327E+00,-1.4337E-03
-89.5000E-03,-9.0159895E+00,-1.4333E-03
-89.2500E-03,-9.0155857E+00,-1.4164E-03
-89.0000E-03,-9.0149835E+00,-1.4084E-03
-88.7500E-03,-9.0142150E+00,-1.4115E-03
-88.5000E-03,-9.0132764E+00,-1.4104E-03
-88.2500E-03,-9.0122575E+00,-1.4140E-03
-88.0000E-03,-9.0116922E+00,-1.4055E-03
-87.7500E-03,-9.0108432E+00,-1.4031E-03
-87.5000E-03,-9.0103869E+00,-1.3984E-03
-87.2500E-03,-9.0096940E+00,-1.3954E-03
-87.0000E-03,-9.0089182E+00,-1.3887E-03
-86.7500E-03,-9.0084544E+00,-1.3765E-03
-86.5000E-03,-9.0083048E+00,-1.3609E-03
-86.2500E-03,-9.0080481E+00,-1.3516E-03
-86.0000E-03,-9.0083688E+00,-1.3380E-03
-85.7500E-03,-9.0087628E+00,-1.3308E-03
-85.5000E-03,-9.0086942E+00,-1.3212E-03
-85.2500E-03,-9.0087343E+00,-1.3115E-03
-85.0000E-03,-9.0093567E+00,-1.2972E-03
-84.7500E-03,-9.0092315E+00,-1.2956E-03
-84.5000E-03,-9.0097686E+00,-1.2950E-03
-84.2500E-03,-9.0105424E+00,-1.2853E-03
-84.0000E-03,-9.0109988E+00,-1.2698E-03
-83.7500E-03,-9.0119024E+00,-1.2567E-03
-83.5000E-03,-9.0127127E+00,-1.2455E-03
-83.2500E-03,-9.0141737E+00,-1.2311E-03
-83.0000E-03,-9.0158404E+00,-1.2134E-03
-82.7500E-03,-9.0172536E+00,-1.1948E-03
-82.5000E-03,-9.0195397E+00,-1.1842E-03
-82.2500E-03,-9.0215369E+00,-1.1686E-03
-82.0000E-03,-9.0232380E+00,-1.1545E-03
-81.7500E-03,-9.0258409E+00,-1.1418E-03
-81.5000E-03,-9.0286944E+00,-1.1230E-03
-81.2500E-03,-9.0312147E+00,-1.1212E-03
-81.0000E-03,-9.0335631E+00,-1.1193E-03
-80.7500E-03,-9.0356845E+00,-1.1132E-03
-80.5000E-03,-9.0383024E+00,-1.1150E-03
-80.2500E-03,-9.0405090E+00,-1.1174E-03
-80.0000E-03,-9.0425511E+00,-1.1145E-03
-79.7500E-03,-9.0442567E+00,-1.1085E-03
-79.5000E-03,-9.0466465E+00,-1.0952E-03
-79.2500E-03,-9.0490359E+00,-1.0807E-03
-79.0000E-03,-9.0512619E+00,-1.0632E-03
-78.7500E-03,-9.0544006E+00,-1.0577E-03
-78.5000E-03,-9.0573746E+00,-1.0452E-03
-78.2500E-03,-9.0608049E+00,-1.0257E-03
-78.0000E-03,-9.0643355E+00,-1.0035E-03
-77.7500E-03,-9.0676557E+00,-983.6E-06
-77.5000E-03,-9.0717924E+00,-970.1E-06
-77.2500E-03,-9.0757910E+00,-959.5E-06
-77.0000E-03,-9.0797928E+00,-948.2E-06
-76.7500E-03,-9.0835640E+00,-935.1E-06
-76.5000E-03,-9.0877869E+00,-927.4E-06
-76.2500E-03,-9.0920926E+00,-919.5E-06
-76.0000E-03,-9.0965779E+00,-905.7E-06
-75.7500E-03,-9.1004836E+00,-898.3E-06
-75.5000E-03,-9.1050424E+00,-886.8E-06
-75.2500E-03,-9.1096893E+00,-876.3E-06
-75.0000E-03,-9.1141327E+00,-868.4E-06
-74.7500E-03,-9.1189391E+00,-855.2E-06
-74.5000E-03,-9.1238659E+00,-840.7E-06
-74.2500E-03,-9.1290032E+00,-821.0E-06
-74.0000E-03,-9.1342638E+00,-818.5E-06
-73.7500E-03,-9.1391709E+00,-810.7E-06
-73.5000E-03,-9.1439994E+00,-802.4E-06
-73.2500E-03,-9.1493973E+00,-802.9E-06
-73.0000E-03,-9.1541304E+00,-789.8E-06
-72.7500E-03,-9.1589215E+00,-778.0E-06
-72.5000E-03,-9.1641405E+00,-771.6E-06
-72.2500E-03,-9.1689564E+00,-767.5E-06
-72.0000E-03,-9.1738908E+00,-766.7E-06
-71.7500E-03,-9.1786627E+00,-754.5E-06
-71.5000E-03,-9.1837338E+00,-748.7E-06
-71.2500E-03,-9.1889470E+00,-735.9E-06
-71.0000E-03,-9.1943892E+00,-715.6E-06
-70.7500E-03,-9.2001301E+00,-697.1E-06
-70.5000E-03,-9.2059348E+00,-672.9E-06
-70.2500E-03,-9.2120984E+00,-657.3E-06
-70.0000E-03,-9.2184007E+00,-638.7E-06
-69.7500E-03,-9.2252231E+00,-628.7E-06
-69.5000E-03,-9.2318578E+00,-616.7E-06
-69.2500E-03,-9.2383695E+00,-603.2E-06
-69.0000E-03,-9.2449478E+00,-600.3E-06
-68.7500E-03,-9.2514756E+00,-594.6E-06
-68.5000E-03,-9.2579799E+00,-595.7E-06
-68.2500E-03,-9.2645937E+00,-588.4E-06
-68.0000E-03,-9.2707275E+00,-576.1E-06
-67.7500E-03,-9.2773575E+00,-570.0E-06
-67.5000E-03,-9.2836421E+00,-567.2E-06
-67.2500E-03,-9.2900686E+00,-562.8E-06
-67.0000E-03,-9.2967232E+00,-556.6E-06
-66.7500E-03,-9.3032570E+00,-543.2E-06
-66.5000E-03,-9.3100593E+00,-523.1E-06
-66.2500E-03,-9.3169618E+00,-505.7E-06
-66.0000E-03,-9.3239645E+00,-496.5E-06
-65.7500E-03,-9.3309398E+00,-486.4E-06
-65.5000E-03,-9.3380852E+00,-472.6E-06
-65.2500E-03,-9.3456757E+00,-463.3E-06
-65.0000E-03,-9.3526740E+00,-455.5E-06
-64.7500E-03,-9.3601924E+00,-448.6E-06
-64.5000E-03,-9.3673444E+00,-443.4E-06
-64.2500E-03,-9.3743337E+00,-435.3E-06
-64.0000E-03,-9.3819870E+00,-414.3E-06
-63.7500E-03,-9.3898556E+00,-402.3E-06
-63.5000E-03,-9.3974868E+00,-389.7E-06
-63.2500E-03,-9.4051669E+00,-373.5E-06
-63.0000E-03,-9.4135159E+00,-355.4E-06
-62.7500E-03,-9.4219934E+00,-342.0E-06
-62.5000E-03,-9.4303117E+00,-329.0E-06
-62.2500E-03,-9.4388372E+00,-314.0E-06
-62.0000E-03,-9.4476703E+00,-297.0E-06
-61.7500E-03,-9.4567333E+00,-282.1E-06
-61.5000E-03,-9.4657198E+00,-264.5E-06
-61.2500E-03,-9.4741539E+00,-263.7E-06
-61.0000E-03,-9.4833360E+00,-259.2E-06
-60.7500E-03,-9.4920618E+00,-260.5E-06
-60.5000E-03,-9.5006453E+00,-259.8E-06
-60.2500E-03,-9.5091761E+00,-262.3E-06
-60.0000E-03,-9.5180504E+00,-259.7E-06
-59.7500E-03,-9.5262760E+00,-253.9E-06
-59.5000E-03,-9.5346020E+00,-246.3E-06
-59.2500E-03,-9.5428372E+00,-235.6E-06
-59.0000E-03,-9.5518417E+00,-221.6E-06
-58.7500E-03,-9.5599161E+00,-213.3E-06
-58.5000E-03,-9.5688568E+00,-195.3E-06
-58.2500E-03,-9.5776086E+00,-180.0E-06
-58.0000E-03,-9.5870647E+00,-156.1E-06
-57.7500E-03,-9.5958784E+00,-139.6E-06
-57.5000E-03,-9.6053932E+00,-121.7E-06
-57.2500E-03,-9.6150439E+00,-109.9E-06
-57.0000E-03,-9.6247368E+00,-107.4E-06
-56.7500E-03,-9.6341442E+00,-100.9E-06
-56.5000E-03,-9.6436524E+00,-95.0E-06
-56.2500E-03,-9.6530455E+00,-95.0E-06
-56.0000E-03,-9.6625062E+00,-86.1E-06
-55.7500E-03,-9.6720097E+00,-78.2E-06
-55.5000E-03,-9.6817526E+00,-68.0E-06
-55.2500E-03,-9.6914940E+00,-54.4E-06
-55.0000E-03,-9.7014473E+00,-48.8E-06
-54.7500E-03,-9.7110600E+00,-38.9E-06
-54.5000E-03,-9.7210222E+00,-30.2E-06
-54.2500E-03,-9.7308288E+00,-20.3E-06
-54.0000E-03,-9.7409201E+00,-14.4E-06
-53.7500E-03,-9.7504570E+00,-5.3E-06
-53.5000E-03,-9.7603243E+00,-7.5E-06
-53.2500E-03,-9.7699887E+00,-8.5E-06
-53.0000E-03,-9.7794175E+00,-3.5E-06
-52.7500E-03,-9.7888369E+00,+1.2E-06
-52.5000E-03,-9.7981013E+00,+10.2E-06
-52.2500E-03,-9.8078380E+00,+4.9E-06
-52.0000E-03,-9.8165618E+00,-200E-09
-51.7500E-03,-9.8258552E+00,+7.4E-06
-51.5000E-03,-9.8351270E+00,+13.7E-06
-51.2500E-03,-9.8446307E+00,+26.3E-06
-51.0000E-03,-9.8540633E+00,+37.1E-06
-50.7500E-03,-9.8632113E+00,+54.9E-06
-50.5000E-03,-9.8730605E+00,+78.3E-06
-50.2500E-03,-9.8829073E+00,+91.9E-06
-50.0000E-03,-9.8931930E+00,+107.1E-06
-49.7500E-03,-9.9027063E+00,+106.6E-06
-49.5000E-03,-9.9125209E+00,+114.4E-06
-49.2500E-03,-9.9229705E+00,+124.5E-06
-49.0000E-03,-9.9330479E+00,+127.9E-06
-48.7500E-03,-9.9425519E+00,+129.7E-06
-48.5000E-03,-9.9521207E+00,+123.6E-06
-48.2500E-03,-9.9615769E+00,+122.4E-06
-48.0000E-03,-9.9707229E+00,+125.0E-06
-47.7500E-03,-9.9802000E+00,+127.6E-06
-47.5000E-03,-9.9891295E+00,+129.3E-06
-47.2500E-03,-9.9987089E+00,+127.3E-06
-47.0000E-03,-10.0073591E+00,+123.8E-06
-46.7500E-03,-10.0161937E+00,+134.8E-06
-46.5000E-03,-10.0255401E+00,+145.1E-06
-46.2500E-03,-10.0341402E+00,+154.6E-06
-46.0000E-03,-10.0429933E+00,+160.5E-06
-45.7500E-03,-10.0509525E+00,+167.8E-06
-45.5000E-03,-10.0589992E+00,+172.6E-06
-45.2500E-03,-10.0668629E+00,+175.4E-06
-45.0000E-03,-10.0744565E+00,+179.9E-06
-44.7500E-03,-10.0809807E+00,+178.0E-06
-44.5000E-03,-10.0876464E+00,+178.1E-06
-44.2500E-03,-10.0938047E+00,+182.8E-06
-44.0000E-03,-10.0994232E+00,+191.0E-06
-43.7500E-03,-10.1043744E+00,+195.6E-06
-43.5000E-03,-10.1089331E+00,+202.0E-06
-43.2500E-03,-10.1132784E+00,+210.6E-06
-43.0000E-03,-10.1172554E+00,+226.3E-06
-42.7500E-03,-10.1209973E+00,+233.4E-06
-42.5000E-03,-10.1242925E+00,+238.2E-06
-42.2500E-03,-10.1268959E+00,+247.1E-06
-42.0000E-03,-10.1291212E+00,+259.1E-06
-41.7500E-03,-10.1312045E+00,+266.0E-06
-41.5000E-03,-10.1328016E+00,+277.5E-06
-41.2500E-03,-10.1343394E+00,+272.6E-06
-41.0000E-03,-10.1350598E+00,+269.3E-06
-40.7500E-03,-10.1361976E+00,+259.0E-06
-40.5000E-03,-10.1361991E+00,+253.4E-06
-40.2500E-03,-10.1361386E+00,+247.8E-06
-40.0000E-03,-10.1361296E+00,+238.9E-06
-39.7500E-03,-10.1357296E+00,+236.8E-06
-39.5000E-03,-10.1360919E+00,+245.0E-06
-39.2500E-03,-10.1355662E+00,+245.2E-06
-39.0000E-03,-10.1355606E+00,+256.7E-06
-38.7500E-03,-10.1355524E+00,+250.7E-06
-38.5000E-03,-10.1359033E+00,+259.4E-06
-38.2500E-03,-10.1362211E+00,+265.0E-06
-38.0000E-03,-10.1364234E+00,+274.8E-06
-37.7500E-03,-10.1370524E+00,+286.5E-06
-37.5000E-03,-10.1373601E+00,+296.1E-06
-37.2500E-03,-10.1377139E+00,+298.1E-06
-37.0000E-03,-10.1376991E+00,+297.3E-06
-36.7500E-03,-10.1380770E+00,+298.7E-06
-36.5000E-03,-10.1382247E+00,+296.2E-06
-36.2500E-03,-10.1380075E+00,+289.0E-06
-36.0000E-03,-10.1379947E+00,+283.9E-06
-35.7500E-03,-10.1377591E+00,+278.8E-06
-35.5000E-03,-10.1377676E+00,+284.2E-06
-35.2500E-03,-10.1378738E+00,+287.9E-06
-35.0000E-03,-10.1377303E+00,+281.5E-06
-34.7500E-03,-10.1379161E+00,+282.5E-06
-34.5000E-03,-10.1379161E+00,+287.8E-06
-34.2500E-03,-10.1379947E+00,+293.2E-06
-34.0000E-03,-10.1378407E+00,+293.7E-06
-33.7500E-03,-10.1377591E+00,+288.7E-06
-33.5000E-03,-10.1375546E+00,+285.5E-06
-33.2500E-03,-10.1375235E+00,+272.7E-06
-33.0000E-03,-10.1369739E+00,+268.3E-06
-32.7500E-03,-10.1366222E+00,+265.6E-06
-32.5000E-03,-10.1364127E+00,+259.4E-06
-32.2500E-03,-10.1364767E+00,+247.0E-06
-32.0000E-03,-10.1363084E+00,+237.2E-06
-31.7500E-03,-10.1363012E+00,+236.9E-06
-31.5000E-03,-10.1365734E+00,+231.5E-06
-31.2500E-03,-10.1363389E+00,+232.8E-06
-31.0000E-03,-10.1360317E+00,+229.4E-06
-30.7500E-03,-10.1359350E+00,+239.5E-06
-30.5000E-03,-10.1361632E+00,+251.4E-06
-30.2500E-03,-10.1364243E+00,+260.5E-06
-30.0000E-03,-10.1365770E+00,+262.9E-06
-29.7500E-03,-10.1368000E+00,+255.7E-06
-29.5000E-03,-10.1369505E+00,+257.0E-06
-29.2500E-03,-10.1371310E+00,+256.1E-06
-29.0000E-03,-10.1367037E+00,+249.5E-06
-28.7500E-03,-10.1366586E+00,+237.1E-06
-28.5000E-03,-10.1362673E+00,+223.5E-06
-28.2500E-03,-10.1358096E+00,+212.3E-06
-28.0000E-03,-10.1353877E+00,+205.6E-06
-27.7500E-03,-10.1347534E+00,+203.2E-06
-27.5000E-03,-10.1344541E+00,+195.8E-06
-27.2500E-03,-10.1343828E+00,+173.4E-06
-27.0000E-03,-10.1340969E+00,+169.3E-06
-26.7500E-03,-10.1338702E+00,+168.4E-06
-26.5000E-03,-10.1336494E+00,+176.6E-06
-26.2500E-03,-10.1336882E+00,+171.9E-06
-26.0000E-03,-10.1335247E+00,+168.1E-06
-25.7500E-03,-10.1334494E+00,+165.8E-06
-25.5000E-03,-10.1334729E+00,+161.9E-06
-25.2500E-03,-10.1330951E+00,+160.3E-06
-25.0000E-03,-10.1329695E+00,+151.1E-06
-24.7500E-03,-10.1327703E+00,+137.8E-06
-24.5000E-03,-10.1323742E+00,+127.4E-06
-24.2500E-03,-10.1321058E+00,+120.9E-06
-24.0000E-03,-10.1320273E+00,+125.6E-06
-23.7500E-03,-10.1320059E+00,+129.3E-06
-23.5000E-03,-10.1317099E+00,+123.3E-06
-23.2500E-03,-10.1317877E+00,+124.0E-06
-23.0000E-03,-10.1318146E+00,+124.6E-06
-22.7500E-03,-10.1318703E+00,+123.9E-06
-22.5000E-03,-10.1320796E+00,+120.5E-06
-22.2500E-03,-10.1314663E+00,+119.7E-06
-22.0000E-03,-10.1317098E+00,+119.3E-06
-21.7500E-03,-10.1322145E+00,+114.2E-06
-21.5000E-03,-10.1320830E+00,+112.6E-06
-21.2500E-03,-10.1318380E+00,+103.2E-06
-21.0000E-03,-10.1319729E+00,+92.7E-06
-20.7500E-03,-10.1318683E+00,+74.4E-06
-20.5000E-03,-10.1309617E+00,+57.9E-06
-20.2500E-03,-10.1301993E+00,+35.8E-06
-20.0000E-03,-10.1293296E+00,+24.1E-06
-19.7500E-03,-10.1283370E+00,+13.6E-06
-19.5000E-03,-10.1278236E+00,+9.3E-06
-19.2500E-03,-10.1268975E+00,+2.7E-06
-19.0000E-03,-10.1264211E+00,-1.6E-06
-18.7500E-03,-10.1259613E+00,-8.0E-06
-18.5000E-03,-10.1254191E+00,-9.5E-06
-18.2500E-03,-10.1253587E+00,-17.7E-06
-18.0000E-03,-10.1251218E+00,-11.1E-06
-17.7500E-03,-10.1254224E+00,-8.6E-06
-17.5000E-03,-10.1254486E+00,-13.5E-06
-17.2500E-03,-10.1255889E+00,-18.8E-06
-17.0000E-03,-10.1255734E+00,-27.1E-06
-16.7500E-03,-10.1253137E+00,-35.8E-06
-16.5000E-03,-10.1251963E+00,-43.1E-06
-16.2500E-03,-10.1249399E+00,-52.2E-06
-16.0000E-03,-10.1244286E+00,-61.0E-06
-15.7500E-03,-10.1238212E+00,-72.6E-06
-15.5000E-03,-10.1231548E+00,-83.9E-06
-15.2500E-03,-10.1229240E+00,-94.3E-06
-15.0000E-03,-10.1226716E+00,-107.1E-06
-14.7500E-03,-10.1222119E+00,-111.8E-06
-14.5000E-03,-10.1219522E+00,-116.3E-06
-14.2500E-03,-10.1215160E+00,-119.6E-06
-14.0000E-03,-10.1212704E+00,-125.9E-06
-13.7500E-03,-10.1203772E+00,-144.2E-06
-13.5000E-03,-10.1196557E+00,-157.8E-06
-13.2500E-03,-10.1190276E+00,-178.7E-06
-13.0000E-03,-10.1179653E+00,-188.1E-06
-12.7500E-03,-10.1172659E+00,-200.7E-06
-12.5000E-03,-10.1165814E+00,-209.7E-06
-12.2500E-03,-10.1157546E+00,-226.2E-06
-12.0000E-03,-10.1150554E+00,-241.9E-06
-11.7500E-03,-10.1142923E+00,-251.3E-06
-11.5000E-03,-10.1134508E+00,-263.8E-06
-11.2500E-03,-10.1127563E+00,-273.6E-06
-11.0000E-03,-10.1121603E+00,-285.3E-06
-10.7500E-03,-10.1117503E+00,-279.1E-06
-10.5000E-03,-10.1114014E+00,-276.6E-06
-10.2500E-03,-10.1112202E+00,-274.8E-06
-10.0000E-03,-10.1106758E+00,-284.6E-06
-9.7500E-03,-10.1102880E+00,-292.8E-06
-9.5000E-03,-10.1097457E+00,-308.1E-06
-9.2500E-03,-10.1093853E+00,-311.0E-06
-9.0000E-03,-10.1084759E+00,-322.3E-06
-8.7500E-03,-10.1075700E+00,-336.7E-06
-8.5000E-03,-10.1068385E+00,-360.4E-06
-8.2500E-03,-10.1055244E+00,-376.7E-06
-8.0000E-03,-10.1041648E+00,-389.4E-06
-7.7500E-03,-10.1030260E+00,-405.8E-06
-7.5000E-03,-10.1017919E+00,-419.3E-06
-7.2500E-03,-10.1005005E+00,-439.1E-06
-7.0000E-03,-10.0989437E+00,-448.0E-06
-6.7500E-03,-10.0977754E+00,-454.9E-06
-6.5000E-03,-10.0962821E+00,-459.9E-06
-6.2500E-03,-10.0951152E+00,-474.6E-06
-6.0000E-03,-10.0940730E+00,-484.3E-06
-5.7500E-03,-10.0930455E+00,-493.3E-06
-5.5000E-03,-10.0915831E+00,-502.5E-06
-5.2500E-03,-10.0902920E+00,-515.0E-06
-5.0000E-03,-10.0893787E+00,-524.2E-06
-4.7500E-03,-10.0882182E+00,-541.1E-06
-4.5000E-03,-10.0870607E+00,-557.0E-06
-4.2500E-03,-10.0860621E+00,-566.1E-06
-4.0000E-03,-10.0847392E+00,-569.4E-06
-3.7500E-03,-10.0830743E+00,-583.2E-06
-3.5000E-03,-10.0821172E+00,-588.4E-06
-3.2500E-03,-10.0805536E+00,-595.3E-06
-3.0000E-03,-10.0795251E+00,-598.5E-06
-2.7500E-03,-10.0781296E+00,-601.1E-06
-2.5000E-03,-10.0772872E+00,-611.8E-06
-2.2500E-03,-10.0759452E+00,-609.1E-06
-2.0000E-03,-10.0747226E+00,-614.1E-06
-1.7500E-03,-10.0737886E+00,-621.7E-06
-1.5000E-03,-10.0726797E+00,-630.6E-06
-1.2500E-03,-10.0714095E+00,-646.1E-06
-1.0000E-03,-10.0700839E+00,-669.2E-06
-750.0E-06,-10.0682784E+00,-684.9E-06
-500.0E-06,-10.0662960E+00,-705.3E-06
-250.0E-06,-10.0643685E+00,-726.2E-06
+0.0E+00,-10.0620333E+00,-747.5E-06
+250.0E-06,-10.0598953E+00,-761.6E-06
+500.0E-06,-10.0575041E+00,-773.6E-06
+750.0E-06,-10.0550491E+00,-785.3E-06
+1.0000E-03,-10.0531053E+00,-790.8E-06
+1.2500E-03,-10.0507495E+00,-805.0E-06
+1.5000E-03,-10.0485465E+00,-804.7E-06
+1.7500E-03,-10.0462279E+00,-810.4E-06
+2.0000E-03,-10.0437594E+00,-811.5E-06
+2.2500E-03,-10.0418199E+00,-810.5E-06
+2.5000E-03,-10.0398793E+00,-817.6E-06
+2.7500E-03,-10.0375680E+00,-829.4E-06
+3.0000E-03,-10.0354800E+00,-844.0E-06
+3.2500E-03,-10.0331075E+00,-851.5E-06
+3.5000E-03,-10.0308698E+00,-863.6E-06
+3.7500E-03,-10.0285121E+00,-881.8E-06
+4.0000E-03,-10.0256576E+00,-896.9E-06
+4.2500E-03,-10.0235095E+00,-910.6E-06
+4.5000E-03,-10.0210371E+00,-920.0E-06
+4.7500E-03,-10.0185080E+00,-926.8E-06
+5.0000E-03,-10.0153825E+00,-931.8E-06
+5.2500E-03,-10.0127702E+00,-942.0E-06
+5.5000E-03,-10.0102842E+00,-947.2E-06
+5.7500E-03,-10.0073032E+00,-956.4E-06
+6.0000E-03,-10.0036155E+00,-968.2E-06
+6.2500E-03,-10.0003543E+00,-985.0E-06
+6.5000E-03,-9.9971412E+00,-998.9E-06
+6.7500E-03,-9.9936782E+00,-1.0169E-03
+7.0000E-03,-9.9897620E+00,-1.0323E-03
+7.2500E-03,-9.9863550E+00,-1.0461E-03
+7.5000E-03,-9.9826673E+00,-1.0602E-03
+7.7500E-03,-9.9786559E+00,-1.0807E-03
+8.0000E-03,-9.9747431E+00,-1.0959E-03
+8.2500E-03,-9.9706294E+00,-1.1074E-03
+8.5000E-03,-9.9661092E+00,-1.1215E-03
+8.7500E-03,-9.9616577E+00,-1.1307E-03
+9.0000E-03,-9.9572210E+00,-1.1372E-03
+9.2500E-03,-9.9529850E+00,-1.1359E-03
+9.5000E-03,-9.9491904E+00,-1.1322E-03
+9.7500E-03,-9.9451175E+00,-1.1325E-03
+10.0000E-03,-9.9414107E+00,-1.1384E-03
+10.2500E-03,-9.9372306E+00,-1.1501E-03
+10.5000E-03,-9.9335650E+00,-1.1610E-03
+10.7500E-03,-9.9294026E+00,-1.1634E-03
+11.0000E-03,-9.9250452E+00,-1.1770E-03
+11.2500E-03,-9.9205252E+00,-1.1955E-03
+11.5000E-03,-9.9153282E+00,-1.2186E-03
+11.7500E-03,-9.9105144E+00,-1.2338E-03
+12.0000E-03,-9.9053691E+00,-1.2401E-03
+12.2500E-03,-9.8998504E+00,-1.2550E-03
+12.5000E-03,-9.8945813E+00,-1.2714E-03
+12.7500E-03,-9.8891394E+00,-1.2909E-03
+13.0000E-03,-9.8835119E+00,-1.3024E-03
+13.2500E-03,-9.8781595E+00,-1.3044E-03
+13.5000E-03,-9.8724518E+00,-1.3025E-03
+13.7500E-03,-9.8670606E+00,-1.3093E-03
+14.0000E-03,-9.8615328E+00,-1.3194E-03
+14.2500E-03,-9.8556482E+00,-1.3302E-03
+14.5000E-03,-9.8499262E+00,-1.3382E-03
+14.7500E-03,-9.8441924E+00,-1.3470E-03
+15.0000E-03,-9.8384245E+00,-1.3555E-03
+15.2500E-03,-9.8321337E+00,-1.3721E-03
+15.5000E-03,-9.8260105E+00,-1.3848E-03
+15.7500E-03,-9.8197091E+00,-1.3901E-03
+16.0000E-03,-9.8133397E+00,-1.3953E-03
+16.2500E-03,-9.8070082E+00,-1.4057E-03
+16.5000E-03,-9.8009151E+00,-1.4118E-03
+16.7500E-03,-9.7953309E+00,-1.4133E-03
+17.0000E-03,-9.7893396E+00,-1.4075E-03
+17.2500E-03,-9.7836915E+00,-1.4124E-03
+17.5000E-03,-9.7777639E+00,-1.4164E-03
+17.7500E-03,-9.7718064E+00,-1.4199E-03
+18.0000E-03,-9.7661785E+00,-1.4200E-03
+18.2500E-03,-9.7606996E+00,-1.4260E-03
+18.5000E-03,-9.7543181E+00,-1.4307E-03
+18.7500E-03,-9.7480910E+00,-1.4398E-03
+19.0000E-03,-9.7415450E+00,-1.4491E-03
+19.2500E-03,-9.7353303E+00,-1.4682E-03
+19.5000E-03,-9.7288997E+00,-1.4893E-03
+19.7500E-03,-9.7220300E+00,-1.5084E-03
+20.0000E-03,-9.7153515E+00,-1.5253E-03
+20.2500E-03,-9.7081085E+00,-1.5327E-03
+20.5000E-03,-9.7006547E+00,-1.5393E-03
+20.7500E-03,-9.6936235E+00,-1.5443E-03
+21.0000E-03,-9.6864781E+00,-1.5460E-03
+21.2500E-03,-9.6799527E+00,-1.5514E-03
+21.5000E-03,-9.6724289E+00,-1.5527E-03
+21.7500E-03,-9.6664433E+00,-1.5500E-03
+22.0000E-03,-9.6595332E+00,-1.5484E-03
+22.2500E-03,-9.6529376E+00,-1.5421E-03
+22.5000E-03,-9.6469914E+00,-1.5496E-03
+22.7500E-03,-9.6401896E+00,-1.5539E-03
+23.0000E-03,-9.6341252E+00,-1.5616E-03
+23.2500E-03,-9.6273416E+00,-1.5661E-03
+23.5000E-03,-9.6210031E+00,-1.5726E-03
+23.7500E-03,-9.6141626E+00,-1.5792E-03
+24.0000E-03,-9.6075005E+00,-1.5880E-03
+24.2500E-03,-9.6006179E+00,-1.5959E-03
+24.5000E-03,-9.5938773E+00,-1.6033E-03
+24.7500E-03,-9.5873032E+00,-1.6026E-03
+25.0000E-03,-9.5804619E+00,-1.6055E-03
+25.2500E-03,-9.5742417E+00,-1.6093E-03
+25.5000E-03,-9.5675057E+00,-1.6092E-03
+25.7500E-03,-9.5606877E+00,-1.6098E-03
+26.0000E-03,-9.5538210E+00,-1.6226E-03
+26.2500E-03,-9.5474591E+00,-1.6316E-03
+26.5000E-03,-9.5405880E+00,-1.6347E-03
+26.7500E-03,-9.5335457E+00,-1.6475E-03
+27.0000E-03,-9.5266202E+00,-1.6612E-03
+27.2500E-03,-9.5190400E+00,-1.6674E-03
+27.5000E-03,-9.5119799E+00,-1.6798E-03
+27.7500E-03,-9.5046656E+00,-1.6888E-03
+28.0000E-03,-9.4971628E+00,-1.6993E-03
+28.2500E-03,-9.4901902E+00,-1.7025E-03
+28.5000E-03,-9.4827068E+00,-1.7070E-03
+28.7500E-03,-9.4754395E+00,-1.7072E-03
+29.0000E-03,-9.4682033E+00,-1.7041E-03
+29.2500E-03,-9.4607970E+00,-1.7013E-03
+29.5000E-03,-9.4542322E+00,-1.6867E-03
+29.7500E-03,-9.4470097E+00,-1.6831E-03
+30.0000E-03,-9.4410983E+00,-1.6794E-03
+30.2500E-03,-9.4348190E+00,-1.6808E-03
+30.5000E-03,-9.4283543E+00,-1.6805E-03
+30.7500E-03,-9.4218954E+00,-1.6840E-03
+31.0000E-03,-9.4152752E+00,-1.6881E-03
+31.2500E-03,-9.4084490E+00,-1.6947E-03
+31.5000E-03,-9.4020517E+00,-1.7114E-03
+31.7500E-03,-9.3954405E+00,-1.7220E-03
+32.0000E-03,-9.3882944E+00,-1.7260E-03
+32.2500E-03,-9.3816216E+00,-1.7340E-03
+32.5000E-03,-9.3742789E+00,-1.7396E-03
+32.7500E-03,-9.3672504E+00,-1.7497E-03
+33.0000E-03,-9.3604226E+00,-1.7540E-03
+33.2500E-03,-9.3532976E+00,-1.7503E-03
+33.5000E-03,-9.3470536E+00,-1.7455E-03
+33.7500E-03,-9.3403115E+00,-1.7436E-03
+34.0000E-03,-9.3338070E+00,-1.7433E-03
+34.2500E-03,-9.3269409E+00,-1.7405E-03
+34.5000E-03,-9.3203740E+00,-1.7410E-03
+34.7500E-03,-9.3141249E+00,-1.7421E-03
+35.0000E-03,-9.3073594E+00,-1.7445E-03
+35.2500E-03,-9.3008404E+00,-1.7489E-03
+35.5000E-03,-9.2940524E+00,-1.7575E-03
+35.7500E-03,-9.2874513E+00,-1.7520E-03
+36.0000E-03,-9.2810478E+00,-1.7409E-03
+36.2500E-03,-9.2746739E+00,-1.7392E-03
+36.5000E-03,-9.2685160E+00,-1.7427E-03
+36.7500E-03,-9.2628431E+00,-1.7363E-03
+37.0000E-03,-9.2572165E+00,-1.7261E-03
+37.2500E-03,-9.2514051E+00,-1.7198E-03
+37.5000E-03,-9.2459382E+00,-1.7177E-03
+37.7500E-03,-9.2405232E+00,-1.7070E-03
+38.0000E-03,-9.2354528E+00,-1.7009E-03
+38.2500E-03,-9.2302147E+00,-1.6986E-03
+38.5000E-03,-9.2251740E+00,-1.6949E-03
+38.7500E-03,-9.2200528E+00,-1.6974E-03
+39.0000E-03,-9.2151470E+00,-1.7018E-03
+39.2500E-03,-9.2099818E+00,-1.7061E-03
+39.5000E-03,-9.2044695E+00,-1.7170E-03
+39.7500E-03,-9.1989695E+00,-1.7249E-03
+40.0000E-03,-9.1932977E+00,-1.7403E-03
+40.2500E-03,-9.1877399E+00,-1.7397E-03
+40.5000E-03,-9.1817631E+00,-1.7341E-03
+40.7500E-03,-9.1766046E+00,-1.7274E-03
+41.0000E-03,-9.1716155E+00,-1.7141E-03
+41.2500E-03,-9.1663285E+00,-1.7146E-03
+41.5000E-03,-9.1612644E+00,-1.7080E-03
+41.7500E-03,-9.1567127E+00,-1.7022E-03
+42.0000E-03,-9.1524251E+00,-1.6893E-03
+42.2500E-03,-9.1481388E+00,-1.6781E-03
+42.5000E-03,-9.1435385E+00,-1.6694E-03
+42.7500E-03,-9.1393041E+00,-1.6653E-03
+43.0000E-03,-9.1354370E+00,-1.6629E-03
+43.2500E-03,-9.1311420E+00,-1.6594E-03
+43.5000E-03,-9.1272886E+00,-1.6567E-03
+43.7500E-03,-9.1227372E+00,-1.6566E-03
+44.0000E-03,-9.1187896E+00,-1.6534E-03
+44.2500E-03,-9.1145214E+00,-1.6526E-03
+44.5000E-03,-9.1106203E+00,-1.6514E-03
+44.7500E-03,-9.1066518E+00,-1.6419E-03
+45.0000E-03,-9.1029641E+00,-1.6356E-03
+45.2500E-03,-9.0998261E+00,-1.6307E-03
+45.5000E-03,-9.0963817E+00,-1.6256E-03
+45.7500E-03,-9.0928440E+00,-1.6146E-03
+46.0000E-03,-9.0894839E+00,-1.6117E-03
+46.2500E-03,-9.0863958E+00,-1.6088E-03
+46.5000E-03,-9.0833159E+00,-1.6068E-03
+46.7500E-03,-9.0797416E+00,-1.6154E-03
+47.0000E-03,-9.0759754E+00,-1.6159E-03
+47.2500E-03,-9.0726458E+00,-1.6116E-03
+47.5000E-03,-9.0691195E+00,-1.6134E-03
+47.7500E-03,-9.0655406E+00,-1.6151E-03
+48.0000E-03,-9.0618405E+00,-1.6132E-03
+48.2500E-03,-9.0589555E+00,-1.6069E-03
+48.5000E-03,-9.0554984E+00,-1.5978E-03
+48.7500E-03,-9.0522624E+00,-1.5931E-03
+49.0000E-03,-9.0493179E+00,-1.5831E-03
+49.2500E-03,-9.0465309E+00,-1.5702E-03
+49.5000E-03,-9.0443892E+00,-1.5504E-03
+49.7500E-03,-9.0421246E+00,-1.5349E-03
+50.0000E-03,-9.0401593E+00,-1.5243E-03
+50.2500E-03,-9.0381842E+00,-1.5184E-03
+50.5000E-03,-9.0364371E+00,-1.5149E-03
+50.7500E-03,-9.0349703E+00,-1.5028E-03
+51.0000E-03,-9.0328477E+00,-1.4984E-03
+51.2500E-03,-9.0310152E+00,-1.4994E-03
+51.5000E-03,-9.0289957E+00,-1.5001E-03
+51.7500E-03,-9.0273249E+00,-1.5008E-03
+52.0000E-03,-9.0252735E+00,-1.4947E-03
+52.2500E-03,-9.0234531E+00,-1.4930E-03
+52.5000E-03,-9.0216841E+00,-1.4902E-03
+52.7500E-03,-9.0195517E+00,-1.4907E-03
+53.0000E-03,-9.0179802E+00,-1.4876E-03
+53.2500E-03,-9.0163771E+00,-1.4759E-03
+53.5000E-03,-9.0153289E+00,-1.4608E-03
+53.7500E-03,-9.0146444E+00,-1.4475E-03
+54.0000E-03,-9.0133241E+00,-1.4386E-03
+54.2500E-03,-9.0123031E+00,-1.4362E-03
+54.5000E-03,-9.0110430E+00,-1.4245E-03
+54.7500E-03,-9.0101790E+00,-1.4163E-03
+55.0000E-03,-9.0091804E+00,-1.4076E-03
+55.2500E-03,-9.0084173E+00,-1.4006E-03
+55.5000E-03,-9.0075238E+00,-1.3952E-03
+55.7500E-03,-9.0066749E+00,-1.3910E-03
+56.0000E-03,-9.0064895E+00,-1.3793E-03
+56.2500E-03,-9.0063859E+00,-1.3683E-03
+56.5000E-03,-9.0058614E+00,-1.3584E-03
+56.7500E-03,-9.0063103E+00,-1.3389E-03
+57.0000E-03,-9.0069665E+00,-1.3237E-03
+57.2500E-03,-9.0075801E+00,-1.3053E-03
+57.5000E-03,-9.0081861E+00,-1.2913E-03
+57.7500E-03,-9.0092234E+00,-1.2771E-03
+58.0000E-03,-9.0104349E+00,-1.2636E-03
+58.2500E-03,-9.0113321E+00,-1.2511E-03
+58.5000E-03,-9.0126846E+00,-1.2354E-03
+58.7500E-03,-9.0142875E+00,-1.2349E-03
+59.0000E-03,-9.0157480E+00,-1.2333E-03
+59.2500E-03,-9.0166625E+00,-1.2395E-03
+59.5000E-03,-9.0178107E+00,-1.2328E-03
+59.7500E-03,-9.0191537E+00,-1.2312E-03
+60.0000E-03,-9.0198487E+00,-1.2311E-03
+60.2500E-03,-9.0206706E+00,-1.2251E-03
+60.5000E-03,-9.0220176E+00,-1.2098E-03
+60.7500E-03,-9.0229024E+00,-1.1987E-03
+61.0000E-03,-9.0244285E+00,-1.1843E-03
+61.2500E-03,-9.0261393E+00,-1.1770E-03
+61.5000E-03,-9.0282852E+00,-1.1601E-03
+61.7500E-03,-9.0304985E+00,-1.1430E-03
+62.0000E-03,-9.0325825E+00,-1.1195E-03
+62.2500E-03,-9.0352467E+00,-1.0987E-03
+62.5000E-03,-9.0380560E+00,-1.0856E-03
+62.7500E-03,-9.0409565E+00,-1.0752E-03
+63.0000E-03,-9.0439478E+00,-1.0678E-03
+63.2500E-03,-9.0468667E+00,-1.0594E-03
+63.5000E-03,-9.0499483E+00,-1.0537E-03
+63.7500E-03,-9.0527944E+00,-1.0451E-03
+64.0000E-03,-9.0561340E+00,-1.0346E-03
+64.2500E-03,-9.0592756E+00,-1.0292E-03
+64.5000E-03,-9.0625033E+00,-1.0174E-03
+64.7500E-03,-9.0661325E+00,-1.0017E-03
+65.0000E-03,-9.0698567E+00,-990.7E-06
+65.2500E-03,-9.0738253E+00,-983.8E-06
+65.5000E-03,-9.0778577E+00,-968.5E-06
+65.7500E-03,-9.0819588E+00,-951.7E-06
+66.0000E-03,-9.0855985E+00,-942.7E-06
+66.2500E-03,-9.0897644E+00,-934.5E-06
+66.5000E-03,-9.0934928E+00,-929.2E-06
+66.7500E-03,-9.0974245E+00,-932.1E-06
+67.0000E-03,-9.1012607E+00,-922.3E-06
+67.2500E-03,-9.1050207E+00,-913.2E-06
+67.5000E-03,-9.1091311E+00,-908.3E-06
+67.7500E-03,-9.1132029E+00,-905.3E-06
+68.0000E-03,-9.1171540E+00,-899.3E-06
+68.2500E-03,-9.1211978E+00,-885.3E-06
+68.5000E-03,-9.1250631E+00,-873.8E-06
+68.7500E-03,-9.1291717E+00,-862.2E-06
+69.0000E-03,-9.1335513E+00,-849.4E-06
+69.2500E-03,-9.1381011E+00,-829.8E-06
+69.5000E-03,-9.1432701E+00,-804.9E-06
+69.7500E-03,-9.1487221E+00,-782.5E-06
+70.0000E-03,-9.1539389E+00,-769.4E-06
+70.2500E-03,-9.1596401E+00,-763.5E-06
+70.5000E-03,-9.1653871E+00,-751.1E-06
+70.7500E-03,-9.1707268E+00,-737.3E-06
+71.0000E-03,-9.1765997E+00,-726.4E-06
+71.2500E-03,-9.1819115E+00,-725.8E-06
+71.5000E-03,-9.1873666E+00,-725.6E-06
+71.7500E-03,-9.1925908E+00,-721.4E-06
+72.0000E-03,-9.1981824E+00,-716.1E-06
+72.2500E-03,-9.2036137E+00,-710.6E-06
+72.5000E-03,-9.2091299E+00,-703.2E-06
+72.7500E-03,-9.2147215E+00,-700.2E-06
+73.0000E-03,-9.2198204E+00,-688.9E-06
+73.2500E-03,-9.2255905E+00,-668.0E-06
+73.5000E-03,-9.2318102E+00,-647.8E-06
+73.7500E-03,-9.2376336E+00,-639.6E-06
+74.0000E-03,-9.2441041E+00,-630.4E-06
+74.2500E-03,-9.2503575E+00,-616.8E-06
+74.5000E-03,-9.2566432E+00,-604.8E-06
+74.7500E-03,-9.2625946E+00,-591.5E-06
+75.0000E-03,-9.2693644E+00,-583.8E-06
+75.2500E-03,-9.2756483E+00,-575.1E-06
+75.5000E-03,-9.2822459E+00,-569.9E-06
+75.7500E-03,-9.2887432E+00,-558.0E-06
+76.0000E-03,-9.2956270E+00,-543.6E-06
+76.2500E-03,-9.3024310E+00,-531.0E-06
+76.5000E-03,-9.3098046E+00,-516.4E-06
+76.7500E-03,-9.3171487E+00,-497.7E-06
+77.0000E-03,-9.3245991E+00,-480.0E-06
+77.2500E-03,-9.3318269E+00,-464.5E-06
+77.5000E-03,-9.3400771E+00,-450.9E-06
+77.7500E-03,-9.3475080E+00,-438.2E-06
+78.0000E-03,-9.3558680E+00,-419.6E-06
+78.2500E-03,-9.3639928E+00,-403.1E-06
+78.5000E-03,-9.3722626E+00,-390.7E-06
+78.7500E-03,-9.3807637E+00,-388.4E-06
+79.0000E-03,-9.3886281E+00,-382.5E-06
+79.2500E-03,-9.3961446E+00,-380.8E-06
+79.5000E-03,-9.4042118E+00,-378.5E-06
+79.7500E-03,-9.4119038E+00,-374.1E-06
+80.0000E-03,-9.4196396E+00,-378.5E-06
+80.2500E-03,-9.4273168E+00,-371.5E-06
+80.5000E-03,-9.4349103E+00,-358.4E-06
+80.7500E-03,-9.4426931E+00,-350.0E-06
+81.0000E-03,-9.4506129E+00,-335.9E-06
+81.2500E-03,-9.4592935E+00,-325.9E-06
+81.5000E-03,-9.4676257E+00,-311.2E-06
+81.7500E-03,-9.4759848E+00,-296.6E-06
+82.0000E-03,-9.4848835E+00,-272.9E-06
+82.2500E-03,-9.4935103E+00,-252.2E-06
+82.5000E-03,-9.5028628E+00,-239.3E-06
+82.7500E-03,-9.5119702E+00,-223.6E-06
+83.0000E-03,-9.5213137E+00,-219.5E-06
+83.2500E-03,-9.5303495E+00,-211.2E-06
+83.5000E-03,-9.5393222E+00,-202.7E-06
+83.7500E-03,-9.5484221E+00,-193.2E-06
+84.0000E-03,-9.5578021E+00,-187.8E-06
+84.2500E-03,-9.5667258E+00,-178.3E-06
+84.5000E-03,-9.5752613E+00,-168.3E-06
+84.7500E-03,-9.5845639E+00,-156.9E-06
+85.0000E-03,-9.5938789E+00,-153.7E-06
+85.2500E-03,-9.6030204E+00,-145.4E-06
+85.5000E-03,-9.6124703E+00,-129.5E-06
+85.7500E-03,-9.6217358E+00,-113.0E-06
+86.0000E-03,-9.6314861E+00,-103.2E-06
+86.2500E-03,-9.6406083E+00,-102.6E-06
+86.5000E-03,-9.6503337E+00,-101.5E-06
+86.7500E-03,-9.6594208E+00,-104.7E-06
+87.0000E-03,-9.6685245E+00,-94.2E-06
+87.2500E-03,-9.6775524E+00,-85.2E-06
+87.5000E-03,-9.6867992E+00,-82.5E-06
+87.7500E-03,-9.6956388E+00,-80.4E-06
+88.0000E-03,-9.7045699E+00,-83.7E-06
+88.2500E-03,-9.7135800E+00,-76.3E-06
+88.5000E-03,-9.7223208E+00,-70.3E-06
+88.7500E-03,-9.7319086E+00,-61.1E-06
+89.0000E-03,-9.7409344E+00,-50.9E-06
+89.2500E-03,-9.7505179E+00,-35.6E-06
+89.5000E-03,-9.7603828E+00,-9.8E-06
+89.7500E-03,-9.7699489E+00,+8.9E-06
+90.0000E-03,-9.7803041E+00,+22.9E-06
+90.2500E-03,-9.7903603E+00,+29.0E-06
+90.5000E-03,-9.8004803E+00,+41.4E-06
+90.7500E-03,-9.8104153E+00,+49.4E-06
+91.0000E-03,-9.8202118E+00,+51.2E-06
+91.2500E-03,-9.8303050E+00,+53.5E-06
+91.5000E-03,-9.8400576E+00,+49.1E-06
+91.7500E-03,-9.8493605E+00,+49.1E-06
+92.0000E-03,-9.8584092E+00,+56.2E-06
+92.2500E-03,-9.8679827E+00,+55.8E-06
+92.5000E-03,-9.8772326E+00,+57.7E-06
+92.7500E-03,-9.8863171E+00,+53.1E-06
+93.0000E-03,-9.8954056E+00,+59.5E-06
+93.2500E-03,-9.9045423E+00,+68.3E-06
+93.5000E-03,-9.9138865E+00,+84.0E-06
+93.7500E-03,-9.9235455E+00,+94.9E-06
+94.0000E-03,-9.9327393E+00,+103.5E-06
+94.2500E-03,-9.9425920E+00,+109.4E-06
+94.5000E-03,-9.9517926E+00,+111.3E-06
+94.7500E-03,-9.9611139E+00,+120.0E-06
+95.0000E-03,-9.9702105E+00,+122.7E-06
+95.2500E-03,-9.9795587E+00,+125.0E-06
+95.5000E-03,-9.9887052E+00,+123.3E-06
+95.7500E-03,-9.9978508E+00,+131.4E-06
+96.0000E-03,-10.0071559E+00,+143.2E-06
+96.2500E-03,-10.0160179E+00,+150.4E-06
+96.5000E-03,-10.0250725E+00,+154.8E-06
+96.7500E-03,-10.0340389E+00,+164.5E-06
+97.0000E-03,-10.0432261E+00,+179.2E-06
+97.2500E-03,-10.0515190E+00,+193.8E-06
+97.5000E-03,-10.0602709E+00,+200.4E-06
+97.7500E-03,-10.0682091E+00,+213.1E-06
+98.0000E-03,-10.0763608E+00,+218.8E-06
+98.2500E-03,-10.0837451E+00,+228.0E-06
+98.5000E-03,-10.0909159E+00,+233.6E-06
+98.7500E-03,-10.0976958E+00,+233.8E-06
+99.0000E-03,-10.1038130E+00,+230.2E-06
+99.2500E-03,-10.1091081E+00,+224.1E-06
+99.5000E-03,-10.1136313E+00,+220.8E-06
+99.7500E-03,-10.1177059E+00,+217.3E-06
+100.0000E-03,-10.1210874E+00,+209.1E-06
+100.2500E-03,-10.1235934E+00,+204.4E-06
+100.5000E-03,-10.1260286E+00,+212.9E-06
+100.7500E-03,-10.1277046E+00,+216.4E-06
+101.0000E-03,-10.1292730E+00,+229.2E-06
+101.2500E-03,-10.1307924E+00,+231.7E-06
+101.5000E-03,-10.1316414E+00,+237.2E-06
+101.7500E-03,-10.1328003E+00,+243.9E-06
+102.0000E-03,-10.1335977E+00,+256.1E-06
+102.2500E-03,-10.1347566E+00,+273.5E-06
+102.5000E-03,-10.1351679E+00,+278.4E-06
+102.7500E-03,-10.1361216E+00,+283.7E-06
+103.0000E-03,-10.1364619E+00,+281.1E-06
+103.2500E-03,-10.1369438E+00,+282.3E-06
+103.5000E-03,-10.1372551E+00,+283.3E-06
+103.7500E-03,-10.1373034E+00,+279.6E-06
+104.0000E-03,-10.1374914E+00,+285.5E-06
+104.2500E-03,-10.1374457E+00,+279.8E-06
+104.5000E-03,-10.1373665E+00,+283.6E-06
+104.7500E-03,-10.1374309E+00,+281.9E-06
+105.0000E-03,-10.1371954E+00,+282.4E-06
+105.2500E-03,-10.1373665E+00,+286.3E-06
+105.5000E-03,-10.1379886E+00,+289.6E-06
+105.7500E-03,-10.1379947E+00,+295.5E-06
+106.0000E-03,-10.1378651E+00,+292.7E-06
+106.2500E-03,-10.1378376E+00,+290.7E-06
+106.5000E-03,-10.1378121E+00,+287.2E-06
+106.7500E-03,-10.1373665E+00,+277.5E-06
+107.0000E-03,-10.1372860E+00,+272.3E-06
+107.2500E-03,-10.1371122E+00,+271.0E-06
+107.5000E-03,-10.1369739E+00,+264.4E-06
+107.7500E-03,-10.1367867E+00,+256.1E-06
+108.0000E-03,-10.1367699E+00,+252.6E-06
+108.2500E-03,-10.1366209E+00,+256.3E-06
+108.5000E-03,-10.1367988E+00,+256.0E-06
+108.7500E-03,-10.1366639E+00,+250.9E-06
+109.0000E-03,-10.1365988E+00,+253.4E-06
+109.2500E-03,-10.1367283E+00,+257.2E-06
+109.5000E-03,-10.1369712E+00,+273.0E-06
+109.7500E-03,-10.1369001E+00,+281.9E-06
+110.0000E-03,-10.1377108E+00,+288.3E-06
+110.2500E-03,-10.1376604E+00,+286.4E-06
+110.5000E-03,-10.1378108E+00,+286.9E-06
+110.7500E-03,-10.1379262E+00,+291.1E-06
+111.0000E-03,-10.1378376E+00,+286.7E-06
+111.2500E-03,-10.1376215E+00,+277.5E-06
+111.5000E-03,-10.1373665E+00,+262.7E-06
+111.7500E-03,-10.1370229E+00,+252.0E-06
+112.0000E-03,-10.1364391E+00,+243.3E-06
+112.2500E-03,-10.1359532E+00,+239.0E-06
+112.5000E-03,-10.1356391E+00,+233.1E-06
+112.7500E-03,-10.1353545E+00,+222.7E-06
+113.0000E-03,-10.1350895E+00,+222.3E-06
+113.2500E-03,-10.1349915E+00,+220.3E-06
+113.5000E-03,-10.1350895E+00,+222.3E-06
+113.7500E-03,-10.1351580E+00,+221.2E-06
+114.0000E-03,-10.1351432E+00,+218.1E-06
+114.2500E-03,-10.1351485E+00,+212.8E-06
+114.5000E-03,-10.1351016E+00,+209.6E-06
+114.7500E-03,-10.1350157E+00,+211.5E-06
+115.0000E-03,-10.1346184E+00,+210.8E-06
+115.2500E-03,-10.1343244E+00,+201.9E-06
+115.5000E-03,-10.1340077E+00,+192.2E-06
+115.7500E-03,-10.1338332E+00,+184.2E-06
+116.0000E-03,-10.1337405E+00,+187.6E-06
+116.2500E-03,-10.1335971E+00,+185.0E-06
+116.5000E-03,-10.1334560E+00,+179.0E-06
+116.7500E-03,-10.1335434E+00,+184.2E-06
+117.0000E-03,-10.1335247E+00,+186.7E-06
+117.2500E-03,-10.1337641E+00,+188.9E-06
+117.5000E-03,-10.1339117E+00,+185.7E-06
+117.7500E-03,-10.1340688E+00,+191.6E-06
+118.0000E-03,-10.1340815E+00,+190.6E-06
+118.2500E-03,-10.1344011E+00,+185.9E-06
+118.5000E-03,-10.1343318E+00,+181.3E-06
+118.7500E-03,-10.1345836E+00,+170.7E-06
+119.0000E-03,-10.1348058E+00,+162.0E-06
+119.2500E-03,-10.1340399E+00,+145.6E-06
+119.5000E-03,-10.1337686E+00,+134.0E-06
+119.7500E-03,-10.1329193E+00,+121.8E-06
+120.0000E-03,-10.1321126E+00,+103.5E-06
+120.2500E-03,-10.1317918E+00,+94.5E-06
+120.5000E-03,-10.1310771E+00,+87.4E-06
+120.7500E-03,-10.1303938E+00,+77.9E-06
+121.0000E-03,-10.1302214E+00,+82.3E-06
+121.2500E-03,-10.1300342E+00,+72.1E-06
+121.5000E-03,-10.1296308E+00,+73.1E-06
+121.7500E-03,-10.1293690E+00,+72.2E-06
+122.0000E-03,-10.1295150E+00,+73.2E-06
+122.2500E-03,-10.1293985E+00,+76.1E-06
+122.5000E-03,-10.1296603E+00,+76.8E-06
+122.7500E-03,-10.1297626E+00,+71.2E-06
+123.0000E-03,-10.1296718E+00,+64.4E-06
+123.2500E-03,-10.1292113E+00,+61.2E-06
+123.5000E-03,-10.1291041E+00,+50.7E-06
+123.7500E-03,-10.1290945E+00,+36.9E-06
+124.0000E-03,-10.1284483E+00,+27.2E-06
+124.2500E-03,-10.1281800E+00,+10.7E-06
+124.5000E-03,-10.1278183E+00,+5.3E-06
+124.7500E-03,-10.1276617E+00,+5.2E-06
+125.0000E-03,-10.1272377E+00,-2.6E-06
+125.2500E-03,-10.1269149E+00,-10.2E-06
+125.5000E-03,-10.1266896E+00,-16.6E-06
+125.7500E-03,-10.1262349E+00,-21.4E-06
+126.0000E-03,-10.1259163E+00,-30.9E-06
+126.2500E-03,-10.1254154E+00,-43.3E-06
+126.5000E-03,-10.1247533E+00,-57.6E-06
+126.7500E-03,-10.1240185E+00,-77.9E-06
+127.0000E-03,-10.1234404E+00,-90.9E-06
+127.2500E-03,-10.1228344E+00,-101.5E-06
+127.5000E-03,-10.1222442E+00,-116.2E-06
+127.7500E-03,-10.1213869E+00,-127.7E-06
+128.0000E-03,-10.1207146E+00,-145.7E-06
+128.2500E-03,-10.1200178E+00,-156.7E-06
+128.5000E-03,-10.1194118E+00,-166.1E-06
+128.7500E-03,-10.1193075E+00,-172.0E-06
+129.0000E-03,-10.1188681E+00,-175.3E-06
+129.2500E-03,-10.1184130E+00,-177.2E-06
+129.5000E-03,-10.1181656E+00,-175.2E-06
+129.7500E-03,-10.1180057E+00,-172.2E-06
+130.0000E-03,-10.1181570E+00,-176.4E-06
+130.2500E-03,-10.1174104E+00,-188.8E-06
+130.5000E-03,-10.1170522E+00,-198.1E-06
+130.7500E-03,-10.1167164E+00,-202.0E-06
+131.0000E-03,-10.1162531E+00,-212.6E-06
+131.2500E-03,-10.1156397E+00,-228.6E-06
+131.5000E-03,-10.1147908E+00,-250.9E-06
+131.7500E-03,-10.1135228E+00,-271.7E-06
+132.0000E-03,-10.1126552E+00,-283.5E-06
+132.2500E-03,-10.1114965E+00,-296.1E-06
+132.5000E-03,-10.1103743E+00,-311.8E-06
+132.7500E-03,-10.1091654E+00,-328.9E-06
+133.0000E-03,-10.1081898E+00,-338.6E-06
+133.2500E-03,-10.1075216E+00,-345.3E-06
+133.5000E-03,-10.1063496E+00,-347.1E-06
+133.7500E-03,-10.1057239E+00,-358.1E-06
+134.0000E-03,-10.1045514E+00,-368.5E-06
+134.2500E-03,-10.1040179E+00,-380.5E-06
+134.5000E-03,-10.1031616E+00,-386.6E-06
+134.7500E-03,-10.1026130E+00,-394.8E-06
+135.0000E-03,-10.1015540E+00,-403.0E-06
+135.2500E-03,-10.1008790E+00,-420.9E-06
+135.5000E-03,-10.0996781E+00,-439.3E-06
+135.7500E-03,-10.0983433E+00,-453.3E-06
+136.0000E-03,-10.0973624E+00,-451.5E-06
+136.2500E-03,-10.0966177E+00,-461.9E-06
+136.5000E-03,-10.0953966E+00,-472.6E-06
+136.7500E-03,-10.0943269E+00,-470.8E-06
+137.0000E-03,-10.0931546E+00,-473.9E-06
+137.2500E-03,-10.0926115E+00,-476.4E-06
+137.5000E-03,-10.0918641E+00,-488.7E-06
+137.7500E-03,-10.0911334E+00,-494.3E-06
+138.0000E-03,-10.0904665E+00,-498.7E-06
+138.2500E-03,-10.0900989E+00,-504.3E-06
+138.5000E-03,-10.0895971E+00,-511.9E-06
+138.7500E-03,-10.0886771E+00,-522.5E-06
+139.0000E-03,-10.0879095E+00,-542.2E-06
+139.2500E-03,-10.0870487E+00,-568.6E-06
+139.5000E-03,-10.0857598E+00,-583.5E-06
+139.7500E-03,-10.0841346E+00,-599.6E-06
+140.0000E-03,-10.0824279E+00,-623.5E-06
+140.2500E-03,-10.0801773E+00,-638.1E-06
+140.5000E-03,-10.0784275E+00,-646.8E-06
+140.7500E-03,-10.0762806E+00,-656.6E-06
+141.0000E-03,-10.0746198E+00,-660.1E-06
+141.2500E-03,-10.0730001E+00,-676.1E-06
+141.5000E-03,-10.0708616E+00,-676.8E-06
+141.7500E-03,-10.0693206E+00,-685.0E-06
+142.0000E-03,-10.0680299E+00,-686.5E-06
+142.2500E-03,-10.0661604E+00,-687.2E-06
+142.5000E-03,-10.0641873E+00,-693.5E-06
+142.7500E-03,-10.0630370E+00,-701.9E-06
+143.0000E-03,-10.0610862E+00,-713.6E-06
+143.2500E-03,-10.0592879E+00,-726.9E-06
+143.5000E-03,-10.0570822E+00,-734.8E-06
+143.7500E-03,-10.0552666E+00,-755.4E-06
+144.0000E-03,-10.0534657E+00,-766.8E-06
+144.2500E-03,-10.0514807E+00,-781.1E-06
+144.5000E-03,-10.0493977E+00,-792.7E-06
+144.7500E-03,-10.0473146E+00,-798.6E-06
+145.0000E-03,-10.0453593E+00,-810.5E-06
+145.2500E-03,-10.0433085E+00,-820.3E-06
+145.5000E-03,-10.0409089E+00,-825.4E-06
+145.7500E-03,-10.0389188E+00,-835.1E-06
+146.0000E-03,-10.0366935E+00,-851.0E-06
+146.2500E-03,-10.0340076E+00,-861.2E-06
+146.5000E-03,-10.0311243E+00,-877.3E-06
+146.7500E-03,-10.0287612E+00,-899.2E-06
+147.0000E-03,-10.0254521E+00,-912.7E-06
+147.2500E-03,-10.0224511E+00,-927.2E-06
+147.5000E-03,-10.0191425E+00,-945.2E-06
+147.7500E-03,-10.0157563E+00,-963.0E-06
+148.0000E-03,-10.0122952E+00,-979.2E-06
+148.2500E-03,-10.0088725E+00,-988.3E-06
+148.5000E-03,-10.0052651E+00,-1.0002E-03
+148.7500E-03,-10.0018907E+00,-1.0052E-03
+149.0000E-03,-9.9982829E+00,-1.0150E-03
+149.2500E-03,-9.9949448E+00,-1.0124E-03
+149.5000E-03,-9.9917218E+00,-1.0160E-03
+149.7500E-03,-9.9882771E+00,-1.0167E-03
+150.0000E-03,-9.9857137E+00,-1.0220E-03
+150.2500E-03,-9.9823072E+00,-1.0308E-03
+150.5000E-03,-9.9790122E+00,-1.0419E-03
+150.7500E-03,-9.9752087E+00,-1.0474E-03
+151.0000E-03,-9.9722203E+00,-1.0654E-03
+151.2500E-03,-9.9687080E+00,-1.0801E-03
+151.5000E-03,-9.9646756E+00,-1.1019E-03
+151.7500E-03,-9.9605273E+00,-1.1214E-03
+152.0000E-03,-9.9560925E+00,-1.1390E-03
+152.2500E-03,-9.9517977E+00,-1.1477E-03
+152.5000E-03,-9.9477940E+00,-1.1620E-03
+152.7500E-03,-9.9422402E+00,-1.1809E-03
+153.0000E-03,-9.9379435E+00,-1.1877E-03
+153.2500E-03,-9.9328273E+00,-1.1958E-03
+153.5000E-03,-9.9279739E+00,-1.1950E-03
+153.7500E-03,-9.9226875E+00,-1.2047E-03
+154.0000E-03,-9.9177730E+00,-1.2178E-03
+154.2500E-03,-9.9128619E+00,-1.2303E-03
+154.5000E-03,-9.9078641E+00,-1.2392E-03
+154.7500E-03,-9.9028812E+00,-1.2447E-03
+155.0000E-03,-9.8976780E+00,-1.2564E-03
+155.2500E-03,-9.8923800E+00,-1.2751E-03
+155.5000E-03,-9.8865587E+00,-1.2914E-03
+155.7500E-03,-9.8813803E+00,-1.2961E-03
+156.0000E-03,-9.8756749E+00,-1.3000E-03
+156.2500E-03,-9.8702330E+00,-1.3074E-03
+156.5000E-03,-9.8650266E+00,-1.3117E-03
+156.7500E-03,-9.8592707E+00,-1.3150E-03
+157.0000E-03,-9.8541940E+00,-1.3115E-03
+157.2500E-03,-9.8489428E+00,-1.3120E-03
+157.5000E-03,-9.8436506E+00,-1.3181E-03
+157.7500E-03,-9.8386639E+00,-1.3218E-03
+158.0000E-03,-9.8332231E+00,-1.3336E-03
+158.2500E-03,-9.8276953E+00,-1.3374E-03
+158.5000E-03,-9.8224776E+00,-1.3419E-03
+158.7500E-03,-9.8169918E+00,-1.3553E-03
+159.0000E-03,-9.8113929E+00,-1.3712E-03
+159.2500E-03,-9.8057424E+00,-1.3904E-03
+159.5000E-03,-9.7995067E+00,-1.4126E-03
+159.7500E-03,-9.7929817E+00,-1.4275E-03
+160.0000E-03,-9.7870306E+00,-1.4421E-03
+160.2500E-03,-9.7798836E+00,-1.4506E-03
+160.5000E-03,-9.7737052E+00,-1.4589E-03
+160.7500E-03,-9.7666581E+00,-1.4717E-03
+161.0000E-03,-9.7600310E+00,-1.4720E-03
+161.2500E-03,-9.7532292E+00,-1.4764E-03
+161.5000E-03,-9.7469320E+00,-1.4770E-03
+161.7500E-03,-9.7405266E+00,-1.4783E-03
+162.0000E-03,-9.7339753E+00,-1.4770E-03
+162.2500E-03,-9.7277556E+00,-1.4733E-03
+162.5000E-03,-9.7218416E+00,-1.4773E-03
+162.7500E-03,-9.7155556E+00,-1.4834E-03
+163.0000E-03,-9.7095676E+00,-1.4951E-03
+163.2500E-03,-9.7030105E+00,-1.4987E-03
+163.5000E-03,-9.6965848E+00,-1.5058E-03
+163.7500E-03,-9.6904374E+00,-1.5156E-03
+164.0000E-03,-9.6837826E+00,-1.5265E-03
+164.2500E-03,-9.6771939E+00,-1.5372E-03
+164.5000E-03,-9.6710390E+00,-1.5407E-03
+164.7500E-03,-9.6646165E+00,-1.5435E-03
+165.0000E-03,-9.6582921E+00,-1.5523E-03
+165.2500E-03,-9.6517675E+00,-1.5616E-03
+165.5000E-03,-9.6454897E+00,-1.5656E-03
+165.7500E-03,-9.6387533E+00,-1.5615E-03
+166.0000E-03,-9.6323111E+00,-1.5673E-03
+166.2500E-03,-9.6259019E+00,-1.5837E-03
+166.5000E-03,-9.6190836E+00,-1.5937E-03
+166.7500E-03,-9.6119512E+00,-1.6106E-03
+167.0000E-03,-9.6051979E+00,-1.6193E-03
+167.2500E-03,-9.5980821E+00,-1.6246E-03
+167.5000E-03,-9.5909718E+00,-1.6336E-03
+167.7500E-03,-9.5837150E+00,-1.6514E-03
+168.0000E-03,-9.5765188E+00,-1.6581E-03
+168.2500E-03,-9.5693139E+00,-1.6599E-03
+168.5000E-03,-9.5619813E+00,-1.6700E-03
+168.7500E-03,-9.5542640E+00,-1.6647E-03
+169.0000E-03,-9.5468695E+00,-1.6674E-03
+169.2500E-03,-9.5398315E+00,-1.6647E-03
+169.5000E-03,-9.5329786E+00,-1.6522E-03
+169.7500E-03,-9.5261757E+00,-1.6483E-03
+170.0000E-03,-9.5196117E+00,-1.6503E-03
+170.2500E-03,-9.5131035E+00,-1.6570E-03
+170.5000E-03,-9.5060879E+00,-1.6632E-03
+170.7500E-03,-9.4994038E+00,-1.6605E-03
+171.0000E-03,-9.4926636E+00,-1.6699E-03
+171.2500E-03,-9.4860312E+00,-1.6769E-03
+171.5000E-03,-9.4794545E+00,-1.6941E-03
+171.7500E-03,-9.4721010E+00,-1.7032E-03
+172.0000E-03,-9.4648354E+00,-1.7076E-03
+172.2500E-03,-9.4576299E+00,-1.7192E-03
+172.5000E-03,-9.4502589E+00,-1.7294E-03
+172.7500E-03,-9.4429131E+00,-1.7356E-03
+173.0000E-03,-9.4353815E+00,-1.7387E-03
+173.2500E-03,-9.4277656E+00,-1.7383E-03
+173.5000E-03,-9.4212566E+00,-1.7340E-03
+173.7500E-03,-9.4139816E+00,-1.7328E-03
+174.0000E-03,-9.4072150E+00,-1.7334E-03
+174.2500E-03,-9.4004974E+00,-1.7353E-03
+174.5000E-03,-9.3933599E+00,-1.7392E-03
+174.7500E-03,-9.3864632E+00,-1.7349E-03
+175.0000E-03,-9.3794411E+00,-1.7409E-03
+175.2500E-03,-9.3726449E+00,-1.7455E-03
+175.5000E-03,-9.3654757E+00,-1.7556E-03
+175.7500E-03,-9.3583457E+00,-1.7532E-03
+176.0000E-03,-9.3519837E+00,-1.7472E-03
+176.2500E-03,-9.3450821E+00,-1.7458E-03
+176.5000E-03,-9.3389209E+00,-1.7503E-03
+176.7500E-03,-9.3325832E+00,-1.7429E-03
+177.0000E-03,-9.3266657E+00,-1.7355E-03
+177.2500E-03,-9.3204094E+00,-1.7277E-03
+177.5000E-03,-9.3143929E+00,-1.7288E-03
+177.7500E-03,-9.3081750E+00,-1.7241E-03
+178.0000E-03,-9.3027369E+00,-1.7170E-03
+178.2500E-03,-9.2971250E+00,-1.7139E-03
+178.5000E-03,-9.2916116E+00,-1.7102E-03
+178.7500E-03,-9.2855351E+00,-1.7151E-03
+179.0000E-03,-9.2797862E+00,-1.7208E-03
+179.2500E-03,-9.2741947E+00,-1.7355E-03
+179.5000E-03,-9.2680198E+00,-1.7430E-03
+179.7500E-03,-9.2622860E+00,-1.7510E-03
+180.0000E-03,-9.2558455E+00,-1.7608E-03
+180.2500E-03,-9.2496745E+00,-1.7613E-03
+180.5000E-03,-9.2434357E+00,-1.7597E-03
+180.7500E-03,-9.2374645E+00,-1.7591E-03
+181.0000E-03,-9.2313517E+00,-1.7500E-03
+181.2500E-03,-9.2257719E+00,-1.7503E-03
+181.5000E-03,-9.2202619E+00,-1.7391E-03
+181.7500E-03,-9.2148925E+00,-1.7309E-03
+182.0000E-03,-9.2094228E+00,-1.7179E-03
+182.2500E-03,-9.2042443E+00,-1.7071E-03
+182.5000E-03,-9.1993791E+00,-1.7024E-03
+182.7500E-03,-9.1944984E+00,-1.7010E-03
+183.0000E-03,-9.1896932E+00,-1.7013E-03
+183.2500E-03,-9.1849347E+00,-1.6995E-03
+183.5000E-03,-9.1800350E+00,-1.6933E-03
+183.7500E-03,-9.1754585E+00,-1.6948E-03
+184.0000E-03,-9.1707923E+00,-1.6976E-03
+184.2500E-03,-9.1664184E+00,-1.6984E-03
+184.5000E-03,-9.1618237E+00,-1.6927E-03
+184.7500E-03,-9.1573192E+00,-1.6892E-03
+185.0000E-03,-9.1530663E+00,-1.6843E-03
+185.2500E-03,-9.1482582E+00,-1.6835E-03
+185.5000E-03,-9.1443154E+00,-1.6754E-03
+185.7500E-03,-9.1403211E+00,-1.6644E-03
+186.0000E-03,-9.1358917E+00,-1.6633E-03
+186.2500E-03,-9.1319259E+00,-1.6626E-03
+186.5000E-03,-9.1276905E+00,-1.6615E-03
+186.7500E-03,-9.1230153E+00,-1.6705E-03
+187.0000E-03,-9.1187171E+00,-1.6691E-03
+187.2500E-03,-9.1140465E+00,-1.6664E-03
+187.5000E-03,-9.1095895E+00,-1.6678E-03
+187.7500E-03,-9.1052865E+00,-1.6694E-03
+188.0000E-03,-9.1010278E+00,-1.6707E-03
+188.2500E-03,-9.0967658E+00,-1.6663E-03
+188.5000E-03,-9.0925877E+00,-1.6655E-03
+188.7500E-03,-9.0889384E+00,-1.6604E-03
+189.0000E-03,-9.0846369E+00,-1.6504E-03
+189.2500E-03,-9.0814951E+00,-1.6295E-03
+189.5000E-03,-9.0776541E+00,-1.6111E-03
+189.7500E-03,-9.0748082E+00,-1.6004E-03
+190.0000E-03,-9.0718543E+00,-1.5905E-03
+190.2500E-03,-9.0691565E+00,-1.5864E-03
+190.5000E-03,-9.0661681E+00,-1.5831E-03
+190.7500E-03,-9.0637674E+00,-1.5763E-03
+191.0000E-03,-9.0608808E+00,-1.5727E-03
+191.2500E-03,-9.0581597E+00,-1.5704E-03
+191.5000E-03,-9.0552980E+00,-1.5732E-03
+191.7500E-03,-9.0526481E+00,-1.5762E-03
+192.0000E-03,-9.0494930E+00,-1.5750E-03
+192.2500E-03,-9.0468984E+00,-1.5743E-03
+192.5000E-03,-9.0438827E+00,-1.5698E-03
+192.7500E-03,-9.0408641E+00,-1.5694E-03
+193.0000E-03,-9.0381838E+00,-1.5678E-03
+193.2500E-03,-9.0355372E+00,-1.5611E-03
+193.5000E-03,-9.0331342E+00,-1.5463E-03
+193.7500E-03,-9.0308353E+00,-1.5373E-03
+194.0000E-03,-9.0288102E+00,-1.5259E-03
+194.2500E-03,-9.0267477E+00,-1.5174E-03
+194.5000E-03,-9.0247432E+00,-1.5089E-03
+194.7500E-03,-9.0228925E+00,-1.5035E-03
+195.0000E-03,-9.0207519E+00,-1.4972E-03
+195.2500E-03,-9.0192169E+00,-1.4953E-03
+195.5000E-03,-9.0171175E+00,-1.4923E-03
+195.7500E-03,-9.0154270E+00,-1.4847E-03
+196.0000E-03,-9.0139737E+00,-1.4692E-03
+196.2500E-03,-9.0125236E+00,-1.4577E-03
+196.5000E-03,-9.0113737E+00,-1.4515E-03
+196.7500E-03,-9.0105248E+00,-1.4382E-03
+197.0000E-03,-9.0099114E+00,-1.4218E-03
+197.2500E-03,-9.0095367E+00,-1.4066E-03
+197.5000E-03,-9.0095314E+00,-1.3963E-03
+197.7500E-03,-9.0092927E+00,-1.3811E-03
+198.0000E-03,-9.0090878E+00,-1.3635E-03
+198.2500E-03,-9.0091737E+00,-1.3558E-03
+198.5000E-03,-9.0095847E+00,-1.3464E-03
+198.7500E-03,-9.0096221E+00,-1.3424E-03
+199.0000E-03,-9.0097154E+00,-1.3386E-03
+199.2500E-03,-9.0100442E+00,-1.3380E-03
+199.5000E-03,-9.0099652E+00,-1.3399E-03
+199.7500E-03,-9.0097205E+00,-1.3370E-03
+200.0000E-03,-9.0102456E+00,-1.3389E-03
+200.2500E-03,-9.0098608E+00,-1.3345E-03
+200.5000E-03,-9.0098540E+00,-1.3268E-03
+200.7500E-03,-9.0100895E+00,-1.3151E-03
+201.0000E-03,-9.0101971E+00,-1.2940E-03
+201.2500E-03,-9.0110010E+00,-1.2891E-03
+201.5000E-03,-9.0119905E+00,-1.2733E-03
+201.7500E-03,-9.0130767E+00,-1.2562E-03
+202.0000E-03,-9.0140952E+00,-1.2374E-03
+202.2500E-03,-9.0155701E+00,-1.2129E-03
+202.5000E-03,-9.0172710E+00,-1.2010E-03
+202.7500E-03,-9.0189533E+00,-1.1913E-03
+203.0000E-03,-9.0209461E+00,-1.1840E-03
+203.2500E-03,-9.0226461E+00,-1.1711E-03
+203.5000E-03,-9.0245235E+00,-1.1639E-03
+203.7500E-03,-9.0264333E+00,-1.1573E-03
+204.0000E-03,-9.0284250E+00,-1.1508E-03
+204.2500E-03,-9.0303215E+00,-1.1411E-03
+204.5000E-03,-9.0331355E+00,-1.1338E-03
+204.7500E-03,-9.0355624E+00,-1.1233E-03
+205.0000E-03,-9.0379839E+00,-1.1131E-03
+205.2500E-03,-9.0405746E+00,-1.0982E-03
+205.5000E-03,-9.0434062E+00,-1.0873E-03
+205.7500E-03,-9.0465564E+00,-1.0736E-03
+206.0000E-03,-9.0493682E+00,-1.0664E-03
+206.2500E-03,-9.0523222E+00,-1.0619E-03
+206.5000E-03,-9.0548247E+00,-1.0539E-03
+206.7500E-03,-9.0580021E+00,-1.0498E-03
+207.0000E-03,-9.0607131E+00,-1.0459E-03
+207.2500E-03,-9.0633529E+00,-1.0369E-03
+207.5000E-03,-9.0662681E+00,-1.0303E-03
+207.7500E-03,-9.0692567E+00,-1.0312E-03
+208.0000E-03,-9.0721170E+00,-1.0217E-03
+208.2500E-03,-9.0752850E+00,-1.0113E-03
+208.5000E-03,-9.0780978E+00,-1.0008E-03
+208.7500E-03,-9.0813177E+00,-988.2E-06
+209.0000E-03,-9.0848749E+00,-975.6E-06
+209.2500E-03,-9.0887078E+00,-956.4E-06
+209.5000E-03,-9.0928089E+00,-930.5E-06
+209.7500E-03,-9.0971219E+00,-910.7E-06
+210.0000E-03,-9.1019516E+00,-893.4E-06
+210.2500E-03,-9.1063744E+00,-881.3E-06
+210.5000E-03,-9.1109793E+00,-865.7E-06
+210.7500E-03,-9.1156536E+00,-855.9E-06
+211.0000E-03,-9.1205985E+00,-851.5E-06
+211.2500E-03,-9.1249937E+00,-848.7E-06
+211.5000E-03,-9.1296329E+00,-849.6E-06
+211.7500E-03,-9.1337732E+00,-845.1E-06
+212.0000E-03,-9.1385768E+00,-832.9E-06
+212.2500E-03,-9.1433656E+00,-831.0E-06
+212.5000E-03,-9.1478624E+00,-824.6E-06
+212.7500E-03,-9.1520186E+00,-819.5E-06
+213.0000E-03,-9.1573015E+00,-812.2E-06
+213.2500E-03,-9.1622833E+00,-797.3E-06
+213.5000E-03,-9.1668855E+00,-775.8E-06
+213.7500E-03,-9.1724680E+00,-764.9E-06
+214.0000E-03,-9.1775958E+00,-753.5E-06
+214.2500E-03,-9.1829592E+00,-741.4E-06
+214.5000E-03,-9.1883141E+00,-726.2E-06
+214.7500E-03,-9.1935651E+00,-717.3E-06
+215.0000E-03,-9.1994132E+00,-705.7E-06
+215.2500E-03,-9.2051979E+00,-701.3E-06
+215.5000E-03,-9.2104688E+00,-693.1E-06
+215.7500E-03,-9.2161867E+00,-688.1E-06
+216.0000E-03,-9.2220732E+00,-665.6E-06
+216.2500E-03,-9.2281433E+00,-652.5E-06
+216.5000E-03,-9.2343548E+00,-639.3E-06
+216.7500E-03,-9.2404175E+00,-623.6E-06
+217.0000E-03,-9.2472474E+00,-603.8E-06
+217.2500E-03,-9.2540850E+00,-580.0E-06
+217.5000E-03,-9.2611849E+00,-569.0E-06
+217.7500E-03,-9.2680441E+00,-549.9E-06
+218.0000E-03,-9.2753970E+00,-534.2E-06
+218.2500E-03,-9.2827947E+00,-516.9E-06
+218.5000E-03,-9.2901034E+00,-509.0E-06
+218.7500E-03,-9.2976273E+00,-507.1E-06
+219.0000E-03,-9.3049451E+00,-500.2E-06
+219.2500E-03,-9.3125133E+00,-502.0E-06
+219.5000E-03,-9.3199871E+00,-500.5E-06
+219.7500E-03,-9.3266996E+00,-499.3E-06
+220.0000E-03,-9.3334394E+00,-499.7E-06
+220.2500E-03,-9.3402885E+00,-489.3E-06
+220.5000E-03,-9.3474768E+00,-480.0E-06
+220.7500E-03,-9.3546010E+00,-466.0E-06
+221.0000E-03,-9.3615763E+00,-449.3E-06
+221.2500E-03,-9.3690987E+00,-444.3E-06
+221.5000E-03,-9.3766803E+00,-424.1E-06
+221.7500E-03,-9.3845684E+00,-405.7E-06
+222.0000E-03,-9.3928907E+00,-386.6E-06
+222.2500E-03,-9.4009506E+00,-364.4E-06
+222.5000E-03,-9.4095745E+00,-350.9E-06
+222.7500E-03,-9.4178834E+00,-337.0E-06
+223.0000E-03,-9.4264930E+00,-329.7E-06
+223.2500E-03,-9.4350625E+00,-317.3E-06
+223.5000E-03,-9.4440763E+00,-303.1E-06
+223.7500E-03,-9.4523172E+00,-300.7E-06
+224.0000E-03,-9.4609756E+00,-290.6E-06
+224.2500E-03,-9.4697301E+00,-288.5E-06
+224.5000E-03,-9.4783410E+00,-279.2E-06
+224.7500E-03,-9.4874221E+00,-270.1E-06
+225.0000E-03,-9.4961114E+00,-261.1E-06
+225.2500E-03,-9.5049745E+00,-246.2E-06
+225.5000E-03,-9.5143068E+00,-234.7E-06
+225.7500E-03,-9.5232336E+00,-217.5E-06
+226.0000E-03,-9.5320853E+00,-215.4E-06
+226.2500E-03,-9.5412786E+00,-205.2E-06
+226.5000E-03,-9.5503867E+00,-198.2E-06
+226.7500E-03,-9.5593552E+00,-197.1E-06
+227.0000E-03,-9.5678492E+00,-193.6E-06
+227.2500E-03,-9.5763056E+00,-185.6E-06
+227.5000E-03,-9.5852300E+00,-179.8E-06
+227.7500E-03,-9.5938696E+00,-177.5E-06
+228.0000E-03,-9.6021838E+00,-181.2E-06
+228.2500E-03,-9.6106818E+00,-169.4E-06
+228.5000E-03,-9.6192719E+00,-164.0E-06
+228.7500E-03,-9.6283128E+00,-150.8E-06
+229.0000E-03,-9.6369792E+00,-135.4E-06
+229.2500E-03,-9.6461819E+00,-118.4E-06
+229.5000E-03,-9.6557463E+00,-90.2E-06
+229.7500E-03,-9.6651671E+00,-77.6E-06
+230.0000E-03,-9.6747597E+00,-65.4E-06
+230.2500E-03,-9.6848671E+00,-60.4E-06
+230.5000E-03,-9.6945449E+00,-47.6E-06
+230.7500E-03,-9.7047079E+00,-34.1E-06
+231.0000E-03,-9.7141691E+00,-28.6E-06
+231.2500E-03,-9.7236328E+00,-25.1E-06
+231.5000E-03,-9.7334744E+00,-27.8E-06
+231.7500E-03,-9.7426106E+00,-26.0E-06
+232.0000E-03,-9.7521811E+00,-21.7E-06
+232.2500E-03,-9.7616919E+00,-26.9E-06
+232.5000E-03,-9.7706570E+00,-24.4E-06
+232.7500E-03,-9.7799120E+00,-24.2E-06
+233.0000E-03,-9.7894033E+00,-15.1E-06
+233.2500E-03,-9.7986517E+00,-6.3E-06
+233.5000E-03,-9.8076812E+00,+8.7E-06
+233.7500E-03,-9.8169785E+00,+20.2E-06
+234.0000E-03,-9.8266289E+00,+26.9E-06
+234.2500E-03,-9.8359255E+00,+36.8E-06
+234.5000E-03,-9.8455973E+00,+43.7E-06
+234.7500E-03,-9.8544886E+00,+48.6E-06
+235.0000E-03,-9.8641920E+00,+55.9E-06
+235.2500E-03,-9.8735920E+00,+56.7E-06
+235.5000E-03,-9.8828483E+00,+58.9E-06
+235.7500E-03,-9.8918464E+00,+68.4E-06
+236.0000E-03,-9.9010001E+00,+81.9E-06
+236.2500E-03,-9.9106987E+00,+89.1E-06
+236.5000E-03,-9.9202337E+00,+99.0E-06
+236.7500E-03,-9.9302538E+00,+117.1E-06
+237.0000E-03,-9.9399672E+00,+127.6E-06
+237.2500E-03,-9.9497101E+00,+138.5E-06
+237.5000E-03,-9.9596812E+00,+144.1E-06
+237.7500E-03,-9.9694363E+00,+154.8E-06
+238.0000E-03,-9.9791402E+00,+166.7E-06
+238.2500E-03,-9.9895160E+00,+179.1E-06
+238.5000E-03,-9.9995609E+00,+184.9E-06
+238.7500E-03,-10.0091341E+00,+184.7E-06
+239.0000E-03,-10.0183817E+00,+184.4E-06
+239.2500E-03,-10.0280662E+00,+176.2E-06
+239.5000E-03,-10.0373602E+00,+172.6E-06
+239.7500E-03,-10.0455501E+00,+166.1E-06
+240.0000E-03,-10.0535167E+00,+164.9E-06
+240.2500E-03,-10.0614248E+00,+169.1E-06
+240.5000E-03,-10.0690309E+00,+169.6E-06
+240.7500E-03,-10.0761022E+00,+173.6E-06
+241.0000E-03,-10.0829990E+00,+183.8E-06
+241.2500E-03,-10.0900157E+00,+189.4E-06
+241.5000E-03,-10.0960382E+00,+198.7E-06
+241.7500E-03,-10.1014544E+00,+208.0E-06
+242.0000E-03,-10.1063127E+00,+226.4E-06
+242.2500E-03,-10.1112142E+00,+239.1E-06
+242.5000E-03,-10.1158774E+00,+244.2E-06
+242.7500E-03,-10.1194685E+00,+251.4E-06
+243.0000E-03,-10.1230809E+00,+250.8E-06
+243.2500E-03,-10.1261732E+00,+252.8E-06
+243.5000E-03,-10.1284863E+00,+257.4E-06
+243.7500E-03,-10.1306842E+00,+258.1E-06
+244.0000E-03,-10.1321243E+00,+259.2E-06
+244.2500E-03,-10.1333993E+00,+256.0E-06
+244.5000E-03,-10.1345044E+00,+264.2E-06
+244.7500E-03,-10.1352890E+00,+269.0E-06
+245.0000E-03,-10.1359667E+00,+271.2E-06
+245.2500E-03,-10.1361887E+00,+273.5E-06
+245.5000E-03,-10.1370750E+00,+273.7E-06
+245.7500E-03,-10.1370678E+00,+284.2E-06
+246.0000E-03,-10.1372652E+00,+284.5E-06
+246.2500E-03,-10.1371310E+00,+278.9E-06
+246.5000E-03,-10.1374040E+00,+278.5E-06
+246.7500E-03,-10.1370188E+00,+273.7E-06
+247.0000E-03,-10.1368429E+00,+267.9E-06
+247.2500E-03,-10.1364243E+00,+267.1E-06
+247.5000E-03,-10.1363802E+00,+261.3E-06
+247.7500E-03,-10.1367302E+00,+255.8E-06
+248.0000E-03,-10.1367351E+00,+253.4E-06
+248.2500E-03,-10.1365241E+00,+258.3E-06
+248.5000E-03,-10.1364243E+00,+255.8E-06
+248.7500E-03,-10.1365559E+00,+260.1E-06
