ANALOG
Ch 1 Scale 500mV/, Pos -7.25625V, Coup DC, BW Limit Off, Inv Off, Imp 1M Ohm
     Probe 1.0000000 : 1, Skew 0.0s
Ch 2 Scale 1mV/, Pos 0.0V, Coup DC, BW Limit Off, Inv Off, Imp 1M Ohm
     Probe 1.0000000 : 1, Skew 0.0s

TRIGGER
Sweep Mode Auto, Coup DC, Noise Rej Off, HF Rej Off, Holdoff 40.0ns
Mode Edge, Source E, Slope Rising, Level 20mV

HORIZONTAL
Mode Normal, Ref Center, Main Scale 50.00ms/, Main Delay -1.000000000ms

ACQUISITION
Mode Averaging, # Avgs 16, Realtime On, Vectors On, Persistence Off

MEASUREMENTS
Frequency(1), Cur 7.000Hz
Pk-Pk(1), Cur 1.599V

