x-axis,1,2
second,Volt,Volt
-251.0000E-03,,
-250.7500E-03,-7.0878144E+00,-1.7707E-03
-250.5000E-03,-7.0808756E+00,-1.7716E-03
-250.2500E-03,-7.0738217E+00,-1.7744E-03
-250.0000E-03,-7.0666731E+00,-1.7758E-03
-249.7500E-03,-7.0596010E+00,-1.7807E-03
-249.5000E-03,-7.0524288E+00,-1.7753E-03
-249.2500E-03,-7.0459025E+00,-1.7628E-03
-249.0000E-03,-7.0389968E+00,-1.7616E-03
-248.7500E-03,-7.0324200E+00,-1.7613E-03
-248.5000E-03,-7.0258241E+00,-1.7703E-03
-248.2500E-03,-7.0193892E+00,-1.7791E-03
-248.0000E-03,-7.0122142E+00,-1.7825E-03
-247.7500E-03,-7.0052114E+00,-1.7923E-03
-247.5000E-03,-6.9981921E+00,-1.7968E-03
-247.2500E-03,-6.9910218E+00,-1.7974E-03
-247.0000E-03,-6.9840844E+00,-1.8066E-03
-246.7500E-03,-6.9772599E+00,-1.8012E-03
-246.5000E-03,-6.9708930E+00,-1.8035E-03
-246.2500E-03,-6.9638956E+00,-1.7969E-03
-246.0000E-03,-6.9578085E+00,-1.7830E-03
-245.7500E-03,-6.9512661E+00,-1.7703E-03
-245.5000E-03,-6.9455413E+00,-1.7433E-03
-245.2500E-03,-6.9406041E+00,-1.7220E-03
-245.0000E-03,-6.9359185E+00,-1.7101E-03
-244.7500E-03,-6.9315207E+00,-1.6995E-03
-244.5000E-03,-6.9271594E+00,-1.6943E-03
-244.2500E-03,-6.9230015E+00,-1.6748E-03
-244.0000E-03,-6.9188674E+00,-1.6734E-03
-243.7500E-03,-6.9147946E+00,-1.6787E-03
-243.5000E-03,-6.9107217E+00,-1.6885E-03
-243.2500E-03,-6.9060728E+00,-1.7017E-03
-243.0000E-03,-6.9011059E+00,-1.7003E-03
-242.7500E-03,-6.8965841E+00,-1.6988E-03
-242.5000E-03,-6.8913253E+00,-1.7061E-03
-242.2500E-03,-6.8865197E+00,-1.7087E-03
-242.0000E-03,-6.8818253E+00,-1.7117E-03
-241.7500E-03,-6.8768561E+00,-1.7051E-03
-241.5000E-03,-6.8723277E+00,-1.7019E-03
-241.2500E-03,-6.8679613E+00,-1.6915E-03
-241.0000E-03,-6.8636611E+00,-1.6834E-03
-240.7500E-03,-6.8589245E+00,-1.6778E-03
-240.5000E-03,-6.8554165E+00,-1.6601E-03
-240.2500E-03,-6.8514931E+00,-1.6462E-03
-240.0000E-03,-6.8479783E+00,-1.6474E-03
-239.7500E-03,-6.8444743E+00,-1.6440E-03
-239.5000E-03,-6.8408069E+00,-1.6455E-03
-239.2500E-03,-6.8374130E+00,-1.6391E-03
-239.0000E-03,-6.8339609E+00,-1.6342E-03
-238.7500E-03,-6.8311332E+00,-1.6302E-03
-238.5000E-03,-6.8273523E+00,-1.6283E-03
-238.2500E-03,-6.8245921E+00,-1.6179E-03
-238.0000E-03,-6.8216028E+00,-1.5921E-03
-237.7500E-03,-6.8190717E+00,-1.5766E-03
-237.5000E-03,-6.8170986E+00,-1.5691E-03
-237.2500E-03,-6.8151078E+00,-1.5563E-03
-237.0000E-03,-6.8130895E+00,-1.5447E-03
-236.7500E-03,-6.8109888E+00,-1.5424E-03
-236.5000E-03,-6.8093159E+00,-1.5402E-03
-236.2500E-03,-6.8074684E+00,-1.5399E-03
-236.0000E-03,-6.8053204E+00,-1.5467E-03
-235.7500E-03,-6.8029335E+00,-1.5499E-03
-235.5000E-03,-6.8005305E+00,-1.5550E-03
-235.2500E-03,-6.7977495E+00,-1.5677E-03
-235.0000E-03,-6.7950012E+00,-1.5744E-03
-234.7500E-03,-6.7917267E+00,-1.5812E-03
-234.5000E-03,-6.7887531E+00,-1.5864E-03
-234.2500E-03,-6.7858580E+00,-1.5789E-03
-234.0000E-03,-6.7829928E+00,-1.5673E-03
-233.7500E-03,-6.7804680E+00,-1.5547E-03
-233.5000E-03,-6.7781156E+00,-1.5399E-03
-233.2500E-03,-6.7763328E+00,-1.5194E-03
-233.0000E-03,-6.7744211E+00,-1.5005E-03
-232.7500E-03,-6.7729662E+00,-1.4813E-03
-232.5000E-03,-6.7718547E+00,-1.4655E-03
-232.2500E-03,-6.7712075E+00,-1.4560E-03
-232.0000E-03,-6.7703288E+00,-1.4502E-03
-231.7500E-03,-6.7692935E+00,-1.4367E-03
-231.5000E-03,-6.7686164E+00,-1.4322E-03
-231.2500E-03,-6.7679515E+00,-1.4232E-03
-231.0000E-03,-6.7672080E+00,-1.4218E-03
-230.7500E-03,-6.7664379E+00,-1.4218E-03
-230.5000E-03,-6.7659468E+00,-1.4155E-03
-230.2500E-03,-6.7653877E+00,-1.4127E-03
-230.0000E-03,-6.7648430E+00,-1.4053E-03
-229.7500E-03,-6.7646120E+00,-1.3968E-03
-229.5000E-03,-6.7641015E+00,-1.3876E-03
-229.2500E-03,-6.7637483E+00,-1.3702E-03
-229.0000E-03,-6.7640570E+00,-1.3639E-03
-228.7500E-03,-6.7642640E+00,-1.3535E-03
-228.5000E-03,-6.7641409E+00,-1.3552E-03
-228.2500E-03,-6.7639905E+00,-1.3545E-03
-228.0000E-03,-6.7642980E+00,-1.3553E-03
-227.7500E-03,-6.7639179E+00,-1.3476E-03
-227.5000E-03,-6.7637683E+00,-1.3431E-03
-227.2500E-03,-6.7632772E+00,-1.3354E-03
-227.0000E-03,-6.7627623E+00,-1.3392E-03
-226.7500E-03,-6.7629575E+00,-1.3216E-03
-226.5000E-03,-6.7633471E+00,-1.3179E-03
-226.2500E-03,-6.7636347E+00,-1.3017E-03
-226.0000E-03,-6.7645265E+00,-1.2851E-03
-225.7500E-03,-6.7657390E+00,-1.2695E-03
-225.5000E-03,-6.7671219E+00,-1.2347E-03
-225.2500E-03,-6.7691897E+00,-1.2033E-03
-225.0000E-03,-6.7718077E+00,-1.1838E-03
-224.7500E-03,-6.7743471E+00,-1.1609E-03
-224.5000E-03,-6.7771592E+00,-1.1422E-03
-224.2500E-03,-6.7802187E+00,-1.1226E-03
-224.0000E-03,-6.7835814E+00,-1.1124E-03
-223.7500E-03,-6.7870180E+00,-1.1128E-03
-223.5000E-03,-6.7898874E+00,-1.1203E-03
-223.2500E-03,-6.7923666E+00,-1.1287E-03
-223.0000E-03,-6.7947141E+00,-1.1114E-03
-222.7500E-03,-6.7973195E+00,-1.1077E-03
-222.5000E-03,-6.8000860E+00,-1.1079E-03
-222.2500E-03,-6.8025251E+00,-1.1086E-03
-222.0000E-03,-6.8049503E+00,-1.1040E-03
-221.7500E-03,-6.8077058E+00,-1.0889E-03
-221.5000E-03,-6.8106557E+00,-1.0799E-03
-221.2500E-03,-6.8137611E+00,-1.0670E-03
-221.0000E-03,-6.8166399E+00,-1.0528E-03
-220.7500E-03,-6.8198000E+00,-1.0381E-03
-220.5000E-03,-6.8236258E+00,-1.0119E-03
-220.2500E-03,-6.8272080E+00,-997.8E-06
-220.0000E-03,-6.8309511E+00,-990.3E-06
-219.7500E-03,-6.8347272E+00,-988.2E-06
-219.5000E-03,-6.8386805E+00,-974.4E-06
-219.2500E-03,-6.8424018E+00,-961.4E-06
-219.0000E-03,-6.8465337E+00,-946.6E-06
-218.7500E-03,-6.8507473E+00,-937.9E-06
-218.5000E-03,-6.8549914E+00,-927.9E-06
-218.2500E-03,-6.8592065E+00,-914.5E-06
-218.0000E-03,-6.8640772E+00,-889.0E-06
-217.7500E-03,-6.8689120E+00,-866.8E-06
-217.5000E-03,-6.8740472E+00,-855.3E-06
-217.2500E-03,-6.8793394E+00,-835.0E-06
-217.0000E-03,-6.8851028E+00,-819.5E-06
-216.7500E-03,-6.8906306E+00,-815.8E-06
-216.5000E-03,-6.8962196E+00,-806.2E-06
-216.2500E-03,-6.9011391E+00,-804.1E-06
-216.0000E-03,-6.9065405E+00,-801.2E-06
-215.7500E-03,-6.9118781E+00,-801.0E-06
-215.5000E-03,-6.9164035E+00,-802.2E-06
-215.2500E-03,-6.9214763E+00,-810.5E-06
-215.0000E-03,-6.9256167E+00,-812.0E-06
-214.7500E-03,-6.9297680E+00,-813.2E-06
-214.5000E-03,-6.9343571E+00,-811.8E-06
-214.2500E-03,-6.9384864E+00,-804.8E-06
-214.0000E-03,-6.9426691E+00,-788.6E-06
-213.7500E-03,-6.9474063E+00,-772.8E-06
-213.5000E-03,-6.9522033E+00,-755.3E-06
-213.2500E-03,-6.9576074E+00,-730.4E-06
-213.0000E-03,-6.9630169E+00,-708.7E-06
-212.7500E-03,-6.9691665E+00,-685.4E-06
-212.5000E-03,-6.9749705E+00,-666.7E-06
-212.2500E-03,-6.9811062E+00,-649.8E-06
-212.0000E-03,-6.9877684E+00,-643.7E-06
-211.7500E-03,-6.9934918E+00,-633.6E-06
-211.5000E-03,-6.9996203E+00,-621.4E-06
-211.2500E-03,-7.0059249E+00,-615.0E-06
-211.0000E-03,-7.0122670E+00,-606.2E-06
-210.7500E-03,-7.0182130E+00,-605.7E-06
-210.5000E-03,-7.0243778E+00,-600.8E-06
-210.2500E-03,-7.0306489E+00,-595.7E-06
-210.0000E-03,-7.0366486E+00,-579.1E-06
-209.7500E-03,-7.0430874E+00,-566.5E-06
-209.5000E-03,-7.0495984E+00,-558.2E-06
-209.2500E-03,-7.0559388E+00,-537.8E-06
-209.0000E-03,-7.0623189E+00,-526.0E-06
-208.7500E-03,-7.0695993E+00,-515.2E-06
-208.5000E-03,-7.0761582E+00,-514.4E-06
-208.2500E-03,-7.0824282E+00,-514.7E-06
-208.0000E-03,-7.0888986E+00,-510.2E-06
-207.7500E-03,-7.0949170E+00,-500.5E-06
-207.5000E-03,-7.1009693E+00,-498.4E-06
-207.2500E-03,-7.1069624E+00,-485.7E-06
-207.0000E-03,-7.1137613E+00,-489.5E-06
-206.7500E-03,-7.1197424E+00,-476.4E-06
-206.5000E-03,-7.1264530E+00,-466.5E-06
-206.2500E-03,-7.1331643E+00,-452.7E-06
-206.0000E-03,-7.1402573E+00,-431.0E-06
-205.7500E-03,-7.1473693E+00,-412.5E-06
-205.5000E-03,-7.1547919E+00,-378.3E-06
-205.2500E-03,-7.1630124E+00,-349.7E-06
-205.0000E-03,-7.1714128E+00,-329.7E-06
-204.7500E-03,-7.1800636E+00,-308.5E-06
-204.5000E-03,-7.1886106E+00,-289.9E-06
-204.2500E-03,-7.1972539E+00,-269.8E-06
-204.0000E-03,-7.2061758E+00,-260.5E-06
-203.7500E-03,-7.2150913E+00,-258.3E-06
-203.5000E-03,-7.2233293E+00,-265.0E-06
-203.2500E-03,-7.2317686E+00,-271.3E-06
-203.0000E-03,-7.2397865E+00,-263.0E-06
-202.7500E-03,-7.2478443E+00,-255.8E-06
-202.5000E-03,-7.2556854E+00,-258.0E-06
-202.2500E-03,-7.2632617E+00,-253.5E-06
-202.0000E-03,-7.2706132E+00,-246.3E-06
-201.7500E-03,-7.2788511E+00,-238.6E-06
-201.5000E-03,-7.2866147E+00,-230.8E-06
-201.2500E-03,-7.2947651E+00,-214.6E-06
-201.0000E-03,-7.3028767E+00,-202.4E-06
-200.7500E-03,-7.3111157E+00,-189.4E-06
-200.5000E-03,-7.3197178E+00,-172.1E-06
-200.2500E-03,-7.3281333E+00,-157.7E-06
-200.0000E-03,-7.3367672E+00,-151.5E-06
-199.7500E-03,-7.3453864E+00,-141.1E-06
-199.5000E-03,-7.3539223E+00,-131.7E-06
-199.2500E-03,-7.3622962E+00,-119.6E-06
-199.0000E-03,-7.3708414E+00,-112.0E-06
-198.7500E-03,-7.3795001E+00,-108.4E-06
-198.5000E-03,-7.3883891E+00,-99.8E-06
-198.2500E-03,-7.3968516E+00,-89.0E-06
-198.0000E-03,-7.4062314E+00,-63.7E-06
-197.7500E-03,-7.4153601E+00,-40.6E-06
-197.5000E-03,-7.4249440E+00,-33.4E-06
-197.2500E-03,-7.4340845E+00,-22.2E-06
-197.0000E-03,-7.4442090E+00,-4.7E-06
-196.7500E-03,-7.4537238E+00,-2.7E-06
-196.5000E-03,-7.4631530E+00,+5.9E-06
-196.2500E-03,-7.4724384E+00,+5.3E-06
-196.0000E-03,-7.4814274E+00,+600E-09
-195.7500E-03,-7.4904480E+00,+100E-09
-195.5000E-03,-7.4989869E+00,-7.6E-06
-195.2500E-03,-7.5070246E+00,-20.5E-06
-195.0000E-03,-7.5150582E+00,-26.9E-06
-194.7500E-03,-7.5232570E+00,-29.9E-06
-194.5000E-03,-7.5307186E+00,-29.0E-06
-194.2500E-03,-7.5383519E+00,-25.0E-06
-194.0000E-03,-7.5460902E+00,-15.5E-06
-193.7500E-03,-7.5539160E+00,-2.2E-06
-193.5000E-03,-7.5620351E+00,+8.4E-06
-193.2500E-03,-7.5710017E+00,+29.6E-06
-193.0000E-03,-7.5797640E+00,+47.6E-06
-192.7500E-03,-7.5888148E+00,+58.8E-06
-192.5000E-03,-7.5978083E+00,+74.7E-06
-192.2500E-03,-7.6071274E+00,+89.5E-06
-192.0000E-03,-7.6159269E+00,+95.3E-06
-191.7500E-03,-7.6247105E+00,+99.5E-06
-191.5000E-03,-7.6332432E+00,+103.5E-06
-191.2500E-03,-7.6420935E+00,+109.1E-06
-191.0000E-03,-7.6512780E+00,+110.3E-06
-190.7500E-03,-7.6595604E+00,+98.8E-06
-190.5000E-03,-7.6673960E+00,+99.2E-06
-190.2500E-03,-7.6760227E+00,+101.7E-06
-190.0000E-03,-7.6842960E+00,+112.9E-06
-189.7500E-03,-7.6926747E+00,+117.1E-06
-189.5000E-03,-7.7011991E+00,+121.9E-06
-189.2500E-03,-7.7092587E+00,+132.5E-06
-189.0000E-03,-7.7178388E+00,+138.7E-06
-188.7500E-03,-7.7265259E+00,+147.4E-06
-188.5000E-03,-7.7350218E+00,+144.6E-06
-188.2500E-03,-7.7432266E+00,+137.9E-06
-188.0000E-03,-7.7506639E+00,+133.1E-06
-187.7500E-03,-7.7581898E+00,+137.3E-06
-187.5000E-03,-7.7658089E+00,+135.7E-06
-187.2500E-03,-7.7733996E+00,+134.4E-06
-187.0000E-03,-7.7808617E+00,+122.4E-06
-186.7500E-03,-7.7880460E+00,+138.5E-06
-186.5000E-03,-7.7956473E+00,+139.5E-06
-186.2500E-03,-7.8034109E+00,+151.0E-06
-186.0000E-03,-7.8112616E+00,+162.5E-06
-185.7500E-03,-7.8191232E+00,+170.9E-06
-185.5000E-03,-7.8271721E+00,+196.6E-06
-185.2500E-03,-7.8360589E+00,+214.8E-06
-185.0000E-03,-7.8445919E+00,+228.3E-06
-184.7500E-03,-7.8538726E+00,+243.9E-06
-184.5000E-03,-7.8630341E+00,+258.2E-06
-184.2500E-03,-7.8721415E+00,+272.0E-06
-184.0000E-03,-7.8812183E+00,+271.7E-06
-183.7500E-03,-7.8905454E+00,+266.2E-06
-183.5000E-03,-7.8989600E+00,+256.1E-06
-183.2500E-03,-7.9070284E+00,+241.7E-06
-183.0000E-03,-7.9148475E+00,+251.6E-06
-182.7500E-03,-7.9230610E+00,+244.1E-06
-182.5000E-03,-7.9306121E+00,+231.9E-06
-182.2500E-03,-7.9378094E+00,+223.1E-06
-182.0000E-03,-7.9447630E+00,+223.5E-06
-181.7500E-03,-7.9525880E+00,+228.8E-06
-181.5000E-03,-7.9597130E+00,+230.8E-06
-181.2500E-03,-7.9671800E+00,+236.5E-06
-181.0000E-03,-7.9743762E+00,+241.4E-06
-180.7500E-03,-7.9818079E+00,+250.0E-06
-180.5000E-03,-7.9893908E+00,+263.3E-06
-180.2500E-03,-7.9969869E+00,+264.2E-06
-180.0000E-03,-8.0042172E+00,+259.7E-06
-179.7500E-03,-8.0113939E+00,+259.1E-06
-179.5000E-03,-8.0184878E+00,+257.2E-06
-179.2500E-03,-8.0253773E+00,+256.7E-06
-179.0000E-03,-8.0328090E+00,+253.8E-06
-178.7500E-03,-8.0397695E+00,+250.1E-06
-178.5000E-03,-8.0469151E+00,+254.3E-06
-178.2500E-03,-8.0540833E+00,+255.1E-06
-178.0000E-03,-8.0614939E+00,+276.4E-06
-177.7500E-03,-8.0682400E+00,+285.6E-06
-177.5000E-03,-8.0759900E+00,+289.4E-06
-177.2500E-03,-8.0832952E+00,+288.9E-06
-177.0000E-03,-8.0915368E+00,+293.5E-06
-176.7500E-03,-8.0985691E+00,+290.3E-06
-176.5000E-03,-8.1055218E+00,+289.9E-06
-176.2500E-03,-8.1125609E+00,+284.3E-06
-176.0000E-03,-8.1194351E+00,+269.1E-06
-175.7500E-03,-8.1260100E+00,+258.3E-06
-175.5000E-03,-8.1319563E+00,+242.0E-06
-175.2500E-03,-8.1371548E+00,+226.0E-06
-175.0000E-03,-8.1425250E+00,+206.3E-06
-174.7500E-03,-8.1472819E+00,+191.1E-06
-174.5000E-03,-8.1521321E+00,+181.7E-06
-174.2500E-03,-8.1564826E+00,+180.4E-06
-174.0000E-03,-8.1609549E+00,+181.1E-06
-173.7500E-03,-8.1658824E+00,+180.1E-06
-173.5000E-03,-8.1707019E+00,+185.3E-06
-173.2500E-03,-8.1759832E+00,+198.0E-06
-173.0000E-03,-8.1812516E+00,+207.9E-06
-172.7500E-03,-8.1864654E+00,+209.5E-06
-172.5000E-03,-8.1918517E+00,+213.2E-06
-172.2500E-03,-8.1970477E+00,+214.6E-06
-172.0000E-03,-8.2027060E+00,+212.5E-06
-171.7500E-03,-8.2073372E+00,+214.1E-06
-171.5000E-03,-8.2124256E+00,+210.2E-06
-171.2500E-03,-8.2173551E+00,+198.3E-06
-171.0000E-03,-8.2221372E+00,+190.9E-06
-170.7500E-03,-8.2266977E+00,+176.8E-06
-170.5000E-03,-8.2312487E+00,+169.6E-06
-170.2500E-03,-8.2357241E+00,+158.6E-06
-170.0000E-03,-8.2399979E+00,+155.9E-06
-169.7500E-03,-8.2438302E+00,+150.3E-06
-169.5000E-03,-8.2473633E+00,+147.1E-06
-169.2500E-03,-8.2516180E+00,+145.8E-06
-169.0000E-03,-8.2555238E+00,+144.6E-06
-168.7500E-03,-8.2593145E+00,+139.8E-06
-168.5000E-03,-8.2628991E+00,+130.6E-06
-168.2500E-03,-8.2661942E+00,+112.8E-06
-168.0000E-03,-8.2692340E+00,+102.4E-06
-167.7500E-03,-8.2717981E+00,+96.2E-06
-167.5000E-03,-8.2744944E+00,+89.2E-06
-167.2500E-03,-8.2774683E+00,+77.5E-06
-167.0000E-03,-8.2799220E+00,+60.6E-06
-166.7500E-03,-8.2820128E+00,+63.9E-06
-166.5000E-03,-8.2843578E+00,+51.3E-06
-166.2500E-03,-8.2868898E+00,+52.6E-06
-166.0000E-03,-8.2890293E+00,+55.4E-06
-165.7500E-03,-8.2917687E+00,+61.6E-06
-165.5000E-03,-8.2943082E+00,+77.6E-06
-165.2500E-03,-8.2978833E+00,+90.3E-06
-165.0000E-03,-8.3013366E+00,+95.0E-06
-164.7500E-03,-8.3046611E+00,+100.4E-06
-164.5000E-03,-8.3075558E+00,+101.7E-06
-164.2500E-03,-8.3111505E+00,+103.3E-06
-164.0000E-03,-8.3144270E+00,+98.2E-06
-163.7500E-03,-8.3175927E+00,+79.8E-06
-163.5000E-03,-8.3203955E+00,+57.2E-06
-163.2500E-03,-8.3228675E+00,+38.0E-06
-163.0000E-03,-8.3247150E+00,+27.7E-06
-162.7500E-03,-8.3262798E+00,+14.4E-06
-162.5000E-03,-8.3281264E+00,-4.6E-06
-162.2500E-03,-8.3292820E+00,-18.3E-06
-162.0000E-03,-8.3302299E+00,-25.2E-06
-161.7500E-03,-8.3316756E+00,-29.3E-06
-161.5000E-03,-8.3332930E+00,-34.1E-06
-161.2500E-03,-8.3336818E+00,-41.3E-06
-161.0000E-03,-8.3351362E+00,-44.4E-06
-160.7500E-03,-8.3361415E+00,-44.3E-06
-160.5000E-03,-8.3371528E+00,-44.9E-06
-160.2500E-03,-8.3385631E+00,-50.0E-06
-160.0000E-03,-8.3395255E+00,-61.0E-06
-159.7500E-03,-8.3400958E+00,-72.2E-06
-159.5000E-03,-8.3409591E+00,-82.1E-06
-159.2500E-03,-8.3413956E+00,-88.1E-06
-159.0000E-03,-8.3419488E+00,-93.9E-06
-158.7500E-03,-8.3424311E+00,-101.4E-06
-158.5000E-03,-8.3425800E+00,-114.4E-06
-158.2500E-03,-8.3430511E+00,-123.8E-06
-158.0000E-03,-8.3438239E+00,-111.6E-06
-157.7500E-03,-8.3447031E+00,-110.6E-06
-157.5000E-03,-8.3447450E+00,-116.9E-06
-157.2500E-03,-8.3453803E+00,-118.8E-06
-157.0000E-03,-8.3464049E+00,-122.3E-06
-156.7500E-03,-8.3465172E+00,-138.9E-06
-156.5000E-03,-8.3465138E+00,-145.1E-06
-156.2500E-03,-8.3467380E+00,-159.7E-06
-156.0000E-03,-8.3469445E+00,-183.7E-06
-155.7500E-03,-8.3457935E+00,-206.1E-06
-155.5000E-03,-8.3445685E+00,-227.1E-06
-155.2500E-03,-8.3432033E+00,-251.0E-06
-155.0000E-03,-8.3409758E+00,-279.1E-06
-154.7500E-03,-8.3388142E+00,-301.0E-06
-154.5000E-03,-8.3365589E+00,-317.0E-06
-154.2500E-03,-8.3343323E+00,-331.6E-06
-154.0000E-03,-8.3315881E+00,-336.4E-06
-153.7500E-03,-8.3292205E+00,-342.7E-06
-153.5000E-03,-8.3269253E+00,-348.6E-06
-153.2500E-03,-8.3247724E+00,-340.5E-06
-153.0000E-03,-8.3226255E+00,-341.0E-06
-152.7500E-03,-8.3208148E+00,-338.0E-06
-152.5000E-03,-8.3190458E+00,-342.6E-06
-152.2500E-03,-8.3172768E+00,-346.8E-06
-152.0000E-03,-8.3149301E+00,-364.1E-06
-151.7500E-03,-8.3130069E+00,-371.3E-06
-151.5000E-03,-8.3105030E+00,-383.4E-06
-151.2500E-03,-8.3077368E+00,-394.4E-06
-151.0000E-03,-8.3051368E+00,-415.4E-06
-150.7500E-03,-8.3022312E+00,-432.5E-06
-150.5000E-03,-8.2993675E+00,-445.6E-06
-150.2500E-03,-8.2962309E+00,-460.9E-06
-150.0000E-03,-8.2927306E+00,-474.9E-06
-149.7500E-03,-8.2892991E+00,-484.3E-06
-149.5000E-03,-8.2860258E+00,-490.6E-06
-149.2500E-03,-8.2823380E+00,-495.5E-06
-149.0000E-03,-8.2791925E+00,-500.9E-06
-148.7500E-03,-8.2757117E+00,-513.2E-06
-148.5000E-03,-8.2718843E+00,-527.7E-06
-148.2500E-03,-8.2678841E+00,-552.1E-06
-148.0000E-03,-8.2634489E+00,-571.5E-06
-147.7500E-03,-8.2587700E+00,-589.1E-06
-147.5000E-03,-8.2538556E+00,-603.3E-06
-147.2500E-03,-8.2492330E+00,-621.8E-06
-147.0000E-03,-8.2440302E+00,-647.5E-06
-146.7500E-03,-8.2391727E+00,-653.3E-06
-146.5000E-03,-8.2340966E+00,-659.7E-06
-146.2500E-03,-8.2292681E+00,-665.3E-06
-146.0000E-03,-8.2241960E+00,-666.1E-06
-145.7500E-03,-8.2195319E+00,-671.1E-06
-145.5000E-03,-8.2146973E+00,-651.2E-06
-145.2500E-03,-8.2105257E+00,-645.3E-06
-145.0000E-03,-8.2063958E+00,-643.5E-06
-144.7500E-03,-8.2025659E+00,-650.8E-06
-144.5000E-03,-8.1985124E+00,-652.3E-06
-144.2500E-03,-8.1944262E+00,-653.3E-06
-144.0000E-03,-8.1908641E+00,-669.1E-06
-143.7500E-03,-8.1865174E+00,-686.3E-06
-143.5000E-03,-8.1816634E+00,-710.6E-06
-143.2500E-03,-8.1767436E+00,-737.8E-06
-143.0000E-03,-8.1717560E+00,-750.3E-06
-142.7500E-03,-8.1662826E+00,-766.8E-06
-142.5000E-03,-8.1603623E+00,-784.9E-06
-142.2500E-03,-8.1546512E+00,-805.5E-06
-142.0000E-03,-8.1486443E+00,-823.8E-06
-141.7500E-03,-8.1427856E+00,-827.9E-06
-141.5000E-03,-8.1365015E+00,-838.8E-06
-141.2500E-03,-8.1309207E+00,-848.0E-06
-141.0000E-03,-8.1249903E+00,-856.5E-06
-140.7500E-03,-8.1187806E+00,-864.1E-06
-140.5000E-03,-8.1132629E+00,-866.0E-06
-140.2500E-03,-8.1078968E+00,-871.2E-06
-140.0000E-03,-8.1017906E+00,-882.0E-06
-139.7500E-03,-8.0959923E+00,-894.0E-06
-139.5000E-03,-8.0894551E+00,-902.3E-06
-139.2500E-03,-8.0835281E+00,-911.6E-06
-139.0000E-03,-8.0771218E+00,-922.2E-06
-138.7500E-03,-8.0710351E+00,-940.0E-06
-138.5000E-03,-8.0649817E+00,-947.5E-06
-138.2500E-03,-8.0585070E+00,-955.2E-06
-138.0000E-03,-8.0526384E+00,-947.3E-06
-137.7500E-03,-8.0470394E+00,-951.9E-06
-137.5000E-03,-8.0412761E+00,-960.0E-06
-137.2500E-03,-8.0351349E+00,-963.1E-06
-137.0000E-03,-8.0293126E+00,-963.9E-06
-136.7500E-03,-8.0232109E+00,-982.4E-06
-136.5000E-03,-8.0171187E+00,-992.3E-06
-136.2500E-03,-8.0101581E+00,-1.0147E-03
-136.0000E-03,-8.0038383E+00,-1.0372E-03
-135.7500E-03,-7.9964972E+00,-1.0612E-03
-135.5000E-03,-7.9893528E+00,-1.0826E-03
-135.2500E-03,-7.9815902E+00,-1.1105E-03
-135.0000E-03,-7.9736947E+00,-1.1338E-03
-134.7500E-03,-7.9651328E+00,-1.1620E-03
-134.5000E-03,-7.9567784E+00,-1.1816E-03
-134.2500E-03,-7.9478596E+00,-1.1850E-03
-134.0000E-03,-7.9394435E+00,-1.1884E-03
-133.7500E-03,-7.9311956E+00,-1.1982E-03
-133.5000E-03,-7.9228828E+00,-1.1999E-03
-133.2500E-03,-7.9152135E+00,-1.2008E-03
-133.0000E-03,-7.9073739E+00,-1.1975E-03
-132.7500E-03,-7.8994262E+00,-1.1964E-03
-132.5000E-03,-7.8917590E+00,-1.1988E-03
-132.2500E-03,-7.8841596E+00,-1.2018E-03
-132.0000E-03,-7.8763587E+00,-1.2180E-03
-131.7500E-03,-7.8689143E+00,-1.2274E-03
-131.5000E-03,-7.8610390E+00,-1.2366E-03
-131.2500E-03,-7.8531347E+00,-1.2484E-03
-131.0000E-03,-7.8454052E+00,-1.2655E-03
-130.7500E-03,-7.8373320E+00,-1.2843E-03
-130.5000E-03,-7.8289216E+00,-1.2947E-03
-130.2500E-03,-7.8204626E+00,-1.3051E-03
-130.0000E-03,-7.8118470E+00,-1.3139E-03
-129.7500E-03,-7.8031045E+00,-1.3300E-03
-129.5000E-03,-7.7946804E+00,-1.3372E-03
-129.2500E-03,-7.7865408E+00,-1.3382E-03
-129.0000E-03,-7.7777891E+00,-1.3443E-03
-128.7500E-03,-7.7697139E+00,-1.3525E-03
-128.5000E-03,-7.7609923E+00,-1.3723E-03
-128.2500E-03,-7.7519939E+00,-1.3917E-03
-128.0000E-03,-7.7430175E+00,-1.4063E-03
-127.7500E-03,-7.7337949E+00,-1.4194E-03
-127.5000E-03,-7.7242676E+00,-1.4273E-03
-127.2500E-03,-7.7150106E+00,-1.4459E-03
-127.0000E-03,-7.7055114E+00,-1.4669E-03
-126.7500E-03,-7.6959468E+00,-1.4631E-03
-126.5000E-03,-7.6863459E+00,-1.4732E-03
-126.2500E-03,-7.6774349E+00,-1.4758E-03
-126.0000E-03,-7.6685612E+00,-1.4702E-03
-125.7500E-03,-7.6594626E+00,-1.4746E-03
-125.5000E-03,-7.6510393E+00,-1.4583E-03
-125.2500E-03,-7.6435845E+00,-1.4460E-03
-125.0000E-03,-7.6352837E+00,-1.4430E-03
-124.7500E-03,-7.6277102E+00,-1.4390E-03
-124.5000E-03,-7.6202594E+00,-1.4393E-03
-124.2500E-03,-7.6125817E+00,-1.4383E-03
-124.0000E-03,-7.6046908E+00,-1.4496E-03
-123.7500E-03,-7.5970978E+00,-1.4629E-03
-123.5000E-03,-7.5889695E+00,-1.4857E-03
-123.2500E-03,-7.5804607E+00,-1.5136E-03
-123.0000E-03,-7.5719091E+00,-1.5249E-03
-122.7500E-03,-7.5633646E+00,-1.5356E-03
-122.5000E-03,-7.5545785E+00,-1.5519E-03
-122.2500E-03,-7.5453533E+00,-1.5624E-03
-122.0000E-03,-7.5365697E+00,-1.5710E-03
-121.7500E-03,-7.5279161E+00,-1.5726E-03
-121.5000E-03,-7.5191718E+00,-1.5804E-03
-121.2500E-03,-7.5104434E+00,-1.5811E-03
-121.0000E-03,-7.5019972E+00,-1.5851E-03
-120.7500E-03,-7.4932358E+00,-1.5828E-03
-120.5000E-03,-7.4845085E+00,-1.5807E-03
-120.2500E-03,-7.4758756E+00,-1.5825E-03
-120.0000E-03,-7.4679636E+00,-1.5937E-03
-119.7500E-03,-7.4594532E+00,-1.6027E-03
-119.5000E-03,-7.4511908E+00,-1.6119E-03
-119.2500E-03,-7.4427462E+00,-1.6098E-03
-119.0000E-03,-7.4344803E+00,-1.6189E-03
-118.7500E-03,-7.4262253E+00,-1.6300E-03
-118.5000E-03,-7.4178701E+00,-1.6381E-03
-118.2500E-03,-7.4093426E+00,-1.6385E-03
-118.0000E-03,-7.4017426E+00,-1.6245E-03
-117.7500E-03,-7.3941625E+00,-1.6174E-03
-117.5000E-03,-7.3863895E+00,-1.6228E-03
-117.2500E-03,-7.3792140E+00,-1.6223E-03
-117.0000E-03,-7.3716194E+00,-1.6188E-03
-116.7500E-03,-7.3640920E+00,-1.6305E-03
-116.5000E-03,-7.3564583E+00,-1.6322E-03
-116.2500E-03,-7.3482538E+00,-1.6459E-03
-116.0000E-03,-7.3405873E+00,-1.6573E-03
-115.7500E-03,-7.3325135E+00,-1.6747E-03
-115.5000E-03,-7.3241894E+00,-1.6942E-03
-115.2500E-03,-7.3150952E+00,-1.7146E-03
-115.0000E-03,-7.3067189E+00,-1.7311E-03
-114.7500E-03,-7.2976234E+00,-1.7509E-03
-114.5000E-03,-7.2881669E+00,-1.7646E-03
-114.2500E-03,-7.2789337E+00,-1.7677E-03
-114.0000E-03,-7.2701618E+00,-1.7665E-03
-113.7500E-03,-7.2609739E+00,-1.7617E-03
-113.5000E-03,-7.2525251E+00,-1.7633E-03
-113.2500E-03,-7.2443609E+00,-1.7526E-03
-113.0000E-03,-7.2361607E+00,-1.7437E-03
-112.7500E-03,-7.2283207E+00,-1.7391E-03
-112.5000E-03,-7.2207477E+00,-1.7305E-03
-112.2500E-03,-7.2132698E+00,-1.7285E-03
-112.0000E-03,-7.2059093E+00,-1.7348E-03
-111.7500E-03,-7.1982252E+00,-1.7343E-03
-111.5000E-03,-7.1904713E+00,-1.7402E-03
-111.2500E-03,-7.1825770E+00,-1.7447E-03
-111.0000E-03,-7.1753029E+00,-1.7521E-03
-110.7500E-03,-7.1671555E+00,-1.7695E-03
-110.5000E-03,-7.1592720E+00,-1.7704E-03
-110.2500E-03,-7.1513499E+00,-1.7740E-03
-110.0000E-03,-7.1440516E+00,-1.7736E-03
-109.7500E-03,-7.1365781E+00,-1.7754E-03
-109.5000E-03,-7.1287896E+00,-1.7779E-03
-109.2500E-03,-7.1211182E+00,-1.7684E-03
-109.0000E-03,-7.1139073E+00,-1.7675E-03
-108.7500E-03,-7.1066330E+00,-1.7762E-03
-108.5000E-03,-7.0991712E+00,-1.7824E-03
-108.2500E-03,-7.0916039E+00,-1.7951E-03
-108.0000E-03,-7.0837872E+00,-1.8011E-03
-107.7500E-03,-7.0758772E+00,-1.8053E-03
-107.5000E-03,-7.0682475E+00,-1.8070E-03
-107.2500E-03,-7.0605157E+00,-1.8140E-03
-107.0000E-03,-7.0526524E+00,-1.8219E-03
-106.7500E-03,-7.0450807E+00,-1.8157E-03
-106.5000E-03,-7.0373817E+00,-1.8199E-03
-106.2500E-03,-7.0300456E+00,-1.8129E-03
-106.0000E-03,-7.0228371E+00,-1.7986E-03
-105.7500E-03,-7.0169389E+00,-1.7850E-03
-105.5000E-03,-7.0099710E+00,-1.7601E-03
-105.2500E-03,-7.0049776E+00,-1.7482E-03
-105.0000E-03,-6.9996368E+00,-1.7312E-03
-104.7500E-03,-6.9939710E+00,-1.7268E-03
-104.5000E-03,-6.9889393E+00,-1.7123E-03
-104.2500E-03,-6.9840637E+00,-1.7023E-03
-104.0000E-03,-6.9795717E+00,-1.6984E-03
-103.7500E-03,-6.9748460E+00,-1.7104E-03
-103.5000E-03,-6.9694391E+00,-1.7190E-03
-103.2500E-03,-6.9642423E+00,-1.7340E-03
-103.0000E-03,-6.9581775E+00,-1.7358E-03
-102.7500E-03,-6.9524948E+00,-1.7388E-03
-102.5000E-03,-6.9469545E+00,-1.7468E-03
-102.2500E-03,-6.9410341E+00,-1.7517E-03
-102.0000E-03,-6.9356451E+00,-1.7558E-03
-101.7500E-03,-6.9298944E+00,-1.7438E-03
-101.5000E-03,-6.9244507E+00,-1.7421E-03
-101.2500E-03,-6.9190231E+00,-1.7357E-03
-101.0000E-03,-6.9139448E+00,-1.7287E-03
-100.7500E-03,-6.9090382E+00,-1.7198E-03
-100.5000E-03,-6.9043034E+00,-1.7026E-03
-100.2500E-03,-6.8995520E+00,-1.6983E-03
-100.0000E-03,-6.8948173E+00,-1.7002E-03
-99.7500E-03,-6.8903435E+00,-1.6999E-03
-99.5000E-03,-6.8857617E+00,-1.6969E-03
-99.2500E-03,-6.8811802E+00,-1.6924E-03
-99.0000E-03,-6.8769689E+00,-1.6819E-03
-98.7500E-03,-6.8726488E+00,-1.6825E-03
-98.5000E-03,-6.8685386E+00,-1.6786E-03
-98.2500E-03,-6.8649749E+00,-1.6736E-03
-98.0000E-03,-6.8609763E+00,-1.6466E-03
-97.7500E-03,-6.8579190E+00,-1.6334E-03
-97.5000E-03,-6.8548657E+00,-1.6300E-03
-97.2500E-03,-6.8514922E+00,-1.6242E-03
-97.0000E-03,-6.8486989E+00,-1.6180E-03
-96.7500E-03,-6.8458901E+00,-1.6126E-03
-96.5000E-03,-6.8429417E+00,-1.6090E-03
-96.2500E-03,-6.8397400E+00,-1.6066E-03
-96.0000E-03,-6.8365872E+00,-1.6156E-03
-95.7500E-03,-6.8335113E+00,-1.6250E-03
-95.5000E-03,-6.8303806E+00,-1.6327E-03
-95.2500E-03,-6.8263046E+00,-1.6504E-03
-95.0000E-03,-6.8224589E+00,-1.6513E-03
-94.7500E-03,-6.8181620E+00,-1.6590E-03
-94.5000E-03,-6.8142462E+00,-1.6567E-03
-94.2500E-03,-6.8099710E+00,-1.6527E-03
-94.0000E-03,-6.8059003E+00,-1.6438E-03
-93.7500E-03,-6.8020208E+00,-1.6339E-03
-93.5000E-03,-6.7988970E+00,-1.6187E-03
-93.2500E-03,-6.7962432E+00,-1.6022E-03
-93.0000E-03,-6.7935541E+00,-1.5853E-03
-92.7500E-03,-6.7913613E+00,-1.5676E-03
-92.5000E-03,-6.7893516E+00,-1.5475E-03
-92.2500E-03,-6.7874244E+00,-1.5483E-03
-92.0000E-03,-6.7852794E+00,-1.5443E-03
-91.7500E-03,-6.7833921E+00,-1.5364E-03
-91.5000E-03,-6.7817116E+00,-1.5243E-03
-91.2500E-03,-6.7796798E+00,-1.5207E-03
-91.0000E-03,-6.7774802E+00,-1.5171E-03
-90.7500E-03,-6.7757897E+00,-1.5223E-03
-90.5000E-03,-6.7738821E+00,-1.5207E-03
-90.2500E-03,-6.7724197E+00,-1.5170E-03
-90.0000E-03,-6.7711712E+00,-1.5078E-03
-89.7500E-03,-6.7697344E+00,-1.5003E-03
-89.5000E-03,-6.7681002E+00,-1.4909E-03
-89.2500E-03,-6.7672772E+00,-1.4759E-03
-89.0000E-03,-6.7662342E+00,-1.4653E-03
-88.7500E-03,-6.7652615E+00,-1.4616E-03
-88.5000E-03,-6.7644171E+00,-1.4641E-03
-88.2500E-03,-6.7632514E+00,-1.4622E-03
-88.0000E-03,-6.7619840E+00,-1.4585E-03
-87.7500E-03,-6.7601679E+00,-1.4558E-03
-87.5000E-03,-6.7590574E+00,-1.4551E-03
-87.2500E-03,-6.7577772E+00,-1.4500E-03
-87.0000E-03,-6.7568516E+00,-1.4496E-03
-86.7500E-03,-6.7556377E+00,-1.4303E-03
-86.5000E-03,-6.7549182E+00,-1.4242E-03
-86.2500E-03,-6.7545832E+00,-1.4117E-03
-86.0000E-03,-6.7538911E+00,-1.3969E-03
-85.7500E-03,-6.7540555E+00,-1.3723E-03
-85.5000E-03,-6.7546681E+00,-1.3381E-03
-85.2500E-03,-6.7560364E+00,-1.3113E-03
-85.0000E-03,-6.7572705E+00,-1.2893E-03
-84.7500E-03,-6.7589086E+00,-1.2718E-03
-84.5000E-03,-6.7609080E+00,-1.2561E-03
-84.2500E-03,-6.7626731E+00,-1.2411E-03
-84.0000E-03,-6.7648602E+00,-1.2334E-03
-83.7500E-03,-6.7669815E+00,-1.2343E-03
-83.5000E-03,-6.7689787E+00,-1.2368E-03
-83.2500E-03,-6.7706631E+00,-1.2393E-03
-83.0000E-03,-6.7718794E+00,-1.2304E-03
-82.7500E-03,-6.7729318E+00,-1.2300E-03
-82.5000E-03,-6.7744015E+00,-1.2327E-03
-82.2500E-03,-6.7761379E+00,-1.2275E-03
-82.0000E-03,-6.7775220E+00,-1.2237E-03
-81.7500E-03,-6.7793471E+00,-1.2036E-03
-81.5000E-03,-6.7814463E+00,-1.1976E-03
-81.2500E-03,-6.7832438E+00,-1.1875E-03
-81.0000E-03,-6.7849715E+00,-1.1735E-03
-80.7500E-03,-6.7872341E+00,-1.1530E-03
-80.5000E-03,-6.7900356E+00,-1.1367E-03
-80.2500E-03,-6.7926163E+00,-1.1240E-03
-80.0000E-03,-6.7952902E+00,-1.1193E-03
-79.7500E-03,-6.7979155E+00,-1.1037E-03
-79.5000E-03,-6.8003838E+00,-1.0954E-03
-79.2500E-03,-6.8030890E+00,-1.0851E-03
-79.0000E-03,-6.8063773E+00,-1.0666E-03
-78.7500E-03,-6.8090161E+00,-1.0627E-03
-78.5000E-03,-6.8121675E+00,-1.0539E-03
-78.2500E-03,-6.8161619E+00,-1.0391E-03
-78.0000E-03,-6.8199938E+00,-1.0099E-03
-77.7500E-03,-6.8240533E+00,-989.3E-06
-77.5000E-03,-6.8287157E+00,-978.5E-06
-77.2500E-03,-6.8324152E+00,-962.9E-06
-77.0000E-03,-6.8375594E+00,-952.3E-06
-76.7500E-03,-6.8417819E+00,-944.8E-06
-76.5000E-03,-6.8460829E+00,-933.2E-06
-76.2500E-03,-6.8504528E+00,-928.7E-06
-76.0000E-03,-6.8549205E+00,-926.6E-06
-75.7500E-03,-6.8593541E+00,-931.2E-06
-75.5000E-03,-6.8630686E+00,-937.2E-06
-75.2500E-03,-6.8669600E+00,-942.5E-06
-75.0000E-03,-6.8701618E+00,-943.4E-06
-74.7500E-03,-6.8734470E+00,-943.1E-06
-74.5000E-03,-6.8768109E+00,-942.3E-06
-74.2500E-03,-6.8799734E+00,-933.7E-06
-74.0000E-03,-6.8834400E+00,-914.7E-06
-73.7500E-03,-6.8875005E+00,-898.8E-06
-73.5000E-03,-6.8916371E+00,-881.1E-06
-73.2500E-03,-6.8960680E+00,-857.7E-06
-73.0000E-03,-6.9004629E+00,-831.8E-06
-72.7500E-03,-6.9054887E+00,-811.8E-06
-72.5000E-03,-6.9108845E+00,-795.2E-06
-72.2500E-03,-6.9161859E+00,-782.9E-06
-72.0000E-03,-6.9215912E+00,-772.8E-06
-71.7500E-03,-6.9271889E+00,-764.3E-06
-71.5000E-03,-6.9323032E+00,-750.6E-06
-71.2500E-03,-6.9379733E+00,-740.9E-06
-71.0000E-03,-6.9432277E+00,-732.7E-06
-70.7500E-03,-6.9489509E+00,-733.9E-06
-70.5000E-03,-6.9542207E+00,-724.4E-06
-70.2500E-03,-6.9598982E+00,-719.7E-06
-70.0000E-03,-6.9652533E+00,-706.0E-06
-69.7500E-03,-6.9707268E+00,-694.9E-06
-69.5000E-03,-6.9766430E+00,-688.1E-06
-69.2500E-03,-6.9820566E+00,-669.0E-06
-69.0000E-03,-6.9881951E+00,-655.0E-06
-68.7500E-03,-6.9943776E+00,-648.6E-06
-68.5000E-03,-7.0002625E+00,-644.3E-06
-68.2500E-03,-7.0059356E+00,-642.8E-06
-68.0000E-03,-7.0113270E+00,-635.3E-06
-67.7500E-03,-7.0167229E+00,-629.8E-06
-67.5000E-03,-7.0227563E+00,-620.8E-06
-67.2500E-03,-7.0284214E+00,-617.4E-06
-67.0000E-03,-7.0339719E+00,-621.9E-06
-66.7500E-03,-7.0397990E+00,-603.1E-06
-66.5000E-03,-7.0459732E+00,-590.7E-06
-66.2500E-03,-7.0517070E+00,-573.1E-06
-66.0000E-03,-7.0583813E+00,-553.6E-06
-65.7500E-03,-7.0644422E+00,-532.3E-06
-65.5000E-03,-7.0714865E+00,-496.0E-06
-65.2500E-03,-7.0792514E+00,-467.9E-06
-65.0000E-03,-7.0872760E+00,-449.5E-06
-64.7500E-03,-7.0951371E+00,-431.2E-06
-64.5000E-03,-7.1036443E+00,-410.1E-06
-64.2500E-03,-7.1120966E+00,-393.7E-06
-64.0000E-03,-7.1203051E+00,-381.3E-06
-63.7500E-03,-7.1287438E+00,-384.5E-06
-63.5000E-03,-7.1365478E+00,-386.6E-06
-63.2500E-03,-7.1441421E+00,-390.4E-06
-63.0000E-03,-7.1517400E+00,-378.7E-06
-62.7500E-03,-7.1590220E+00,-373.8E-06
-62.5000E-03,-7.1666873E+00,-376.2E-06
-62.2500E-03,-7.1738521E+00,-375.7E-06
-62.0000E-03,-7.1810659E+00,-366.5E-06
-61.7500E-03,-7.1886998E+00,-352.1E-06
-61.5000E-03,-7.1964789E+00,-339.1E-06
-61.2500E-03,-7.2043631E+00,-325.9E-06
-61.0000E-03,-7.2120936E+00,-310.6E-06
-60.7500E-03,-7.2198694E+00,-296.6E-06
-60.5000E-03,-7.2276190E+00,-276.2E-06
-60.2500E-03,-7.2361955E+00,-268.7E-06
-60.0000E-03,-7.2439742E+00,-257.8E-06
-59.7500E-03,-7.2520868E+00,-249.6E-06
-59.5000E-03,-7.2604656E+00,-240.3E-06
-59.2500E-03,-7.2685843E+00,-228.3E-06
-59.0000E-03,-7.2770600E+00,-214.6E-06
-58.7500E-03,-7.2851603E+00,-210.7E-06
-58.5000E-03,-7.2932604E+00,-202.6E-06
-58.2500E-03,-7.3017618E+00,-191.6E-06
-58.0000E-03,-7.3106580E+00,-164.2E-06
-57.7500E-03,-7.3198764E+00,-149.5E-06
-57.5000E-03,-7.3291641E+00,-135.3E-06
-57.2500E-03,-7.3383375E+00,-123.0E-06
-57.0000E-03,-7.3479024E+00,-109.7E-06
-56.7500E-03,-7.3570957E+00,-102.3E-06
-56.5000E-03,-7.3664107E+00,-94.6E-06
-56.2500E-03,-7.3755608E+00,-92.3E-06
-56.0000E-03,-7.3842998E+00,-99.1E-06
-55.7500E-03,-7.3928739E+00,-97.6E-06
-55.5000E-03,-7.4013057E+00,-107.2E-06
-55.2500E-03,-7.4090441E+00,-112.8E-06
-55.0000E-03,-7.4171661E+00,-122.5E-06
-54.7500E-03,-7.4245861E+00,-119.3E-06
-54.5000E-03,-7.4322281E+00,-126.1E-06
-54.2500E-03,-7.4394627E+00,-117.9E-06
-54.0000E-03,-7.4473434E+00,-106.8E-06
-53.7500E-03,-7.4550032E+00,-89.8E-06
-53.5000E-03,-7.4630810E+00,-74.7E-06
-53.2500E-03,-7.4714581E+00,-54.0E-06
-53.0000E-03,-7.4801239E+00,-32.4E-06
-52.7500E-03,-7.4891069E+00,-14.0E-06
-52.5000E-03,-7.4981495E+00,-1.7E-06
-52.2500E-03,-7.5069297E+00,+9.8E-06
-52.0000E-03,-7.5158864E+00,+9.9E-06
-51.7500E-03,-7.5250755E+00,+16.8E-06
-51.5000E-03,-7.5340591E+00,+28.8E-06
-51.2500E-03,-7.5433683E+00,+32.4E-06
-51.0000E-03,-7.5518060E+00,+34.7E-06
-50.7500E-03,-7.5603707E+00,+28.3E-06
-50.5000E-03,-7.5685881E+00,+32.2E-06
-50.2500E-03,-7.5768613E+00,+31.6E-06
-50.0000E-03,-7.5854481E+00,+42.4E-06
-49.7500E-03,-7.5939505E+00,+51.5E-06
-49.5000E-03,-7.6023235E+00,+58.6E-06
-49.2500E-03,-7.6109398E+00,+67.7E-06
-49.0000E-03,-7.6196903E+00,+74.5E-06
-48.7500E-03,-7.6283488E+00,+84.0E-06
-48.5000E-03,-7.6364667E+00,+85.1E-06
-48.2500E-03,-7.6444774E+00,+81.7E-06
-48.0000E-03,-7.6523399E+00,+76.6E-06
-47.7500E-03,-7.6599737E+00,+79.0E-06
-47.5000E-03,-7.6675425E+00,+84.5E-06
-47.2500E-03,-7.6755143E+00,+82.6E-06
-47.0000E-03,-7.6834904E+00,+71.2E-06
-46.7500E-03,-7.6909824E+00,+85.1E-06
-46.5000E-03,-7.6988587E+00,+85.4E-06
-46.2500E-03,-7.7069879E+00,+102.4E-06
-46.0000E-03,-7.7149541E+00,+113.1E-06
-45.7500E-03,-7.7232671E+00,+128.8E-06
-45.5000E-03,-7.7317220E+00,+157.6E-06
-45.2500E-03,-7.7408689E+00,+179.0E-06
-45.0000E-03,-7.7504423E+00,+197.7E-06
-44.7500E-03,-7.7596705E+00,+209.6E-06
-44.5000E-03,-7.7691873E+00,+222.7E-06
-44.2500E-03,-7.7785894E+00,+232.2E-06
-44.0000E-03,-7.7879716E+00,+230.1E-06
-43.7500E-03,-7.7974078E+00,+225.8E-06
-43.5000E-03,-7.8067019E+00,+223.1E-06
-43.2500E-03,-7.8150240E+00,+213.8E-06
-43.0000E-03,-7.8234299E+00,+216.7E-06
-42.7500E-03,-7.8316100E+00,+212.6E-06
-42.5000E-03,-7.8401190E+00,+200.3E-06
-42.2500E-03,-7.8474939E+00,+195.8E-06
-42.0000E-03,-7.8554536E+00,+194.4E-06
-41.7500E-03,-7.8634423E+00,+203.9E-06
-41.5000E-03,-7.8713077E+00,+209.4E-06
-41.2500E-03,-7.8793528E+00,+209.2E-06
-41.0000E-03,-7.8873194E+00,+214.3E-06
-40.7500E-03,-7.8953600E+00,+221.8E-06
-40.5000E-03,-7.9032969E+00,+233.2E-06
-40.2500E-03,-7.9110336E+00,+241.3E-06
-40.0000E-03,-7.9190684E+00,+249.8E-06
-39.7500E-03,-7.9270138E+00,+245.0E-06
-39.5000E-03,-7.9346201E+00,+244.0E-06
-39.2500E-03,-7.9422300E+00,+246.7E-06
-39.0000E-03,-7.9498057E+00,+247.3E-06
-38.7500E-03,-7.9579449E+00,+243.9E-06
-38.5000E-03,-7.9657037E+00,+247.6E-06
-38.2500E-03,-7.9734457E+00,+251.7E-06
-38.0000E-03,-7.9815435E+00,+268.8E-06
-37.7500E-03,-7.9895026E+00,+280.6E-06
-37.5000E-03,-7.9971477E+00,+283.3E-06
-37.2500E-03,-8.0055447E+00,+287.8E-06
-37.0000E-03,-8.0142067E+00,+295.2E-06
-36.7500E-03,-8.0220498E+00,+297.4E-06
-36.5000E-03,-8.0300161E+00,+295.0E-06
-36.2500E-03,-8.0376888E+00,+285.2E-06
-36.0000E-03,-8.0446697E+00,+274.1E-06
-35.7500E-03,-8.0515315E+00,+259.0E-06
-35.5000E-03,-8.0585015E+00,+242.7E-06
-35.2500E-03,-8.0640456E+00,+226.9E-06
-35.0000E-03,-8.0702778E+00,+210.9E-06
-34.7500E-03,-8.0761978E+00,+202.2E-06
-34.5000E-03,-8.0810683E+00,+197.9E-06
-34.2500E-03,-8.0866011E+00,+195.3E-06
-34.0000E-03,-8.0922529E+00,+196.3E-06
-33.7500E-03,-8.0978511E+00,+200.0E-06
-33.5000E-03,-8.1038435E+00,+203.0E-06
-33.2500E-03,-8.1091831E+00,+224.7E-06
-33.0000E-03,-8.1153063E+00,+234.3E-06
-32.7500E-03,-8.1214277E+00,+240.0E-06
-32.5000E-03,-8.1273144E+00,+249.9E-06
-32.2500E-03,-8.1339311E+00,+250.3E-06
-32.0000E-03,-8.1400273E+00,+238.7E-06
-31.7500E-03,-8.1458957E+00,+242.8E-06
-31.5000E-03,-8.1516335E+00,+237.6E-06
-31.2500E-03,-8.1575307E+00,+230.3E-06
-31.0000E-03,-8.1630511E+00,+223.7E-06
-30.7500E-03,-8.1686137E+00,+213.8E-06
-30.5000E-03,-8.1735679E+00,+208.4E-06
-30.2500E-03,-8.1791539E+00,+201.9E-06
-30.0000E-03,-8.1845832E+00,+198.4E-06
-29.7500E-03,-8.1892707E+00,+198.6E-06
-29.5000E-03,-8.1944311E+00,+194.0E-06
-29.2500E-03,-8.1992921E+00,+194.9E-06
-29.0000E-03,-8.2048503E+00,+197.1E-06
-28.7500E-03,-8.2097499E+00,+190.0E-06
-28.5000E-03,-8.2145711E+00,+187.1E-06
-28.2500E-03,-8.2186094E+00,+168.2E-06
-28.0000E-03,-8.2225485E+00,+160.2E-06
-27.7500E-03,-8.2257271E+00,+153.9E-06
-27.5000E-03,-8.2296084E+00,+146.2E-06
-27.2500E-03,-8.2332385E+00,+136.6E-06
-27.0000E-03,-8.2365039E+00,+122.1E-06
-26.7500E-03,-8.2397976E+00,+127.0E-06
-26.5000E-03,-8.2433104E+00,+117.1E-06
-26.2500E-03,-8.2464072E+00,+119.3E-06
-26.0000E-03,-8.2503836E+00,+120.9E-06
-25.7500E-03,-8.2536801E+00,+127.8E-06
-25.5000E-03,-8.2582776E+00,+151.0E-06
-25.2500E-03,-8.2624766E+00,+158.2E-06
-25.0000E-03,-8.2669891E+00,+166.5E-06
-24.7500E-03,-8.2712995E+00,+168.0E-06
-24.5000E-03,-8.2759857E+00,+171.7E-06
-24.2500E-03,-8.2803579E+00,+177.7E-06
-24.0000E-03,-8.2850323E+00,+165.4E-06
-23.7500E-03,-8.2888346E+00,+148.7E-06
-23.5000E-03,-8.2922834E+00,+135.0E-06
-23.2500E-03,-8.2955818E+00,+110.9E-06
-23.0000E-03,-8.2986527E+00,+103.8E-06
-22.7500E-03,-8.3016411E+00,+89.8E-06
-22.5000E-03,-8.3042108E+00,+72.8E-06
-22.2500E-03,-8.3067315E+00,+63.0E-06
-22.0000E-03,-8.3094694E+00,+49.1E-06
-21.7500E-03,-8.3114325E+00,+52.7E-06
-21.5000E-03,-8.3137767E+00,+47.3E-06
-21.2500E-03,-8.3157563E+00,+44.2E-06
-21.0000E-03,-8.3180602E+00,+42.0E-06
-20.7500E-03,-8.3202077E+00,+44.9E-06
-20.5000E-03,-8.3225176E+00,+44.3E-06
-20.2500E-03,-8.3242792E+00,+36.6E-06
-20.0000E-03,-8.3261334E+00,+22.8E-06
-19.7500E-03,-8.3285091E+00,+13.3E-06
-19.5000E-03,-8.3301982E+00,+5.0E-06
-19.2500E-03,-8.3319975E+00,+2.1E-06
-19.0000E-03,-8.3333739E+00,-1.6E-06
-18.7500E-03,-8.3349275E+00,-14.6E-06
-18.5000E-03,-8.3364005E+00,-11.5E-06
-18.2500E-03,-8.3380688E+00,-21.5E-06
-18.0000E-03,-8.3398983E+00,-11.0E-06
-17.7500E-03,-8.3417666E+00,-11.9E-06
-17.5000E-03,-8.3437356E+00,-16.9E-06
-17.2500E-03,-8.3452073E+00,-21.9E-06
-17.0000E-03,-8.3470233E+00,-28.7E-06
-16.7500E-03,-8.3489030E+00,-38.0E-06
-16.5000E-03,-8.3500110E+00,-44.1E-06
-16.2500E-03,-8.3512377E+00,-64.6E-06
-16.0000E-03,-8.3519149E+00,-84.9E-06
-15.7500E-03,-8.3523745E+00,-104.9E-06
-15.5000E-03,-8.3519263E+00,-128.2E-06
-15.2500E-03,-8.3516927E+00,-151.5E-06
-15.0000E-03,-8.3508605E+00,-180.4E-06
-14.7500E-03,-8.3497834E+00,-199.3E-06
-14.5000E-03,-8.3485742E+00,-217.0E-06
-14.2500E-03,-8.3471480E+00,-224.1E-06
-14.0000E-03,-8.3454576E+00,-226.2E-06
-13.7500E-03,-8.3440322E+00,-230.6E-06
-13.5000E-03,-8.3428497E+00,-233.5E-06
-13.2500E-03,-8.3418733E+00,-229.5E-06
-13.0000E-03,-8.3408304E+00,-229.9E-06
-12.7500E-03,-8.3395178E+00,-227.1E-06
-12.5000E-03,-8.3387473E+00,-224.9E-06
-12.2500E-03,-8.3382420E+00,-229.0E-06
-12.0000E-03,-8.3373514E+00,-248.9E-06
-11.7500E-03,-8.3357199E+00,-250.1E-06
-11.5000E-03,-8.3346866E+00,-259.8E-06
-11.2500E-03,-8.3334677E+00,-274.4E-06
-11.0000E-03,-8.3321082E+00,-300.8E-06
-10.7500E-03,-8.3300773E+00,-319.1E-06
-10.5000E-03,-8.3278245E+00,-325.6E-06
-10.2500E-03,-8.3259891E+00,-338.4E-06
-10.0000E-03,-8.3241469E+00,-352.5E-06
-9.7500E-03,-8.3221170E+00,-362.5E-06
-9.5000E-03,-8.3196699E+00,-365.3E-06
-9.2500E-03,-8.3175452E+00,-368.2E-06
-9.0000E-03,-8.3148388E+00,-375.1E-06
-8.7500E-03,-8.3127852E+00,-391.0E-06
-8.5000E-03,-8.3101351E+00,-408.6E-06
-8.2500E-03,-8.3070594E+00,-426.2E-06
-8.0000E-03,-8.3039381E+00,-444.3E-06
-7.7500E-03,-8.2998724E+00,-460.0E-06
-7.5000E-03,-8.2963848E+00,-474.0E-06
-7.2500E-03,-8.2924870E+00,-488.2E-06
-7.0000E-03,-8.2881754E+00,-512.9E-06
-6.7500E-03,-8.2842669E+00,-511.0E-06
-6.5000E-03,-8.2806725E+00,-521.9E-06
-6.2500E-03,-8.2766767E+00,-523.4E-06
-6.0000E-03,-8.2728979E+00,-526.9E-06
-5.7500E-03,-8.2693398E+00,-526.1E-06
-5.5000E-03,-8.2660101E+00,-513.6E-06
-5.2500E-03,-8.2633712E+00,-508.7E-06
-5.0000E-03,-8.2603829E+00,-508.3E-06
-4.7500E-03,-8.2571601E+00,-510.3E-06
-4.5000E-03,-8.2547042E+00,-510.7E-06
-4.2500E-03,-8.2520629E+00,-516.6E-06
-4.0000E-03,-8.2491918E+00,-533.6E-06
-3.7500E-03,-8.2460025E+00,-552.2E-06
-3.5000E-03,-8.2422511E+00,-574.7E-06
-3.2500E-03,-8.2381856E+00,-601.0E-06
-3.0000E-03,-8.2337013E+00,-620.3E-06
-2.7500E-03,-8.2295488E+00,-639.1E-06
-2.5000E-03,-8.2245528E+00,-655.8E-06
-2.2500E-03,-8.2196343E+00,-667.1E-06
-2.0000E-03,-8.2148778E+00,-684.1E-06
-1.7500E-03,-8.2100558E+00,-689.6E-06
-1.5000E-03,-8.2053058E+00,-700.8E-06
-1.2500E-03,-8.2001909E+00,-710.1E-06
-1.0000E-03,-8.1951647E+00,-713.7E-06
-750.0E-06,-8.1901538E+00,-720.1E-06
-500.0E-06,-8.1852851E+00,-724.4E-06
-250.0E-06,-8.1799383E+00,-733.2E-06
+0.0E+00,-8.1747020E+00,-741.7E-06
+250.0E-06,-8.1694471E+00,-753.9E-06
+500.0E-06,-8.1641637E+00,-769.2E-06
+750.0E-06,-8.1587144E+00,-774.6E-06
+1.0000E-03,-8.1532784E+00,-783.8E-06
+1.2500E-03,-8.1476010E+00,-798.9E-06
+1.5000E-03,-8.1422657E+00,-804.2E-06
+1.7500E-03,-8.1366387E+00,-816.5E-06
+2.0000E-03,-8.1317677E+00,-806.2E-06
+2.2500E-03,-8.1266532E+00,-813.0E-06
+2.5000E-03,-8.1217839E+00,-820.2E-06
+2.7500E-03,-8.1166635E+00,-829.9E-06
+3.0000E-03,-8.1112351E+00,-840.6E-06
+3.2500E-03,-8.1062631E+00,-853.3E-06
+3.5000E-03,-8.1002986E+00,-866.1E-06
+3.7500E-03,-8.0946898E+00,-886.1E-06
+4.0000E-03,-8.0886506E+00,-908.3E-06
+4.2500E-03,-8.0821549E+00,-935.0E-06
+4.5000E-03,-8.0753174E+00,-959.9E-06
+4.7500E-03,-8.0677947E+00,-981.0E-06
+5.0000E-03,-8.0604796E+00,-1.0074E-03
+5.2500E-03,-8.0525092E+00,-1.0326E-03
+5.5000E-03,-8.0446944E+00,-1.0521E-03
+5.7500E-03,-8.0366671E+00,-1.0655E-03
+6.0000E-03,-8.0283913E+00,-1.0637E-03
+6.2500E-03,-8.0208390E+00,-1.0656E-03
+6.5000E-03,-8.0133140E+00,-1.0702E-03
+6.7500E-03,-8.0057365E+00,-1.0659E-03
+7.0000E-03,-7.9984211E+00,-1.0712E-03
+7.2500E-03,-7.9914457E+00,-1.0744E-03
+7.5000E-03,-7.9844704E+00,-1.0729E-03
+7.7500E-03,-7.9777209E+00,-1.0775E-03
+8.0000E-03,-7.9701434E+00,-1.0991E-03
+8.2500E-03,-7.9632221E+00,-1.1038E-03
+8.5000E-03,-7.9556276E+00,-1.1159E-03
+8.7500E-03,-7.9482786E+00,-1.1300E-03
+9.0000E-03,-7.9406693E+00,-1.1422E-03
+9.2500E-03,-7.9327805E+00,-1.1634E-03
+9.5000E-03,-7.9251209E+00,-1.1778E-03
+9.7500E-03,-7.9171383E+00,-1.1891E-03
+10.0000E-03,-7.9090105E+00,-1.1997E-03
+10.2500E-03,-7.9012666E+00,-1.2081E-03
+10.5000E-03,-7.8928739E+00,-1.2192E-03
+10.7500E-03,-7.8848399E+00,-1.2252E-03
+11.0000E-03,-7.8770352E+00,-1.2329E-03
+11.2500E-03,-7.8690852E+00,-1.2433E-03
+11.5000E-03,-7.8608286E+00,-1.2601E-03
+11.7500E-03,-7.8522154E+00,-1.2799E-03
+12.0000E-03,-7.8429861E+00,-1.2926E-03
+12.2500E-03,-7.8341466E+00,-1.3046E-03
+12.5000E-03,-7.8252546E+00,-1.3195E-03
+12.7500E-03,-7.8161093E+00,-1.3392E-03
+13.0000E-03,-7.8069685E+00,-1.3571E-03
+13.2500E-03,-7.7977150E+00,-1.3609E-03
+13.5000E-03,-7.7884682E+00,-1.3690E-03
+13.7500E-03,-7.7792208E+00,-1.3638E-03
+14.0000E-03,-7.7703273E+00,-1.3621E-03
+14.2500E-03,-7.7620047E+00,-1.3595E-03
+14.5000E-03,-7.7540827E+00,-1.3436E-03
+14.7500E-03,-7.7463295E+00,-1.3416E-03
+15.0000E-03,-7.7384193E+00,-1.3396E-03
+15.2500E-03,-7.7310217E+00,-1.3441E-03
+15.5000E-03,-7.7237174E+00,-1.3401E-03
+15.7500E-03,-7.7164608E+00,-1.3433E-03
+16.0000E-03,-7.7088350E+00,-1.3515E-03
+16.2500E-03,-7.7012164E+00,-1.3729E-03
+16.5000E-03,-7.6935490E+00,-1.3923E-03
+16.7500E-03,-7.6852538E+00,-1.4176E-03
+17.0000E-03,-7.6770751E+00,-1.4248E-03
+17.2500E-03,-7.6681228E+00,-1.4436E-03
+17.5000E-03,-7.6593660E+00,-1.4616E-03
+17.7500E-03,-7.6504551E+00,-1.4752E-03
+18.0000E-03,-7.6415096E+00,-1.4852E-03
+18.2500E-03,-7.6326008E+00,-1.4890E-03
+18.5000E-03,-7.6234368E+00,-1.5002E-03
+18.7500E-03,-7.6144569E+00,-1.5028E-03
+19.0000E-03,-7.6058009E+00,-1.5074E-03
+19.2500E-03,-7.5972848E+00,-1.5047E-03
+19.5000E-03,-7.5891760E+00,-1.5091E-03
+19.7500E-03,-7.5802992E+00,-1.5124E-03
+20.0000E-03,-7.5714911E+00,-1.5200E-03
+20.2500E-03,-7.5632937E+00,-1.5287E-03
+20.5000E-03,-7.5546204E+00,-1.5399E-03
+20.7500E-03,-7.5458520E+00,-1.5425E-03
+21.0000E-03,-7.5374311E+00,-1.5509E-03
+21.2500E-03,-7.5286284E+00,-1.5605E-03
+21.5000E-03,-7.5198491E+00,-1.5597E-03
+21.7500E-03,-7.5118825E+00,-1.5599E-03
+22.0000E-03,-7.5035916E+00,-1.5536E-03
+22.2500E-03,-7.4960280E+00,-1.5523E-03
+22.5000E-03,-7.4879442E+00,-1.5576E-03
+22.7500E-03,-7.4804362E+00,-1.5580E-03
+23.0000E-03,-7.4728003E+00,-1.5602E-03
+23.2500E-03,-7.4650675E+00,-1.5682E-03
+23.5000E-03,-7.4573118E+00,-1.5758E-03
+23.7500E-03,-7.4496853E+00,-1.5944E-03
+24.0000E-03,-7.4410759E+00,-1.6078E-03
+24.2500E-03,-7.4327597E+00,-1.6313E-03
+24.5000E-03,-7.4240948E+00,-1.6523E-03
+24.7500E-03,-7.4146507E+00,-1.6718E-03
+25.0000E-03,-7.4051134E+00,-1.6946E-03
+25.2500E-03,-7.3959549E+00,-1.7112E-03
+25.5000E-03,-7.3864212E+00,-1.7250E-03
+25.7500E-03,-7.3765172E+00,-1.7264E-03
+26.0000E-03,-7.3670062E+00,-1.7212E-03
+26.2500E-03,-7.3579619E+00,-1.7174E-03
+26.5000E-03,-7.3485834E+00,-1.7155E-03
+26.7500E-03,-7.3400672E+00,-1.7080E-03
+27.0000E-03,-7.3319564E+00,-1.7037E-03
+27.2500E-03,-7.3239017E+00,-1.6933E-03
+27.5000E-03,-7.3156074E+00,-1.6921E-03
+27.7500E-03,-7.3081046E+00,-1.6931E-03
+28.0000E-03,-7.3002877E+00,-1.7032E-03
+28.2500E-03,-7.2920650E+00,-1.7036E-03
+28.5000E-03,-7.2843814E+00,-1.7073E-03
+28.7500E-03,-7.2765392E+00,-1.7166E-03
+29.0000E-03,-7.2682349E+00,-1.7228E-03
+29.2500E-03,-7.2599306E+00,-1.7386E-03
+29.5000E-03,-7.2517980E+00,-1.7414E-03
+29.7500E-03,-7.2433741E+00,-1.7441E-03
+30.0000E-03,-7.2357896E+00,-1.7503E-03
+30.2500E-03,-7.2278547E+00,-1.7594E-03
+30.5000E-03,-7.2192921E+00,-1.7577E-03
+30.7500E-03,-7.2113688E+00,-1.7479E-03
+31.0000E-03,-7.2036309E+00,-1.7502E-03
+31.2500E-03,-7.1959626E+00,-1.7607E-03
+31.5000E-03,-7.1879961E+00,-1.7700E-03
+31.7500E-03,-7.1798093E+00,-1.7807E-03
+32.0000E-03,-7.1714997E+00,-1.7852E-03
+32.2500E-03,-7.1630098E+00,-1.7898E-03
+32.5000E-03,-7.1546402E+00,-1.7980E-03
+32.7500E-03,-7.1461134E+00,-1.8038E-03
+33.0000E-03,-7.1378722E+00,-1.8128E-03
+33.2500E-03,-7.1298426E+00,-1.8084E-03
+33.5000E-03,-7.1216899E+00,-1.8070E-03
+33.7500E-03,-7.1140227E+00,-1.7971E-03
+34.0000E-03,-7.1064671E+00,-1.7936E-03
+34.2500E-03,-7.0990538E+00,-1.7813E-03
+34.5000E-03,-7.0924661E+00,-1.7587E-03
+34.7500E-03,-7.0858318E+00,-1.7489E-03
+35.0000E-03,-7.0797163E+00,-1.7352E-03
+35.2500E-03,-7.0736462E+00,-1.7302E-03
+35.5000E-03,-7.0680924E+00,-1.7210E-03
+35.7500E-03,-7.0622868E+00,-1.7137E-03
+36.0000E-03,-7.0568770E+00,-1.7168E-03
+36.2500E-03,-7.0509910E+00,-1.7327E-03
+36.5000E-03,-7.0448285E+00,-1.7386E-03
+36.7500E-03,-7.0386439E+00,-1.7507E-03
+37.0000E-03,-7.0322644E+00,-1.7526E-03
+37.2500E-03,-7.0260595E+00,-1.7572E-03
+37.5000E-03,-7.0196725E+00,-1.7652E-03
+37.7500E-03,-7.0125504E+00,-1.7742E-03
+38.0000E-03,-7.0058743E+00,-1.7730E-03
+38.2500E-03,-6.9995909E+00,-1.7679E-03
+38.5000E-03,-6.9935430E+00,-1.7652E-03
+38.7500E-03,-6.9868456E+00,-1.7599E-03
+39.0000E-03,-6.9810972E+00,-1.7551E-03
+39.2500E-03,-6.9752341E+00,-1.7469E-03
+39.5000E-03,-6.9697718E+00,-1.7367E-03
+39.7500E-03,-6.9640306E+00,-1.7348E-03
+40.0000E-03,-6.9587342E+00,-1.7362E-03
+40.2500E-03,-6.9531092E+00,-1.7301E-03
+40.5000E-03,-6.9475119E+00,-1.7332E-03
+40.7500E-03,-6.9426601E+00,-1.7251E-03
+41.0000E-03,-6.9369861E+00,-1.7222E-03
+41.2500E-03,-6.9321576E+00,-1.7213E-03
+41.5000E-03,-6.9275021E+00,-1.7182E-03
+41.7500E-03,-6.9228172E+00,-1.7091E-03
+42.0000E-03,-6.9185032E+00,-1.6910E-03
+42.2500E-03,-6.9142850E+00,-1.6800E-03
+42.5000E-03,-6.9101200E+00,-1.6746E-03
+42.7500E-03,-6.9066932E+00,-1.6650E-03
+43.0000E-03,-6.9026944E+00,-1.6599E-03
+43.2500E-03,-6.8991564E+00,-1.6564E-03
+43.5000E-03,-6.8954299E+00,-1.6537E-03
+43.7500E-03,-6.8917261E+00,-1.6627E-03
+44.0000E-03,-6.8875503E+00,-1.6636E-03
+44.2500E-03,-6.8832449E+00,-1.6731E-03
+44.5000E-03,-6.8785774E+00,-1.6858E-03
+44.7500E-03,-6.8735768E+00,-1.6925E-03
+45.0000E-03,-6.8683443E+00,-1.7100E-03
+45.2500E-03,-6.8636016E+00,-1.7167E-03
+45.5000E-03,-6.8583802E+00,-1.7244E-03
+45.7500E-03,-6.8530967E+00,-1.7157E-03
+46.0000E-03,-6.8487960E+00,-1.7014E-03
+46.2500E-03,-6.8441312E+00,-1.6876E-03
+46.5000E-03,-6.8396225E+00,-1.6772E-03
+46.7500E-03,-6.8357066E+00,-1.6615E-03
+47.0000E-03,-6.8324717E+00,-1.6459E-03
+47.2500E-03,-6.8290182E+00,-1.6283E-03
+47.5000E-03,-6.8259523E+00,-1.6123E-03
+47.7500E-03,-6.8232625E+00,-1.6057E-03
+48.0000E-03,-6.8201692E+00,-1.6048E-03
+48.2500E-03,-6.8167124E+00,-1.5957E-03
+48.5000E-03,-6.8140968E+00,-1.5921E-03
+48.7500E-03,-6.8113486E+00,-1.5914E-03
+49.0000E-03,-6.8083330E+00,-1.5905E-03
+49.2500E-03,-6.8058185E+00,-1.5948E-03
+49.5000E-03,-6.8030435E+00,-1.5945E-03
+49.7500E-03,-6.8002981E+00,-1.5861E-03
+50.0000E-03,-6.7979771E+00,-1.5818E-03
+50.2500E-03,-6.7952929E+00,-1.5757E-03
+50.5000E-03,-6.7928812E+00,-1.5715E-03
+50.7500E-03,-6.7902878E+00,-1.5573E-03
+51.0000E-03,-6.7881578E+00,-1.5424E-03
+51.2500E-03,-6.7869260E+00,-1.5406E-03
+51.5000E-03,-6.7845637E+00,-1.5481E-03
+51.7500E-03,-6.7822994E+00,-1.5465E-03
+52.0000E-03,-6.7797233E+00,-1.5441E-03
+52.2500E-03,-6.7768920E+00,-1.5404E-03
+52.5000E-03,-6.7746835E+00,-1.5359E-03
+52.7500E-03,-6.7724455E+00,-1.5377E-03
+53.0000E-03,-6.7701472E+00,-1.5415E-03
+53.2500E-03,-6.7677300E+00,-1.5263E-03
+53.5000E-03,-6.7658258E+00,-1.5179E-03
+53.7500E-03,-6.7640636E+00,-1.4991E-03
+54.0000E-03,-6.7628923E+00,-1.4824E-03
+54.2500E-03,-6.7620360E+00,-1.4604E-03
+54.5000E-03,-6.7613816E+00,-1.4296E-03
+54.7500E-03,-6.7612060E+00,-1.4032E-03
+55.0000E-03,-6.7617895E+00,-1.3821E-03
+55.2500E-03,-6.7623244E+00,-1.3662E-03
+55.5000E-03,-6.7629378E+00,-1.3485E-03
+55.7500E-03,-6.7638077E+00,-1.3345E-03
+56.0000E-03,-6.7645689E+00,-1.3307E-03
+56.2500E-03,-6.7651926E+00,-1.3386E-03
+56.5000E-03,-6.7664876E+00,-1.3407E-03
+56.7500E-03,-6.7666535E+00,-1.3476E-03
+57.0000E-03,-6.7671499E+00,-1.3382E-03
+57.2500E-03,-6.7676272E+00,-1.3332E-03
+57.5000E-03,-6.7680479E+00,-1.3310E-03
+57.7500E-03,-6.7681042E+00,-1.3364E-03
+58.0000E-03,-6.7685845E+00,-1.3266E-03
+58.2500E-03,-6.7693470E+00,-1.3104E-03
+58.5000E-03,-6.7699842E+00,-1.3003E-03
+58.7500E-03,-6.7707912E+00,-1.2901E-03
+59.0000E-03,-6.7719944E+00,-1.2722E-03
+59.2500E-03,-6.7732152E+00,-1.2560E-03
+59.5000E-03,-6.7748588E+00,-1.2398E-03
+59.7500E-03,-6.7765232E+00,-1.2315E-03
+60.0000E-03,-6.7780337E+00,-1.2215E-03
+60.2500E-03,-6.7798257E+00,-1.2084E-03
+60.5000E-03,-6.7810942E+00,-1.1997E-03
+60.7500E-03,-6.7834994E+00,-1.1928E-03
+61.0000E-03,-6.7858606E+00,-1.1836E-03
+61.2500E-03,-6.7876776E+00,-1.1755E-03
+61.5000E-03,-6.7900840E+00,-1.1603E-03
+61.7500E-03,-6.7926327E+00,-1.1492E-03
+62.0000E-03,-6.7957790E+00,-1.1288E-03
+62.2500E-03,-6.7987674E+00,-1.1030E-03
+62.5000E-03,-6.8024163E+00,-1.0928E-03
+62.7500E-03,-6.8058610E+00,-1.0779E-03
+63.0000E-03,-6.8095413E+00,-1.0656E-03
+63.2500E-03,-6.8131978E+00,-1.0489E-03
+63.5000E-03,-6.8170329E+00,-1.0376E-03
+63.7500E-03,-6.8202309E+00,-1.0393E-03
+64.0000E-03,-6.8234437E+00,-1.0411E-03
+64.2500E-03,-6.8263723E+00,-1.0456E-03
+64.5000E-03,-6.8289749E+00,-1.0494E-03
+64.7500E-03,-6.8316678E+00,-1.0562E-03
+65.0000E-03,-6.8342123E+00,-1.0617E-03
+65.2500E-03,-6.8365909E+00,-1.0631E-03
+65.5000E-03,-6.8387941E+00,-1.0596E-03
+65.7500E-03,-6.8414733E+00,-1.0431E-03
+66.0000E-03,-6.8441121E+00,-1.0278E-03
+66.2500E-03,-6.8470293E+00,-1.0100E-03
+66.5000E-03,-6.8501671E+00,-987.4E-06
+66.7500E-03,-6.8538315E+00,-966.4E-06
+67.0000E-03,-6.8575129E+00,-946.2E-06
+67.2500E-03,-6.8613679E+00,-924.4E-06
+67.5000E-03,-6.8660877E+00,-903.1E-06
+67.7500E-03,-6.8706670E+00,-891.6E-06
+68.0000E-03,-6.8750311E+00,-891.2E-06
+68.2500E-03,-6.8796104E+00,-879.7E-06
+68.5000E-03,-6.8845598E+00,-863.4E-06
+68.7500E-03,-6.8890389E+00,-854.9E-06
+69.0000E-03,-6.8937271E+00,-851.1E-06
+69.2500E-03,-6.8982372E+00,-852.3E-06
+69.5000E-03,-6.9025589E+00,-845.0E-06
+69.7500E-03,-6.9067810E+00,-835.1E-06
+70.0000E-03,-6.9116896E+00,-828.7E-06
+70.2500E-03,-6.9161255E+00,-817.2E-06
+70.5000E-03,-6.9210326E+00,-798.9E-06
+70.7500E-03,-6.9259396E+00,-784.0E-06
+71.0000E-03,-6.9310037E+00,-772.9E-06
+71.2500E-03,-6.9367876E+00,-766.4E-06
+71.5000E-03,-6.9414712E+00,-763.7E-06
+71.7500E-03,-6.9460815E+00,-761.4E-06
+72.0000E-03,-6.9507314E+00,-755.1E-06
+72.2500E-03,-6.9556174E+00,-748.2E-06
+72.5000E-03,-6.9603674E+00,-738.7E-06
+72.7500E-03,-6.9649050E+00,-735.1E-06
+73.0000E-03,-6.9699459E+00,-738.5E-06
+73.2500E-03,-6.9749572E+00,-723.5E-06
+73.5000E-03,-6.9801525E+00,-706.3E-06
+73.7500E-03,-6.9853325E+00,-686.0E-06
+74.0000E-03,-6.9911189E+00,-668.7E-06
+74.2500E-03,-6.9972744E+00,-645.9E-06
+74.5000E-03,-7.0033727E+00,-604.1E-06
+74.7500E-03,-7.0104746E+00,-576.4E-06
+75.0000E-03,-7.0175275E+00,-555.6E-06
+75.2500E-03,-7.0246609E+00,-544.4E-06
+75.5000E-03,-7.0322215E+00,-520.7E-06
+75.7500E-03,-7.0401738E+00,-502.7E-06
+76.0000E-03,-7.0479338E+00,-495.1E-06
+76.2500E-03,-7.0554981E+00,-499.5E-06
+76.5000E-03,-7.0624427E+00,-499.2E-06
+76.7500E-03,-7.0697286E+00,-504.1E-06
+77.0000E-03,-7.0764134E+00,-494.7E-06
+77.2500E-03,-7.0832243E+00,-491.0E-06
+77.5000E-03,-7.0900404E+00,-489.7E-06
+77.7500E-03,-7.0966891E+00,-486.5E-06
+78.0000E-03,-7.1035192E+00,-476.6E-06
+78.2500E-03,-7.1108606E+00,-460.9E-06
+78.5000E-03,-7.1177744E+00,-451.9E-06
+78.7500E-03,-7.1252043E+00,-437.8E-06
+79.0000E-03,-7.1319223E+00,-425.9E-06
+79.2500E-03,-7.1393927E+00,-401.6E-06
+79.5000E-03,-7.1475602E+00,-382.3E-06
+79.7500E-03,-7.1549015E+00,-369.0E-06
+80.0000E-03,-7.1626986E+00,-366.0E-06
+80.2500E-03,-7.1706163E+00,-362.0E-06
+80.5000E-03,-7.1783716E+00,-354.1E-06
+80.7500E-03,-7.1862720E+00,-335.6E-06
+81.0000E-03,-7.1938878E+00,-325.7E-06
+81.2500E-03,-7.2015403E+00,-320.7E-06
+81.5000E-03,-7.2099928E+00,-304.6E-06
+81.7500E-03,-7.2180966E+00,-295.0E-06
+82.0000E-03,-7.2263624E+00,-266.6E-06
+82.2500E-03,-7.2354700E+00,-247.5E-06
+82.5000E-03,-7.2438218E+00,-231.4E-06
+82.7500E-03,-7.2525878E+00,-222.5E-06
+83.0000E-03,-7.2613892E+00,-215.1E-06
+83.2500E-03,-7.2700548E+00,-199.0E-06
+83.5000E-03,-7.2790049E+00,-190.1E-06
+83.7500E-03,-7.2874087E+00,-190.4E-06
+84.0000E-03,-7.2958167E+00,-200.1E-06
+84.2500E-03,-7.3041640E+00,-198.6E-06
+84.5000E-03,-7.3118446E+00,-212.2E-06
+84.7500E-03,-7.3194036E+00,-212.8E-06
+85.0000E-03,-7.3265167E+00,-221.3E-06
+85.2500E-03,-7.3339039E+00,-220.9E-06
+85.5000E-03,-7.3405141E+00,-221.2E-06
+85.7500E-03,-7.3481659E+00,-204.8E-06
+86.0000E-03,-7.3550655E+00,-197.9E-06
+86.2500E-03,-7.3625812E+00,-185.3E-06
+86.5000E-03,-7.3705902E+00,-168.8E-06
+86.7500E-03,-7.3785503E+00,-145.4E-06
+87.0000E-03,-7.3866157E+00,-124.4E-06
+87.2500E-03,-7.3954857E+00,-101.9E-06
+87.5000E-03,-7.4039955E+00,-84.4E-06
+87.7500E-03,-7.4127869E+00,-79.1E-06
+88.0000E-03,-7.4219950E+00,-76.5E-06
+88.2500E-03,-7.4303317E+00,-63.1E-06
+88.5000E-03,-7.4389814E+00,-56.4E-06
+88.7500E-03,-7.4477219E+00,-52.1E-06
+89.0000E-03,-7.4564717E+00,-50.3E-06
+89.2500E-03,-7.4646591E+00,-55.4E-06
+89.5000E-03,-7.4727159E+00,-46.5E-06
+89.7500E-03,-7.4809552E+00,-38.7E-06
+90.0000E-03,-7.4892499E+00,-34.2E-06
+90.2500E-03,-7.4982294E+00,-22.2E-06
+90.5000E-03,-7.5066025E+00,-16.4E-06
+90.7500E-03,-7.5148692E+00,-4.2E-06
+91.0000E-03,-7.5238549E+00,-300E-09
+91.2500E-03,-7.5321045E+00,+7.9E-06
+91.5000E-03,-7.5406377E+00,+6.5E-06
+91.7500E-03,-7.5487572E+00,+4.6E-06
+92.0000E-03,-7.5570877E+00,+2.5E-06
+92.2500E-03,-7.5646282E+00,+7.9E-06
+92.5000E-03,-7.5725310E+00,+14.9E-06
+92.7500E-03,-7.5800412E+00,+17.7E-06
+93.0000E-03,-7.5882618E+00,+18.4E-06
+93.2500E-03,-7.5955780E+00,+26.4E-06
+93.5000E-03,-7.6037575E+00,+30.1E-06
+93.7500E-03,-7.6118094E+00,+49.2E-06
+94.0000E-03,-7.6204650E+00,+58.1E-06
+94.2500E-03,-7.6289134E+00,+80.3E-06
+94.5000E-03,-7.6373785E+00,+111.3E-06
+94.7500E-03,-7.6466321E+00,+130.6E-06
+95.0000E-03,-7.6561850E+00,+149.5E-06
+95.2500E-03,-7.6653475E+00,+162.9E-06
+95.5000E-03,-7.6750262E+00,+176.9E-06
+95.7500E-03,-7.6849908E+00,+187.0E-06
+96.0000E-03,-7.6946071E+00,+188.1E-06
+96.2500E-03,-7.7038802E+00,+183.0E-06
+96.5000E-03,-7.7133986E+00,+173.4E-06
+96.7500E-03,-7.7217834E+00,+164.2E-06
+97.0000E-03,-7.7301658E+00,+167.4E-06
+97.2500E-03,-7.7386452E+00,+168.2E-06
+97.5000E-03,-7.7470116E+00,+162.0E-06
+97.7500E-03,-7.7548924E+00,+159.8E-06
+98.0000E-03,-7.7631730E+00,+163.0E-06
+98.2500E-03,-7.7716107E+00,+172.0E-06
+98.5000E-03,-7.7800867E+00,+177.8E-06
+98.7500E-03,-7.7880994E+00,+182.0E-06
+99.0000E-03,-7.7964511E+00,+189.4E-06
+99.2500E-03,-7.8051955E+00,+202.4E-06
+99.5000E-03,-7.8138129E+00,+213.5E-06
+99.7500E-03,-7.8221031E+00,+219.8E-06
+100.0000E-03,-7.8305172E+00,+223.7E-06
+100.2500E-03,-7.8390736E+00,+221.8E-06
+100.5000E-03,-7.8473469E+00,+223.4E-06
+100.7500E-03,-7.8553591E+00,+227.0E-06
+101.0000E-03,-7.8637725E+00,+233.8E-06
+101.2500E-03,-7.8716741E+00,+231.0E-06
+101.5000E-03,-7.8798869E+00,+242.1E-06
+101.7500E-03,-7.8888620E+00,+240.8E-06
+102.0000E-03,-7.8973118E+00,+265.0E-06
+102.2500E-03,-7.9058092E+00,+274.5E-06
+102.5000E-03,-7.9146844E+00,+281.1E-06
+102.7500E-03,-7.9232979E+00,+283.5E-06
+103.0000E-03,-7.9318818E+00,+280.3E-06
+103.2500E-03,-7.9404725E+00,+287.5E-06
+103.5000E-03,-7.9488446E+00,+288.5E-06
+103.7500E-03,-7.9570190E+00,+283.2E-06
+104.0000E-03,-7.9650326E+00,+268.3E-06
+104.2500E-03,-7.9720691E+00,+255.3E-06
+104.5000E-03,-7.9795550E+00,+240.9E-06
+104.7500E-03,-7.9860996E+00,+227.8E-06
+105.0000E-03,-7.9925823E+00,+210.2E-06
+105.2500E-03,-7.9985250E+00,+204.4E-06
+105.5000E-03,-8.0048454E+00,+193.3E-06
+105.7500E-03,-8.0109912E+00,+202.9E-06
+106.0000E-03,-8.0164968E+00,+211.9E-06
+106.2500E-03,-8.0225924E+00,+214.1E-06
+106.5000E-03,-8.0289194E+00,+218.7E-06
+106.7500E-03,-8.0358726E+00,+227.2E-06
+107.0000E-03,-8.0428379E+00,+240.2E-06
+107.2500E-03,-8.0495716E+00,+250.6E-06
+107.5000E-03,-8.0563282E+00,+262.7E-06
+107.7500E-03,-8.0635707E+00,+266.0E-06
+108.0000E-03,-8.0703091E+00,+262.4E-06
+108.2500E-03,-8.0771979E+00,+263.5E-06
+108.5000E-03,-8.0840095E+00,+262.1E-06
+108.7500E-03,-8.0902748E+00,+252.0E-06
+109.0000E-03,-8.0966717E+00,+244.1E-06
+109.2500E-03,-8.1031155E+00,+231.6E-06
+109.5000E-03,-8.1092661E+00,+233.2E-06
+109.7500E-03,-8.1146516E+00,+234.6E-06
+110.0000E-03,-8.1208525E+00,+227.2E-06
+110.2500E-03,-8.1263065E+00,+220.2E-06
+110.5000E-03,-8.1322195E+00,+225.0E-06
+110.7500E-03,-8.1377500E+00,+229.0E-06
+111.0000E-03,-8.1434912E+00,+229.6E-06
+111.2500E-03,-8.1493008E+00,+224.9E-06
+111.5000E-03,-8.1546937E+00,+212.5E-06
+111.7500E-03,-8.1596202E+00,+199.0E-06
+112.0000E-03,-8.1646990E+00,+196.4E-06
+112.2500E-03,-8.1693704E+00,+188.8E-06
+112.5000E-03,-8.1737500E+00,+184.5E-06
+112.7500E-03,-8.1781295E+00,+172.5E-06
+113.0000E-03,-8.1822514E+00,+161.9E-06
+113.2500E-03,-8.1865746E+00,+159.6E-06
+113.5000E-03,-8.1907233E+00,+160.6E-06
+113.7500E-03,-8.1954122E+00,+165.9E-06
+114.0000E-03,-8.1995831E+00,+171.6E-06
+114.2500E-03,-8.2044653E+00,+178.5E-06
+114.5000E-03,-8.2096865E+00,+204.0E-06
+114.7500E-03,-8.2147647E+00,+213.1E-06
+115.0000E-03,-8.2205918E+00,+220.8E-06
+115.2500E-03,-8.2257524E+00,+227.1E-06
+115.5000E-03,-8.2315568E+00,+229.2E-06
+115.7500E-03,-8.2370813E+00,+229.8E-06
+116.0000E-03,-8.2427546E+00,+220.9E-06
+116.2500E-03,-8.2477650E+00,+203.9E-06
+116.5000E-03,-8.2525699E+00,+187.9E-06
+116.7500E-03,-8.2565979E+00,+172.2E-06
+117.0000E-03,-8.2604169E+00,+165.3E-06
+117.2500E-03,-8.2643516E+00,+153.8E-06
+117.5000E-03,-8.2681700E+00,+139.7E-06
+117.7500E-03,-8.2712488E+00,+127.4E-06
+118.0000E-03,-8.2746796E+00,+120.7E-06
+118.2500E-03,-8.2781701E+00,+118.1E-06
+118.5000E-03,-8.2816074E+00,+114.2E-06
+118.7500E-03,-8.2848440E+00,+112.9E-06
+119.0000E-03,-8.2880110E+00,+108.1E-06
+119.2500E-03,-8.2914401E+00,+114.7E-06
+119.5000E-03,-8.2949781E+00,+113.4E-06
+119.7500E-03,-8.2983308E+00,+108.4E-06
+120.0000E-03,-8.3012554E+00,+104.2E-06
+120.2500E-03,-8.3040218E+00,+98.3E-06
+120.5000E-03,-8.3066961E+00,+87.7E-06
+120.7500E-03,-8.3095274E+00,+83.1E-06
+121.0000E-03,-8.3123485E+00,+73.0E-06
+121.2500E-03,-8.3148578E+00,+65.3E-06
+121.5000E-03,-8.3174308E+00,+65.3E-06
+121.7500E-03,-8.3202470E+00,+66.9E-06
+122.0000E-03,-8.3235009E+00,+75.1E-06
+122.2500E-03,-8.3262611E+00,+75.6E-06
+122.5000E-03,-8.3292683E+00,+69.3E-06
+122.7500E-03,-8.3321120E+00,+63.1E-06
+123.0000E-03,-8.3348623E+00,+54.0E-06
+123.2500E-03,-8.3371662E+00,+54.7E-06
+123.5000E-03,-8.3399592E+00,+43.8E-06
+123.7500E-03,-8.3417716E+00,+24.8E-06
+124.0000E-03,-8.3434039E+00,+4.3E-06
+124.2500E-03,-8.3451309E+00,-15.9E-06
+124.5000E-03,-8.3457041E+00,-40.1E-06
+124.7500E-03,-8.3461918E+00,-59.7E-06
+125.0000E-03,-8.3463812E+00,-86.6E-06
+125.2500E-03,-8.3464009E+00,-106.7E-06
+125.5000E-03,-8.3458035E+00,-123.4E-06
+125.7500E-03,-8.3460288E+00,-123.3E-06
+126.0000E-03,-8.3454066E+00,-122.3E-06
+126.2500E-03,-8.3450554E+00,-125.0E-06
+126.5000E-03,-8.3452496E+00,-130.2E-06
+126.7500E-03,-8.3450925E+00,-128.6E-06
+127.0000E-03,-8.3451282E+00,-125.8E-06
+127.2500E-03,-8.3453564E+00,-117.1E-06
+127.5000E-03,-8.3457467E+00,-124.5E-06
+127.7500E-03,-8.3457072E+00,-133.8E-06
+128.0000E-03,-8.3456299E+00,-153.0E-06
+128.2500E-03,-8.3452496E+00,-157.3E-06
+128.5000E-03,-8.3456249E+00,-162.4E-06
+128.7500E-03,-8.3452191E+00,-172.9E-06
+129.0000E-03,-8.3449271E+00,-189.3E-06
+129.2500E-03,-8.3441641E+00,-207.6E-06
+129.5000E-03,-8.3430062E+00,-221.4E-06
+129.7500E-03,-8.3421669E+00,-230.0E-06
+130.0000E-03,-8.3412998E+00,-240.9E-06
+130.2500E-03,-8.3398374E+00,-250.4E-06
+130.5000E-03,-8.3389248E+00,-260.5E-06
+130.7500E-03,-8.3369948E+00,-257.9E-06
+131.0000E-03,-8.3359962E+00,-268.3E-06
+131.2500E-03,-8.3346389E+00,-279.5E-06
+131.5000E-03,-8.3326417E+00,-301.3E-06
+131.7500E-03,-8.3305917E+00,-319.2E-06
+132.0000E-03,-8.3276819E+00,-331.6E-06
+132.2500E-03,-8.3252777E+00,-345.7E-06
+132.5000E-03,-8.3225688E+00,-358.7E-06
+132.7500E-03,-8.3197374E+00,-380.8E-06
+133.0000E-03,-8.3164979E+00,-392.6E-06
+133.2500E-03,-8.3137689E+00,-405.6E-06
+133.5000E-03,-8.3108516E+00,-413.7E-06
+133.7500E-03,-8.3080914E+00,-412.4E-06
+134.0000E-03,-8.3054603E+00,-412.8E-06
+134.2500E-03,-8.3025923E+00,-410.0E-06
+134.5000E-03,-8.3001325E+00,-392.9E-06
+134.7500E-03,-8.2983556E+00,-389.2E-06
+135.0000E-03,-8.2964636E+00,-383.8E-06
+135.2500E-03,-8.2950724E+00,-388.4E-06
+135.5000E-03,-8.2935798E+00,-396.2E-06
+135.7500E-03,-8.2915189E+00,-399.7E-06
+136.0000E-03,-8.2894580E+00,-418.7E-06
+136.2500E-03,-8.2870867E+00,-439.7E-06
+136.5000E-03,-8.2842553E+00,-462.1E-06
+136.7500E-03,-8.2812503E+00,-483.8E-06
+137.0000E-03,-8.2777770E+00,-492.8E-06
+137.2500E-03,-8.2744108E+00,-513.8E-06
+137.5000E-03,-8.2704562E+00,-533.6E-06
+137.7500E-03,-8.2664545E+00,-556.0E-06
+138.0000E-03,-8.2626062E+00,-561.1E-06
+138.2500E-03,-8.2587475E+00,-569.4E-06
+138.5000E-03,-8.2548897E+00,-580.9E-06
+138.7500E-03,-8.2506746E+00,-587.0E-06
+139.0000E-03,-8.2463854E+00,-588.8E-06
+139.2500E-03,-8.2421419E+00,-590.5E-06
+139.5000E-03,-8.2385002E+00,-596.6E-06
+139.7500E-03,-8.2343636E+00,-609.6E-06
+140.0000E-03,-8.2302611E+00,-624.5E-06
+140.2500E-03,-8.2260533E+00,-637.2E-06
+140.5000E-03,-8.2216397E+00,-647.5E-06
+140.7500E-03,-8.2168865E+00,-663.6E-06
+141.0000E-03,-8.2120317E+00,-667.6E-06
+141.2500E-03,-8.2075507E+00,-678.3E-06
+141.5000E-03,-8.2025812E+00,-684.4E-06
+141.7500E-03,-8.1985225E+00,-692.8E-06
+142.0000E-03,-8.1940225E+00,-686.7E-06
+142.2500E-03,-8.1899133E+00,-695.1E-06
+142.5000E-03,-8.1857693E+00,-705.0E-06
+142.7500E-03,-8.1814581E+00,-707.9E-06
+143.0000E-03,-8.1768187E+00,-719.1E-06
+143.2500E-03,-8.1725495E+00,-726.2E-06
+143.5000E-03,-8.1675444E+00,-740.7E-06
+143.7500E-03,-8.1624631E+00,-764.4E-06
+144.0000E-03,-8.1571169E+00,-786.2E-06
+144.2500E-03,-8.1516651E+00,-815.3E-06
+144.5000E-03,-8.1447758E+00,-845.6E-06
+144.7500E-03,-8.1383695E+00,-865.3E-06
+145.0000E-03,-8.1314632E+00,-890.5E-06
+145.2500E-03,-8.1239237E+00,-908.5E-06
+145.5000E-03,-8.1173557E+00,-927.4E-06
+145.7500E-03,-8.1096734E+00,-936.9E-06
+146.0000E-03,-8.1023001E+00,-942.5E-06
+146.2500E-03,-8.0953302E+00,-943.1E-06
+146.5000E-03,-8.0886000E+00,-944.2E-06
+146.7500E-03,-8.0820098E+00,-952.6E-06
+147.0000E-03,-8.0749537E+00,-954.8E-06
+147.2500E-03,-8.0685940E+00,-951.4E-06
+147.5000E-03,-8.0623753E+00,-953.7E-06
+147.7500E-03,-8.0562501E+00,-963.0E-06
+148.0000E-03,-8.0495302E+00,-977.2E-06
+148.2500E-03,-8.0431448E+00,-988.6E-06
+148.5000E-03,-8.0361144E+00,-997.6E-06
+148.7500E-03,-8.0297164E+00,-1.0092E-03
+149.0000E-03,-8.0223988E+00,-1.0278E-03
+149.2500E-03,-8.0152748E+00,-1.0484E-03
+149.5000E-03,-8.0075563E+00,-1.0650E-03
+149.7500E-03,-8.0002429E+00,-1.0721E-03
+150.0000E-03,-7.9929770E+00,-1.0844E-03
+150.2500E-03,-7.9858898E+00,-1.1040E-03
+150.5000E-03,-7.9778785E+00,-1.1132E-03
+150.7500E-03,-7.9703647E+00,-1.1112E-03
+151.0000E-03,-7.9631912E+00,-1.1163E-03
+151.2500E-03,-7.9555870E+00,-1.1253E-03
+151.5000E-03,-7.9479462E+00,-1.1487E-03
+151.7500E-03,-7.9400637E+00,-1.1693E-03
+152.0000E-03,-7.9312854E+00,-1.1866E-03
+152.2500E-03,-7.9228463E+00,-1.2000E-03
+152.5000E-03,-7.9143250E+00,-1.2114E-03
+152.7500E-03,-7.9059981E+00,-1.2314E-03
+153.0000E-03,-7.8972289E+00,-1.2434E-03
+153.2500E-03,-7.8885825E+00,-1.2524E-03
+153.5000E-03,-7.8797033E+00,-1.2631E-03
+153.7500E-03,-7.8714033E+00,-1.2670E-03
+154.0000E-03,-7.8636101E+00,-1.2612E-03
+154.2500E-03,-7.8553458E+00,-1.2585E-03
+154.5000E-03,-7.8471363E+00,-1.2452E-03
+154.7500E-03,-7.8399555E+00,-1.2421E-03
+155.0000E-03,-7.8327472E+00,-1.2400E-03
+155.2500E-03,-7.8256744E+00,-1.2415E-03
+155.5000E-03,-7.8182991E+00,-1.2435E-03
+155.7500E-03,-7.8112099E+00,-1.2487E-03
+156.0000E-03,-7.8041961E+00,-1.2599E-03
+156.2500E-03,-7.7966153E+00,-1.2839E-03
+156.5000E-03,-7.7889128E+00,-1.3061E-03
+156.7500E-03,-7.7807312E+00,-1.3294E-03
+157.0000E-03,-7.7723299E+00,-1.3382E-03
+157.2500E-03,-7.7645204E+00,-1.3513E-03
+157.5000E-03,-7.7558494E+00,-1.3708E-03
+157.7500E-03,-7.7468768E+00,-1.3848E-03
+158.0000E-03,-7.7383286E+00,-1.3924E-03
+158.2500E-03,-7.7298740E+00,-1.3933E-03
+158.5000E-03,-7.7214205E+00,-1.4045E-03
+158.7500E-03,-7.7132663E+00,-1.4052E-03
+159.0000E-03,-7.7042668E+00,-1.4110E-03
+159.2500E-03,-7.6960781E+00,-1.4151E-03
+159.5000E-03,-7.6876626E+00,-1.4185E-03
+159.7500E-03,-7.6795722E+00,-1.4220E-03
+160.0000E-03,-7.6710068E+00,-1.4321E-03
+160.2500E-03,-7.6628797E+00,-1.4418E-03
+160.5000E-03,-7.6542027E+00,-1.4548E-03
+160.7500E-03,-7.6456866E+00,-1.4598E-03
+161.0000E-03,-7.6370910E+00,-1.4624E-03
+161.2500E-03,-7.6289350E+00,-1.4674E-03
+161.5000E-03,-7.6206063E+00,-1.4723E-03
+161.7500E-03,-7.6122805E+00,-1.4774E-03
+162.0000E-03,-7.6045791E+00,-1.4699E-03
+162.2500E-03,-7.5971178E+00,-1.4640E-03
+162.5000E-03,-7.5893176E+00,-1.4729E-03
+162.7500E-03,-7.5818000E+00,-1.4777E-03
+163.0000E-03,-7.5741510E+00,-1.4890E-03
+163.2500E-03,-7.5662937E+00,-1.4892E-03
+163.5000E-03,-7.5581754E+00,-1.5044E-03
+163.7500E-03,-7.5501379E+00,-1.5238E-03
+164.0000E-03,-7.5414081E+00,-1.5402E-03
+164.2500E-03,-7.5332641E+00,-1.5606E-03
+164.5000E-03,-7.5237542E+00,-1.5844E-03
+164.7500E-03,-7.5146444E+00,-1.6067E-03
+165.0000E-03,-7.5046415E+00,-1.6260E-03
+165.2500E-03,-7.4951994E+00,-1.6381E-03
+165.5000E-03,-7.4854530E+00,-1.6497E-03
+165.7500E-03,-7.4755746E+00,-1.6528E-03
+166.0000E-03,-7.4657970E+00,-1.6545E-03
+166.2500E-03,-7.4562276E+00,-1.6500E-03
+166.5000E-03,-7.4475527E+00,-1.6489E-03
+166.7500E-03,-7.4385502E+00,-1.6429E-03
+167.0000E-03,-7.4302696E+00,-1.6331E-03
+167.2500E-03,-7.4218823E+00,-1.6314E-03
+167.5000E-03,-7.4134195E+00,-1.6282E-03
+167.7500E-03,-7.4055270E+00,-1.6339E-03
+168.0000E-03,-7.3969961E+00,-1.6422E-03
+168.2500E-03,-7.3890236E+00,-1.6440E-03
+168.5000E-03,-7.3805741E+00,-1.6515E-03
+168.7500E-03,-7.3725600E+00,-1.6573E-03
+169.0000E-03,-7.3643897E+00,-1.6659E-03
+169.2500E-03,-7.3559689E+00,-1.6825E-03
+169.5000E-03,-7.3469510E+00,-1.6955E-03
+169.7500E-03,-7.3385248E+00,-1.6934E-03
+170.0000E-03,-7.3296905E+00,-1.7061E-03
+170.2500E-03,-7.3218998E+00,-1.7048E-03
+170.5000E-03,-7.3132417E+00,-1.7073E-03
+170.7500E-03,-7.3043342E+00,-1.7070E-03
+171.0000E-03,-7.2966804E+00,-1.7060E-03
+171.2500E-03,-7.2887139E+00,-1.7118E-03
+171.5000E-03,-7.2805467E+00,-1.7273E-03
+171.7500E-03,-7.2721234E+00,-1.7402E-03
+172.0000E-03,-7.2633170E+00,-1.7462E-03
+172.2500E-03,-7.2541435E+00,-1.7501E-03
+172.5000E-03,-7.2456860E+00,-1.7602E-03
+172.7500E-03,-7.2369095E+00,-1.7729E-03
+173.0000E-03,-7.2277037E+00,-1.7796E-03
+173.2500E-03,-7.2191560E+00,-1.7805E-03
+173.5000E-03,-7.2105858E+00,-1.7768E-03
+173.7500E-03,-7.2025314E+00,-1.7721E-03
+174.0000E-03,-7.1945136E+00,-1.7703E-03
+174.2500E-03,-7.1866870E+00,-1.7564E-03
+174.5000E-03,-7.1793214E+00,-1.7322E-03
+174.7500E-03,-7.1724712E+00,-1.7186E-03
+175.0000E-03,-7.1658418E+00,-1.7073E-03
+175.2500E-03,-7.1592712E+00,-1.7012E-03
+175.5000E-03,-7.1529756E+00,-1.6908E-03
+175.7500E-03,-7.1467585E+00,-1.6869E-03
+176.0000E-03,-7.1405044E+00,-1.6920E-03
+176.2500E-03,-7.1336663E+00,-1.7127E-03
+176.5000E-03,-7.1270696E+00,-1.7255E-03
+176.7500E-03,-7.1201232E+00,-1.7412E-03
+177.0000E-03,-7.1131992E+00,-1.7446E-03
+177.2500E-03,-7.1062416E+00,-1.7542E-03
+177.5000E-03,-7.0988884E+00,-1.7625E-03
+177.7500E-03,-7.0916722E+00,-1.7703E-03
+178.0000E-03,-7.0847317E+00,-1.7702E-03
+178.2500E-03,-7.0776140E+00,-1.7627E-03
+178.5000E-03,-7.0704533E+00,-1.7628E-03
+178.7500E-03,-7.0637705E+00,-1.7641E-03
+179.0000E-03,-7.0574944E+00,-1.7587E-03
+179.2500E-03,-7.0508893E+00,-1.7452E-03
+179.5000E-03,-7.0446282E+00,-1.7413E-03
+179.7500E-03,-7.0383711E+00,-1.7401E-03
+180.0000E-03,-7.0321959E+00,-1.7396E-03
+180.2500E-03,-7.0259019E+00,-1.7412E-03
+180.5000E-03,-7.0202318E+00,-1.7432E-03
+180.7500E-03,-7.0142075E+00,-1.7418E-03
+181.0000E-03,-7.0079258E+00,-1.7436E-03
+181.2500E-03,-7.0018038E+00,-1.7384E-03
+181.5000E-03,-6.9962108E+00,-1.7303E-03
+181.7500E-03,-6.9907719E+00,-1.7228E-03
+182.0000E-03,-6.9855047E+00,-1.7049E-03
+182.2500E-03,-6.9808335E+00,-1.6990E-03
+182.5000E-03,-6.9757620E+00,-1.6968E-03
+182.7500E-03,-6.9714347E+00,-1.6935E-03
+183.0000E-03,-6.9664828E+00,-1.6919E-03
+183.2500E-03,-6.9617323E+00,-1.6903E-03
+183.5000E-03,-6.9567285E+00,-1.6888E-03
+183.7500E-03,-6.9518601E+00,-1.6938E-03
+184.0000E-03,-6.9465878E+00,-1.7051E-03
+184.2500E-03,-6.9415125E+00,-1.7171E-03
+184.5000E-03,-6.9354910E+00,-1.7264E-03
+184.7500E-03,-6.9295897E+00,-1.7349E-03
+185.0000E-03,-6.9236946E+00,-1.7509E-03
+185.2500E-03,-6.9177178E+00,-1.7608E-03
+185.5000E-03,-6.9118981E+00,-1.7641E-03
+185.7500E-03,-6.9054928E+00,-1.7618E-03
+186.0000E-03,-6.8997514E+00,-1.7520E-03
+186.2500E-03,-6.8945313E+00,-1.7412E-03
+186.5000E-03,-6.8895152E+00,-1.7204E-03
+186.7500E-03,-6.8849139E+00,-1.7083E-03
+187.0000E-03,-6.8797731E+00,-1.6940E-03
+187.2500E-03,-6.8756356E+00,-1.6792E-03
+187.5000E-03,-6.8717282E+00,-1.6634E-03
+187.7500E-03,-6.8679139E+00,-1.6613E-03
+188.0000E-03,-6.8640766E+00,-1.6620E-03
+188.2500E-03,-6.8597230E+00,-1.6592E-03
+188.5000E-03,-6.8559568E+00,-1.6521E-03
+188.7500E-03,-6.8520522E+00,-1.6499E-03
+189.0000E-03,-6.8479757E+00,-1.6532E-03
+189.2500E-03,-6.8441910E+00,-1.6572E-03
+189.5000E-03,-6.8402070E+00,-1.6542E-03
+189.7500E-03,-6.8364978E+00,-1.6467E-03
+190.0000E-03,-6.8332394E+00,-1.6428E-03
+190.2500E-03,-6.8296193E+00,-1.6399E-03
+190.5000E-03,-6.8261538E+00,-1.6329E-03
+190.7500E-03,-6.8228844E+00,-1.6247E-03
+191.0000E-03,-6.8196739E+00,-1.6142E-03
+191.2500E-03,-6.8164366E+00,-1.6053E-03
+191.5000E-03,-6.8131650E+00,-1.6100E-03
+191.7500E-03,-6.8099547E+00,-1.6169E-03
+192.0000E-03,-6.8061355E+00,-1.6140E-03
+192.2500E-03,-6.8029190E+00,-1.6120E-03
+192.5000E-03,-6.7991392E+00,-1.6065E-03
+192.7500E-03,-6.7956012E+00,-1.6148E-03
+193.0000E-03,-6.7921918E+00,-1.6096E-03
+193.2500E-03,-6.7891106E+00,-1.5981E-03
+193.5000E-03,-6.7864436E+00,-1.5908E-03
+193.7500E-03,-6.7835240E+00,-1.5728E-03
+194.0000E-03,-6.7810390E+00,-1.5589E-03
+194.2500E-03,-6.7794907E+00,-1.5353E-03
+194.5000E-03,-6.7781723E+00,-1.4980E-03
+194.7500E-03,-6.7770994E+00,-1.4853E-03
+195.0000E-03,-6.7763022E+00,-1.4688E-03
+195.2500E-03,-6.7758105E+00,-1.4538E-03
+195.5000E-03,-6.7753615E+00,-1.4351E-03
+195.7500E-03,-6.7749600E+00,-1.4215E-03
+196.0000E-03,-6.7750581E+00,-1.4205E-03
+196.2500E-03,-6.7747866E+00,-1.4307E-03
+196.5000E-03,-6.7741964E+00,-1.4391E-03
+196.7500E-03,-6.7732379E+00,-1.4404E-03
+197.0000E-03,-6.7728458E+00,-1.4314E-03
+197.2500E-03,-6.7723004E+00,-1.4313E-03
+197.5000E-03,-6.7712371E+00,-1.4331E-03
+197.7500E-03,-6.7702332E+00,-1.4335E-03
+198.0000E-03,-6.7696941E+00,-1.4252E-03
+198.2500E-03,-6.7693758E+00,-1.4095E-03
+198.5000E-03,-6.7692446E+00,-1.3948E-03
+198.7500E-03,-6.7690090E+00,-1.3839E-03
+199.0000E-03,-6.7686164E+00,-1.3708E-03
+199.2500E-03,-6.7690210E+00,-1.3521E-03
+199.5000E-03,-6.7694169E+00,-1.3341E-03
+199.7500E-03,-6.7698727E+00,-1.3340E-03
+200.0000E-03,-6.7700322E+00,-1.3276E-03
+200.2500E-03,-6.7705518E+00,-1.3209E-03
+200.5000E-03,-6.7712289E+00,-1.3107E-03
+200.7500E-03,-6.7719846E+00,-1.2983E-03
+201.0000E-03,-6.7728273E+00,-1.2892E-03
+201.2500E-03,-6.7740091E+00,-1.2812E-03
+201.5000E-03,-6.7749582E+00,-1.2640E-03
+201.7500E-03,-6.7764514E+00,-1.2505E-03
+202.0000E-03,-6.7787665E+00,-1.2296E-03
+202.2500E-03,-6.7805732E+00,-1.2146E-03
+202.5000E-03,-6.7832415E+00,-1.2042E-03
+202.7500E-03,-6.7850157E+00,-1.1870E-03
+203.0000E-03,-6.7873842E+00,-1.1826E-03
+203.2500E-03,-6.7898377E+00,-1.1694E-03
+203.5000E-03,-6.7925024E+00,-1.1657E-03
+203.7500E-03,-6.7950105E+00,-1.1606E-03
+204.0000E-03,-6.7974338E+00,-1.1652E-03
+204.2500E-03,-6.7991807E+00,-1.1648E-03
+204.5000E-03,-6.8010352E+00,-1.1764E-03
+204.7500E-03,-6.8025094E+00,-1.1811E-03
+205.0000E-03,-6.8035377E+00,-1.1851E-03
+205.2500E-03,-6.8048232E+00,-1.1844E-03
+205.5000E-03,-6.8056767E+00,-1.1831E-03
+205.7500E-03,-6.8067393E+00,-1.1734E-03
+206.0000E-03,-6.8080716E+00,-1.1564E-03
+206.2500E-03,-6.8103289E+00,-1.1369E-03
+206.5000E-03,-6.8127383E+00,-1.1150E-03
+206.7500E-03,-6.8153095E+00,-1.0965E-03
+207.0000E-03,-6.8184351E+00,-1.0729E-03
+207.2500E-03,-6.8218013E+00,-1.0540E-03
+207.5000E-03,-6.8253392E+00,-1.0343E-03
+207.7500E-03,-6.8283127E+00,-1.0299E-03
+208.0000E-03,-6.8317428E+00,-1.0204E-03
+208.2500E-03,-6.8353296E+00,-1.0076E-03
+208.5000E-03,-6.8390588E+00,-992.1E-06
+208.7500E-03,-6.8428517E+00,-987.3E-06
+209.0000E-03,-6.8466612E+00,-982.4E-06
+209.2500E-03,-6.8501073E+00,-982.0E-06
+209.5000E-03,-6.8534764E+00,-971.4E-06
+209.7500E-03,-6.8574280E+00,-966.3E-06
+210.0000E-03,-6.8610474E+00,-956.0E-06
+210.2500E-03,-6.8652273E+00,-944.1E-06
+210.5000E-03,-6.8690259E+00,-935.5E-06
+210.7500E-03,-6.8731626E+00,-918.7E-06
+211.0000E-03,-6.8772992E+00,-900.2E-06
+211.2500E-03,-6.8816714E+00,-893.9E-06
+211.5000E-03,-6.8859364E+00,-895.4E-06
+211.7500E-03,-6.8897414E+00,-895.5E-06
+212.0000E-03,-6.8938863E+00,-885.1E-06
+212.2500E-03,-6.8976524E+00,-872.9E-06
+212.5000E-03,-6.9016478E+00,-865.9E-06
+212.7500E-03,-6.9056440E+00,-865.5E-06
+213.0000E-03,-6.9094128E+00,-858.8E-06
+213.2500E-03,-6.9135157E+00,-848.8E-06
+213.5000E-03,-6.9177232E+00,-832.8E-06
+213.7500E-03,-6.9226064E+00,-811.7E-06
+214.0000E-03,-6.9272527E+00,-790.9E-06
+214.2500E-03,-6.9324842E+00,-764.1E-06
+214.5000E-03,-6.9380026E+00,-728.1E-06
+214.7500E-03,-6.9445057E+00,-704.6E-06
+215.0000E-03,-6.9510461E+00,-684.3E-06
+215.2500E-03,-6.9572720E+00,-665.4E-06
+215.5000E-03,-6.9645762E+00,-644.3E-06
+215.7500E-03,-6.9712654E+00,-629.4E-06
+216.0000E-03,-6.9783178E+00,-627.8E-06
+216.2500E-03,-6.9846747E+00,-634.0E-06
+216.5000E-03,-6.9913588E+00,-634.7E-06
+216.7500E-03,-6.9975540E+00,-633.7E-06
+217.0000E-03,-7.0036117E+00,-623.7E-06
+217.2500E-03,-7.0100521E+00,-614.9E-06
+217.5000E-03,-7.0159662E+00,-616.6E-06
+217.7500E-03,-7.0224359E+00,-615.9E-06
+218.0000E-03,-7.0283529E+00,-604.1E-06
+218.2500E-03,-7.0344453E+00,-585.1E-06
+218.5000E-03,-7.0410807E+00,-572.3E-06
+218.7500E-03,-7.0475173E+00,-557.5E-06
+219.0000E-03,-7.0538901E+00,-542.1E-06
+219.2500E-03,-7.0609115E+00,-526.8E-06
+219.5000E-03,-7.0678101E+00,-506.4E-06
+219.7500E-03,-7.0750977E+00,-495.9E-06
+220.0000E-03,-7.0823086E+00,-481.8E-06
+220.2500E-03,-7.0893625E+00,-474.1E-06
+220.5000E-03,-7.0961491E+00,-465.7E-06
+220.7500E-03,-7.1036593E+00,-457.7E-06
+221.0000E-03,-7.1111522E+00,-445.2E-06
+221.2500E-03,-7.1180567E+00,-435.6E-06
+221.5000E-03,-7.1257433E+00,-419.3E-06
+221.7500E-03,-7.1333591E+00,-408.4E-06
+222.0000E-03,-7.1416397E+00,-382.5E-06
+222.2500E-03,-7.1496566E+00,-366.6E-06
+222.5000E-03,-7.1579014E+00,-352.6E-06
+222.7500E-03,-7.1665881E+00,-343.2E-06
+223.0000E-03,-7.1752052E+00,-335.8E-06
+223.2500E-03,-7.1833984E+00,-318.0E-06
+223.5000E-03,-7.1916509E+00,-311.2E-06
+223.7500E-03,-7.1995256E+00,-310.5E-06
+224.0000E-03,-7.2074963E+00,-314.4E-06
+224.2500E-03,-7.2149963E+00,-319.9E-06
+224.5000E-03,-7.2225176E+00,-328.9E-06
+224.7500E-03,-7.2294209E+00,-327.0E-06
+225.0000E-03,-7.2368575E+00,-333.4E-06
+225.2500E-03,-7.2437475E+00,-333.2E-06
+225.5000E-03,-7.2503505E+00,-335.5E-06
+225.7500E-03,-7.2572949E+00,-322.2E-06
+226.0000E-03,-7.2643816E+00,-304.6E-06
+226.2500E-03,-7.2714322E+00,-285.0E-06
+226.5000E-03,-7.2791522E+00,-262.1E-06
+226.7500E-03,-7.2870450E+00,-244.9E-06
+227.0000E-03,-7.2954516E+00,-222.7E-06
+227.2500E-03,-7.3032243E+00,-203.8E-06
+227.5000E-03,-7.3119049E+00,-191.7E-06
+227.7500E-03,-7.3204063E+00,-182.2E-06
+228.0000E-03,-7.3287131E+00,-176.9E-06
+228.2500E-03,-7.3372219E+00,-164.7E-06
+228.5000E-03,-7.3453938E+00,-154.3E-06
+228.7500E-03,-7.3537529E+00,-151.3E-06
+229.0000E-03,-7.3621121E+00,-151.3E-06
+229.2500E-03,-7.3703148E+00,-156.1E-06
+229.5000E-03,-7.3785881E+00,-146.4E-06
+229.7500E-03,-7.3868190E+00,-134.2E-06
+230.0000E-03,-7.3948635E+00,-132.2E-06
+230.2500E-03,-7.4029159E+00,-126.3E-06
+230.5000E-03,-7.4117173E+00,-108.7E-06
+230.7500E-03,-7.4198670E+00,-97.1E-06
+231.0000E-03,-7.4279920E+00,-87.8E-06
+231.2500E-03,-7.4365974E+00,-81.5E-06
+231.5000E-03,-7.4445639E+00,-85.1E-06
+231.7500E-03,-7.4526386E+00,-93.6E-06
+232.0000E-03,-7.4602293E+00,-89.5E-06
+232.2500E-03,-7.4679919E+00,-83.9E-06
+232.5000E-03,-7.4755336E+00,-75.6E-06
+232.7500E-03,-7.4834163E+00,-77.1E-06
+233.0000E-03,-7.4910694E+00,-71.2E-06
+233.2500E-03,-7.4988776E+00,-61.5E-06
+233.5000E-03,-7.5065952E+00,-48.5E-06
+233.7500E-03,-7.5147040E+00,-33.5E-06
+234.0000E-03,-7.5235456E+00,-15.8E-06
+234.2500E-03,-7.5323551E+00,+6.7E-06
+234.5000E-03,-7.5410042E+00,+38.1E-06
+234.7500E-03,-7.5510511E+00,+57.4E-06
+235.0000E-03,-7.5604967E+00,+78.7E-06
+235.2500E-03,-7.5702867E+00,+87.6E-06
+235.5000E-03,-7.5797598E+00,+101.0E-06
+235.7500E-03,-7.5896248E+00,+109.1E-06
+236.0000E-03,-7.5994101E+00,+109.9E-06
+236.2500E-03,-7.6089832E+00,+102.0E-06
+236.5000E-03,-7.6176296E+00,+99.6E-06
+236.7500E-03,-7.6265846E+00,+96.4E-06
+237.0000E-03,-7.6355867E+00,+100.8E-06
+237.2500E-03,-7.6442451E+00,+99.6E-06
+237.5000E-03,-7.6526901E+00,+98.4E-06
+237.7500E-03,-7.6610566E+00,+91.5E-06
+238.0000E-03,-7.6698400E+00,+90.9E-06
+238.2500E-03,-7.6777112E+00,+103.4E-06
+238.5000E-03,-7.6860872E+00,+117.3E-06
+238.7500E-03,-7.6945812E+00,+129.7E-06
+239.0000E-03,-7.7033314E+00,+138.8E-06
+239.2500E-03,-7.7120409E+00,+150.1E-06
+239.5000E-03,-7.7209391E+00,+158.0E-06
+239.7500E-03,-7.7295781E+00,+162.4E-06
+240.0000E-03,-7.7383103E+00,+163.2E-06
+240.2500E-03,-7.7471258E+00,+172.4E-06
+240.5000E-03,-7.7557231E+00,+176.1E-06
+240.7500E-03,-7.7642815E+00,+179.4E-06
+241.0000E-03,-7.7730870E+00,+182.4E-06
+241.2500E-03,-7.7815630E+00,+188.1E-06
+241.5000E-03,-7.7902926E+00,+197.1E-06
+241.7500E-03,-7.7993905E+00,+202.6E-06
+242.0000E-03,-7.8086154E+00,+223.6E-06
+242.2500E-03,-7.8178852E+00,+232.2E-06
+242.5000E-03,-7.8272441E+00,+242.8E-06
+242.7500E-03,-7.8362801E+00,+246.5E-06
+243.0000E-03,-7.8454055E+00,+240.0E-06
+243.2500E-03,-7.8546773E+00,+247.0E-06
+243.5000E-03,-7.8633759E+00,+249.3E-06
+243.7500E-03,-7.8718862E+00,+246.8E-06
+244.0000E-03,-7.8800284E+00,+235.1E-06
+244.2500E-03,-7.8879422E+00,+223.2E-06
+244.5000E-03,-7.8953541E+00,+208.5E-06
+244.7500E-03,-7.9029432E+00,+200.9E-06
+245.0000E-03,-7.9096327E+00,+186.1E-06
+245.2500E-03,-7.9167657E+00,+182.5E-06
+245.5000E-03,-7.9230658E+00,+178.1E-06
+245.7500E-03,-7.9296627E+00,+186.7E-06
+246.0000E-03,-7.9362778E+00,+188.3E-06
+246.2500E-03,-7.9431381E+00,+200.2E-06
+246.5000E-03,-7.9507031E+00,+208.1E-06
+246.7500E-03,-7.9577648E+00,+218.3E-06
+247.0000E-03,-7.9649123E+00,+232.7E-06
+247.2500E-03,-7.9725113E+00,+245.5E-06
+247.5000E-03,-7.9798688E+00,+253.6E-06
+247.7500E-03,-7.9875557E+00,+251.4E-06
+248.0000E-03,-7.9947535E+00,+247.2E-06
+248.2500E-03,-8.0021753E+00,+255.4E-06
+248.5000E-03,-8.0091900E+00,+257.4E-06
+248.7500E-03,-8.0168308E+00,+247.6E-06
