\relax 
\bbl@beforestart
\providecommand \oddpage@label [2]{}
\babel@aux{italian}{}
\babel@aux{italian}{}
\@writefile{toc}{\contentsline {section}{\numberline {1}Componenti}{1}\protected@file@percent }
\@writefile{toc}{\contentsline {section}{\numberline {2}Teoria}{1}\protected@file@percent }
\newlabel{eq:toothsaw}{{1}{1}}
\@writefile{lof}{\contentsline {figure}{\numberline {1}{\ignorespaces Circuito con contatore collegato al display}}{2}\protected@file@percent }
\newlabel{fig:circuit1}{{1}{2}}
\@writefile{lof}{\contentsline {figure}{\numberline {2}{\ignorespaces Circuito con DAC (generatore onde a dente di sega)}}{2}\protected@file@percent }
\newlabel{fig:circuit2}{{2}{2}}
\@writefile{toc}{\contentsline {section}{\numberline {3}Risultati e discussione}{3}\protected@file@percent }
\@writefile{toc}{\contentsline {subsection}{\numberline {3.1}Convertitore digitale-analogico}{3}\protected@file@percent }
\@writefile{toc}{\contentsline {subsection}{\numberline {3.2}Convertitore analogico-digitale}{3}\protected@file@percent }
\@writefile{lot}{\contentsline {table}{\numberline {1}{\ignorespaces Valori di $V_x$ e valori esadecimali corrispondenti visualizzati sul display}}{3}\protected@file@percent }
\newlabel{tab:vhex}{{1}{3}}
\@writefile{lof}{\contentsline {figure}{\numberline {3}{\ignorespaces Circuito con ADC}}{4}\protected@file@percent }
\newlabel{fig:circuit3}{{3}{4}}
\@writefile{lof}{\contentsline {figure}{\numberline {4}{\ignorespaces Segnale in uscita del convertitore digitale-analogico}}{4}\protected@file@percent }
\newlabel{fig:dac1}{{4}{4}}
\@writefile{lof}{\contentsline {figure}{\numberline {5}{\ignorespaces Zoom sul segnale in uscita del convertitore digitale-analogico}}{5}\protected@file@percent }
\newlabel{fig:dac2}{{5}{5}}
\@writefile{lof}{\contentsline {figure}{\numberline {6}{\ignorespaces Corrispondenza fra $V_x$ e valori letti sul display esadecimale}}{5}\protected@file@percent }
\newlabel{fig:adc1}{{6}{5}}
