ANALOG
Ch 1 Scale 5.00V/, Pos 0.0V, Coup DC, BW Limit Off, Inv Off, Imp 1M Ohm
     Probe 1.0000000 : 1, Skew 0.0s
Ch 2 Scale 5.00V/, Pos 0.0V, Coup DC, BW Limit Off, Inv Off, Imp 1M Ohm
     Probe 1.0000000 : 1, Skew 0.0s

TRIGGER
Sweep Mode Auto, Coup DC, Noise Rej Off, HF Rej Off, Holdoff 40.0ns
Mode Edge, Source Ch 1, Slope Rising, Level 112.50mV

HORIZONTAL
Mode Normal, Ref Center, Main Scale 6.000ms/, Main Delay 134.500000000ms

ACQUISITION
Mode Normal, Realtime On, Vectors On, Persistence Off

MEASUREMENTS
Phase(1-2), Cur No edges

