ANALOG
Ch 1 Scale 3.20V/, Pos 0.0V, Coup DC, BW Limit Off, Inv Off, Imp 1M Ohm
     Probe 1.0000000 : 1, Skew 0.0s
Ch 2 Scale 3.20V/, Pos 38.50mV, Coup DC, BW Limit Off, Inv Off, Imp 1M Ohm
     Probe 1.0000000 : 1, Skew 0.0s

TRIGGER
Sweep Mode Auto, Coup DC, Noise Rej Off, HF Rej Off, Holdoff 40.0ns
Mode Edge, Source Ch 1, Slope Rising, Level -8.56000V

HORIZONTAL
Mode Normal, Ref Center, Main Scale 156.0ms/, Main Delay 796.000000000ms

ACQUISITION
Mode Normal, Realtime On, Vectors On, Persistence Off

MEASUREMENTS
Phase(1-2), Cur -35800Degree

