x-axis,1
second,Volt
-61.5000E-09,-1.0040791239590E+00
-61.0000E-09,-1.0040791239590E+00
-60.5000E-09,-1.0040791239590E+00
-60.0000E-09,-1.0040791239590E+00
-59.5000E-09,-1.0040791239590E+00
-59.0000E-09,-1.0040791239590E+00
-58.5000E-09,-1.0040791239590E+00
-58.0000E-09,-1.0040791239590E+00
-57.5000E-09,-1.0040791239590E+00
-57.0000E-09,-1.0040791239590E+00
-56.5000E-09,-1.0007625410799E+00
-56.0000E-09,-1.0020891742315E+00
-55.5000E-09,-1.0040791239590E+00
-55.0000E-09,-1.0040791239590E+00
-54.5000E-09,-1.0040791239590E+00
-54.0000E-09,-1.0040791239590E+00
-53.5000E-09,-1.0040791239590E+00
-53.0000E-09,-1.0040791239590E+00
-52.5000E-09,-1.0040791239590E+00
-52.0000E-09,-1.0040791239590E+00
-51.5000E-09,-1.0040791239590E+00
-51.0000E-09,-1.0040791239590E+00
-50.5000E-09,-1.0040791239590E+00
-50.0000E-09,-1.0040791239590E+00
-49.5000E-09,-1.0040791239590E+00
-49.0000E-09,-1.0040791239590E+00
-48.5000E-09,-1.0007625410799E+00
-48.0000E-09,-998.7725913525E-03
-47.5000E-09,-998.7725913525E-03
-47.0000E-09,-998.7725913525E-03
-46.5000E-09,-998.7725913525E-03
-46.0000E-09,-998.7725913525E-03
-45.5000E-09,-998.7725913525E-03
-45.0000E-09,-998.7725913525E-03
-44.5000E-09,-1.0020891742315E+00
-44.0000E-09,-1.0040791239590E+00
-43.5000E-09,-1.0007625410799E+00
-43.0000E-09,-998.7725913525E-03
-42.5000E-09,-998.7725913525E-03
-42.0000E-09,-998.7725913525E-03
-41.5000E-09,-995.4560084734E-03
-41.0000E-09,-993.4660587460E-03
-40.5000E-09,-990.1494758669E-03
-40.0000E-09,-984.8429432604E-03
-39.5000E-09,-979.5364106540E-03
-39.0000E-09,-974.2298780475E-03
-38.5000E-09,-965.6067625620E-03
-38.0000E-09,-954.9936973490E-03
-37.5000E-09,-941.0640492570E-03
-37.0000E-09,-928.4610343166E-03
-36.5000E-09,-911.2148033455E-03
-36.0000E-09,-893.3052557986E-03
-35.5000E-09,-870.7524922211E-03
-35.0000E-09,-844.2198291887E-03
-34.5000E-09,-817.6871661563E-03
-34.0000E-09,-791.1545031238E-03
-33.5000E-09,-761.3052572124E-03
-33.0000E-09,-726.1494786944E-03
-32.5000E-09,-689.0037504491E-03
-32.0000E-09,-651.8580222037E-03
-31.5000E-09,-614.7122939583E-03
-31.0000E-09,-574.2499828339E-03
-30.5000E-09,-535.1143048611E-03
-30.0000E-09,-494.6519937366E-03
-29.5000E-09,-455.5163157638E-03
-29.0000E-09,-418.3705875185E-03
-28.5000E-09,-381.2248592731E-03
-28.0000E-09,-344.0791310277E-03
-27.5000E-09,-310.2499856614E-03
-27.0000E-09,-278.4107900225E-03
-26.5000E-09,-249.8881772626E-03
-26.0000E-09,-223.3555142302E-03
-25.5000E-09,-200.1394340769E-03
-25.0000E-09,-178.9133036509E-03
-24.5000E-09,-164.3203389831E-03
-24.0000E-09,-153.7072737701E-03
-23.5000E-09,-146.4107914362E-03
-23.0000E-09,-141.1042588297E-03
-22.5000E-09,-139.1143091023E-03
-22.0000E-09,-142.4308919813E-03
-21.5000E-09,-147.7374245878E-03
-21.0000E-09,-156.3605400734E-03
-20.5000E-09,-170.2901881654E-03
-20.0000E-09,-186.2097859848E-03
-19.5000E-09,-205.4459666833E-03
-19.0000E-09,-226.6720971093E-03
-18.5000E-09,-251.2148104142E-03
-18.0000E-09,-281.0640563257E-03
-17.5000E-09,-312.9032519646E-03
-17.0000E-09,-344.7424476035E-03
-16.5000E-09,-376.5816432424E-03
-16.0000E-09,-411.7374217603E-03
-15.5000E-09,-448.8831500057E-03
-15.0000E-09,-489.3454611301E-03
-14.5000E-09,-528.4811391029E-03
-14.0000E-09,-565.6268673483E-03
-13.5000E-09,-602.7725955937E-03
-13.0000E-09,-639.9183238391E-03
-12.5000E-09,-677.0640520845E-03
-12.0000E-09,-714.2097803298E-03
-11.5000E-09,-748.0389256962E-03
-11.0000E-09,-779.8781213351E-03
-10.5000E-09,-808.4007340949E-03
-10.0000E-09,-834.9333971273E-03
-9.5000E-09,-861.4660601597E-03
-9.0000E-09,-884.6821403131E-03
-8.5000E-09,-905.9082707390E-03
-8.0000E-09,-923.8178182859E-03
-7.5000E-09,-939.7374161053E-03
-7.0000E-09,-955.6570139248E-03
-6.5000E-09,-968.2600288652E-03
-6.0000E-09,-975.5565111991E-03
-5.5000E-09,-984.1796266846E-03
-5.0000E-09,-991.4761090185E-03
-4.5000E-09,-993.4660587460E-03
-4.0000E-09,-996.7826416250E-03
-3.5000E-09,-998.7725913525E-03
-3.0000E-09,-998.7725913525E-03
-2.5000E-09,-998.7725913525E-03
-2.0000E-09,-998.7725913525E-03
-1.5000E-09,-998.7725913525E-03
-1.0000E-09,-998.7725913525E-03
-500.0E-12,-995.4560084734E-03
-0.0E+00,-993.4660587460E-03
+500.0E-12,-990.1494758669E-03
+1.0000E-09,-988.1595261395E-03
+1.5000E-09,-984.8429432604E-03
+2.0000E-09,-982.8529935330E-03
+2.5000E-09,-979.5364106540E-03
+3.0000E-09,-977.5464609265E-03
+3.5000E-09,-977.5464609265E-03
+4.0000E-09,-977.5464609265E-03
+4.5000E-09,-977.5464609265E-03
+5.0000E-09,-977.5464609265E-03
+5.5000E-09,-977.5464609265E-03
+6.0000E-09,-980.8630438056E-03
+6.5000E-09,-982.8529935330E-03
+7.0000E-09,-982.8529935330E-03
+7.5000E-09,-986.1695764121E-03
+8.0000E-09,-988.1595261395E-03
+8.5000E-09,-991.4761090185E-03
+9.0000E-09,-993.4660587460E-03
+9.5000E-09,-996.7826416250E-03
+10.0000E-09,-998.7725913525E-03
+10.5000E-09,-998.7725913525E-03
+11.0000E-09,-998.7725913525E-03
+11.5000E-09,-998.7725913525E-03
+12.0000E-09,-998.7725913525E-03
+12.5000E-09,-998.7725913525E-03
+13.0000E-09,-998.7725913525E-03
+13.5000E-09,-998.7725913525E-03
+14.0000E-09,-998.7725913525E-03
+14.5000E-09,-995.4560084734E-03
+15.0000E-09,-993.4660587460E-03
+15.5000E-09,-993.4660587460E-03
+16.0000E-09,-993.4660587460E-03
+16.5000E-09,-993.4660587460E-03
+17.0000E-09,-993.4660587460E-03
+17.5000E-09,-993.4660587460E-03
+18.0000E-09,-993.4660587460E-03
+18.5000E-09,-993.4660587460E-03
+19.0000E-09,-996.7826416250E-03
+19.5000E-09,-998.7725913525E-03
+20.0000E-09,-998.7725913525E-03
+20.5000E-09,-1.0020891742315E+00
+21.0000E-09,-1.0040791239590E+00
+21.5000E-09,-1.0040791239590E+00
+22.0000E-09,-1.0040791239590E+00
+22.5000E-09,-1.0040791239590E+00
+23.0000E-09,-1.0040791239590E+00
+23.5000E-09,-1.0040791239590E+00
+24.0000E-09,-1.0007625410799E+00
+24.5000E-09,-998.7725913525E-03
+25.0000E-09,-998.7725913525E-03
+25.5000E-09,-998.7725913525E-03
+26.0000E-09,-998.7725913525E-03
+26.5000E-09,-995.4560084734E-03
+27.0000E-09,-993.4660587460E-03
+27.5000E-09,-993.4660587460E-03
+28.0000E-09,-993.4660587460E-03
+28.5000E-09,-993.4660587460E-03
+29.0000E-09,-993.4660587460E-03
+29.5000E-09,-993.4660587460E-03
+30.0000E-09,-996.7826416250E-03
+30.5000E-09,-998.7725913525E-03
+31.0000E-09,-998.7725913525E-03
+31.5000E-09,-998.7725913525E-03
+32.0000E-09,-998.7725913525E-03
+32.5000E-09,-998.7725913525E-03
+33.0000E-09,-1.0020891742315E+00
+33.5000E-09,-1.0040791239590E+00
+34.0000E-09,-1.0007625410799E+00
+34.5000E-09,-998.7725913525E-03
+35.0000E-09,-998.7725913525E-03
+35.5000E-09,-998.7725913525E-03
+36.0000E-09,-998.7725913525E-03
+36.5000E-09,-998.7725913525E-03
+37.0000E-09,-998.7725913525E-03
+37.5000E-09,-998.7725913525E-03
+38.0000E-09,-998.7725913525E-03
+38.5000E-09,-998.7725913525E-03
+39.0000E-09,-998.7725913525E-03
+39.5000E-09,-998.7725913525E-03
+40.0000E-09,-998.7725913525E-03
+40.5000E-09,-998.7725913525E-03
+41.0000E-09,-998.7725913525E-03
+41.5000E-09,-998.7725913525E-03
+42.0000E-09,-998.7725913525E-03
+42.5000E-09,-998.7725913525E-03
+43.0000E-09,-998.7725913525E-03
+43.5000E-09,-998.7725913525E-03
+44.0000E-09,-998.7725913525E-03
+44.5000E-09,-998.7725913525E-03
+45.0000E-09,-998.7725913525E-03
+45.5000E-09,-998.7725913525E-03
+46.0000E-09,-998.7725913525E-03
+46.5000E-09,-998.7725913525E-03
+47.0000E-09,-998.7725913525E-03
+47.5000E-09,-998.7725913525E-03
+48.0000E-09,-998.7725913525E-03
+48.5000E-09,-998.7725913525E-03
+49.0000E-09,-998.7725913525E-03
+49.5000E-09,-998.7725913525E-03
+50.0000E-09,-998.7725913525E-03
+50.5000E-09,-998.7725913525E-03
+51.0000E-09,-998.7725913525E-03
+51.5000E-09,-998.7725913525E-03
+52.0000E-09,-998.7725913525E-03
+52.5000E-09,-998.7725913525E-03
+53.0000E-09,-998.7725913525E-03
+53.5000E-09,-998.7725913525E-03
+54.0000E-09,-1.0020891742315E+00
+54.5000E-09,-1.0040791239590E+00
+55.0000E-09,-1.0040791239590E+00
+55.5000E-09,-1.0040791239590E+00
+56.0000E-09,-1.0040791239590E+00
+56.5000E-09,-1.0007625410799E+00
+57.0000E-09,-998.7725913525E-03
+57.5000E-09,-998.7725913525E-03
+58.0000E-09,-998.7725913525E-03
+58.5000E-09,-998.7725913525E-03
+59.0000E-09,-998.7725913525E-03
+59.5000E-09,-998.7725913525E-03
+60.0000E-09,-998.7725913525E-03
+60.5000E-09,-998.7725913525E-03
+61.0000E-09,-998.7725913525E-03
+61.5000E-09,-998.7725913525E-03
+62.0000E-09,-998.7725913525E-03
+62.5000E-09,-998.7725913525E-03
+63.0000E-09,-998.7725913525E-03
+63.5000E-09,-998.7725913525E-03
+64.0000E-09,-998.7725913525E-03
+64.5000E-09,-998.7725913525E-03
+65.0000E-09,-998.7725913525E-03
+65.5000E-09,-998.7725913525E-03
+66.0000E-09,-998.7725913525E-03
+66.5000E-09,-998.7725913525E-03
+67.0000E-09,-998.7725913525E-03
+67.5000E-09,-998.7725913525E-03
+68.0000E-09,-998.7725913525E-03
+68.5000E-09,-998.7725913525E-03
+69.0000E-09,-998.7725913525E-03
+69.5000E-09,-998.7725913525E-03
+70.0000E-09,-998.7725913525E-03
+70.5000E-09,-998.7725913525E-03
+71.0000E-09,-998.7725913525E-03
+71.5000E-09,-998.7725913525E-03
+72.0000E-09,-998.7725913525E-03
+72.5000E-09,-998.7725913525E-03
+73.0000E-09,-998.7725913525E-03
+73.5000E-09,-998.7725913525E-03
+74.0000E-09,-998.7725913525E-03
+74.5000E-09,-998.7725913525E-03
+75.0000E-09,-1.0020891742315E+00
+75.5000E-09,-1.0040791239590E+00
+76.0000E-09,-1.0040791239590E+00
+76.5000E-09,-1.0040791239590E+00
+77.0000E-09,-1.0040791239590E+00
+77.5000E-09,-1.0040791239590E+00
+78.0000E-09,-1.0040791239590E+00
+78.5000E-09,-1.0040791239590E+00
+79.0000E-09,-1.0040791239590E+00
+79.5000E-09,-1.0040791239590E+00
+80.0000E-09,-1.0040791239590E+00
+80.5000E-09,-1.0040791239590E+00
+81.0000E-09,-1.0040791239590E+00
+81.5000E-09,-1.0040791239590E+00
+82.0000E-09,-1.0040791239590E+00
+82.5000E-09,-1.0040791239590E+00
+83.0000E-09,-1.0040791239590E+00
+83.5000E-09,-1.0040791239590E+00
+84.0000E-09,-1.0040791239590E+00
+84.5000E-09,-1.0040791239590E+00
+85.0000E-09,-1.0040791239590E+00
+85.5000E-09,-1.0040791239590E+00
+86.0000E-09,-1.0073957068380E+00
+86.5000E-09,-1.0093856565654E+00
+87.0000E-09,-1.0093856565654E+00
+87.5000E-09,-1.0060690736864E+00
+88.0000E-09,-1.0040791239590E+00
+88.5000E-09,-1.0040791239590E+00
+89.0000E-09,-1.0040791239590E+00
+89.5000E-09,-1.0040791239590E+00
+90.0000E-09,-1.0040791239590E+00
+90.5000E-09,-1.0040791239590E+00
+91.0000E-09,-1.0040791239590E+00
+91.5000E-09,-1.0040791239590E+00
+92.0000E-09,-1.0040791239590E+00
+92.5000E-09,-1.0040791239590E+00
+93.0000E-09,-1.0040791239590E+00
+93.5000E-09,-1.0040791239590E+00
+94.0000E-09,-1.0040791239590E+00
+94.5000E-09,-1.0040791239590E+00
+95.0000E-09,-1.0040791239590E+00
+95.5000E-09,-1.0040791239590E+00
+96.0000E-09,-1.0040791239590E+00
+96.5000E-09,-1.0007625410799E+00
+97.0000E-09,-998.7725913525E-03
+97.5000E-09,-998.7725913525E-03
+98.0000E-09,-998.7725913525E-03
+98.5000E-09,-998.7725913525E-03
+99.0000E-09,-998.7725913525E-03
+99.5000E-09,-998.7725913525E-03
+100.0000E-09,-998.7725913525E-03
+100.5000E-09,-998.7725913525E-03
+101.0000E-09,-998.7725913525E-03
+101.5000E-09,-998.7725913525E-03
+102.0000E-09,-998.7725913525E-03
+102.5000E-09,-998.7725913525E-03
+103.0000E-09,-998.7725913525E-03
+103.5000E-09,-998.7725913525E-03
+104.0000E-09,-998.7725913525E-03
+104.5000E-09,-998.7725913525E-03
+105.0000E-09,-998.7725913525E-03
+105.5000E-09,-998.7725913525E-03
+106.0000E-09,-998.7725913525E-03
+106.5000E-09,-998.7725913525E-03
+107.0000E-09,-998.7725913525E-03
+107.5000E-09,-1.0020891742315E+00
+108.0000E-09,-1.0007625410799E+00
+108.5000E-09,-998.7725913525E-03
+109.0000E-09,-998.7725913525E-03
+109.5000E-09,-998.7725913525E-03
+110.0000E-09,-998.7725913525E-03
+110.5000E-09,-998.7725913525E-03
+111.0000E-09,-998.7725913525E-03
+111.5000E-09,-998.7725913525E-03
+112.0000E-09,-998.7725913525E-03
+112.5000E-09,-998.7725913525E-03
+113.0000E-09,-998.7725913525E-03
+113.5000E-09,-998.7725913525E-03
+114.0000E-09,-1.0020891742315E+00
+114.5000E-09,-1.0040791239590E+00
+115.0000E-09,-1.0040791239590E+00
+115.5000E-09,-1.0040791239590E+00
+116.0000E-09,-1.0040791239590E+00
+116.5000E-09,-1.0040791239590E+00
+117.0000E-09,-1.0040791239590E+00
+117.5000E-09,-1.0040791239590E+00
+118.0000E-09,-1.0040791239590E+00
+118.5000E-09,-1.0040791239590E+00
+119.0000E-09,-1.0040791239590E+00
+119.5000E-09,-1.0040791239590E+00
+120.0000E-09,-1.0040791239590E+00
+120.5000E-09,-1.0040791239590E+00
+121.0000E-09,-1.0040791239590E+00
+121.5000E-09,-1.0040791239590E+00
+122.0000E-09,-1.0040791239590E+00
+122.5000E-09,-1.0040791239590E+00
+123.0000E-09,-1.0007625410799E+00
+123.5000E-09,-1.0020891742315E+00
+124.0000E-09,-1.0007625410799E+00
+124.5000E-09,-998.7725913525E-03
+125.0000E-09,-998.7725913525E-03
+125.5000E-09,-998.7725913525E-03
+126.0000E-09,-998.7725913525E-03
+126.5000E-09,-998.7725913525E-03
+127.0000E-09,-998.7725913525E-03
+127.5000E-09,-998.7725913525E-03
+128.0000E-09,-1.0020891742315E+00
+128.5000E-09,-1.0040791239590E+00
+129.0000E-09,-1.0040791239590E+00
+129.5000E-09,-1.0040791239590E+00
+130.0000E-09,-1.0040791239590E+00
+130.5000E-09,-1.0040791239590E+00
+131.0000E-09,-1.0040791239590E+00
+131.5000E-09,-1.0040791239590E+00
+132.0000E-09,-1.0040791239590E+00
+132.5000E-09,-1.0040791239590E+00
+133.0000E-09,-1.0007625410799E+00
+133.5000E-09,-998.7725913525E-03
+134.0000E-09,-998.7725913525E-03
+134.5000E-09,-998.7725913525E-03
+135.0000E-09,-998.7725913525E-03
+135.5000E-09,-998.7725913525E-03
+136.0000E-09,-998.7725913525E-03
+136.5000E-09,-998.7725913525E-03
+137.0000E-09,-998.7725913525E-03
+137.5000E-09,-998.7725913525E-03
+138.0000E-09,-998.7725913525E-03
+138.5000E-09,-998.7725913525E-03
+139.0000E-09,-998.7725913525E-03
+139.5000E-09,-998.7725913525E-03
+140.0000E-09,-998.7725913525E-03
+140.5000E-09,-998.7725913525E-03
+141.0000E-09,-998.7725913525E-03
+141.5000E-09,-998.7725913525E-03
+142.0000E-09,-998.7725913525E-03
+142.5000E-09,-998.7725913525E-03
+143.0000E-09,-998.7725913525E-03
+143.5000E-09,-998.7725913525E-03
+144.0000E-09,-998.7725913525E-03
+144.5000E-09,-998.7725913525E-03
+145.0000E-09,-998.7725913525E-03
+145.5000E-09,-998.7725913525E-03
+146.0000E-09,-998.7725913525E-03
+146.5000E-09,-998.7725913525E-03
+147.0000E-09,-998.7725913525E-03
+147.5000E-09,-998.7725913525E-03
+148.0000E-09,-998.7725913525E-03
+148.5000E-09,-998.7725913525E-03
+149.0000E-09,-1.0020891742315E+00
+149.5000E-09,-1.0040791239590E+00
+150.0000E-09,-1.0040791239590E+00
+150.5000E-09,-1.0040791239590E+00
+151.0000E-09,-1.0007625410799E+00
+151.5000E-09,-998.7725913525E-03
+152.0000E-09,-998.7725913525E-03
+152.5000E-09,-998.7725913525E-03
+153.0000E-09,-998.7725913525E-03
+153.5000E-09,-998.7725913525E-03
+154.0000E-09,-1.0020891742315E+00
+154.5000E-09,-1.0040791239590E+00
+155.0000E-09,-1.0040791239590E+00
+155.5000E-09,-1.0040791239590E+00
+156.0000E-09,-1.0040791239590E+00
+156.5000E-09,-1.0040791239590E+00
+157.0000E-09,-1.0040791239590E+00
+157.5000E-09,-1.0040791239590E+00
+158.0000E-09,-1.0040791239590E+00
+158.5000E-09,-1.0040791239590E+00
+159.0000E-09,-1.0040791239590E+00
+159.5000E-09,-1.0007625410799E+00
+160.0000E-09,-998.7725913525E-03
+160.5000E-09,-998.7725913525E-03
+161.0000E-09,-998.7725913525E-03
+161.5000E-09,-998.7725913525E-03
+162.0000E-09,-998.7725913525E-03
+162.5000E-09,-998.7725913525E-03
+163.0000E-09,-998.7725913525E-03
+163.5000E-09,-998.7725913525E-03
+164.0000E-09,-998.7725913525E-03
+164.5000E-09,-998.7725913525E-03
+165.0000E-09,-998.7725913525E-03
+165.5000E-09,-998.7725913525E-03
+166.0000E-09,-998.7725913525E-03
+166.5000E-09,-998.7725913525E-03
+167.0000E-09,-998.7725913525E-03
+167.5000E-09,-998.7725913525E-03
+168.0000E-09,-998.7725913525E-03
+168.5000E-09,-998.7725913525E-03
+169.0000E-09,-998.7725913525E-03
+169.5000E-09,-998.7725913525E-03
+170.0000E-09,-998.7725913525E-03
+170.5000E-09,-998.7725913525E-03
+171.0000E-09,-995.4560084734E-03
+171.5000E-09,-993.4660587460E-03
+172.0000E-09,-993.4660587460E-03
+172.5000E-09,-993.4660587460E-03
+173.0000E-09,-993.4660587460E-03
+173.5000E-09,-993.4660587460E-03
+174.0000E-09,-993.4660587460E-03
+174.5000E-09,-993.4660587460E-03
+175.0000E-09,-993.4660587460E-03
+175.5000E-09,-993.4660587460E-03
+176.0000E-09,-993.4660587460E-03
+176.5000E-09,-993.4660587460E-03
+177.0000E-09,-993.4660587460E-03
+177.5000E-09,-993.4660587460E-03
+178.0000E-09,-993.4660587460E-03
+178.5000E-09,-993.4660587460E-03
+179.0000E-09,-993.4660587460E-03
+179.5000E-09,-993.4660587460E-03
+180.0000E-09,-993.4660587460E-03
+180.5000E-09,-993.4660587460E-03
+181.0000E-09,-993.4660587460E-03
+181.5000E-09,-993.4660587460E-03
+182.0000E-09,-996.7826416250E-03
+182.5000E-09,-998.7725913525E-03
+183.0000E-09,-998.7725913525E-03
+183.5000E-09,-998.7725913525E-03
+184.0000E-09,-998.7725913525E-03
+184.5000E-09,-998.7725913525E-03
+185.0000E-09,-998.7725913525E-03
+185.5000E-09,-998.7725913525E-03
+186.0000E-09,-998.7725913525E-03
+186.5000E-09,-998.7725913525E-03
+187.0000E-09,-998.7725913525E-03
+187.5000E-09,-998.7725913525E-03
+188.0000E-09,-998.7725913525E-03
+188.5000E-09,-998.7725913525E-03
+189.0000E-09,-998.7725913525E-03
+189.5000E-09,-998.7725913525E-03
+190.0000E-09,-998.7725913525E-03
+190.5000E-09,-998.7725913525E-03
+191.0000E-09,-998.7725913525E-03
+191.5000E-09,-998.7725913525E-03
+192.0000E-09,-998.7725913525E-03
+192.5000E-09,-998.7725913525E-03
+193.0000E-09,-998.7725913525E-03
+193.5000E-09,-998.7725913525E-03
+194.0000E-09,-998.7725913525E-03
+194.5000E-09,-998.7725913525E-03
+195.0000E-09,-998.7725913525E-03
+195.5000E-09,-998.7725913525E-03
+196.0000E-09,-998.7725913525E-03
+196.5000E-09,-998.7725913525E-03
+197.0000E-09,-998.7725913525E-03
+197.5000E-09,-998.7725913525E-03
+198.0000E-09,-998.7725913525E-03
+198.5000E-09,-998.7725913525E-03
+199.0000E-09,-998.7725913525E-03
+199.5000E-09,-998.7725913525E-03
+200.0000E-09,-998.7725913525E-03
+200.5000E-09,-998.7725913525E-03
+201.0000E-09,-998.7725913525E-03
+201.5000E-09,-998.7725913525E-03
+202.0000E-09,-998.7725913525E-03
+202.5000E-09,-998.7725913525E-03
+203.0000E-09,-998.7725913525E-03
+203.5000E-09,-998.7725913525E-03
+204.0000E-09,-998.7725913525E-03
+204.5000E-09,-998.7725913525E-03
+205.0000E-09,-998.7725913525E-03
+205.5000E-09,-998.7725913525E-03
+206.0000E-09,-998.7725913525E-03
+206.5000E-09,-998.7725913525E-03
+207.0000E-09,-998.7725913525E-03
+207.5000E-09,-998.7725913525E-03
+208.0000E-09,-998.7725913525E-03
+208.5000E-09,-998.7725913525E-03
+209.0000E-09,-998.7725913525E-03
+209.5000E-09,-1.0020891742315E+00
+210.0000E-09,-1.0040791239590E+00
+210.5000E-09,-1.0040791239590E+00
+211.0000E-09,-1.0040791239590E+00
+211.5000E-09,-1.0040791239590E+00
+212.0000E-09,-1.0040791239590E+00
+212.5000E-09,-1.0040791239590E+00
+213.0000E-09,-1.0040791239590E+00
+213.5000E-09,-1.0040791239590E+00
+214.0000E-09,-1.0040791239590E+00
+214.5000E-09,-1.0040791239590E+00
+215.0000E-09,-1.0007625410799E+00
+215.5000E-09,-998.7725913525E-03
+216.0000E-09,-1.0020891742315E+00
+216.5000E-09,-1.0040791239590E+00
+217.0000E-09,-1.0040791239590E+00
+217.5000E-09,-1.0040791239590E+00
+218.0000E-09,-1.0040791239590E+00
+218.5000E-09,-1.0040791239590E+00
+219.0000E-09,-1.0040791239590E+00
+219.5000E-09,-1.0040791239590E+00
+220.0000E-09,-1.0040791239590E+00
+220.5000E-09,-1.0040791239590E+00
+221.0000E-09,-1.0040791239590E+00
+221.5000E-09,-1.0040791239590E+00
+222.0000E-09,-1.0040791239590E+00
+222.5000E-09,-1.0040791239590E+00
+223.0000E-09,-1.0040791239590E+00
+223.5000E-09,-1.0040791239590E+00
+224.0000E-09,-1.0040791239590E+00
+224.5000E-09,-1.0040791239590E+00
+225.0000E-09,-1.0040791239590E+00
+225.5000E-09,-1.0040791239590E+00
+226.0000E-09,-1.0040791239590E+00
+226.5000E-09,-1.0040791239590E+00
+227.0000E-09,-1.0040791239590E+00
+227.5000E-09,-1.0040791239590E+00
+228.0000E-09,-1.0040791239590E+00
+228.5000E-09,-1.0040791239590E+00
+229.0000E-09,-1.0040791239590E+00
+229.5000E-09,-1.0040791239590E+00
+230.0000E-09,-1.0040791239590E+00
+230.5000E-09,-1.0040791239590E+00
+231.0000E-09,-1.0040791239590E+00
+231.5000E-09,-1.0040791239590E+00
+232.0000E-09,-1.0040791239590E+00
+232.5000E-09,-1.0007625410799E+00
+233.0000E-09,-998.7725913525E-03
+233.5000E-09,-1.0020891742315E+00
+234.0000E-09,-1.0040791239590E+00
+234.5000E-09,-1.0040791239590E+00
+235.0000E-09,-1.0040791239590E+00
+235.5000E-09,-1.0040791239590E+00
+236.0000E-09,-1.0040791239590E+00
+236.5000E-09,-1.0040791239590E+00
+237.0000E-09,-1.0040791239590E+00
+237.5000E-09,-1.0040791239590E+00
+238.0000E-09,-1.0040791239590E+00
+238.5000E-09,-1.0040791239590E+00
+239.0000E-09,-1.0007625410799E+00
+239.5000E-09,-998.7725913525E-03
+240.0000E-09,-998.7725913525E-03
+240.5000E-09,-998.7725913525E-03
+241.0000E-09,-998.7725913525E-03
+241.5000E-09,-998.7725913525E-03
+242.0000E-09,-1.0020891742315E+00
+242.5000E-09,-1.0007625410799E+00
+243.0000E-09,-1.0020891742315E+00
+243.5000E-09,-1.0040791239590E+00
+244.0000E-09,-1.0040791239590E+00
+244.5000E-09,-1.0040791239590E+00
+245.0000E-09,-1.0040791239590E+00
+245.5000E-09,-1.0040791239590E+00
+246.0000E-09,-1.0040791239590E+00
+246.5000E-09,-1.0040791239590E+00
+247.0000E-09,-1.0040791239590E+00
+247.5000E-09,-1.0040791239590E+00
+248.0000E-09,-1.0040791239590E+00
+248.5000E-09,-1.0040791239590E+00
+249.0000E-09,-1.0040791239590E+00
+249.5000E-09,-1.0040791239590E+00
+250.0000E-09,-1.0040791239590E+00
+250.5000E-09,-1.0040791239590E+00
+251.0000E-09,-1.0040791239590E+00
+251.5000E-09,-1.0040791239590E+00
+252.0000E-09,-1.0040791239590E+00
+252.5000E-09,-1.0040791239590E+00
+253.0000E-09,-1.0040791239590E+00
+253.5000E-09,-1.0040791239590E+00
+254.0000E-09,-1.0040791239590E+00
+254.5000E-09,-1.0040791239590E+00
+255.0000E-09,-1.0040791239590E+00
+255.5000E-09,-1.0040791239590E+00
+256.0000E-09,-1.0040791239590E+00
+256.5000E-09,-1.0007625410799E+00
+257.0000E-09,-998.7725913525E-03
+257.5000E-09,-998.7725913525E-03
+258.0000E-09,-998.7725913525E-03
+258.5000E-09,-998.7725913525E-03
+259.0000E-09,-998.7725913525E-03
+259.5000E-09,-998.7725913525E-03
+260.0000E-09,-998.7725913525E-03
+260.5000E-09,-998.7725913525E-03
+261.0000E-09,-998.7725913525E-03
+261.5000E-09,-998.7725913525E-03
+262.0000E-09,-998.7725913525E-03
+262.5000E-09,-998.7725913525E-03
+263.0000E-09,-995.4560084734E-03
+263.5000E-09,-993.4660587460E-03
+264.0000E-09,-990.1494758669E-03
+264.5000E-09,-988.1595261395E-03
+265.0000E-09,-984.8429432604E-03
+265.5000E-09,-979.5364106539E-03
+266.0000E-09,-974.2298780475E-03
+266.5000E-09,-968.9233454410E-03
+267.0000E-09,-960.3002299554E-03
+267.5000E-09,-949.6871647425E-03
+268.0000E-09,-939.0740995295E-03
+268.5000E-09,-928.4610343165E-03
+269.0000E-09,-914.5313862245E-03
+269.5000E-09,-901.9283712841E-03
+270.0000E-09,-887.9987231921E-03
+270.5000E-09,-868.7625424936E-03
+271.0000E-09,-850.8529949467E-03
+271.5000E-09,-831.6168142482E-03
+272.0000E-09,-810.3906838223E-03
+272.5000E-09,-789.1645533964E-03
+273.0000E-09,-767.9384229704E-03
+273.5000E-09,-743.3957096654E-03
+274.0000E-09,-720.1796295121E-03
+274.5000E-09,-695.6369162071E-03
+275.0000E-09,-672.4208360537E-03
+275.5000E-09,-647.8781227488E-03
+276.0000E-09,-624.6620425954E-03
+276.5000E-09,-603.4359121695E-03
+277.0000E-09,-582.2097817435E-03
+277.5000E-09,-560.9836513176E-03
+278.0000E-09,-543.0741037707E-03
+278.5000E-09,-527.1545059513E-03
+279.0000E-09,-511.2349081319E-03
+279.5000E-09,-495.3153103124E-03
+280.0000E-09,-482.7122953720E-03
+280.5000E-09,-472.0992301591E-03
+281.0000E-09,-461.4861649461E-03
+281.5000E-09,-450.8730997331E-03
+282.0000E-09,-443.5766173992E-03
+282.5000E-09,-441.5866676718E-03
+283.0000E-09,-438.2700847927E-03
+283.5000E-09,-436.2801350653E-03
+284.0000E-09,-439.5967179444E-03
+284.5000E-09,-444.9032505509E-03
+285.0000E-09,-450.2097831573E-03
+285.5000E-09,-455.5163157638E-03
+286.0000E-09,-464.1394312494E-03
+286.5000E-09,-474.7524964623E-03
+287.0000E-09,-488.6821445544E-03
+287.5000E-09,-501.2851594947E-03
+288.0000E-09,-515.2148075868E-03
+288.5000E-09,-531.1344054062E-03
+289.0000E-09,-547.0540032257E-03
+289.5000E-09,-566.2901839242E-03
+290.0000E-09,-584.1997314710E-03
+290.5000E-09,-603.4359121695E-03
+291.0000E-09,-621.3454597164E-03
+291.5000E-09,-640.5816404149E-03
+292.0000E-09,-661.8077708408E-03
+292.5000E-09,-679.7173183877E-03
+293.0000E-09,-698.9534990862E-03
+293.5000E-09,-716.8630466331E-03
+294.0000E-09,-736.0992273316E-03
+294.5000E-09,-754.0087748785E-03
+295.0000E-09,-769.9283726979E-03
+295.5000E-09,-785.8479705174E-03
+296.0000E-09,-801.7675683368E-03
+296.5000E-09,-814.3705832772E-03
+297.0000E-09,-824.9836484902E-03
+297.5000E-09,-835.5967137031E-03
+298.0000E-09,-846.2097789161E-03
+298.5000E-09,-856.8228441291E-03
+299.0000E-09,-864.1193264630E-03
+299.5000E-09,-872.7424419485E-03
+300.0000E-09,-880.0389242824E-03
+300.5000E-09,-885.3454568889E-03
+301.0000E-09,-890.6519894954E-03
+301.5000E-09,-895.9585221019E-03
+302.0000E-09,-897.9484718293E-03
+302.5000E-09,-901.2650547083E-03
+303.0000E-09,-903.2550044358E-03
+303.5000E-09,-906.5715873148E-03
+304.0000E-09,-908.5615370423E-03
+304.5000E-09,-911.8781199213E-03
+305.0000E-09,-913.8680696487E-03
+305.5000E-09,-913.8680696487E-03
+306.0000E-09,-913.8680696487E-03
+306.5000E-09,-913.8680696487E-03
+307.0000E-09,-913.8680696487E-03
+307.5000E-09,-917.1846525278E-03
+308.0000E-09,-919.1746022552E-03
+308.5000E-09,-919.1746022552E-03
+309.0000E-09,-919.1746022552E-03
+309.5000E-09,-919.1746022552E-03
+310.0000E-09,-922.4911851343E-03
+310.5000E-09,-924.4811348617E-03
+311.0000E-09,-924.4811348617E-03
+311.5000E-09,-924.4811348617E-03
+312.0000E-09,-927.7977177408E-03
+312.5000E-09,-929.7876674682E-03
+313.0000E-09,-929.7876674682E-03
+313.5000E-09,-933.1042503472E-03
+314.0000E-09,-935.0942000747E-03
+314.5000E-09,-935.0942000747E-03
+315.0000E-09,-938.4107829537E-03
+315.5000E-09,-940.4007326812E-03
+316.0000E-09,-940.4007326812E-03
+316.5000E-09,-943.7173155602E-03
+317.0000E-09,-945.7072652876E-03
+317.5000E-09,-945.7072652876E-03
+318.0000E-09,-945.7072652876E-03
+318.5000E-09,-945.7072652876E-03
+319.0000E-09,-949.0238481667E-03
+319.5000E-09,-951.0137978941E-03
+320.0000E-09,-951.0137978941E-03
+320.5000E-09,-954.3303807732E-03
+321.0000E-09,-956.3203305006E-03
+321.5000E-09,-956.3203305006E-03
+322.0000E-09,-956.3203305006E-03
+322.5000E-09,-959.6369133797E-03
+323.0000E-09,-961.6268631071E-03
+323.5000E-09,-961.6268631071E-03
+324.0000E-09,-964.9434459861E-03
+324.5000E-09,-966.9333957136E-03
+325.0000E-09,-966.9333957136E-03
+325.5000E-09,-966.9333957136E-03
+326.0000E-09,-966.9333957136E-03
+326.5000E-09,-970.2499785926E-03
+327.0000E-09,-972.2399283201E-03
+327.5000E-09,-972.2399283201E-03
+328.0000E-09,-972.2399283201E-03
+328.5000E-09,-972.2399283201E-03
+329.0000E-09,-972.2399283201E-03
+329.5000E-09,-972.2399283201E-03
+330.0000E-09,-972.2399283201E-03
+330.5000E-09,-972.2399283201E-03
+331.0000E-09,-972.2399283201E-03
+331.5000E-09,-972.2399283201E-03
+332.0000E-09,-972.2399283201E-03
+332.5000E-09,-972.2399283201E-03
+333.0000E-09,-972.2399283201E-03
+333.5000E-09,-972.2399283201E-03
+334.0000E-09,-972.2399283201E-03
+334.5000E-09,-972.2399283201E-03
+335.0000E-09,-972.2399283201E-03
+335.5000E-09,-975.5565111991E-03
+336.0000E-09,-977.5464609265E-03
+336.5000E-09,-977.5464609265E-03
+337.0000E-09,-977.5464609265E-03
+337.5000E-09,-977.5464609265E-03
+338.0000E-09,-977.5464609265E-03
+338.5000E-09,-977.5464609265E-03
+339.0000E-09,-980.8630438056E-03
+339.5000E-09,-982.8529935330E-03
+340.0000E-09,-982.8529935330E-03
+340.5000E-09,-982.8529935330E-03
+341.0000E-09,-982.8529935330E-03
+341.5000E-09,-982.8529935330E-03
+342.0000E-09,-982.8529935330E-03
+342.5000E-09,-982.8529935330E-03
+343.0000E-09,-982.8529935330E-03
+343.5000E-09,-982.8529935330E-03
+344.0000E-09,-982.8529935330E-03
+344.5000E-09,-982.8529935330E-03
+345.0000E-09,-982.8529935330E-03
+345.5000E-09,-982.8529935330E-03
+346.0000E-09,-982.8529935330E-03
+346.5000E-09,-982.8529935330E-03
+347.0000E-09,-982.8529935330E-03
+347.5000E-09,-982.8529935330E-03
+348.0000E-09,-982.8529935330E-03
+348.5000E-09,-982.8529935330E-03
+349.0000E-09,-986.1695764121E-03
+349.5000E-09,-988.1595261395E-03
+350.0000E-09,-988.1595261395E-03
+350.5000E-09,-988.1595261395E-03
+351.0000E-09,-988.1595261395E-03
+351.5000E-09,-988.1595261395E-03
+352.0000E-09,-988.1595261395E-03
+352.5000E-09,-988.1595261395E-03
+353.0000E-09,-988.1595261395E-03
+353.5000E-09,-988.1595261395E-03
+354.0000E-09,-984.8429432605E-03
+354.5000E-09,-986.1695764121E-03
+355.0000E-09,-988.1595261395E-03
+355.5000E-09,-988.1595261395E-03
+356.0000E-09,-988.1595261395E-03
+356.5000E-09,-988.1595261395E-03
+357.0000E-09,-988.1595261395E-03
+357.5000E-09,-988.1595261395E-03
+358.0000E-09,-988.1595261395E-03
+358.5000E-09,-988.1595261395E-03
+359.0000E-09,-988.1595261395E-03
+359.5000E-09,-988.1595261395E-03
+360.0000E-09,-988.1595261395E-03
+360.5000E-09,-988.1595261395E-03
+361.0000E-09,-988.1595261395E-03
+361.5000E-09,-988.1595261395E-03
+362.0000E-09,-988.1595261395E-03
+362.5000E-09,-988.1595261395E-03
+363.0000E-09,-988.1595261395E-03
+363.5000E-09,-988.1595261395E-03
+364.0000E-09,-988.1595261395E-03
+364.5000E-09,-988.1595261395E-03
+365.0000E-09,-988.1595261395E-03
+365.5000E-09,-988.1595261395E-03
+366.0000E-09,-988.1595261395E-03
+366.5000E-09,-988.1595261395E-03
+367.0000E-09,-988.1595261395E-03
+367.5000E-09,-988.1595261395E-03
+368.0000E-09,
