x-axis,1
second,Volt
-78.0000E-09,-575.0187760168E-03
-77.6719E-09,-575.0187760168E-03
-77.3438E-09,-575.0187760168E-03
-77.0156E-09,-573.5026238435E-03
-76.6875E-09,-569.7122434103E-03
-76.3594E-09,-569.7122434103E-03
-76.0313E-09,-569.7122434103E-03
-75.7031E-09,-569.7122434103E-03
-75.3750E-09,-569.7122434103E-03
-75.0469E-09,-569.7122434103E-03
-74.7187E-09,-569.7122434103E-03
-74.3906E-09,-569.7122434103E-03
-74.0625E-09,-569.7122434103E-03
-73.7344E-09,-569.7122434103E-03
-73.4062E-09,-569.7122434103E-03
-73.0781E-09,-569.7122434103E-03
-72.7500E-09,-569.7122434103E-03
-72.4219E-09,-569.7122434103E-03
-72.0937E-09,-569.7122434103E-03
-71.7656E-09,-569.7122434103E-03
-71.4375E-09,-569.7122434103E-03
-71.1094E-09,-569.7122434103E-03
-70.7812E-09,-569.7122434103E-03
-70.4531E-09,-569.7122434103E-03
-70.1250E-09,-569.7122434103E-03
-69.7969E-09,-569.7122434103E-03
-69.4687E-09,-569.7122434103E-03
-69.1406E-09,-569.7122434103E-03
-68.8125E-09,-569.7122434103E-03
-68.4844E-09,-569.7122434103E-03
-68.1562E-09,-571.2283955836E-03
-67.8281E-09,-575.0187760168E-03
-67.5000E-09,-575.0187760168E-03
-67.1719E-09,-575.0187760168E-03
-66.8437E-09,-575.0187760168E-03
-66.5156E-09,-575.0187760168E-03
-66.1875E-09,-575.0187760168E-03
-65.8594E-09,-575.0187760168E-03
-65.5312E-09,-575.0187760168E-03
-65.2031E-09,-575.0187760168E-03
-64.8750E-09,-575.0187760168E-03
-64.5469E-09,-575.0187760168E-03
-64.2187E-09,-575.0187760168E-03
-63.8906E-09,-575.0187760168E-03
-63.5625E-09,-575.0187760168E-03
-63.2344E-09,-574.2606999302E-03
-62.9062E-09,-571.6074336269E-03
-62.5781E-09,-569.7122434103E-03
-62.2500E-09,-569.7122434103E-03
-61.9219E-09,-569.7122434103E-03
-61.5937E-09,-569.7122434103E-03
-61.2656E-09,-569.7122434103E-03
-60.9375E-09,-569.7122434103E-03
-60.6094E-09,-569.7122434103E-03
-60.2812E-09,-569.7122434103E-03
-59.9531E-09,-569.7122434103E-03
-59.6250E-09,-569.7122434103E-03
-59.2969E-09,-569.7122434103E-03
-58.9687E-09,-569.7122434103E-03
-58.6406E-09,-569.7122434103E-03
-58.3125E-09,-570.2808004753E-03
-57.9844E-09,-572.6497882461E-03
-57.6562E-09,-575.0187760168E-03
-57.3281E-09,-575.0187760168E-03
-57.0000E-09,-575.0187760168E-03
-56.6719E-09,-575.0187760168E-03
-56.3437E-09,-575.0187760168E-03
-56.0156E-09,-575.0187760168E-03
-55.6875E-09,-575.0187760168E-03
-55.3594E-09,-575.0187760168E-03
-55.0312E-09,-575.0187760168E-03
-54.7031E-09,-575.0187760168E-03
-54.3750E-09,-575.0187760168E-03
-54.0469E-09,-575.0187760168E-03
-53.7187E-09,-575.0187760168E-03
-53.3906E-09,-575.0187760168E-03
-53.0625E-09,-575.0187760168E-03
-52.7344E-09,-575.0187760168E-03
-52.4062E-09,-575.0187760168E-03
-52.0781E-09,-575.0187760168E-03
-51.7500E-09,-575.0187760168E-03
-51.4219E-09,-575.0187760168E-03
-51.0937E-09,-575.0187760168E-03
-50.7656E-09,-575.0187760168E-03
-50.4375E-09,-575.0187760168E-03
-50.1094E-09,-575.0187760168E-03
-49.7812E-09,-574.4502189518E-03
-49.4531E-09,-572.0812311811E-03
-49.1250E-09,-571.2283955836E-03
-48.7969E-09,-575.0187760168E-03
-48.4687E-09,-575.0187760168E-03
-48.1406E-09,-575.0187760168E-03
-47.8125E-09,-574.5449784627E-03
-47.4844E-09,-572.3181299581E-03
-47.1562E-09,-569.7122434103E-03
-46.8281E-09,-569.7122434103E-03
-46.5000E-09,-569.7122434103E-03
-46.1719E-09,-569.7122434103E-03
-45.8437E-09,-569.7122434103E-03
-45.5156E-09,-569.7122434103E-03
-45.1875E-09,-569.7122434103E-03
-44.8594E-09,-569.7122434103E-03
-44.5312E-09,-569.7122434103E-03
-44.2031E-09,-569.7122434103E-03
-43.8750E-09,-569.7122434103E-03
-43.5469E-09,-569.7122434103E-03
-43.2187E-09,-569.7122434103E-03
-42.8906E-09,-569.7122434103E-03
-42.5625E-09,-568.1960912370E-03
-42.2344E-09,-564.4057108038E-03
-41.9062E-09,-564.4057108038E-03
-41.5781E-09,-564.4057108038E-03
-41.2500E-09,-564.4057108038E-03
-40.9219E-09,-564.4057108038E-03
-40.5937E-09,-562.8895586306E-03
-40.2656E-09,-558.4358616215E-03
-39.9375E-09,-555.9247345845E-03
-39.6094E-09,-552.2764934176E-03
-39.2812E-09,-547.9175559194E-03
-38.9531E-09,-545.5485681487E-03
-38.6250E-09,-541.6634282046E-03
-38.2969E-09,-536.7359336415E-03
-37.9687E-09,-531.9979581000E-03
-37.6406E-09,-524.2276782119E-03
-37.3125E-09,-515.6045627264E-03
-36.9844E-09,-511.0087264511E-03
-36.6562E-09,-501.4853956127E-03
-36.3281E-09,-488.6928616506E-03
-36.0000E-09,-482.0123161371E-03
-35.6719E-09,-470.3095165496E-03
-35.3437E-09,-458.4171979404E-03
-35.0156E-09,-446.9039173746E-03
-34.6875E-09,-427.1939391219E-03
-34.3594E-09,-412.7904934758E-03
-34.0312E-09,-397.6289717430E-03
-33.7031E-09,-374.3181320788E-03
-33.3750E-09,-360.1989649651E-03
-33.0469E-09,-343.0474935048E-03
-32.7187E-09,-315.3777163425E-03
-32.3906E-09,-298.8895614580E-03
-32.0625E-09,-277.8529500538E-03
-31.7344E-09,-245.9189949041E-03
-31.4062E-09,-227.2039915151E-03
-31.0781E-09,-203.5614935630E-03
-30.7500E-09,-171.9118169458E-03
-30.4219E-09,-153.6232313556E-03
-30.0937E-09,-129.2700370723E-03
-29.7656E-09,-97.2413224117E-03
-29.4375E-09,-76.8680275833E-03
-29.1094E-09,-49.6720479750E-03
-28.7812E-09,-18.6856879336E-03
-28.4531E-09,-1.3920772071E-03
-28.1250E-09,+24.6194085157E-03
-27.7969E-09,+54.6581734488E-03
-27.4687E-09,+69.0142393396E-03
-27.1406E-09,+92.0881802267E-03
-26.8125E-09,+118.0522861941E-03
-26.4844E-09,+131.9819342862E-03
-26.1562E-09,+154.2504193312E-03
-25.8281E-09,+175.6660687788E-03
-25.5000E-09,+186.9424505676E-03
-25.1719E-09,+203.6201244737E-03
-24.8437E-09,+215.5124430828E-03
-24.5156E-09,+227.0257236487E-03
-24.1875E-09,+244.9352711956E-03
-23.8594E-09,+253.6057664365E-03
-23.5312E-09,+262.6552997208E-03
-23.2031E-09,+274.8792766179E-03
-22.8750E-09,+277.6746821874E-03
-22.5469E-09,+280.8491258002E-03
-22.2187E-09,+285.3975823200E-03
-21.8906E-09,+288.0508486232E-03
-21.5625E-09,+289.9460388398E-03
-21.2344E-09,+289.0932032424E-03
-20.9062E-09,+286.2977976729E-03
-20.5781E-09,+281.6072018868E-03
-20.2500E-09,+272.5102888471E-03
-19.9219E-09,+267.2037562406E-03
-19.5937E-09,+258.8649192876E-03
-19.2656E-09,+244.7457521739E-03
-18.9375E-09,+234.5591047597E-03
-18.6094E-09,+220.2030388689E-03
-18.2812E-09,+202.4830103437E-03
-17.9531E-09,+192.5806414620E-03
-17.6250E-09,+174.7184736705E-03
-17.2969E-09,+148.9438867247E-03
-16.9687E-09,+136.8146693385E-03
-16.6406E-09,+114.8304628259E-03
-16.3125E-09,+84.9812169145E-03
-15.9844E-09,+70.9094295562E-03
-15.6562E-09,+45.8455389416E-03
-15.3281E-09,+15.8067740085E-03
-15.0000E-09,-65.4440555E-06
-14.6719E-09,-24.6555371159E-03
-14.3437E-09,-45.5026294985E-03
-14.0156E-09,-67.1077979678E-03
-13.6875E-09,-103.9692476807E-03
-13.3594E-09,-124.3899222645E-03
-13.0312E-09,-145.1896348917E-03
-12.7031E-09,-178.7345017256E-03
-12.3750E-09,-201.3820248139E-03
-12.0469E-09,-224.7876239890E-03
-11.7187E-09,-256.3425410954E-03
-11.3906E-09,-272.9728352460E-03
-11.0625E-09,-293.7725478733E-03
-10.7344E-09,-325.0431864472E-03
-10.4062E-09,-341.2470627991E-03
-10.0781E-09,-361.2413195842E-03
-9.7500E-09,-387.6792231058E-03
-9.4219E-09,-400.8034153558E-03
-9.0937E-09,-418.0970260823E-03
-8.7656E-09,-439.7969540623E-03
-8.4375E-09,-449.9836014766E-03
-8.1094E-09,-464.3396673673E-03
-7.7812E-09,-482.0596958925E-03
-7.4531E-09,-491.9620647743E-03
-7.1250E-09,-505.2757760459E-03
-6.7969E-09,-517.8787909863E-03
-6.4687E-09,-522.7589057940E-03
-6.1406E-09,-531.8084390783E-03
-5.8125E-09,-543.7481374429E-03
-5.4844E-09,-546.1171252136E-03
-5.1562E-09,-551.5184173310E-03
-4.8281E-09,-559.6677352623E-03
-4.5000E-09,-562.0367230331E-03
-4.1719E-09,-565.4480654230E-03
-3.8437E-09,-568.5277495249E-03
-3.5156E-09,-569.7122434103E-03
-3.1875E-09,-569.7122434103E-03
-2.8594E-09,-569.7122434103E-03
-2.5312E-09,-571.2283955836E-03
-2.2031E-09,-574.1659404193E-03
-1.8750E-09,-571.3705348498E-03
-1.5469E-09,-569.7122434103E-03
-1.2187E-09,-569.7122434103E-03
-890.6E-12,-569.7122434103E-03
-562.5E-12,-568.1960912370E-03
-234.4E-12,-564.4057108038E-03
+93.8E-12,-564.4057108038E-03
+421.9E-12,-562.8895586306E-03
+750.0E-12,-558.4358616215E-03
+1.0781E-09,-555.9247345845E-03
+1.4063E-09,-553.7926455909E-03
+1.7344E-09,-553.1293290151E-03
+2.0625E-09,-550.6182019781E-03
+2.3906E-09,-548.4861129844E-03
+2.7188E-09,-547.9175559194E-03
+3.0469E-09,-545.5485681487E-03
+3.3750E-09,-543.1795803779E-03
+3.7031E-09,-543.1795803779E-03
+4.0313E-09,-543.1795803779E-03
+4.3594E-09,-543.1795803779E-03
+4.6875E-09,-543.1795803779E-03
+5.0156E-09,-543.1795803779E-03
+5.3438E-09,-543.1795803779E-03
+5.6719E-09,-543.7481374429E-03
+6.0000E-09,-546.1171252136E-03
+6.3281E-09,-548.4861129844E-03
+6.6563E-09,-548.4861129844E-03
+6.9844E-09,-550.0022651577E-03
+7.3125E-09,-553.7926455909E-03
+7.6406E-09,-553.7926455909E-03
+7.9688E-09,-555.3087977642E-03
+8.2969E-09,-559.0991781974E-03
+8.6250E-09,-559.0991781974E-03
+8.9531E-09,-560.6153303706E-03
+9.2813E-09,-564.4057108038E-03
+9.6094E-09,-564.4057108038E-03
+9.9375E-09,-565.9218629771E-03
+10.2656E-09,-569.7122434103E-03
+10.5938E-09,-569.7122434103E-03
+10.9219E-09,-569.7122434103E-03
+11.2500E-09,-569.7122434103E-03
+11.5781E-09,-569.7122434103E-03
+11.9063E-09,-569.7122434103E-03
+12.2344E-09,-569.7122434103E-03
+12.5625E-09,-569.7122434103E-03
+12.8906E-09,-569.7122434103E-03
+13.2188E-09,-569.7122434103E-03
+13.5469E-09,-569.7122434103E-03
+13.8750E-09,-568.1960912370E-03
+14.2031E-09,-564.4057108038E-03
+14.5313E-09,-564.4057108038E-03
+14.8594E-09,-564.4057108038E-03
+15.1875E-09,-564.4057108038E-03
+15.5156E-09,-564.4057108038E-03
+15.8438E-09,-562.8895586306E-03
+16.1719E-09,-559.0991781974E-03
+16.5000E-09,-559.0991781974E-03
+16.8281E-09,-559.0991781974E-03
+17.1563E-09,-559.0991781974E-03
+17.4844E-09,-559.0991781974E-03
+17.8125E-09,-560.0467733057E-03
+18.1406E-09,-562.9843181414E-03
+18.4688E-09,-564.4057108038E-03
+18.7969E-09,-564.4057108038E-03
+19.1250E-09,-564.4057108038E-03
+19.4531E-09,-564.4057108038E-03
+19.7813E-09,-565.2585464013E-03
+20.1094E-09,-568.0539519708E-03
+20.4375E-09,-569.7122434103E-03
+20.7656E-09,-569.7122434103E-03
+21.0938E-09,-569.7122434103E-03
+21.4219E-09,-569.7122434103E-03
+21.7500E-09,-569.7122434103E-03
+22.0781E-09,-569.7122434103E-03
+22.4063E-09,-569.7122434103E-03
+22.7344E-09,-569.7122434103E-03
+23.0625E-09,-569.7122434103E-03
+23.3906E-09,-569.7122434103E-03
+23.7188E-09,-569.7122434103E-03
+24.0469E-09,-569.7122434103E-03
+24.3750E-09,-569.7122434103E-03
+24.7031E-09,-569.7122434103E-03
+25.0313E-09,-569.7122434103E-03
+25.3594E-09,-569.7122434103E-03
+25.6875E-09,-569.7122434103E-03
+26.0156E-09,-569.7122434103E-03
+26.3438E-09,-568.1960912370E-03
+26.6719E-09,-564.4057108038E-03
+27.0000E-09,-564.4057108038E-03
+27.3281E-09,-564.4057108038E-03
+27.6563E-09,-564.4057108038E-03
+27.9844E-09,-564.4057108038E-03
+28.3125E-09,-564.4057108038E-03
+28.6406E-09,-564.4057108038E-03
+28.9688E-09,-564.4057108038E-03
+29.2969E-09,-564.4057108038E-03
+29.6250E-09,-564.4057108038E-03
+29.9531E-09,-564.4057108038E-03
+30.2813E-09,-565.2585464013E-03
+30.6094E-09,-568.0539519708E-03
+30.9375E-09,-569.7122434103E-03
+31.2656E-09,-569.7122434103E-03
+31.5938E-09,-569.7122434103E-03
+31.9219E-09,-569.7122434103E-03
+32.2500E-09,-569.7122434103E-03
+32.5781E-09,-569.7122434103E-03
+32.9063E-09,-569.7122434103E-03
+33.2344E-09,-569.7122434103E-03
+33.5625E-09,-569.7122434103E-03
+33.8906E-09,-569.7122434103E-03
+34.2188E-09,-569.7122434103E-03
+34.5469E-09,-569.7122434103E-03
+34.8750E-09,-569.7122434103E-03
+35.2031E-09,-569.7122434103E-03
+35.5313E-09,-569.7122434103E-03
+35.8594E-09,-569.7122434103E-03
+36.1875E-09,-569.7122434103E-03
+36.5156E-09,-569.7122434103E-03
+36.8438E-09,-569.7122434103E-03
+37.1719E-09,-569.7122434103E-03
+37.5000E-09,-569.7122434103E-03
+37.8281E-09,-568.7646483020E-03
+38.1563E-09,-565.8271034663E-03
+38.4844E-09,-564.4057108038E-03
+38.8125E-09,-564.4057108038E-03
+39.1406E-09,-564.4057108038E-03
+39.4688E-09,-564.4057108038E-03
+39.7969E-09,-564.4057108038E-03
+40.1250E-09,-564.4057108038E-03
+40.4531E-09,-565.9218629771E-03
+40.7813E-09,-569.7122434103E-03
+41.1094E-09,-569.7122434103E-03
+41.4375E-09,-569.7122434103E-03
+41.7656E-09,-569.7122434103E-03
+42.0938E-09,-569.7122434103E-03
+42.4219E-09,-569.7122434103E-03
+42.7500E-09,-569.7122434103E-03
+43.0781E-09,-569.7122434103E-03
+43.4063E-09,-569.7122434103E-03
+43.7344E-09,-569.7122434103E-03
+44.0625E-09,-569.7122434103E-03
+44.3906E-09,-569.7122434103E-03
+44.7188E-09,-569.7122434103E-03
+45.0469E-09,-569.7122434103E-03
+45.3750E-09,-569.7122434103E-03
+45.7031E-09,-569.7122434103E-03
+46.0313E-09,-569.7122434103E-03
+46.3594E-09,-569.7122434103E-03
+46.6875E-09,-569.7122434103E-03
+47.0156E-09,-569.7122434103E-03
+47.3438E-09,-569.7122434103E-03
+47.6719E-09,-569.7122434103E-03
+48.0000E-09,-569.7122434103E-03
+48.3281E-09,-569.7122434103E-03
+48.6563E-09,-569.7122434103E-03
+48.9844E-09,-569.7122434103E-03
+49.3125E-09,-569.7122434103E-03
+49.6406E-09,-569.7122434103E-03
+49.9688E-09,-569.7122434103E-03
+50.2969E-09,-569.7122434103E-03
+50.6250E-09,-569.7122434103E-03
+50.9531E-09,-569.7122434103E-03
+51.2813E-09,-569.7122434103E-03
+51.6094E-09,-569.7122434103E-03
+51.9375E-09,-569.7122434103E-03
+52.2656E-09,-569.7122434103E-03
+52.5938E-09,-569.7122434103E-03
+52.9219E-09,-569.7122434103E-03
+53.2500E-09,-569.7122434103E-03
+53.5781E-09,-569.7122434103E-03
+53.9063E-09,-569.7122434103E-03
+54.2344E-09,-569.7122434103E-03
+54.5625E-09,-569.7122434103E-03
+54.8906E-09,-569.7122434103E-03
+55.2188E-09,-569.7122434103E-03
+55.5469E-09,-569.7122434103E-03
+55.8750E-09,-569.7122434103E-03
+56.2031E-09,-569.7122434103E-03
+56.5313E-09,-569.7122434103E-03
+56.8594E-09,-569.7122434103E-03
+57.1875E-09,-569.7122434103E-03
+57.5156E-09,-569.7122434103E-03
+57.8438E-09,-568.1960912370E-03
+58.1719E-09,-564.4057108038E-03
+58.5000E-09,-564.4057108038E-03
+58.8281E-09,-564.4057108038E-03
+59.1563E-09,-564.4057108038E-03
+59.4844E-09,-564.4057108038E-03
+59.8125E-09,-564.4057108038E-03
+60.1406E-09,-564.4057108038E-03
+60.4688E-09,-564.4057108038E-03
+60.7969E-09,-564.4057108038E-03
+61.1250E-09,-564.4057108038E-03
+61.4531E-09,-564.4057108038E-03
+61.7813E-09,-564.4057108038E-03
+62.1094E-09,-564.4057108038E-03
+62.4375E-09,-564.4057108038E-03
+62.7656E-09,-563.6476347172E-03
+63.0938E-09,-560.9943684140E-03
+63.4219E-09,-559.0991781974E-03
+63.7500E-09,-559.0991781974E-03
+64.0781E-09,-559.0991781974E-03
+64.4063E-09,-557.5830260241E-03
+64.7344E-09,-553.1293290151E-03
+65.0625E-09,-550.6182019781E-03
+65.3906E-09,-548.4861129844E-03
+65.7188E-09,-547.9175559194E-03
+66.0469E-09,-545.5485681487E-03
+66.3750E-09,-541.6634282046E-03
+66.7031E-09,-537.3044907064E-03
+67.0313E-09,-534.9355029357E-03
+67.3594E-09,-529.5342108184E-03
+67.6875E-09,-521.4796523978E-03
+68.0156E-09,-519.2528038933E-03
+68.3438E-09,-515.1307651722E-03
+68.6719E-09,-510.8665871849E-03
+69.0000E-09,-508.6397386804E-03
+69.3281E-09,-504.1386619159E-03
+69.6563E-09,-498.2635722445E-03
+69.9844E-09,-493.9046347463E-03
+70.3125E-09,-488.3138236073E-03
+70.6406E-09,-482.5808732021E-03
+70.9688E-09,-477.9850369268E-03
+71.2969E-09,-473.3418208962E-03
+71.6250E-09,-470.5464153267E-03
+71.9531E-09,-465.8558195406E-03
+72.2813E-09,-457.5169825875E-03
+72.6094E-09,-454.8637162843E-03
+72.9375E-09,-451.4523738944E-03
+73.2656E-09,-446.9039173746E-03
+73.5938E-09,-444.2506510713E-03
+73.9219E-09,-440.8393086815E-03
+74.2500E-09,-436.3856116724E-03
+74.5781E-09,-433.8744846355E-03
+74.9063E-09,-431.7423956418E-03
+75.2344E-09,-431.0790790660E-03
+75.5625E-09,-428.5679520290E-03
+75.8906E-09,-426.4358630353E-03
+76.2188E-09,-426.4358630353E-03
+76.5469E-09,-426.4358630353E-03
+76.8750E-09,-424.9197108620E-03
+77.2031E-09,-421.1293304288E-03
+77.5313E-09,-421.1293304288E-03
+77.8594E-09,-421.1293304288E-03
+78.1875E-09,-421.6978874938E-03
+78.5156E-09,-424.0668752645E-03
+78.8438E-09,-426.4358630353E-03
+79.1719E-09,-427.0044201003E-03
+79.5000E-09,-429.3734078710E-03
+79.8281E-09,-431.7423956418E-03
+80.1563E-09,-431.7423956418E-03
+80.4844E-09,-433.2585478151E-03
+80.8125E-09,-437.9965233566E-03
+81.1406E-09,-440.9340681923E-03
+81.4688E-09,-443.8716130280E-03
+81.7969E-09,-448.6095885695E-03
+82.1250E-09,-451.5471334053E-03
+82.4531E-09,-456.0008304143E-03
+82.7813E-09,-464.4344268781E-03
+83.1094E-09,-467.2298324476E-03
+83.4375E-09,-470.4042760604E-03
+83.7656E-09,-475.8055681778E-03
+84.0938E-09,-481.2542400505E-03
+84.4219E-09,-486.3238738799E-03
+84.7500E-09,-491.6304064864E-03
+85.0781E-09,-496.9369390929E-03
+85.4063E-09,-502.2434716993E-03
+85.7344E-09,-507.4552447950E-03
+86.0625E-09,-512.6196381352E-03
+86.3906E-09,-518.1630695188E-03
+86.7188E-09,-523.2800831036E-03
+87.0469E-09,-528.3023371776E-03
+87.3750E-09,-534.0826673382E-03
+87.7031E-09,-539.1049214122E-03
+88.0313E-09,-543.9850362200E-03
+88.3594E-09,-550.0022651577E-03
+88.6875E-09,-554.3612026559E-03
+89.0156E-09,-556.7301904266E-03
+89.3438E-09,-560.6153303706E-03
+89.6719E-09,-564.9742678688E-03
+90.0000E-09,-567.3432556396E-03
+90.3281E-09,-570.7545980295E-03
+90.6563E-09,-573.8342821314E-03
+90.9844E-09,-576.5349281901E-03
+91.3125E-09,-581.2729037316E-03
+91.6406E-09,-584.2104485673E-03
+91.9688E-09,-585.6318412298E-03
+92.2969E-09,-586.5794363381E-03
+92.6250E-09,-589.5169811738E-03
+92.9531E-09,-590.9383738363E-03
+93.2813E-09,-590.9383738363E-03
+93.6094E-09,-590.9383738363E-03
+93.9375E-09,-590.9383738363E-03
+94.2656E-09,-590.9383738363E-03
+94.5938E-09,-590.9383738363E-03
+94.9219E-09,-592.4545260095E-03
+95.2500E-09,-596.2449064427E-03
+95.5781E-09,-596.2449064427E-03
+95.9063E-09,-596.2449064427E-03
+96.2344E-09,-595.5815898669E-03
+96.5625E-09,-593.0704628299E-03
+96.8906E-09,-590.9383738363E-03
+97.2188E-09,-590.9383738363E-03
+97.5469E-09,-590.9383738363E-03
+97.8750E-09,-589.4222216630E-03
+98.2031E-09,-585.6318412298E-03
+98.5313E-09,-585.6318412298E-03
+98.8594E-09,-584.1156890565E-03
+99.1875E-09,-580.3253086233E-03
+99.5156E-09,-580.3253086233E-03
+99.8438E-09,-580.3253086233E-03
+100.1719E-09,-579.8515110691E-03
+100.5000E-09,-577.6246625646E-03
+100.8281E-09,-575.0187760168E-03
+101.1563E-09,-575.0187760168E-03
+101.4844E-09,-575.0187760168E-03
+101.8125E-09,-574.1659404193E-03
+102.1406E-09,-571.3705348498E-03
+102.4688E-09,-569.7122434103E-03
+102.7969E-09,-569.7122434103E-03
+103.1250E-09,-569.7122434103E-03
+103.4531E-09,-568.1960912370E-03
+103.7813E-09,-564.4057108038E-03
+104.1094E-09,-564.4057108038E-03
+104.4375E-09,-564.4057108038E-03
+104.7656E-09,-564.4057108038E-03
+105.0938E-09,-564.4057108038E-03
+105.4219E-09,-564.4057108038E-03
+105.7500E-09,-564.4057108038E-03
+106.0781E-09,-564.4057108038E-03
+106.4063E-09,-564.4057108038E-03
+106.7344E-09,-564.4057108038E-03
+107.0625E-09,-564.4057108038E-03
+107.3906E-09,-564.4057108038E-03
+107.7188E-09,-564.4057108038E-03
+108.0469E-09,-564.4057108038E-03
+108.3750E-09,-564.4057108038E-03
+108.7031E-09,-565.0690273797E-03
+109.0313E-09,-567.5801544167E-03
+109.3594E-09,-569.7122434103E-03
+109.6875E-09,-569.7122434103E-03
+110.0156E-09,-569.7122434103E-03
+110.3438E-09,-569.7122434103E-03
+110.6719E-09,-569.7122434103E-03
+111.0000E-09,-569.7122434103E-03
+111.3281E-09,-569.7122434103E-03
+111.6563E-09,-569.7122434103E-03
+111.9844E-09,-569.7122434103E-03
+112.3125E-09,-569.7122434103E-03
+112.6406E-09,-569.7122434103E-03
+112.9688E-09,-569.7122434103E-03
+113.2969E-09,-569.7122434103E-03
+113.6250E-09,-569.7122434103E-03
+113.9531E-09,-569.7122434103E-03
+114.2813E-09,-569.7122434103E-03
+114.6094E-09,-569.7122434103E-03
+114.9375E-09,-569.7122434103E-03
+115.2656E-09,-569.7122434103E-03
+115.5938E-09,-569.7122434103E-03
+115.9219E-09,-569.7122434103E-03
+116.2500E-09,-569.7122434103E-03
+116.5781E-09,-569.7122434103E-03
+116.9063E-09,-569.7122434103E-03
+117.2344E-09,-569.7122434103E-03
+117.5625E-09,-569.7122434103E-03
+117.8906E-09,-569.7122434103E-03
+118.2188E-09,-569.7122434103E-03
+118.5469E-09,-569.7122434103E-03
+118.8750E-09,-569.7122434103E-03
+119.2031E-09,-569.7122434103E-03
+119.5313E-09,-569.7122434103E-03
+119.8594E-09,-571.2283955836E-03
+120.1875E-09,-575.0187760168E-03
+120.5156E-09,-575.0187760168E-03
+120.8438E-09,-575.0187760168E-03
+121.1719E-09,-575.0187760168E-03
+121.5000E-09,-575.0187760168E-03
+121.8281E-09,-575.0187760168E-03
+122.1563E-09,-575.0187760168E-03
+122.4844E-09,-575.0187760168E-03
+122.8125E-09,-575.0187760168E-03
+123.1406E-09,-575.0187760168E-03
+123.4688E-09,-575.0187760168E-03
+123.7969E-09,-575.0187760168E-03
+124.1250E-09,-575.0187760168E-03
+124.4531E-09,-575.0187760168E-03
+124.7813E-09,-575.0187760168E-03
+125.1094E-09,-575.0187760168E-03
+125.4375E-09,-575.0187760168E-03
+125.7656E-09,-575.0187760168E-03
+126.0938E-09,-575.0187760168E-03
+126.4219E-09,-575.0187760168E-03
+126.7500E-09,-575.0187760168E-03
+127.0781E-09,-575.0187760168E-03
+127.4063E-09,-575.0187760168E-03
+127.7344E-09,-575.0187760168E-03
+128.0625E-09,-575.0187760168E-03
+128.3906E-09,-575.0187760168E-03
+128.7188E-09,-574.4502189518E-03
+129.0469E-09,-572.0812311811E-03
+129.3750E-09,-569.7122434103E-03
+129.7031E-09,-569.7122434103E-03
+130.0313E-09,-569.7122434103E-03
+130.3594E-09,-569.7122434103E-03
+130.6875E-09,-569.7122434103E-03
+131.0156E-09,-569.7122434103E-03
+131.3438E-09,-569.7122434103E-03
+131.6719E-09,-569.7122434103E-03
