x-axis,1
second,Volt
-78.0000E-09,-949.4775565290E-03
-77.6719E-09,-949.4775565290E-03
-77.3438E-09,-949.4775565290E-03
-77.0156E-09,-949.4775565290E-03
-76.6875E-09,-949.4775565290E-03
-76.3594E-09,-949.4775565290E-03
-76.0313E-09,-949.4775565290E-03
-75.7031E-09,-949.4775565290E-03
-75.3750E-09,-949.4775565290E-03
-75.0469E-09,-949.4775565290E-03
-74.7187E-09,-949.4775565290E-03
-74.3906E-09,-949.4775565290E-03
-74.0625E-09,-949.4775565290E-03
-73.7344E-09,-949.4775565290E-03
-73.4062E-09,-949.4775565290E-03
-73.0781E-09,-949.4775565290E-03
-72.7500E-09,-949.4775565290E-03
-72.4219E-09,-949.4775565290E-03
-72.0937E-09,-949.4775565290E-03
-71.7656E-09,-949.4775565290E-03
-71.4375E-09,-949.4775565290E-03
-71.1094E-09,-949.4775565290E-03
-70.7812E-09,-949.4775565290E-03
-70.4531E-09,-949.4775565290E-03
-70.1250E-09,-949.4775565290E-03
-69.7969E-09,-949.4775565290E-03
-69.4687E-09,-949.4775565290E-03
-69.1406E-09,-949.4775565290E-03
-68.8125E-09,-949.4775565290E-03
-68.4844E-09,-949.4775565290E-03
-68.1562E-09,-949.4775565290E-03
-67.8281E-09,-949.4775565290E-03
-67.5000E-09,-949.4775565290E-03
-67.1719E-09,-949.4775565290E-03
-66.8437E-09,-949.4775565290E-03
-66.5156E-09,-949.4775565290E-03
-66.1875E-09,-949.4775565290E-03
-65.8594E-09,-949.4775565290E-03
-65.5312E-09,-949.4775565290E-03
-65.2031E-09,-949.4775565290E-03
-64.8750E-09,-949.4775565290E-03
-64.5469E-09,-949.4775565290E-03
-64.2187E-09,-949.4775565290E-03
-63.8906E-09,-949.4775565290E-03
-63.5625E-09,-949.4775565290E-03
-63.2344E-09,-949.4775565290E-03
-62.9062E-09,-949.4775565290E-03
-62.5781E-09,-949.4775565290E-03
-62.2500E-09,-949.4775565290E-03
-61.9219E-09,-949.4775565290E-03
-61.5937E-09,-949.4775565290E-03
-61.2656E-09,-949.4775565290E-03
-60.9375E-09,-949.4775565290E-03
-60.6094E-09,-949.4775565290E-03
-60.2812E-09,-949.4775565290E-03
-59.9531E-09,-949.4775565290E-03
-59.6250E-09,-949.4775565290E-03
-59.2969E-09,-949.4775565290E-03
-58.9687E-09,-949.4775565290E-03
-58.6406E-09,-949.4775565290E-03
-58.3125E-09,-949.4775565290E-03
-57.9844E-09,-949.4775565290E-03
-57.6562E-09,-949.4775565290E-03
-57.3281E-09,-949.4775565290E-03
-57.0000E-09,-949.4775565290E-03
-56.6719E-09,-949.4775565290E-03
-56.3437E-09,-949.4775565290E-03
-56.0156E-09,-949.4775565290E-03
-55.6875E-09,-949.4775565290E-03
-55.3594E-09,-949.4775565290E-03
-55.0312E-09,-949.4775565290E-03
-54.7031E-09,-949.4775565290E-03
-54.3750E-09,-949.4775565290E-03
-54.0469E-09,-949.4775565290E-03
-53.7187E-09,-949.4775565290E-03
-53.3906E-09,-949.4775565290E-03
-53.0625E-09,-949.4775565290E-03
-52.7344E-09,-949.4775565290E-03
-52.4062E-09,-949.4775565290E-03
-52.0781E-09,-949.4775565290E-03
-51.7500E-09,-949.4775565290E-03
-51.4219E-09,-949.4775565290E-03
-51.0937E-09,-949.4775565290E-03
-50.7656E-09,-949.4775565290E-03
-50.4375E-09,-949.4775565290E-03
-50.1094E-09,-949.4775565290E-03
-49.7812E-09,-949.4775565290E-03
-49.4531E-09,-949.4775565290E-03
-49.1250E-09,-949.4775565290E-03
-48.7969E-09,-949.4775565290E-03
-48.4687E-09,-949.4775565290E-03
-48.1406E-09,-949.4775565290E-03
-47.8125E-09,-949.4775565290E-03
-47.4844E-09,-949.4775565290E-03
-47.1562E-09,-949.4775565290E-03
-46.8281E-09,-949.4775565290E-03
-46.5000E-09,-949.4775565290E-03
-46.1719E-09,-949.4775565290E-03
-45.8437E-09,-949.4775565290E-03
-45.5156E-09,-949.4775565290E-03
-45.1875E-09,-949.4775565290E-03
-44.8594E-09,-949.4775565290E-03
-44.5312E-09,-949.4775565290E-03
-44.2031E-09,-949.4775565290E-03
-43.8750E-09,-949.4775565290E-03
-43.5469E-09,-949.4775565290E-03
-43.2187E-09,-949.4775565290E-03
-42.8906E-09,-949.4775565290E-03
-42.5625E-09,-949.4775565290E-03
-42.2344E-09,-947.9614043557E-03
-41.9062E-09,-944.1710239225E-03
-41.5781E-09,-944.1710239225E-03
-41.2500E-09,-944.1710239225E-03
-40.9219E-09,-943.5077073467E-03
-40.5937E-09,-940.9965803097E-03
-40.2656E-09,-938.8644913161E-03
-39.9375E-09,-938.2959342511E-03
-39.6094E-09,-935.9269464803E-03
-39.2812E-09,-932.0418065363E-03
-38.9531E-09,-927.6828690381E-03
-38.6250E-09,-925.3138812674E-03
-38.2969E-09,-921.4287413233E-03
-37.9687E-09,-916.5960062710E-03
-37.6406E-09,-912.0001699957E-03
-37.3125E-09,-905.5091435039E-03
-36.9844E-09,-900.7711679624E-03
-36.6562E-09,-896.3174709534E-03
-36.3281E-09,-888.1681530220E-03
-36.0000E-09,-879.2133792485E-03
-35.6719E-09,-870.6376435184E-03
-35.3437E-09,-856.5184764047E-03
-35.0156E-09,-847.8479811638E-03
-34.6875E-09,-837.2822957062E-03
-34.3594E-09,-818.6146720727E-03
-34.0312E-09,-807.2909105285E-03
-33.7031E-09,-794.8300348544E-03
-33.3750E-09,-775.4990946451E-03
-33.0469E-09,-761.6642060639E-03
-32.7187E-09,-744.0389370495E-03
-32.3906E-09,-716.5586789088E-03
-32.0625E-09,-700.3548025568E-03
-31.7344E-09,-680.3605457717E-03
-31.4062E-09,-653.1645661635E-03
-31.0781E-09,-637.3871076103E-03
-30.7500E-09,-616.6821544939E-03
-30.4219E-09,-589.1071368424E-03
-30.0937E-09,-571.2449690509E-03
-29.7656E-09,-546.1810784363E-03
-29.4375E-09,-515.0999588841E-03
-29.1094E-09,-497.6642088914E-03
-28.7812E-09,-471.8896219456E-03
-28.4531E-09,-441.1875404367E-03
-28.1250E-09,-424.3203475089E-03
-27.7969E-09,-397.5981654548E-03
-27.4687E-09,-367.7489195434E-03
-27.1406E-09,-353.6771321851E-03
-26.8125E-09,-328.6132415706E-03
-26.4844E-09,-299.0482741916E-03
-26.1562E-09,-285.4029046321E-03
-25.8281E-09,-264.3662932278E-03
-25.5000E-09,-246.4567456809E-03
-25.1719E-09,-229.3052742207E-03
-24.8437E-09,-201.9197755908E-03
-24.5156E-09,-187.3741906784E-03
-24.1875E-09,-172.4495677226E-03
-23.8594E-09,-149.9915636559E-03
-23.5312E-09,-138.6678021117E-03
-23.2031E-09,-127.7230786109E-03
-22.8750E-09,-113.8881900297E-03
-22.5469E-09,-105.6441125875E-03
-22.2187E-09,-97.4000351453E-03
-21.8906E-09,-88.3031221056E-03
-21.5625E-09,-82.9965894991E-03
-21.2344E-09,-79.2062090659E-03
-20.9062E-09,-79.2062090659E-03
-20.5781E-09,-79.2062090659E-03
-20.2500E-09,-79.2062090659E-03
-19.9219E-09,-80.6276017283E-03
-19.5937E-09,-85.7919950686E-03
-19.2656E-09,-92.8515786254E-03
-18.9375E-09,-102.4222892193E-03
-18.6094E-09,-109.9556703302E-03
-18.2812E-09,-122.4165460044E-03
-17.9531E-09,-140.0418150188E-03
-17.6250E-09,-149.8020446343E-03
-17.2969E-09,-166.3849590295E-03
-16.9687E-09,-188.7482035854E-03
-16.6406E-09,-202.9621302099E-03
-16.3125E-09,-226.2729698741E-03
-15.9844E-09,-252.1423163307E-03
-15.6562E-09,-265.9298251565E-03
-15.3281E-09,-287.7718924028E-03
-15.0000E-09,-308.7611240517E-03
-14.6719E-09,-328.6132415706E-03
-14.3437E-09,-362.6319059586E-03
-14.0156E-09,-385.9901253782E-03
-13.6875E-09,-408.2112306678E-03
-13.3594E-09,-441.8508570125E-03
-13.0312E-09,-464.6405193671E-03
-12.7031E-09,-487.8092197651E-03
-12.3750E-09,-521.0698080664E-03
-12.0469E-09,-543.2909133560E-03
-11.7187E-09,-567.4072088623E-03
-11.3906E-09,-599.5306830337E-03
-11.0625E-09,-618.5299649551E-03
-10.7344E-09,-641.6986653531E-03
-10.4062E-09,-672.7797849053E-03
-10.0781E-09,-688.6993827247E-03
-9.7500E-09,-709.1674370640E-03
-9.4219E-09,-736.1738976506E-03
-9.0937E-09,-751.6670776713E-03
-8.7656E-09,-771.3296761685E-03
-8.4375E-09,-793.5981612136E-03
-8.1094E-09,-806.1537963986E-03
-7.7812E-09,-824.3950022334E-03
-7.4531E-09,-845.8106516810E-03
-7.1250E-09,-855.5708812965E-03
-6.7969E-09,-869.1214913451E-03
-6.4687E-09,-882.1983038397E-03
-6.1406E-09,-889.3052671519E-03
-5.8125E-09,-900.9606869840E-03
-5.4844E-09,-913.3741829028E-03
-5.1562E-09,-917.9700191780E-03
-4.8281E-09,-924.9348432240E-03
-4.5000E-09,-930.9520721617E-03
-4.1719E-09,-935.0741108829E-03
-3.8437E-09,-939.8120864244E-03
-3.5156E-09,-942.7496312601E-03
-3.1875E-09,-945.6871760958E-03
-2.8594E-09,-949.4775565290E-03
-2.5312E-09,-949.4775565290E-03
-2.2031E-09,-949.4775565290E-03
-1.8750E-09,-949.4775565290E-03
-1.5469E-09,-949.4775565290E-03
-1.2187E-09,-949.4775565290E-03
-890.6E-12,-948.7194804424E-03
-562.5E-12,-946.0662141391E-03
-234.4E-12,-944.1710239225E-03
+93.8E-12,-943.5077073467E-03
+421.9E-12,-940.9965803097E-03
+750.0E-12,-938.8644913161E-03
+1.0781E-09,-938.2011747402E-03
+1.4063E-09,-935.6900477032E-03
+1.7344E-09,-932.0418065363E-03
+2.0625E-09,-928.2514261031E-03
+2.3906E-09,-928.2514261031E-03
+2.7188E-09,-926.7352739298E-03
+3.0469E-09,-922.9448934966E-03
+3.3750E-09,-922.9448934966E-03
+3.7031E-09,-921.4287413233E-03
+4.0313E-09,-917.6383608901E-03
+4.3594E-09,-917.6383608901E-03
+4.6875E-09,-917.6383608901E-03
+5.0156E-09,-917.6383608901E-03
+5.3438E-09,-917.6383608901E-03
+5.6719E-09,-918.6807155093E-03
+6.0000E-09,-921.7603996112E-03
+6.3281E-09,-922.9448934966E-03
+6.6563E-09,-923.8924886049E-03
+6.9844E-09,-926.8300334406E-03
+7.3125E-09,-928.2514261031E-03
+7.6406E-09,-929.1990212114E-03
+7.9688E-09,-932.1365660471E-03
+8.2969E-09,-933.5579587096E-03
+8.6250E-09,-934.4107943070E-03
+8.9531E-09,-937.2061998765E-03
+9.2813E-09,-938.8644913161E-03
+9.6094E-09,-939.7173269135E-03
+9.9375E-09,-942.5127324830E-03
+10.2656E-09,-944.1710239225E-03
+10.5938E-09,-944.1710239225E-03
+10.9219E-09,-944.1710239225E-03
+11.2500E-09,-944.1710239225E-03
+11.5781E-09,-944.1710239225E-03
+11.9063E-09,-944.1710239225E-03
+12.2344E-09,-944.1710239225E-03
+12.5625E-09,-944.1710239225E-03
+12.8906E-09,-944.1710239225E-03
+13.2188E-09,-944.1710239225E-03
+13.5469E-09,-943.6024668576E-03
+13.8750E-09,-941.2334790868E-03
+14.2031E-09,-938.8644913161E-03
+14.5313E-09,-938.8644913161E-03
+14.8594E-09,-938.8644913161E-03
+15.1875E-09,-938.8644913161E-03
+15.5156E-09,-938.3906937619E-03
+15.8438E-09,-936.1638452574E-03
+16.1719E-09,-933.5579587096E-03
+16.5000E-09,-933.5579587096E-03
+16.8281E-09,-933.5579587096E-03
+17.1563E-09,-933.5579587096E-03
+17.4844E-09,-933.5579587096E-03
+17.8125E-09,-933.5579587096E-03
+18.1406E-09,-934.5055538179E-03
+18.4688E-09,-937.4430986536E-03
+18.7969E-09,-938.8644913161E-03
+19.1250E-09,-938.8644913161E-03
+19.4531E-09,-938.8644913161E-03
+19.7813E-09,-938.8644913161E-03
+20.1094E-09,-939.7173269135E-03
+20.4375E-09,-942.5127324830E-03
+20.7656E-09,-944.1710239225E-03
+21.0938E-09,-944.1710239225E-03
+21.4219E-09,-944.1710239225E-03
+21.7500E-09,-944.1710239225E-03
+22.0781E-09,-944.9291000092E-03
+22.4063E-09,-947.5823663124E-03
+22.7344E-09,-949.4775565290E-03
+23.0625E-09,-949.4775565290E-03
+23.3906E-09,-949.4775565290E-03
+23.7188E-09,-947.9614043557E-03
+24.0469E-09,-944.1710239225E-03
+24.3750E-09,-944.1710239225E-03
+24.7031E-09,-944.1710239225E-03
+25.0313E-09,-944.1710239225E-03
+25.3594E-09,-944.1710239225E-03
+25.6875E-09,-944.1710239225E-03
+26.0156E-09,-944.1710239225E-03
+26.3438E-09,-944.1710239225E-03
+26.6719E-09,-943.2234288142E-03
+27.0000E-09,-940.2858839785E-03
+27.3281E-09,-938.8644913161E-03
+27.6563E-09,-939.8120864244E-03
+27.9844E-09,-942.7496312601E-03
+28.3125E-09,-944.1710239225E-03
+28.6406E-09,-944.1710239225E-03
+28.9688E-09,-944.1710239225E-03
+29.2969E-09,-944.1710239225E-03
+29.6250E-09,-944.1710239225E-03
+29.9531E-09,-944.1710239225E-03
+30.2813E-09,-944.1710239225E-03
+30.6094E-09,-944.1710239225E-03
+30.9375E-09,-944.1710239225E-03
+31.2656E-09,-944.1710239225E-03
+31.5938E-09,-944.1710239225E-03
+31.9219E-09,-944.1710239225E-03
+32.2500E-09,-944.1710239225E-03
+32.5781E-09,-944.1710239225E-03
+32.9063E-09,-944.1710239225E-03
+33.2344E-09,-944.1710239225E-03
+33.5625E-09,-944.1710239225E-03
+33.8906E-09,-944.1710239225E-03
+34.2188E-09,-944.1710239225E-03
+34.5469E-09,-944.1710239225E-03
+34.8750E-09,-944.1710239225E-03
+35.2031E-09,-944.1710239225E-03
+35.5313E-09,-944.1710239225E-03
+35.8594E-09,-944.1710239225E-03
+36.1875E-09,-944.1710239225E-03
+36.5156E-09,-944.1710239225E-03
+36.8438E-09,-944.1710239225E-03
+37.1719E-09,-944.1710239225E-03
+37.5000E-09,-944.1710239225E-03
+37.8281E-09,-944.1710239225E-03
+38.1563E-09,-944.1710239225E-03
+38.4844E-09,-944.1710239225E-03
+38.8125E-09,-944.1710239225E-03
+39.1406E-09,-944.1710239225E-03
+39.4688E-09,-944.1710239225E-03
+39.7969E-09,-944.1710239225E-03
+40.1250E-09,-944.1710239225E-03
+40.4531E-09,-944.1710239225E-03
+40.7813E-09,-944.1710239225E-03
+41.1094E-09,-944.1710239225E-03
+41.4375E-09,-944.1710239225E-03
+41.7656E-09,-944.1710239225E-03
+42.0938E-09,-944.1710239225E-03
+42.4219E-09,-944.1710239225E-03
+42.7500E-09,-944.1710239225E-03
+43.0781E-09,-944.1710239225E-03
+43.4063E-09,-944.1710239225E-03
+43.7344E-09,-944.1710239225E-03
+44.0625E-09,-944.1710239225E-03
+44.3906E-09,-944.1710239225E-03
+44.7188E-09,-944.1710239225E-03
+45.0469E-09,-944.1710239225E-03
+45.3750E-09,-944.1710239225E-03
+45.7031E-09,-944.1710239225E-03
+46.0313E-09,-944.1710239225E-03
+46.3594E-09,-944.1710239225E-03
+46.6875E-09,-944.1710239225E-03
+47.0156E-09,-944.1710239225E-03
+47.3438E-09,-944.1710239225E-03
+47.6719E-09,-944.1710239225E-03
+48.0000E-09,-944.1710239225E-03
+48.3281E-09,-944.1710239225E-03
+48.6563E-09,-944.1710239225E-03
+48.9844E-09,-944.1710239225E-03
+49.3125E-09,-944.1710239225E-03
+49.6406E-09,-944.1710239225E-03
+49.9688E-09,-944.1710239225E-03
+50.2969E-09,-944.1710239225E-03
+50.6250E-09,-945.0238595200E-03
+50.9531E-09,-947.8192650895E-03
+51.2813E-09,-949.4775565290E-03
+51.6094E-09,-949.4775565290E-03
+51.9375E-09,-949.4775565290E-03
+52.2656E-09,-949.4775565290E-03
+52.5938E-09,-949.4775565290E-03
+52.9219E-09,-949.4775565290E-03
+53.2500E-09,-949.4775565290E-03
+53.5781E-09,-949.4775565290E-03
+53.9063E-09,-949.4775565290E-03
+54.2344E-09,-949.4775565290E-03
+54.5625E-09,-949.4775565290E-03
+54.8906E-09,-949.4775565290E-03
+55.2188E-09,-949.4775565290E-03
+55.5469E-09,-949.4775565290E-03
+55.8750E-09,-949.4775565290E-03
+56.2031E-09,-949.4775565290E-03
+56.5313E-09,-949.4775565290E-03
+56.8594E-09,-949.4775565290E-03
+57.1875E-09,-949.4775565290E-03
+57.5156E-09,-949.0037589749E-03
+57.8438E-09,-946.7769104704E-03
+58.1719E-09,-944.1710239225E-03
+58.5000E-09,-944.1710239225E-03
+58.8281E-09,-944.1710239225E-03
+59.1563E-09,-944.1710239225E-03
+59.4844E-09,-944.1710239225E-03
+59.8125E-09,-944.1710239225E-03
+60.1406E-09,-944.1710239225E-03
+60.4688E-09,-944.1710239225E-03
+60.7969E-09,-944.1710239225E-03
+61.1250E-09,-943.4129478359E-03
+61.4531E-09,-940.7596815327E-03
+61.7813E-09,-938.8644913161E-03
+62.1094E-09,-938.8644913161E-03
+62.4375E-09,-938.8644913161E-03
+62.7656E-09,-937.3483391428E-03
+63.0938E-09,-933.5579587096E-03
+63.4219E-09,-933.5579587096E-03
+63.7500E-09,-932.0418065363E-03
+64.0781E-09,-927.5881095273E-03
+64.4063E-09,-925.0769824903E-03
+64.7344E-09,-921.4287413233E-03
+65.0625E-09,-917.0698038251E-03
+65.3906E-09,-914.7008160544E-03
+65.7188E-09,-909.2995239371E-03
+66.0469E-09,-900.5816489407E-03
+66.3750E-09,-895.8436733992E-03
+66.7031E-09,-888.0733935111E-03
+67.0313E-09,-879.4502780256E-03
+67.3594E-09,-874.8544417504E-03
+67.6875E-09,-865.3311109119E-03
+68.0156E-09,-852.4438174390E-03
+68.3438E-09,-845.6211326593E-03
+68.6719E-09,-835.1028269571E-03
+69.0000E-09,-826.1480531837E-03
+69.3281E-09,-817.5723174536E-03
+69.6563E-09,-802.5055552316E-03
+69.9844E-09,-790.8975151549E-03
+70.3125E-09,-778.9104370349E-03
+70.6406E-09,-760.2428134014E-03
+70.9688E-09,-748.9190518572E-03
+71.2969E-09,-734.9420240098E-03
+71.6250E-09,-711.8207033673E-03
+71.9531E-09,-697.9858147861E-03
+72.2813E-09,-681.8766979450E-03
+72.6094E-09,-659.0396558349E-03
+72.9375E-09,-645.6311850525E-03
+73.2656E-09,-628.8113718801E-03
+73.5938E-09,-606.1638487918E-03
+73.9219E-09,-593.0396565418E-03
+74.2500E-09,-575.7460458153E-03
+74.5781E-09,-552.6247251728E-03
+74.9063E-09,-537.2736844183E-03
+75.2344E-09,-517.3741871440E-03
+75.5625E-09,-495.2004616098E-03
+75.8906E-09,-482.7869656910E-03
+76.2188E-09,-464.3088610792E-03
+76.5469E-09,-442.9879711424E-03
+76.8750E-09,-433.3698807932E-03
+77.2031E-09,-416.5500676208E-03
+77.5313E-09,-395.4186967057E-03
+77.8594E-09,-386.0848848890E-03
+78.1875E-09,-370.3074263358E-03
+78.5156E-09,-353.6297524297E-03
+78.8438E-09,-346.8070676499E-03
+79.1719E-09,-336.2887619478E-03
+79.5000E-09,-327.3339881744E-03
+79.8281E-09,-318.7582524442E-03
+80.1563E-09,-305.5866804389E-03
+80.4844E-09,-299.8537300336E-03
+80.8125E-09,-293.7417415851E-03
+81.1406E-09,-285.3081451212E-03
+81.4688E-09,-282.5127395517E-03
+81.7969E-09,-279.3382959389E-03
+82.1250E-09,-275.5479155057E-03
+82.4531E-09,-275.5479155057E-03
+82.7813E-09,-275.5479155057E-03
+83.1094E-09,-276.4007511032E-03
+83.4375E-09,-279.1961566727E-03
+83.7656E-09,-282.3706002855E-03
+84.0938E-09,-287.6771328920E-03
+84.4219E-09,-292.9836654985E-03
+84.7500E-09,-301.3225024515E-03
+85.0781E-09,-314.8731125002E-03
+85.4063E-09,-322.6907721437E-03
+85.7344E-09,-333.1616980904E-03
+86.0625E-09,-347.1861056933E-03
+86.3906E-09,-357.2306138413E-03
+86.7188E-09,-371.8235785091E-03
+87.0469E-09,-390.0174045884E-03
+87.3750E-09,-402.1466219747E-03
+87.7031E-09,-419.5823719674E-03
+88.0313E-09,-437.5866790251E-03
+88.3594E-09,-449.4316178789E-03
+88.6875E-09,-468.8573175991E-03
+89.0156E-09,-490.9362836224E-03
+89.3438E-09,-504.7237924482E-03
+89.6719E-09,-524.5759099671E-03
+90.0000E-09,-539.5479126783E-03
+90.3281E-09,-553.7618393028E-03
+90.6563E-09,-577.4517170103E-03
+90.9844E-09,-592.1394411889E-03
+91.3125E-09,-606.8271653676E-03
+91.6406E-09,-630.2327645426E-03
+91.9688E-09,-644.4940709225E-03
+92.2969E-09,-659.8924914324E-03
+92.6250E-09,-683.1085715858E-03
+92.9531E-09,-697.0855994332E-03
+93.2813E-09,-712.9578174973E-03
+93.6094E-09,-735.1315430315E-03
+93.9375E-09,-746.0288867769E-03
+94.2656E-09,-759.2004587823E-03
+94.5938E-09,-777.3942848617E-03
+94.9219E-09,-788.0073500746E-03
+95.2500E-09,-800.1365674609E-03
+95.5781E-09,-814.3504940854E-03
+95.9063E-09,-824.6792807659E-03
+96.2344E-09,-837.2822957063E-03
+96.5625E-09,-849.9800701575E-03
+96.8906E-09,-855.0023242315E-03
+97.2188E-09,-862.2988065654E-03
+97.5469E-09,-871.1114410726E-03
+97.8750E-09,-875.9915558803E-03
+98.2031E-09,-883.5249369913E-03
+98.5313E-09,-891.6742549227E-03
+98.8594E-09,-894.0432426934E-03
+99.1875E-09,-897.9283826375E-03
+99.5156E-09,-902.2873201357E-03
+99.8438E-09,-904.6563079064E-03
+100.1719E-09,-907.0252956772E-03
+100.5000E-09,-907.0252956772E-03
+100.8281E-09,-907.0252956772E-03
+101.1563E-09,-907.0252956772E-03
+101.4844E-09,-907.0252956772E-03
+101.8125E-09,-907.0252956772E-03
+102.1406E-09,-907.0252956772E-03
+102.4688E-09,-907.0252956772E-03
+102.7969E-09,-907.0252956772E-03
+103.1250E-09,-907.0252956772E-03
+103.4531E-09,-907.0252956772E-03
+103.7813E-09,-905.5091435039E-03
+104.1094E-09,-901.7187630707E-03
+104.4375E-09,-901.7187630707E-03
+104.7656E-09,-901.7187630707E-03
+105.0938E-09,-901.0554464949E-03
+105.4219E-09,-898.5443194579E-03
+105.7500E-09,-896.4122304642E-03
+106.0781E-09,-896.4122304642E-03
+106.4063E-09,-896.4122304642E-03
+106.7344E-09,-896.4122304642E-03
+107.0625E-09,-896.4122304642E-03
+107.3906E-09,-896.4122304642E-03
+107.7188E-09,-896.4122304642E-03
+108.0469E-09,-896.4122304642E-03
+108.3750E-09,-896.4122304642E-03
+108.7031E-09,-896.4122304642E-03
+109.0313E-09,-896.4122304642E-03
+109.3594E-09,-896.4122304642E-03
+109.6875E-09,-896.4122304642E-03
+110.0156E-09,-896.9807875292E-03
+110.3438E-09,-899.3497752999E-03
+110.6719E-09,-901.7187630707E-03
+111.0000E-09,-901.7187630707E-03
+111.3281E-09,-901.7187630707E-03
+111.6563E-09,-901.7187630707E-03
+111.9844E-09,-901.7187630707E-03
+112.3125E-09,-901.7187630707E-03
+112.6406E-09,-902.6663581790E-03
+112.9688E-09,-905.6039030147E-03
+113.2969E-09,-907.0252956772E-03
+113.6250E-09,-907.0252956772E-03
+113.9531E-09,-907.0252956772E-03
+114.2813E-09,-907.0252956772E-03
+114.6094E-09,-907.8781312746E-03
+114.9375E-09,-910.6735368441E-03
+115.2656E-09,-912.3318282836E-03
+115.5938E-09,-912.3318282836E-03
+115.9219E-09,-912.3318282836E-03
+116.2500E-09,-912.3318282836E-03
+116.5781E-09,-912.3318282836E-03
+116.9063E-09,-912.3318282836E-03
+117.2344E-09,-913.8479804569E-03
+117.5625E-09,-917.6383608901E-03
+117.8906E-09,-917.6383608901E-03
+118.2188E-09,-917.6383608901E-03
+118.5469E-09,-917.6383608901E-03
+118.8750E-09,-917.6383608901E-03
+119.2031E-09,-917.6383608901E-03
+119.5313E-09,-917.6383608901E-03
+119.8594E-09,-917.6383608901E-03
+120.1875E-09,-919.1545130634E-03
+120.5156E-09,-922.9448934966E-03
+120.8438E-09,-922.9448934966E-03
+121.1719E-09,-922.9448934966E-03
+121.5000E-09,-922.9448934966E-03
+121.8281E-09,-924.4610456699E-03
+122.1563E-09,-928.2514261031E-03
+122.4844E-09,-928.2514261031E-03
+122.8125E-09,-928.2514261031E-03
+123.1406E-09,-929.1990212114E-03
+123.4688E-09,-932.1365660471E-03
+123.7969E-09,-933.5579587096E-03
+124.1250E-09,-933.5579587096E-03
+124.4531E-09,-933.5579587096E-03
+124.7813E-09,-935.0741108829E-03
+125.1094E-09,-938.8644913161E-03
+125.4375E-09,-938.8644913161E-03
+125.7656E-09,-938.8644913161E-03
+126.0938E-09,-938.8644913161E-03
+126.4219E-09,-938.8644913161E-03
+126.7500E-09,-938.8644913161E-03
+127.0781E-09,-939.6225674027E-03
+127.4063E-09,-942.2758337059E-03
+127.7344E-09,-942.6548717492E-03
+128.0625E-09,-938.8644913161E-03
+128.3906E-09,-938.8644913161E-03
+128.7188E-09,-938.8644913161E-03
+129.0469E-09,-938.8644913161E-03
+129.3750E-09,-938.8644913161E-03
+129.7031E-09,-938.8644913161E-03
+130.0313E-09,-938.8644913161E-03
+130.3594E-09,-938.8644913161E-03
+130.6875E-09,-938.8644913161E-03
+131.0156E-09,-938.8644913161E-03
+131.3438E-09,-938.8644913161E-03
+131.6719E-09,-938.8644913161E-03
