x-axis,1
second,Volt
-78.0000E-09,-363.4547070506E-03
-77.6719E-09,-363.4547070506E-03
-77.3438E-09,-363.4547070506E-03
-77.0156E-09,-363.4547070506E-03
-76.6875E-09,-363.4547070506E-03
-76.3594E-09,-364.3190286493E-03
-76.0313E-09,-367.5911032733E-03
-75.7031E-09,-370.3692798408E-03
-75.3750E-09,-370.3692798408E-03
-75.0469E-09,-370.3692798408E-03
-74.7187E-09,-370.3692798408E-03
-74.3906E-09,-369.7519072703E-03
-74.0625E-09,-366.8502561886E-03
-73.7344E-09,-363.4547070506E-03
-73.4062E-09,-363.4547070506E-03
-73.0781E-09,-363.4547070506E-03
-72.7500E-09,-363.4547070506E-03
-72.4219E-09,-363.4547070506E-03
-72.0937E-09,-363.4547070506E-03
-71.7656E-09,-363.4547070506E-03
-71.4375E-09,-363.4547070506E-03
-71.1094E-09,-363.4547070506E-03
-70.7812E-09,-363.4547070506E-03
-70.4531E-09,-363.4547070506E-03
-70.1250E-09,-363.4547070506E-03
-69.7969E-09,-363.4547070506E-03
-69.4687E-09,-363.4547070506E-03
-69.1406E-09,-363.4547070506E-03
-68.8125E-09,-363.4547070506E-03
-68.4844E-09,-363.4547070506E-03
-68.1562E-09,-363.4547070506E-03
-67.8281E-09,-363.4547070506E-03
-67.5000E-09,-363.4547070506E-03
-67.1719E-09,-363.4547070506E-03
-66.8437E-09,-363.4547070506E-03
-66.5156E-09,-363.4547070506E-03
-66.1875E-09,-363.4547070506E-03
-65.8594E-09,-363.4547070506E-03
-65.5312E-09,-363.4547070506E-03
-65.2031E-09,-363.4547070506E-03
-64.8750E-09,-363.4547070506E-03
-64.5469E-09,-363.4547070506E-03
-64.2187E-09,-363.4547070506E-03
-63.8906E-09,-363.4547070506E-03
-63.5625E-09,-363.4547070506E-03
-63.2344E-09,-363.4547070506E-03
-62.9062E-09,-363.4547070506E-03
-62.5781E-09,-363.4547070506E-03
-62.2500E-09,-363.4547070506E-03
-61.9219E-09,-363.4547070506E-03
-61.5937E-09,-363.4547070506E-03
-61.2656E-09,-363.4547070506E-03
-60.9375E-09,-363.4547070506E-03
-60.6094E-09,-363.4547070506E-03
-60.2812E-09,-363.4547070506E-03
-59.9531E-09,-363.4547070506E-03
-59.6250E-09,-363.4547070506E-03
-59.2969E-09,-363.4547070506E-03
-58.9687E-09,-363.4547070506E-03
-58.6406E-09,-363.4547070506E-03
-58.3125E-09,-363.4547070506E-03
-57.9844E-09,-363.4547070506E-03
-57.6562E-09,-363.4547070506E-03
-57.3281E-09,-363.4547070506E-03
-57.0000E-09,-363.4547070506E-03
-56.6719E-09,-363.4547070506E-03
-56.3437E-09,-363.4547070506E-03
-56.0156E-09,-363.4547070506E-03
-55.6875E-09,-363.4547070506E-03
-55.3594E-09,-363.4547070506E-03
-55.0312E-09,-363.4547070506E-03
-54.7031E-09,-363.4547070506E-03
-54.3750E-09,-363.4547070506E-03
-54.0469E-09,-363.4547070506E-03
-53.7187E-09,-363.4547070506E-03
-53.3906E-09,-363.4547070506E-03
-53.0625E-09,-363.4547070506E-03
-52.7344E-09,-363.4547070506E-03
-52.4062E-09,-363.4547070506E-03
-52.0781E-09,-363.4547070506E-03
-51.7500E-09,-363.4547070506E-03
-51.4219E-09,-363.4547070506E-03
-51.0937E-09,-363.4547070506E-03
-50.7656E-09,-363.4547070506E-03
-50.4375E-09,-363.4547070506E-03
-50.1094E-09,-363.4547070506E-03
-49.7812E-09,-363.4547070506E-03
-49.4531E-09,-363.4547070506E-03
-49.1250E-09,-363.4547070506E-03
-48.7969E-09,-363.4547070506E-03
-48.4687E-09,-363.4547070506E-03
-48.1406E-09,-363.4547070506E-03
-47.8125E-09,-363.4547070506E-03
-47.4844E-09,-363.4547070506E-03
-47.1562E-09,-363.4547070506E-03
-46.8281E-09,-363.4547070506E-03
-46.5000E-09,-363.4547070506E-03
-46.1719E-09,-363.4547070506E-03
-45.8437E-09,-363.4547070506E-03
-45.5156E-09,-363.4547070506E-03
-45.1875E-09,-363.4547070506E-03
-44.8594E-09,-363.4547070506E-03
-44.5312E-09,-363.4547070506E-03
-44.2031E-09,-363.4547070506E-03
-43.8750E-09,-363.4547070506E-03
-43.5469E-09,-363.4547070506E-03
-43.2187E-09,-361.4791148248E-03
-42.8906E-09,-356.5401342603E-03
-42.5625E-09,-356.5401342603E-03
-42.2344E-09,-356.5401342603E-03
-41.9062E-09,-356.5401342603E-03
-41.5781E-09,-356.5401342603E-03
-41.2500E-09,-356.5401342603E-03
-40.9219E-09,-356.5401342603E-03
-40.5937E-09,-356.5401342603E-03
-40.2656E-09,-356.5401342603E-03
-39.9375E-09,-356.5401342603E-03
-39.6094E-09,-354.5645420345E-03
-39.2812E-09,-349.6255614700E-03
-38.9531E-09,-349.6255614700E-03
-38.6250E-09,-349.6255614700E-03
-38.2969E-09,-348.6377653571E-03
-37.9687E-09,-345.1804789620E-03
-37.6406E-09,-340.7353964540E-03
-37.3125E-09,-334.8086197766E-03
-36.9844E-09,-331.3513333815E-03
-36.6562E-09,-324.9306586476E-03
-36.3281E-09,-314.1883759199E-03
-36.0000E-09,-310.9163012959E-03
-35.6719E-09,-304.1869402768E-03
-35.3437E-09,-292.5803359503E-03
-35.0156E-09,-286.0361867024E-03
-34.6875E-09,-276.5286491158E-03
-34.3594E-09,-264.3046722187E-03
-34.0312E-09,-254.8588718892E-03
-33.7031E-09,-239.9801929387E-03
-33.3750E-09,-222.9407099912E-03
-33.0469E-09,-213.6801214328E-03
-32.7187E-09,-198.4927561971E-03
-32.3906E-09,-180.9593751932E-03
-32.0625E-09,-168.9823473243E-03
-31.7344E-09,-150.8315937499E-03
-31.4062E-09,-135.1503304577E-03
-31.0781E-09,-120.4568632784E-03
-30.7500E-09,-94.5272153149E-03
-30.4219E-09,-75.3886656275E-03
-30.0937E-09,-58.2257081660E-03
-29.7656E-09,-32.5430092307E-03
-29.4375E-09,-13.7748830857E-03
-29.1094E-09,+7.9566313980E-03
-28.7812E-09,+43.1468679199E-03
-28.4531E-09,+61.3593587514E-03
-28.1250E-09,+84.0169320909E-03
-27.7969E-09,+118.9602195846E-03
-27.4687E-09,+136.8022868737E-03
-27.1406E-09,+160.0772327838E-03
-26.8125E-09,+194.6500967351E-03
-26.4844E-09,+211.9365287108E-03
-26.1562E-09,+236.1375334767E-03
-25.8281E-09,+270.4634483998E-03
-25.5000E-09,+287.3794568332E-03
-25.1719E-09,+310.2222419439E-03
-24.8437E-09,+339.2387527601E-03
-24.5156E-09,+355.5991258800E-03
-24.1875E-09,+379.3679698465E-03
-23.8594E-09,+407.2732100358E-03
-23.5312E-09,+419.9910849893E-03
-23.2031E-09,+439.6235327331E-03
-22.8750E-09,+461.6019962450E-03
-22.5469E-09,+470.8625848034E-03
-22.2187E-09,+486.0499500392E-03
-21.8906E-09,+502.2251113878E-03
-21.5625E-09,+508.2136253222E-03
-21.2344E-09,+517.2890021095E-03
-20.9062E-09,+525.1296337556E-03
-20.5781E-09,+530.5007751194E-03
-20.2500E-09,+536.6745008250E-03
-19.9219E-09,+540.5022107625E-03
-19.5937E-09,+542.3543284742E-03
-19.2656E-09,+542.3543284742E-03
-18.9375E-09,+542.3543284742E-03
-18.6094E-09,+538.4031440226E-03
-18.2812E-09,+526.1791671255E-03
-17.9531E-09,+518.7089590217E-03
-17.6250E-09,+510.7448528615E-03
-17.2969E-09,+497.6565543657E-03
-16.9687E-09,+486.9142716379E-03
-16.6406E-09,+472.2208044586E-03
-16.3125E-09,+448.3902232350E-03
-15.9844E-09,+434.3758658833E-03
-15.6562E-09,+416.9042221365E-03
-15.3281E-09,+392.3327938282E-03
-15.0000E-09,+375.2315736237E-03
-14.6719E-09,+352.6974747983E-03
-14.3437E-09,+322.6931678691E-03
-14.0156E-09,+302.8755083542E-03
-13.6875E-09,+276.6371741054E-03
-13.3594E-09,+247.0032907186E-03
-13.0312E-09,+227.7412665171E-03
-12.7031E-09,+198.6012811867E-03
-12.3750E-09,+164.3988407777E-03
-12.0469E-09,+145.6924518898E-03
-11.7187E-09,+115.6264077035E-03
-11.3906E-09,+81.7943908369E-03
-11.0625E-09,+63.6436372624E-03
-10.7344E-09,+37.8374638130E-03
-10.4062E-09,+17.9580670410E-03
-10.0781E-09,-1.9213297310E-03
-9.7500E-09,-37.8524133375E-03
-9.4219E-09,-57.1761747960E-03
-9.0937E-09,-76.0060381981E-03
-8.7656E-09,-105.5164470708E-03
-8.4375E-09,-120.6420750496E-03
-8.1094E-09,-138.2371933105E-03
-7.7812E-09,-167.5006531550E-03
-7.4531E-09,-182.2558575914E-03
-7.1250E-09,-196.5171639713E-03
-6.7969E-09,-214.5444430316E-03
-6.4687E-09,-225.2867257594E-03
-6.1406E-09,-238.0046007129E-03
-5.8125E-09,-255.9084052591E-03
-5.4844E-09,-266.4654762157E-03
-5.1562E-09,-277.5164452287E-03
-4.8281E-09,-289.3699985834E-03
-4.5000E-09,-296.2845713737E-03
-4.1719E-09,-305.1747363898E-03
-3.8437E-09,-316.9048152304E-03
-3.5156E-09,-323.6341762495E-03
-3.1875E-09,-330.8574353250E-03
-2.8594E-09,-336.6607374883E-03
-2.5312E-09,-339.9328121122E-03
-2.2031E-09,-344.6865809055E-03
-1.8750E-09,-349.6255614700E-03
-1.5469E-09,-349.6255614700E-03
-1.2187E-09,-349.6255614700E-03
-890.6E-12,-349.6255614700E-03
-562.5E-12,-349.6255614700E-03
-234.4E-12,-349.6255614700E-03
+93.8E-12,-349.6255614700E-03
+421.9E-12,-349.6255614700E-03
+750.0E-12,-349.6255614700E-03
+1.0781E-09,-349.6255614700E-03
+1.4063E-09,-349.6255614700E-03
+1.7344E-09,-349.6255614700E-03
+2.0625E-09,-349.6255614700E-03
+2.3906E-09,-347.6499692442E-03
+2.7188E-09,-342.7109886798E-03
+3.0469E-09,-342.7109886798E-03
+3.3750E-09,-342.7109886798E-03
+3.7031E-09,-342.7109886798E-03
+4.0313E-09,-342.7109886798E-03
+4.3594E-09,-340.7353964540E-03
+4.6875E-09,-335.7964158895E-03
+5.0156E-09,-335.7964158895E-03
+5.3438E-09,-335.7964158895E-03
+5.6719E-09,-335.7964158895E-03
+6.0000E-09,-335.7964158895E-03
+6.3281E-09,-335.7964158895E-03
+6.6563E-09,-336.7842120024E-03
+6.9844E-09,-340.2414983975E-03
+7.3125E-09,-342.7109886798E-03
+7.6406E-09,-342.7109886798E-03
+7.9688E-09,-342.7109886798E-03
+8.2969E-09,-342.7109886798E-03
+8.6250E-09,-343.5753102785E-03
+8.9531E-09,-346.8473849025E-03
+9.2813E-09,-349.6255614700E-03
+9.6094E-09,-349.6255614700E-03
+9.9375E-09,-349.6255614700E-03
+10.2656E-09,-349.6255614700E-03
+10.5938E-09,-349.6255614700E-03
+10.9219E-09,-351.6011536958E-03
+11.2500E-09,-356.5401342603E-03
+11.5781E-09,-356.5401342603E-03
+11.9063E-09,-356.5401342603E-03
+12.2344E-09,-356.5401342603E-03
+12.5625E-09,-356.5401342603E-03
+12.8906E-09,-356.5401342603E-03
+13.2188E-09,-356.5401342603E-03
+13.5469E-09,-356.5401342603E-03
+13.8750E-09,-356.5401342603E-03
+14.2031E-09,-355.5523381474E-03
+14.5313E-09,-352.0950517523E-03
+14.8594E-09,-349.6255614700E-03
+15.1875E-09,-349.6255614700E-03
+15.5156E-09,-349.6255614700E-03
+15.8438E-09,-349.6255614700E-03
+16.1719E-09,-349.6255614700E-03
+16.5000E-09,-349.6255614700E-03
+16.8281E-09,-349.6255614700E-03
+17.1563E-09,-349.6255614700E-03
+17.4844E-09,-349.6255614700E-03
+17.8125E-09,-351.6011536958E-03
+18.1406E-09,-356.5401342603E-03
+18.4688E-09,-356.5401342603E-03
+18.7969E-09,-356.5401342603E-03
+19.1250E-09,-356.5401342603E-03
+19.4531E-09,-356.5401342603E-03
+19.7813E-09,-356.5401342603E-03
+20.1094E-09,-356.5401342603E-03
+20.4375E-09,-356.5401342603E-03
+20.7656E-09,-356.5401342603E-03
+21.0938E-09,-356.5401342603E-03
+21.4219E-09,-356.5401342603E-03
+21.7500E-09,-356.5401342603E-03
+22.0781E-09,-356.5401342603E-03
+22.4063E-09,-356.5401342603E-03
+22.7344E-09,-356.5401342603E-03
+23.0625E-09,-356.5401342603E-03
+23.3906E-09,-356.5401342603E-03
+23.7188E-09,-356.5401342603E-03
+24.0469E-09,-356.5401342603E-03
+24.3750E-09,-356.5401342603E-03
+24.7031E-09,-356.5401342603E-03
+25.0313E-09,-356.5401342603E-03
+25.3594E-09,-356.5401342603E-03
+25.6875E-09,-356.5401342603E-03
+26.0156E-09,-356.5401342603E-03
+26.3438E-09,-356.5401342603E-03
+26.6719E-09,-356.5401342603E-03
+27.0000E-09,-356.5401342603E-03
+27.3281E-09,-356.5401342603E-03
+27.6563E-09,-356.5401342603E-03
+27.9844E-09,-356.5401342603E-03
+28.3125E-09,-356.5401342603E-03
+28.6406E-09,-356.5401342603E-03
+28.9688E-09,-356.5401342603E-03
+29.2969E-09,-356.5401342603E-03
+29.6250E-09,-356.5401342603E-03
+29.9531E-09,-356.5401342603E-03
+30.2813E-09,-356.5401342603E-03
+30.6094E-09,-356.5401342603E-03
+30.9375E-09,-356.5401342603E-03
+31.2656E-09,-356.5401342603E-03
+31.5938E-09,-356.5401342603E-03
+31.9219E-09,-356.5401342603E-03
+32.2500E-09,-356.5401342603E-03
+32.5781E-09,-356.5401342603E-03
+32.9063E-09,-356.5401342603E-03
+33.2344E-09,-356.5401342603E-03
+33.5625E-09,-356.5401342603E-03
+33.8906E-09,-356.5401342603E-03
+34.2188E-09,-356.5401342603E-03
+34.5469E-09,-356.5401342603E-03
+34.8750E-09,-356.5401342603E-03
+35.2031E-09,-356.5401342603E-03
+35.5313E-09,-356.5401342603E-03
+35.8594E-09,-356.5401342603E-03
+36.1875E-09,-356.5401342603E-03
+36.5156E-09,-356.5401342603E-03
+36.8438E-09,-356.5401342603E-03
+37.1719E-09,-356.5401342603E-03
+37.5000E-09,-356.5401342603E-03
+37.8281E-09,-356.5401342603E-03
+38.1563E-09,-356.5401342603E-03
+38.4844E-09,-356.5401342603E-03
+38.8125E-09,-356.5401342603E-03
+39.1406E-09,-356.5401342603E-03
+39.4688E-09,-356.5401342603E-03
+39.7969E-09,-356.5401342603E-03
+40.1250E-09,-356.5401342603E-03
+40.4531E-09,-356.5401342603E-03
+40.7813E-09,-358.5157264861E-03
+41.1094E-09,-363.4547070506E-03
+41.4375E-09,-363.4547070506E-03
+41.7656E-09,-363.4547070506E-03
+42.0938E-09,-363.4547070506E-03
+42.4219E-09,-363.4547070506E-03
+42.7500E-09,-363.4547070506E-03
+43.0781E-09,-363.4547070506E-03
+43.4063E-09,-363.4547070506E-03
+43.7344E-09,-363.4547070506E-03
+44.0625E-09,-363.4547070506E-03
+44.3906E-09,-363.4547070506E-03
+44.7188E-09,-363.4547070506E-03
+45.0469E-09,-363.4547070506E-03
+45.3750E-09,-363.4547070506E-03
+45.7031E-09,-363.4547070506E-03
+46.0313E-09,-363.4547070506E-03
+46.3594E-09,-363.4547070506E-03
+46.6875E-09,-362.4669109377E-03
+47.0156E-09,-359.0096245425E-03
+47.3438E-09,-356.5401342603E-03
+47.6719E-09,-356.5401342603E-03
+48.0000E-09,-356.5401342603E-03
+48.3281E-09,-356.5401342603E-03
+48.6563E-09,-356.5401342603E-03
+48.9844E-09,-356.5401342603E-03
+49.3125E-09,-356.5401342603E-03
+49.6406E-09,-356.5401342603E-03
+49.9688E-09,-356.5401342603E-03
+50.2969E-09,-356.5401342603E-03
+50.6250E-09,-356.5401342603E-03
+50.9531E-09,-356.5401342603E-03
+51.2813E-09,-356.5401342603E-03
+51.6094E-09,-356.5401342603E-03
+51.9375E-09,-356.5401342603E-03
+52.2656E-09,-356.5401342603E-03
+52.5938E-09,-356.5401342603E-03
+52.9219E-09,-356.5401342603E-03
+53.2500E-09,-357.8983539155E-03
+53.5781E-09,-361.9112756242E-03
+53.9063E-09,-363.4547070506E-03
+54.2344E-09,-363.4547070506E-03
+54.5625E-09,-363.4547070506E-03
+54.8906E-09,-363.4547070506E-03
+55.2188E-09,-363.4547070506E-03
+55.5469E-09,-363.4547070506E-03
+55.8750E-09,-363.4547070506E-03
+56.2031E-09,-362.4669109377E-03
+56.5313E-09,-359.0096245425E-03
+56.8594E-09,-356.5401342603E-03
+57.1875E-09,-356.5401342603E-03
+57.5156E-09,-356.5401342603E-03
+57.8438E-09,-356.5401342603E-03
+58.1719E-09,-356.5401342603E-03
+58.5000E-09,-356.5401342603E-03
+58.8281E-09,-356.5401342603E-03
+59.1563E-09,-356.5401342603E-03
+59.4844E-09,-356.5401342603E-03
+59.8125E-09,-356.5401342603E-03
+60.1406E-09,-356.5401342603E-03
+60.4688E-09,-356.5401342603E-03
+60.7969E-09,-356.5401342603E-03
+61.1250E-09,-356.5401342603E-03
+61.4531E-09,-356.5401342603E-03
+61.7813E-09,-356.5401342603E-03
+62.1094E-09,-356.5401342603E-03
+62.4375E-09,-356.5401342603E-03
+62.7656E-09,-356.5401342603E-03
+63.0938E-09,-356.5401342603E-03
+63.4219E-09,-356.5401342603E-03
+63.7500E-09,-356.5401342603E-03
+64.0781E-09,-356.5401342603E-03
+64.4063E-09,-356.5401342603E-03
+64.7344E-09,-355.4288636333E-03
+65.0625E-09,-351.7863654670E-03
+65.3906E-09,-349.6255614700E-03
+65.7188E-09,-349.6255614700E-03
+66.0469E-09,-349.6255614700E-03
+66.3750E-09,-349.6255614700E-03
+66.7031E-09,-349.6255614700E-03
+67.0313E-09,-349.6255614700E-03
+67.3594E-09,-347.6499692442E-03
+67.6875E-09,-342.7109886798E-03
+68.0156E-09,-342.7109886798E-03
+68.3438E-09,-342.7109886798E-03
+68.6719E-09,-342.7109886798E-03
+69.0000E-09,-342.7109886798E-03
+69.3281E-09,-342.7109886798E-03
+69.6563E-09,-342.7109886798E-03
+69.9844E-09,-342.7109886798E-03
+70.3125E-09,-342.7109886798E-03
+70.6406E-09,-342.7109886798E-03
+70.9688E-09,-342.7109886798E-03
+71.2969E-09,-342.7109886798E-03
+71.6250E-09,-342.7109886798E-03
+71.9531E-09,-342.7109886798E-03
+72.2813E-09,-342.7109886798E-03
+72.6094E-09,-343.4518357644E-03
+72.9375E-09,-346.5386986172E-03
+73.2656E-09,-349.6255614700E-03
+73.5938E-09,-349.6255614700E-03
+73.9219E-09,-351.6011536958E-03
+74.2500E-09,-356.5401342603E-03
+74.5781E-09,-356.5401342603E-03
+74.9063E-09,-358.5157264861E-03
+75.2344E-09,-364.6894521917E-03
+75.5625E-09,-368.5171621291E-03
+75.8906E-09,-372.3448720666E-03
+76.2188E-09,-378.5185977722E-03
+76.5469E-09,-382.3463077097E-03
+76.8750E-09,-388.1496098729E-03
+77.2031E-09,-399.1388416289E-03
+77.5313E-09,-402.7813397952E-03
+77.8594E-09,-408.8933282437E-03
+78.1875E-09,-419.8825599997E-03
+78.5156E-09,-423.5250581660E-03
+78.8438E-09,-429.6370466145E-03
+79.1719E-09,-441.4905999693E-03
+79.5000E-09,-448.4051727595E-03
+79.8281E-09,-457.2953377756E-03
+80.1563E-09,-468.1610950174E-03
+80.4844E-09,-471.6183814126E-03
+80.8125E-09,-478.0390561464E-03
+81.1406E-09,-489.6456604729E-03
+81.4688E-09,-496.1898097208E-03
+81.7969E-09,-505.6973473074E-03
+82.1250E-09,-517.1804771198E-03
+82.4531E-09,-523.5394145966E-03
+82.7813E-09,-533.3556384685E-03
+83.1094E-09,-544.7152937668E-03
+83.4375E-09,-550.8890194724E-03
+83.7656E-09,-559.7791844884E-03
+84.0938E-09,-567.8050279057E-03
+84.4219E-09,-572.8674829843E-03
+84.7500E-09,-580.3994283451E-03
+85.0781E-09,-588.2400599912E-03
+85.4063E-09,-593.6112013551E-03
+85.7344E-09,-599.7849270607E-03
+86.0625E-09,-603.6126369982E-03
+86.3906E-09,-607.4403469356E-03
+86.7188E-09,-613.6140726412E-03
+87.0469E-09,-617.4417825787E-03
+87.3750E-09,-621.2694925162E-03
+87.7031E-09,-626.2084730806E-03
+88.0313E-09,-626.2084730806E-03
+88.3594E-09,-626.2084730806E-03
+88.6875E-09,-626.2084730806E-03
+89.0156E-09,-626.2084730806E-03
+89.3438E-09,-626.2084730806E-03
+89.6719E-09,-626.2084730806E-03
+90.0000E-09,-626.2084730806E-03
+90.3281E-09,-624.2328808548E-03
+90.6563E-09,-619.2939002904E-03
+90.9844E-09,-619.2939002904E-03
+91.3125E-09,-617.3183080646E-03
+91.6406E-09,-611.6384804154E-03
+91.9688E-09,-608.5516175626E-03
+92.2969E-09,-603.4891624840E-03
+92.6250E-09,-597.0684877502E-03
+92.9531E-09,-590.8947620446E-03
+93.2813E-09,-582.7454441132E-03
+93.6094E-09,-576.4482438935E-03
+93.9375E-09,-570.4597299591E-03
+94.2656E-09,-562.7425728271E-03
+94.5938E-09,-558.9148628896E-03
+94.9219E-09,-553.1115607264E-03
+95.2500E-09,-540.7641093152E-03
+95.5781E-09,-533.1086894403E-03
+95.9063E-09,-527.4288617911E-03
+96.2344E-09,-520.1438654585E-03
+96.5625E-09,-512.6736573547E-03
+96.8906E-09,-504.7095511945E-03
+97.2188E-09,-493.7203194386E-03
+97.5469E-09,-490.0778212723E-03
+97.8750E-09,-483.9658328237E-03
+98.2031E-09,-471.9888049549E-03
+98.5313E-09,-464.8890203934E-03
+98.8594E-09,-458.2831338885E-03
+99.1875E-09,-452.3563572111E-03
+99.5156E-09,-448.8990708160E-03
+99.8438E-09,-444.4539883079E-03
+100.1719E-09,-437.6628900318E-03
+100.5000E-09,-430.9335290127E-03
+100.8281E-09,-423.7102699371E-03
+101.1563E-09,-417.9069677739E-03
+101.4844E-09,-414.6348931499E-03
+101.8125E-09,-409.8811243566E-03
+102.1406E-09,-404.9421437921E-03
+102.4688E-09,-404.9421437921E-03
+102.7969E-09,-402.9665515663E-03
+103.1250E-09,-397.2867239172E-03
+103.4531E-09,-394.1998610644E-03
+103.7813E-09,-391.1129982116E-03
+104.1094E-09,-390.4956256410E-03
+104.4375E-09,-387.5939745594E-03
+104.7656E-09,-384.1984254213E-03
+105.0938E-09,-384.1984254213E-03
+105.4219E-09,-382.2228331955E-03
+105.7500E-09,-377.2838526311E-03
+106.0781E-09,-377.2838526311E-03
+106.4063E-09,-377.2838526311E-03
+106.7344E-09,-377.2838526311E-03
+107.0625E-09,-377.2838526311E-03
+107.3906E-09,-377.2838526311E-03
+107.7188E-09,-377.2838526311E-03
+108.0469E-09,-377.2838526311E-03
+108.3750E-09,-377.2838526311E-03
+108.7031E-09,-377.2838526311E-03
+109.0313E-09,-377.2838526311E-03
+109.3594E-09,-377.2838526311E-03
+109.6875E-09,-378.3951232581E-03
+110.0156E-09,-382.0376214244E-03
+110.3438E-09,-384.1984254213E-03
+110.6719E-09,-384.1984254213E-03
+111.0000E-09,-384.1984254213E-03
+111.3281E-09,-384.1984254213E-03
+111.6563E-09,-384.1984254213E-03
+111.9844E-09,-384.1984254213E-03
+112.3125E-09,-384.1984254213E-03
+112.6406E-09,-384.1984254213E-03
+112.9688E-09,-384.1984254213E-03
+113.2969E-09,-384.1984254213E-03
+113.6250E-09,-384.1984254213E-03
+113.9531E-09,-384.1984254213E-03
+114.2813E-09,-384.1984254213E-03
+114.6094E-09,-384.1984254213E-03
+114.9375E-09,-384.1984254213E-03
+115.2656E-09,-384.1984254213E-03
+115.5938E-09,-384.1984254213E-03
+115.9219E-09,-384.1984254213E-03
+116.2500E-09,-384.1984254213E-03
+116.5781E-09,-384.1984254213E-03
+116.9063E-09,-384.1984254213E-03
+117.2344E-09,-384.1984254213E-03
+117.5625E-09,-384.1984254213E-03
+117.8906E-09,-382.2228331955E-03
+118.2188E-09,-377.2838526311E-03
+118.5469E-09,-377.2838526311E-03
+118.8750E-09,-377.2838526311E-03
+119.2031E-09,-377.2838526311E-03
+119.5313E-09,-377.2838526311E-03
+119.8594E-09,-377.2838526311E-03
+120.1875E-09,-377.2838526311E-03
+120.5156E-09,-377.2838526311E-03
+120.8438E-09,-377.2838526311E-03
+121.1719E-09,-377.2838526311E-03
+121.5000E-09,-377.2838526311E-03
+121.8281E-09,-377.2838526311E-03
+122.1563E-09,-377.2838526311E-03
+122.4844E-09,-377.2838526311E-03
+122.8125E-09,-377.2838526311E-03
+123.1406E-09,-377.2838526311E-03
+123.4688E-09,-377.2838526311E-03
+123.7969E-09,-377.2838526311E-03
+124.1250E-09,-377.2838526311E-03
+124.4531E-09,-377.2838526311E-03
+124.7813E-09,-377.2838526311E-03
+125.1094E-09,-377.2838526311E-03
+125.4375E-09,-377.2838526311E-03
+125.7656E-09,-377.2838526311E-03
+126.0938E-09,-377.2838526311E-03
+126.4219E-09,-377.2838526311E-03
+126.7500E-09,-377.2838526311E-03
+127.0781E-09,-377.2838526311E-03
+127.4063E-09,-377.2838526311E-03
+127.7344E-09,-377.2838526311E-03
+128.0625E-09,-377.2838526311E-03
+128.3906E-09,-375.3082604053E-03
+128.7188E-09,-370.3692798408E-03
+129.0469E-09,-370.3692798408E-03
+129.3750E-09,-370.3692798408E-03
+129.7031E-09,-370.3692798408E-03
+130.0313E-09,-370.3692798408E-03
+130.3594E-09,-370.3692798408E-03
+130.6875E-09,-370.3692798408E-03
+131.0156E-09,-370.3692798408E-03
+131.3438E-09,-370.3692798408E-03
+131.6719E-09,-370.3692798408E-03
