x-axis,1
second,Volt
-78.0000E-09,-273.5652607771E-03
-77.6719E-09,-273.5652607771E-03
-77.3438E-09,-273.5652607771E-03
-77.0156E-09,-273.5652607771E-03
-76.6875E-09,-272.7009391783E-03
-76.3594E-09,-269.4288645544E-03
-76.0313E-09,-266.6506879868E-03
-75.7031E-09,-266.6506879868E-03
-75.3750E-09,-266.6506879868E-03
-75.0469E-09,-266.6506879868E-03
-74.7187E-09,-266.6506879868E-03
-74.3906E-09,-266.6506879868E-03
-74.0625E-09,-268.6262802126E-03
-73.7344E-09,-272.9478882065E-03
-73.4062E-09,-270.0462371249E-03
-73.0781E-09,-266.6506879868E-03
-72.7500E-09,-266.6506879868E-03
-72.4219E-09,-266.6506879868E-03
-72.0937E-09,-266.6506879868E-03
-71.7656E-09,-266.6506879868E-03
-71.4375E-09,-268.6262802126E-03
-71.1094E-09,-273.5652607771E-03
-70.7812E-09,-273.5652607771E-03
-70.4531E-09,-273.5652607771E-03
-70.1250E-09,-273.5652607771E-03
-69.7969E-09,-273.5652607771E-03
-69.4687E-09,-273.5652607771E-03
-69.1406E-09,-273.5652607771E-03
-68.8125E-09,-273.5652607771E-03
-68.4844E-09,-273.5652607771E-03
-68.1562E-09,-273.5652607771E-03
-67.8281E-09,-273.5652607771E-03
-67.5000E-09,-273.5652607771E-03
-67.1719E-09,-273.5652607771E-03
-66.8437E-09,-273.5652607771E-03
-66.5156E-09,-273.5652607771E-03
-66.1875E-09,-273.5652607771E-03
-65.8594E-09,-273.5652607771E-03
-65.5312E-09,-273.5652607771E-03
-65.2031E-09,-273.5652607771E-03
-64.8750E-09,-273.5652607771E-03
-64.5469E-09,-273.5652607771E-03
-64.2187E-09,-273.5652607771E-03
-63.8906E-09,-273.5652607771E-03
-63.5625E-09,-273.5652607771E-03
-63.2344E-09,-273.5652607771E-03
-62.9062E-09,-273.5652607771E-03
-62.5781E-09,-273.5652607771E-03
-62.2500E-09,-273.5652607771E-03
-61.9219E-09,-273.5652607771E-03
-61.5937E-09,-273.5652607771E-03
-61.2656E-09,-273.5652607771E-03
-60.9375E-09,-273.5652607771E-03
-60.6094E-09,-273.5652607771E-03
-60.2812E-09,-273.5652607771E-03
-59.9531E-09,-273.5652607771E-03
-59.6250E-09,-273.5652607771E-03
-59.2969E-09,-273.5652607771E-03
-58.9687E-09,-273.5652607771E-03
-58.6406E-09,-273.5652607771E-03
-58.3125E-09,-273.5652607771E-03
-57.9844E-09,-271.5896685513E-03
-57.6562E-09,-266.6506879868E-03
-57.3281E-09,-266.6506879868E-03
-57.0000E-09,-266.6506879868E-03
-56.6719E-09,-266.6506879868E-03
-56.3437E-09,-266.6506879868E-03
-56.0156E-09,-266.6506879868E-03
-55.6875E-09,-266.6506879868E-03
-55.3594E-09,-266.6506879868E-03
-55.0312E-09,-266.6506879868E-03
-54.7031E-09,-266.6506879868E-03
-54.3750E-09,-266.6506879868E-03
-54.0469E-09,-266.6506879868E-03
-53.7187E-09,-266.6506879868E-03
-53.3906E-09,-266.6506879868E-03
-53.0625E-09,-266.6506879868E-03
-52.7344E-09,-266.6506879868E-03
-52.4062E-09,-266.6506879868E-03
-52.0781E-09,-268.0089076421E-03
-51.7500E-09,-272.0218293507E-03
-51.4219E-09,-273.5652607771E-03
-51.0937E-09,-273.5652607771E-03
-50.7656E-09,-273.5652607771E-03
-50.4375E-09,-273.5652607771E-03
-50.1094E-09,-273.5652607771E-03
-49.7812E-09,-273.5652607771E-03
-49.4531E-09,-273.5652607771E-03
-49.1250E-09,-273.5652607771E-03
-48.7969E-09,-273.5652607771E-03
-48.4687E-09,-273.5652607771E-03
-48.1406E-09,-273.5652607771E-03
-47.8125E-09,-273.5652607771E-03
-47.4844E-09,-273.5652607771E-03
-47.1562E-09,-273.5652607771E-03
-46.8281E-09,-273.5652607771E-03
-46.5000E-09,-273.5652607771E-03
-46.1719E-09,-273.5652607771E-03
-45.8437E-09,-273.5652607771E-03
-45.5156E-09,-273.5652607771E-03
-45.1875E-09,-273.5652607771E-03
-44.8594E-09,-273.5652607771E-03
-44.5312E-09,-273.5652607771E-03
-44.2031E-09,-272.8244136924E-03
-43.8750E-09,-269.7375508396E-03
-43.5469E-09,-266.6506879868E-03
-43.2187E-09,-266.6506879868E-03
-42.8906E-09,-266.6506879868E-03
-42.5625E-09,-266.6506879868E-03
-42.2344E-09,-266.6506879868E-03
-41.9062E-09,-266.6506879868E-03
-41.5781E-09,-266.6506879868E-03
-41.2500E-09,-266.6506879868E-03
-40.9219E-09,-266.6506879868E-03
-40.5937E-09,-265.4159428457E-03
-40.2656E-09,-261.5882329083E-03
-39.9375E-09,-259.7361151966E-03
-39.6094E-09,-258.6248445696E-03
-39.2812E-09,-254.9823464033E-03
-38.9531E-09,-252.8215424063E-03
-38.6250E-09,-251.7102717793E-03
-38.2969E-09,-248.0677736130E-03
-37.9687E-09,-243.9313773903E-03
-37.6406E-09,-238.0046007129E-03
-37.3125E-09,-234.5473143178E-03
-36.9844E-09,-230.1022318097E-03
-36.6562E-09,-223.1876590195E-03
-36.3281E-09,-216.2730862292E-03
-36.0000E-09,-209.3585134389E-03
-35.6719E-09,-201.7030935640E-03
-35.3437E-09,-191.7016579209E-03
-35.0156E-09,-179.7246300521E-03
-34.6875E-09,-168.1180257256E-03
-34.3594E-09,-161.5738764776E-03
-34.0312E-09,-150.0907466652E-03
-33.7031E-09,-132.9277892037E-03
-33.3750E-09,-123.4819888741E-03
-33.0469E-09,-106.6277176978E-03
-32.7187E-09,-83.9084071013E-03
-32.3906E-09,-71.5609556901E-03
-32.0625E-09,-51.3111353757E-03
-31.7344E-09,-28.8387738074E-03
-31.4062E-09,-16.8617459385E-03
-31.0781E-09,+2.6472272912E-03
-30.7500E-09,+22.3414122920E-03
-30.4219E-09,+38.5783108977E-03
-30.0937E-09,+64.5079588612E-03
-29.7656E-09,+83.6465085486E-03
-29.4375E-09,+104.7606504617E-03
-29.1094E-09,+140.3213105259E-03
-28.7812E-09,+159.0894366709E-03
-28.4531E-09,+180.8209511546E-03
-28.1250E-09,+216.0111876765E-03
-27.7969E-09,+234.2236785080E-03
-27.4687E-09,+256.8812518475E-03
-27.1406E-09,+292.8123354541E-03
-26.8125E-09,+314.1116891384E-03
-26.4844E-09,+337.8805331049E-03
-26.1562E-09,+367.5144164918E-03
-25.8281E-09,+384.8008484674E-03
-25.5000E-09,+407.0262610076E-03
-25.1719E-09,+436.4131953662E-03
-24.8437E-09,+453.3292037995E-03
-24.5156E-09,+476.1719889102E-03
-24.1875E-09,+504.3241781277E-03
-23.8594E-09,+517.4124766236E-03
-23.5312E-09,+536.4275517968E-03
-23.2031E-09,+558.5294898228E-03
-22.8750E-09,+567.9752901524E-03
-22.5469E-09,+582.8539691029E-03
-22.2187E-09,+599.1526049656E-03
-21.8906E-09,+605.3263306712E-03
-21.5625E-09,+615.4512408284E-03
-21.2344E-09,+625.9465745279E-03
-20.9062E-09,+628.8482256095E-03
-20.5781E-09,+632.2437747476E-03
-20.2500E-09,+632.2437747476E-03
-19.9219E-09,+632.2437747476E-03
-19.5937E-09,+632.2437747476E-03
-19.2656E-09,+632.2437747476E-03
-18.9375E-09,+628.2925902960E-03
-18.6094E-09,+617.1798840260E-03
-18.2812E-09,+613.3521740885E-03
-17.9531E-09,+605.5732796994E-03
-17.6250E-09,+587.2990516109E-03
-17.2969E-09,+576.1863453408E-03
-16.9687E-09,+562.1102507321E-03
-16.6406E-09,+538.0327204803E-03
-16.3125E-09,+523.6479395862E-03
-15.9844E-09,+506.7936684099E-03
-15.6562E-09,+481.9752910735E-03
-15.3281E-09,+464.5036473266E-03
-15.0000E-09,+440.6113288460E-03
-14.6719E-09,+406.1619394088E-03
-14.3437E-09,+389.0607192043E-03
-14.0156E-09,+364.5510281531E-03
-13.6875E-09,+329.6077406594E-03
-13.3594E-09,+309.7900811444E-03
-13.0312E-09,+281.5761546699E-03
-12.7031E-09,+247.0032907186E-03
-12.3750E-09,+227.7412665171E-03
-12.0469E-09,+200.5768734125E-03
-11.7187E-09,+171.3134135680E-03
-11.3906E-09,+152.6070246800E-03
-11.0625E-09,+122.5409804938E-03
-10.7344E-09,+89.3263361977E-03
-10.4062E-09,+74.0772337049E-03
-10.0781E-09,+51.6666093936E-03
-9.7500E-09,+31.7872126216E-03
-9.4219E-09,+13.8834080753E-03
-9.0937E-09,-17.1086949667E-03
-8.7656E-09,-36.4324564253E-03
-8.4375E-09,-53.2867276015E-03
-8.1094E-09,-77.8581559098E-03
-7.7812E-09,-92.9837838885E-03
-7.4531E-09,-108.6033099237E-03
-7.1250E-09,-131.8165185767E-03
-6.7969E-09,-142.9292248467E-03
-6.4687E-09,-155.0297272297E-03
-6.1406E-09,-173.0570062900E-03
-5.8125E-09,-183.7992890178E-03
-5.4844E-09,-194.5415717455E-03
-5.1562E-09,-206.5185996144E-03
-4.8281E-09,-213.6183841758E-03
-4.5000E-09,-222.1998629066E-03
-4.1719E-09,-233.0656201484E-03
-3.8437E-09,-236.5229065435E-03
-3.5156E-09,-240.9679890516E-03
-3.1875E-09,-246.8947657289E-03
-2.8594E-09,-250.3520521241E-03
-2.5312E-09,-254.7971346321E-03
-2.2031E-09,-259.7361151966E-03
-1.8750E-09,-259.7361151966E-03
-1.5469E-09,-259.7361151966E-03
-1.2187E-09,-260.6004367954E-03
-890.6E-12,-263.8725114193E-03
-562.5E-12,-264.6750957610E-03
-234.4E-12,-259.7361151966E-03
+93.8E-12,-259.7361151966E-03
+421.9E-12,-259.7361151966E-03
+750.0E-12,-259.7361151966E-03
+1.0781E-09,-257.7605229708E-03
+1.4063E-09,-252.8215424063E-03
+1.7344E-09,-252.8215424063E-03
+2.0625E-09,-252.8215424063E-03
+2.3906E-09,-251.7102717793E-03
+2.7188E-09,-248.0677736130E-03
+3.0469E-09,-245.9069696160E-03
+3.3750E-09,-245.9069696160E-03
+3.7031E-09,-245.9069696160E-03
+4.0313E-09,-243.9313773903E-03
+4.3594E-09,-238.9923968258E-03
+4.6875E-09,-238.9923968258E-03
+5.0156E-09,-238.9923968258E-03
+5.3438E-09,-238.9923968258E-03
+5.6719E-09,-238.9923968258E-03
+6.0000E-09,-240.9679890516E-03
+6.3281E-09,-245.9069696160E-03
+6.6563E-09,-245.9069696160E-03
+6.9844E-09,-245.9069696160E-03
+7.3125E-09,-245.9069696160E-03
+7.6406E-09,-245.9069696160E-03
+7.9688E-09,-247.8825618418E-03
+8.2969E-09,-252.8215424063E-03
+8.6250E-09,-252.8215424063E-03
+8.9531E-09,-252.8215424063E-03
+9.2813E-09,-253.6858640051E-03
+9.6094E-09,-256.9579386291E-03
+9.9375E-09,-259.7361151966E-03
+10.2656E-09,-259.7361151966E-03
+10.5938E-09,-259.7361151966E-03
+10.9219E-09,-259.7361151966E-03
+11.2500E-09,-259.7361151966E-03
+11.5781E-09,-259.7361151966E-03
+11.9063E-09,-261.0943348518E-03
+12.2344E-09,-265.1072565604E-03
+12.5625E-09,-266.6506879868E-03
+12.8906E-09,-265.5394173598E-03
+13.2188E-09,-261.8969191935E-03
+13.5469E-09,-259.7361151966E-03
+13.8750E-09,-259.7361151966E-03
+14.2031E-09,-259.7361151966E-03
+14.5313E-09,-259.7361151966E-03
+14.8594E-09,-259.7361151966E-03
+15.1875E-09,-259.7361151966E-03
+15.5156E-09,-259.7361151966E-03
+15.8438E-09,-259.7361151966E-03
+16.1719E-09,-259.7361151966E-03
+16.5000E-09,-259.7361151966E-03
+16.8281E-09,-259.7361151966E-03
+17.1563E-09,-259.7361151966E-03
+17.4844E-09,-259.7361151966E-03
+17.8125E-09,-259.7361151966E-03
+18.1406E-09,-259.7361151966E-03
+18.4688E-09,-259.7361151966E-03
+18.7969E-09,-259.7361151966E-03
+19.1250E-09,-259.7361151966E-03
+19.4531E-09,-259.7361151966E-03
+19.7813E-09,-260.6004367954E-03
+20.1094E-09,-263.8725114193E-03
+20.4375E-09,-266.6506879868E-03
+20.7656E-09,-266.6506879868E-03
+21.0938E-09,-266.6506879868E-03
+21.4219E-09,-266.6506879868E-03
+21.7500E-09,-266.6506879868E-03
+22.0781E-09,-266.6506879868E-03
+22.4063E-09,-266.6506879868E-03
+22.7344E-09,-266.6506879868E-03
+23.0625E-09,-266.6506879868E-03
+23.3906E-09,-266.6506879868E-03
+23.7188E-09,-266.6506879868E-03
+24.0469E-09,-266.6506879868E-03
+24.3750E-09,-266.6506879868E-03
+24.7031E-09,-266.6506879868E-03
+25.0313E-09,-266.6506879868E-03
+25.3594E-09,-266.6506879868E-03
+25.6875E-09,-266.6506879868E-03
+26.0156E-09,-266.6506879868E-03
+26.3438E-09,-265.6628918739E-03
+26.6719E-09,-262.2056054788E-03
+27.0000E-09,-259.7361151966E-03
+27.3281E-09,-259.7361151966E-03
+27.6563E-09,-259.7361151966E-03
+27.9844E-09,-259.7361151966E-03
+28.3125E-09,-259.7361151966E-03
+28.6406E-09,-259.7361151966E-03
+28.9688E-09,-259.7361151966E-03
+29.2969E-09,-260.6004367954E-03
+29.6250E-09,-263.8725114193E-03
+29.9531E-09,-266.6506879868E-03
+30.2813E-09,-266.6506879868E-03
+30.6094E-09,-266.6506879868E-03
+30.9375E-09,-266.6506879868E-03
+31.2656E-09,-266.6506879868E-03
+31.5938E-09,-266.6506879868E-03
+31.9219E-09,-266.6506879868E-03
+32.2500E-09,-266.6506879868E-03
+32.5781E-09,-266.6506879868E-03
+32.9063E-09,-266.6506879868E-03
+33.2344E-09,-266.6506879868E-03
+33.5625E-09,-266.6506879868E-03
+33.8906E-09,-266.6506879868E-03
+34.2188E-09,-266.6506879868E-03
+34.5469E-09,-266.6506879868E-03
+34.8750E-09,-266.6506879868E-03
+35.2031E-09,-266.6506879868E-03
+35.5313E-09,-266.6506879868E-03
+35.8594E-09,-266.6506879868E-03
+36.1875E-09,-266.6506879868E-03
+36.5156E-09,-266.6506879868E-03
+36.8438E-09,-266.6506879868E-03
+37.1719E-09,-266.6506879868E-03
+37.5000E-09,-264.6750957610E-03
+37.8281E-09,-259.7361151966E-03
+38.1563E-09,-259.7361151966E-03
+38.4844E-09,-259.7361151966E-03
+38.8125E-09,-259.7361151966E-03
+39.1406E-09,-259.7361151966E-03
+39.4688E-09,-259.7361151966E-03
+39.7969E-09,-259.7361151966E-03
+40.1250E-09,-259.7361151966E-03
+40.4531E-09,-259.7361151966E-03
+40.7813E-09,-259.7361151966E-03
+41.1094E-09,-259.7361151966E-03
+41.4375E-09,-259.7361151966E-03
+41.7656E-09,-260.4769622812E-03
+42.0938E-09,-263.5638251340E-03
+42.4219E-09,-266.6506879868E-03
+42.7500E-09,-266.6506879868E-03
+43.0781E-09,-266.6506879868E-03
+43.4063E-09,-266.6506879868E-03
+43.7344E-09,-266.6506879868E-03
+44.0625E-09,-266.6506879868E-03
+44.3906E-09,-266.6506879868E-03
+44.7188E-09,-266.6506879868E-03
+45.0469E-09,-266.6506879868E-03
+45.3750E-09,-266.6506879868E-03
+45.7031E-09,-266.6506879868E-03
+46.0313E-09,-266.6506879868E-03
+46.3594E-09,-266.6506879868E-03
+46.6875E-09,-266.6506879868E-03
+47.0156E-09,-266.6506879868E-03
+47.3438E-09,-266.6506879868E-03
+47.6719E-09,-266.6506879868E-03
+48.0000E-09,-266.6506879868E-03
+48.3281E-09,-265.7863663881E-03
+48.6563E-09,-262.5142917641E-03
+48.9844E-09,-259.7361151966E-03
+49.3125E-09,-259.7361151966E-03
+49.6406E-09,-259.7361151966E-03
+49.9688E-09,-261.7117074224E-03
+50.2969E-09,-266.6506879868E-03
+50.6250E-09,-266.6506879868E-03
+50.9531E-09,-266.6506879868E-03
+51.2813E-09,-266.6506879868E-03
+51.6094E-09,-266.6506879868E-03
+51.9375E-09,-266.6506879868E-03
+52.2656E-09,-266.6506879868E-03
+52.5938E-09,-266.6506879868E-03
+52.9219E-09,-266.6506879868E-03
+53.2500E-09,-266.6506879868E-03
+53.5781E-09,-266.6506879868E-03
+53.9063E-09,-268.0089076421E-03
+54.2344E-09,-272.0218293507E-03
+54.5625E-09,-273.5652607771E-03
+54.8906E-09,-273.5652607771E-03
+55.2188E-09,-273.5652607771E-03
+55.5469E-09,-273.5652607771E-03
+55.8750E-09,-273.5652607771E-03
+56.2031E-09,-273.5652607771E-03
+56.5313E-09,-273.5652607771E-03
+56.8594E-09,-272.5774646642E-03
+57.1875E-09,-269.1201782691E-03
+57.5156E-09,-266.6506879868E-03
+57.8438E-09,-266.6506879868E-03
+58.1719E-09,-266.6506879868E-03
+58.5000E-09,-266.6506879868E-03
+58.8281E-09,-266.6506879868E-03
+59.1563E-09,-266.6506879868E-03
+59.4844E-09,-266.6506879868E-03
+59.8125E-09,-266.6506879868E-03
+60.1406E-09,-266.6506879868E-03
+60.4688E-09,-266.6506879868E-03
+60.7969E-09,-266.6506879868E-03
+61.1250E-09,-266.6506879868E-03
+61.4531E-09,-266.6506879868E-03
+61.7813E-09,-266.6506879868E-03
+62.1094E-09,-266.6506879868E-03
+62.4375E-09,-264.6750957610E-03
+62.7656E-09,-259.7361151966E-03
+63.0938E-09,-259.7361151966E-03
+63.4219E-09,-259.7361151966E-03
+63.7500E-09,-259.7361151966E-03
+64.0781E-09,-259.7361151966E-03
+64.4063E-09,-259.7361151966E-03
+64.7344E-09,-259.7361151966E-03
+65.0625E-09,-259.7361151966E-03
+65.3906E-09,-259.7361151966E-03
+65.7188E-09,-259.7361151966E-03
+66.0469E-09,-259.7361151966E-03
+66.3750E-09,-259.7361151966E-03
+66.7031E-09,-259.7361151966E-03
+67.0313E-09,-257.7605229708E-03
+67.3594E-09,-252.8215424063E-03
+67.6875E-09,-252.8215424063E-03
+68.0156E-09,-252.8215424063E-03
+68.3438E-09,-252.8215424063E-03
+68.6719E-09,-252.8215424063E-03
+69.0000E-09,-252.8215424063E-03
+69.3281E-09,-252.8215424063E-03
+69.6563E-09,-252.8215424063E-03
+69.9844E-09,-252.8215424063E-03
+70.3125E-09,-252.8215424063E-03
+70.6406E-09,-252.8215424063E-03
+70.9688E-09,-254.7971346321E-03
+71.2969E-09,-259.7361151966E-03
+71.6250E-09,-259.7361151966E-03
+71.9531E-09,-261.7117074224E-03
+72.2813E-09,-267.5150095856E-03
+72.6094E-09,-270.7870842096E-03
+72.9375E-09,-275.5408530029E-03
+73.2656E-09,-281.2206806520E-03
+73.5938E-09,-284.3075435048E-03
+73.9219E-09,-288.7526260129E-03
+74.2500E-09,-292.7655477215E-03
+74.5781E-09,-296.2845713737E-03
+74.9063E-09,-303.8165167345E-03
+75.2344E-09,-311.6571483806E-03
+75.5625E-09,-317.0282897445E-03
+75.8906E-09,-324.4367605912E-03
+76.2188E-09,-332.0921804661E-03
+76.5469E-09,-339.7476003411E-03
+76.8750E-09,-351.9715772382E-03
+77.2031E-09,-359.4417853419E-03
+77.5313E-09,-367.4058915021E-03
+77.8594E-09,-380.4941899980E-03
+78.1875E-09,-391.2364727257E-03
+78.5156E-09,-401.9787554535E-03
+78.8438E-09,-414.9435794352E-03
+79.1719E-09,-425.5006503918E-03
+79.5000E-09,-436.5516194048E-03
+79.8281E-09,-449.2694943583E-03
+80.1563E-09,-459.4561417725E-03
+80.4844E-09,-471.1244833561E-03
+80.8125E-09,-483.7188837955E-03
+81.1406E-09,-493.7203194386E-03
+81.4688E-09,-507.6729395332E-03
+81.7969E-09,-524.2185244242E-03
+82.1250E-09,-530.7626736722E-03
+82.4531E-09,-540.2702112588E-03
+82.7813E-09,-552.4941881558E-03
+83.1094E-09,-561.9399884854E-03
+83.4375E-09,-574.8430752101E-03
+83.7656E-09,-586.2027305084E-03
+84.0938E-09,-592.3764562140E-03
+84.4219E-09,-601.2666212300E-03
+84.7500E-09,-609.2924646473E-03
+85.0781E-09,-616.3305119517E-03
+85.4063E-09,-627.5666927359E-03
+85.7344E-09,-631.5796144445E-03
+86.0625E-09,-635.0986380967E-03
+86.3906E-09,-641.2723638023E-03
+86.7188E-09,-645.1000737397E-03
+87.0469E-09,-648.9277836772E-03
+87.3750E-09,-653.8667642417E-03
+87.7031E-09,-653.8667642417E-03
+88.0313E-09,-653.8667642417E-03
+88.3594E-09,-653.8667642417E-03
+88.6875E-09,-653.8667642417E-03
+89.0156E-09,-653.8667642417E-03
+89.3438E-09,-652.8789681288E-03
+89.6719E-09,-649.4216817337E-03
+90.0000E-09,-644.9765992256E-03
+90.3281E-09,-639.1732970624E-03
+90.6563E-09,-635.9012224384E-03
+90.9844E-09,-631.1474536451E-03
+91.3125E-09,-624.4798298830E-03
+91.6406E-09,-617.9356806351E-03
+91.9688E-09,-610.4037352743E-03
+92.2969E-09,-603.8595860264E-03
+92.6250E-09,-597.5006485496E-03
+92.9531E-09,-587.6844246777E-03
+93.2813E-09,-576.3247693794E-03
+93.6094E-09,-570.1510436738E-03
+93.9375E-09,-558.0505412908E-03
+94.2656E-09,-541.8753799422E-03
+94.5938E-09,-535.8868660078E-03
+94.9219E-09,-526.8114892205E-03
+95.2500E-09,-518.9708575745E-03
+95.5781E-09,-511.6241239848E-03
+95.9063E-09,-498.0419274325E-03
+96.2344E-09,-486.5587976201E-03
+96.5625E-09,-477.0512600335E-03
+96.8906E-09,-464.8272831364E-03
+97.2188E-09,-457.3570750326E-03
+97.5469E-09,-449.3929688724E-03
+97.8750E-09,-437.2924664894E-03
+98.2031E-09,-430.0074701568E-03
+98.5313E-09,-421.7346777113E-03
+98.8594E-09,-409.7576498425E-03
+99.1875E-09,-402.6578652811E-03
+99.5156E-09,-394.0763865503E-03
+99.8438E-09,-383.2106293084E-03
+100.1719E-09,-379.7533429133E-03
+100.5000E-09,-373.3326681795E-03
+100.8281E-09,-362.5903854518E-03
+101.1563E-09,-359.3183108278E-03
+101.4844E-09,-352.5889498087E-03
+101.8125E-09,-341.8466670810E-03
+102.1406E-09,-338.5745924570E-03
+102.4688E-09,-333.8208236637E-03
+102.7969E-09,-328.1409960145E-03
+103.1250E-09,-325.0541331617E-03
+103.4531E-09,-321.9672703090E-03
+103.7813E-09,-321.2264232243E-03
+104.1094E-09,-318.1395603715E-03
+104.4375E-09,-313.0771052929E-03
+104.7656E-09,-308.1381247284E-03
+105.0938E-09,-308.1381247284E-03
+105.4219E-09,-306.9033795873E-03
+105.7500E-09,-303.0756696498E-03
+106.0781E-09,-301.2235519382E-03
+106.4063E-09,-301.2235519382E-03
+106.7344E-09,-301.2235519382E-03
+107.0625E-09,-301.2235519382E-03
+107.3906E-09,-301.2235519382E-03
+107.7188E-09,-301.2235519382E-03
+108.0469E-09,-301.2235519382E-03
+108.3750E-09,-301.2235519382E-03
+108.7031E-09,-301.2235519382E-03
+109.0313E-09,-301.2235519382E-03
+109.3594E-09,-302.3348225652E-03
+109.6875E-09,-305.9773207315E-03
+110.0156E-09,-308.1381247284E-03
+110.3438E-09,-308.1381247284E-03
+110.6719E-09,-308.1381247284E-03
+111.0000E-09,-308.1381247284E-03
+111.3281E-09,-308.1381247284E-03
+111.6563E-09,-308.1381247284E-03
+111.9844E-09,-308.1381247284E-03
+112.3125E-09,-308.1381247284E-03
+112.6406E-09,-308.1381247284E-03
+112.9688E-09,-308.1381247284E-03
+113.2969E-09,-308.1381247284E-03
+113.6250E-09,-308.1381247284E-03
+113.9531E-09,-308.1381247284E-03
+114.2813E-09,-308.1381247284E-03
+114.6094E-09,-308.1381247284E-03
+114.9375E-09,-308.1381247284E-03
+115.2656E-09,-308.1381247284E-03
+115.5938E-09,-308.1381247284E-03
+115.9219E-09,-306.9033795873E-03
+116.2500E-09,-303.0756696498E-03
+116.5781E-09,-301.2235519382E-03
+116.9063E-09,-301.2235519382E-03
+117.2344E-09,-301.2235519382E-03
+117.5625E-09,-301.2235519382E-03
+117.8906E-09,-301.2235519382E-03
+118.2188E-09,-301.2235519382E-03
+118.5469E-09,-301.2235519382E-03
+118.8750E-09,-301.2235519382E-03
+119.2031E-09,-301.2235519382E-03
+119.5313E-09,-301.2235519382E-03
+119.8594E-09,-301.2235519382E-03
+120.1875E-09,-301.2235519382E-03
+120.5156E-09,-301.2235519382E-03
+120.8438E-09,-301.2235519382E-03
+121.1719E-09,-301.2235519382E-03
+121.5000E-09,-299.2479597124E-03
+121.8281E-09,-294.3089791479E-03
+122.1563E-09,-294.3089791479E-03
+122.4844E-09,-294.3089791479E-03
+122.8125E-09,-294.3089791479E-03
+123.1406E-09,-294.3089791479E-03
+123.4688E-09,-294.3089791479E-03
+123.7969E-09,-294.3089791479E-03
+124.1250E-09,-294.3089791479E-03
+124.4531E-09,-294.3089791479E-03
+124.7813E-09,-293.5681320632E-03
+125.1094E-09,-290.4812692104E-03
+125.4375E-09,-287.3944063576E-03
+125.7656E-09,-287.3944063576E-03
+126.0938E-09,-287.3944063576E-03
+126.4219E-09,-287.3944063576E-03
+126.7500E-09,-287.3944063576E-03
+127.0781E-09,-287.3944063576E-03
+127.4063E-09,-287.3944063576E-03
+127.7344E-09,-287.3944063576E-03
+128.0625E-09,-287.3944063576E-03
+128.3906E-09,-287.3944063576E-03
+128.7188E-09,-287.3944063576E-03
+129.0469E-09,-287.3944063576E-03
+129.3750E-09,-287.3944063576E-03
+129.7031E-09,-287.3944063576E-03
+130.0313E-09,-287.3944063576E-03
+130.3594E-09,-286.4066102447E-03
+130.6875E-09,-282.9493238496E-03
+131.0156E-09,-280.4798335674E-03
+131.3438E-09,-280.4798335674E-03
+131.6719E-09,-280.4798335674E-03
