x-axis,1
second,Volt
-78.0000E-09,-736.9319730387E-03
-77.6719E-09,-733.9944282030E-03
-77.3438E-09,-734.0891877138E-03
-77.0156E-09,-737.8795681470E-03
-76.6875E-09,-737.8795681470E-03
-76.3594E-09,-737.8795681470E-03
-76.0313E-09,-737.8795681470E-03
-75.7031E-09,-737.8795681470E-03
-75.3750E-09,-736.3634159738E-03
-75.0469E-09,-733.4258711380E-03
-74.7187E-09,-736.2212767075E-03
-74.3906E-09,-737.8795681470E-03
-74.0625E-09,-737.8795681470E-03
-73.7344E-09,-737.8795681470E-03
-73.4062E-09,-737.8795681470E-03
-73.0781E-09,-737.8795681470E-03
-72.7500E-09,-737.8795681470E-03
-72.4219E-09,-737.8795681470E-03
-72.0937E-09,-737.8795681470E-03
-71.7656E-09,-737.8795681470E-03
-71.4375E-09,-737.8795681470E-03
-71.1094E-09,-737.8795681470E-03
-70.7812E-09,-737.8795681470E-03
-70.4531E-09,-737.8795681470E-03
-70.1250E-09,-737.3110110821E-03
-69.7969E-09,-734.9420233113E-03
-69.4687E-09,-732.5730355406E-03
-69.1406E-09,-732.5730355406E-03
-68.8125E-09,-732.5730355406E-03
-68.4844E-09,-732.5730355406E-03
-68.1562E-09,-732.5730355406E-03
-67.8281E-09,-732.5730355406E-03
-67.5000E-09,-732.5730355406E-03
-67.1719E-09,-732.5730355406E-03
-66.8437E-09,-732.5730355406E-03
-66.5156E-09,-732.5730355406E-03
-66.1875E-09,-732.5730355406E-03
-65.8594E-09,-732.5730355406E-03
-65.5312E-09,-732.5730355406E-03
-65.2031E-09,-732.5730355406E-03
-64.8750E-09,-732.5730355406E-03
-64.5469E-09,-732.5730355406E-03
-64.2187E-09,-732.5730355406E-03
-63.8906E-09,-734.0891877138E-03
-63.5625E-09,-737.8795681470E-03
-63.2344E-09,-737.8795681470E-03
-62.9062E-09,-737.8795681470E-03
-62.5781E-09,-737.2162515712E-03
-62.2500E-09,-734.7051245342E-03
-61.9219E-09,-732.5730355406E-03
-61.5937E-09,-732.5730355406E-03
-61.2656E-09,-732.5730355406E-03
-60.9375E-09,-734.0891877138E-03
-60.6094E-09,-737.8795681470E-03
-60.2812E-09,-737.8795681470E-03
-59.9531E-09,-737.8795681470E-03
-59.6250E-09,-737.8795681470E-03
-59.2969E-09,-737.8795681470E-03
-58.9687E-09,-737.8795681470E-03
-58.6406E-09,-737.8795681470E-03
-58.3125E-09,-737.8795681470E-03
-57.9844E-09,-737.8795681470E-03
-57.6562E-09,-737.8795681470E-03
-57.3281E-09,-737.8795681470E-03
-57.0000E-09,-737.8795681470E-03
-56.6719E-09,-737.8795681470E-03
-56.3437E-09,-737.8795681470E-03
-56.0156E-09,-737.8795681470E-03
-55.6875E-09,-737.8795681470E-03
-55.3594E-09,-737.8795681470E-03
-55.0312E-09,-737.8795681470E-03
-54.7031E-09,-737.8795681470E-03
-54.3750E-09,-737.8795681470E-03
-54.0469E-09,-737.8795681470E-03
-53.7187E-09,-737.8795681470E-03
-53.3906E-09,-737.8795681470E-03
-53.0625E-09,-737.8795681470E-03
-52.7344E-09,-737.8795681470E-03
-52.4062E-09,-737.8795681470E-03
-52.0781E-09,-737.8795681470E-03
-51.7500E-09,-737.8795681470E-03
-51.4219E-09,-737.8795681470E-03
-51.0937E-09,-737.8795681470E-03
-50.7656E-09,-737.8795681470E-03
-50.4375E-09,-737.8795681470E-03
-50.1094E-09,-737.8795681470E-03
-49.7812E-09,-737.8795681470E-03
-49.4531E-09,-737.8795681470E-03
-49.1250E-09,-737.8795681470E-03
-48.7969E-09,-737.8795681470E-03
-48.4687E-09,-737.8795681470E-03
-48.1406E-09,-737.8795681470E-03
-47.8125E-09,-737.8795681470E-03
-47.4844E-09,-737.8795681470E-03
-47.1562E-09,-737.8795681470E-03
-46.8281E-09,-737.8795681470E-03
-46.5000E-09,-737.8795681470E-03
-46.1719E-09,-737.8795681470E-03
-45.8437E-09,-737.8795681470E-03
-45.5156E-09,-737.8795681470E-03
-45.1875E-09,-737.8795681470E-03
-44.8594E-09,-737.8795681470E-03
-44.5312E-09,-737.8795681470E-03
-44.2031E-09,-737.8795681470E-03
-43.8750E-09,-737.8795681470E-03
-43.5469E-09,-737.8795681470E-03
-43.2187E-09,-737.8795681470E-03
-42.8906E-09,-737.8795681470E-03
-42.5625E-09,-737.1214920604E-03
-42.2344E-09,-734.4682257572E-03
-41.9062E-09,-734.0891877138E-03
-41.5781E-09,-737.2162515712E-03
-41.2500E-09,-734.7051245342E-03
-40.9219E-09,-732.5730355406E-03
-40.5937E-09,-732.5730355406E-03
-40.2656E-09,-732.5730355406E-03
-39.9375E-09,-732.5730355406E-03
-39.6094E-09,-732.5730355406E-03
-39.2812E-09,-732.5730355406E-03
-38.9531E-09,-732.5730355406E-03
-38.6250E-09,-732.5730355406E-03
-38.2969E-09,-732.5730355406E-03
-37.9687E-09,-732.5730355406E-03
-37.6406E-09,-732.5730355406E-03
-37.3125E-09,-732.5730355406E-03
-36.9844E-09,-731.0568833673E-03
-36.6562E-09,-727.2665029341E-03
-36.3281E-09,-727.2665029341E-03
-36.0000E-09,-726.3189078258E-03
-35.6719E-09,-723.3813629900E-03
-35.3437E-09,-720.4438181543E-03
-35.0156E-09,-715.8006021236E-03
-34.6875E-09,-713.0051965541E-03
-34.3594E-09,-708.3146007681E-03
-34.0312E-09,-699.0281687067E-03
-33.7031E-09,-693.4373575677E-03
-33.3750E-09,-687.0884703421E-03
-33.0469E-09,-677.8967977916E-03
-32.7187E-09,-672.4481259189E-03
-32.3906E-09,-664.3461877429E-03
-32.0625E-09,-650.7008181834E-03
-31.7344E-09,-642.7410192737E-03
-31.4062E-09,-630.9908399307E-03
-31.0781E-09,-612.8917733622E-03
-30.7500E-09,-602.4208474155E-03
-30.4219E-09,-588.5385790789E-03
-30.0937E-09,-569.9657149562E-03
-29.7656E-09,-557.2679405050E-03
-29.4375E-09,-537.7474812740E-03
-29.1094E-09,-511.2148182416E-03
-28.7812E-09,-496.4323345521E-03
-28.4531E-09,-474.0690899962E-03
-28.1250E-09,-447.1573889205E-03
-27.7969E-09,-430.2901959927E-03
-27.4687E-09,-403.5680139386E-03
-27.1406E-09,-373.2449704730E-03
-26.8125E-09,-356.9463346102E-03
-26.4844E-09,-327.7604052746E-03
-26.1562E-09,-293.4574623541E-03
-25.8281E-09,-275.3583957856E-03
-25.5000E-09,-248.1624161774E-03
-25.1719E-09,-227.3153237948E-03
-24.8437E-09,-205.7101553255E-03
-24.5156E-09,-168.9434651234E-03
-24.1875E-09,-148.6649298058E-03
-23.8594E-09,-127.6283184015E-03
-23.5312E-09,-94.9362871652E-03
-23.2031E-09,-75.0841696463E-03
-22.8750E-09,-53.3368619108E-03
-22.5469E-09,-22.6347804019E-03
-22.2187E-09,-8.7998918207E-03
-21.8906E-09,+8.8253771937E-03
-21.5625E-09,+34.6947236503E-03
-21.2344E-09,+45.4499281295E-03
-20.9062E-09,+60.3745510853E-03
-20.5781E-09,+81.5059220004E-03
-20.2500E-09,+89.3235816438E-03
-19.9219E-09,+99.7945075906E-03
-19.5937E-09,+112.4922820418E-03
-19.2656E-09,+117.5145361158E-03
-18.9375E-09,+123.2948662764E-03
-18.6094E-09,+127.6538037746E-03
-18.2812E-09,+130.0227915453E-03
-17.9531E-09,+130.8756271428E-03
-17.6250E-09,+127.0852467096E-03
-17.2969E-09,+127.0852467096E-03
-16.9687E-09,+124.0529423630E-03
-16.6406E-09,+115.3350673667E-03
-16.3125E-09,+110.5970918252E-03
-15.9844E-09,+102.8268119371E-03
-15.6562E-09,+93.1613418325E-03
-15.3281E-09,+83.9696692819E-03
-15.0000E-09,+71.0823758091E-03
-14.6719E-09,+62.1276020356E-03
-14.3437E-09,+50.5195619589E-03
-14.0156E-09,+26.8296842514E-03
-13.6875E-09,+12.1419600728E-03
-13.3594E-09,-2.5457641059E-03
-13.0312E-09,-26.8041988784E-03
-12.7031E-09,-43.8609108278E-03
-12.3750E-09,-62.4337749505E-03
-12.0469E-09,-91.0511472212E-03
-11.7187E-09,-110.4768469413E-03
-11.3906E-09,-132.9348510081E-03
-11.0625E-09,-165.0583251794E-03
-10.7344E-09,-184.0576071008E-03
-10.4062E-09,-207.2263074988E-03
-10.0781E-09,-238.9707436269E-03
-9.7500E-09,-257.4014684833E-03
-9.4219E-09,-281.5177639896E-03
-9.0937E-09,-313.6412381609E-03
-8.7656E-09,-334.1566722556E-03
-8.4375E-09,-361.1157530868E-03
-8.1094E-09,-392.1968726390E-03
-7.7812E-09,-409.6326226318E-03
-7.4531E-09,-433.8910574043E-03
-7.1250E-09,-460.8975179908E-03
-6.7969E-09,-477.9068501848E-03
-6.4687E-09,-502.8759812885E-03
-6.1406E-09,-528.4610492126E-03
-5.8125E-09,-540.3059880664E-03
-5.4844E-09,-559.7316877866E-03
-5.1562E-09,-581.2420967450E-03
-4.8281E-09,-592.6606178000E-03
-4.5000E-09,-609.1961524398E-03
-4.1719E-09,-621.2306103153E-03
-3.8437E-09,-632.5069921040E-03
-3.5156E-09,-650.5112991617E-03
-3.1875E-09,-659.3239336689E-03
-2.8594E-09,-666.6204160028E-03
-2.5312E-09,-676.8544431725E-03
-2.2031E-09,-685.3827991472E-03
-1.8750E-09,-693.1530790353E-03
-1.5469E-09,-701.5866754991E-03
-1.2187E-09,-704.3820810686E-03
-890.6E-12,-707.5565246814E-03
-562.5E-12,-712.1997407121E-03
-234.4E-12,-714.9951462816E-03
+93.8E-12,-718.1695898944E-03
+421.9E-12,-722.7180464142E-03
+750.0E-12,-725.3713127175E-03
+1.0781E-09,-727.2665029341E-03
+1.4063E-09,-727.2665029341E-03
+1.7344E-09,-727.2665029341E-03
+2.0625E-09,-727.2665029341E-03
+2.3906E-09,-727.2665029341E-03
+2.7188E-09,-727.2665029341E-03
+3.0469E-09,-727.2665029341E-03
+3.3750E-09,-727.2665029341E-03
+3.7031E-09,-727.2665029341E-03
+4.0313E-09,-727.2665029341E-03
+4.3594E-09,-726.7927053799E-03
+4.6875E-09,-724.5658568754E-03
+5.0156E-09,-721.9599703276E-03
+5.3438E-09,-721.9599703276E-03
+5.6719E-09,-721.9599703276E-03
+6.0000E-09,-721.0123752193E-03
+6.3281E-09,-718.0748303836E-03
+6.6563E-09,-716.6534377211E-03
+6.9844E-09,-715.8006021236E-03
+7.3125E-09,-713.0051965541E-03
+7.6406E-09,-711.3469051146E-03
+7.9688E-09,-711.3469051146E-03
+8.2969E-09,-711.3469051146E-03
+8.6250E-09,-711.3469051146E-03
+8.9531E-09,-711.3469051146E-03
+9.2813E-09,-711.3469051146E-03
+9.6094E-09,-711.3469051146E-03
+9.9375E-09,-711.3469051146E-03
+10.2656E-09,-711.3469051146E-03
+10.5938E-09,-711.3469051146E-03
+10.9219E-09,-712.1049812013E-03
+11.2500E-09,-714.7582475045E-03
+11.5781E-09,-716.6534377211E-03
+11.9063E-09,-716.6534377211E-03
+12.2344E-09,-716.6534377211E-03
+12.5625E-09,-718.1695898944E-03
+12.8906E-09,-721.9599703276E-03
+13.2188E-09,-721.9599703276E-03
+13.5469E-09,-721.9599703276E-03
+13.8750E-09,-722.6232869034E-03
+14.2031E-09,-725.1344139404E-03
+14.5313E-09,-727.2665029341E-03
+14.8594E-09,-727.2665029341E-03
+15.1875E-09,-727.2665029341E-03
+15.5156E-09,-727.2665029341E-03
+15.8438E-09,-727.2665029341E-03
+16.1719E-09,-727.2665029341E-03
+16.5000E-09,-728.3088575532E-03
+16.8281E-09,-731.3885416552E-03
+17.1563E-09,-732.5730355406E-03
+17.4844E-09,-731.7201999431E-03
+17.8125E-09,-728.9247943736E-03
+18.1406E-09,-727.2665029341E-03
+18.4688E-09,-727.2665029341E-03
+18.7969E-09,-727.2665029341E-03
+19.1250E-09,-727.2665029341E-03
+19.4531E-09,-727.2665029341E-03
+19.7813E-09,-727.2665029341E-03
+20.1094E-09,-727.2665029341E-03
+20.4375E-09,-727.2665029341E-03
+20.7656E-09,-727.2665029341E-03
+21.0938E-09,-725.7503507608E-03
+21.4219E-09,-721.9599703276E-03
+21.7500E-09,-721.9599703276E-03
+22.0781E-09,-721.9599703276E-03
+22.4063E-09,-722.7180464142E-03
+22.7344E-09,-725.3713127175E-03
+23.0625E-09,-727.2665029341E-03
+23.3906E-09,-727.2665029341E-03
+23.7188E-09,-727.2665029341E-03
+24.0469E-09,-727.2665029341E-03
+24.3750E-09,-727.2665029341E-03
+24.7031E-09,-727.2665029341E-03
+25.0313E-09,-727.2665029341E-03
+25.3594E-09,-727.8350599991E-03
+25.6875E-09,-730.2040477698E-03
+26.0156E-09,-732.5730355406E-03
+26.3438E-09,-732.5730355406E-03
+26.6719E-09,-732.5730355406E-03
+27.0000E-09,-732.5730355406E-03
+27.3281E-09,-732.5730355406E-03
+27.6563E-09,-734.0891877138E-03
+27.9844E-09,-737.8795681470E-03
+28.3125E-09,-737.8795681470E-03
+28.6406E-09,-737.8795681470E-03
+28.9688E-09,-737.8795681470E-03
+29.2969E-09,-737.8795681470E-03
+29.6250E-09,-736.3634159738E-03
+29.9531E-09,-732.5730355406E-03
+30.2813E-09,-732.5730355406E-03
+30.6094E-09,-732.5730355406E-03
+30.9375E-09,-732.5730355406E-03
+31.2656E-09,-732.5730355406E-03
+31.5938E-09,-732.5730355406E-03
+31.9219E-09,-731.9097189647E-03
+32.2500E-09,-729.3985919277E-03
+32.5781E-09,-727.2665029341E-03
+32.9063E-09,-727.2665029341E-03
+33.2344E-09,-727.2665029341E-03
+33.5625E-09,-727.2665029341E-03
+33.8906E-09,-727.2665029341E-03
+34.2188E-09,-727.2665029341E-03
+34.5469E-09,-727.2665029341E-03
+34.8750E-09,-727.9298195099E-03
+35.2031E-09,-730.4409465469E-03
+35.5313E-09,-732.5730355406E-03
+35.8594E-09,-732.5730355406E-03
+36.1875E-09,-732.5730355406E-03
+36.5156E-09,-732.5730355406E-03
+36.8438E-09,-732.5730355406E-03
+37.1719E-09,-732.5730355406E-03
+37.5000E-09,-732.5730355406E-03
+37.8281E-09,-732.5730355406E-03
+38.1563E-09,-732.5730355406E-03
+38.4844E-09,-732.5730355406E-03
+38.8125E-09,-732.5730355406E-03
+39.1406E-09,-732.5730355406E-03
+39.4688E-09,-732.5730355406E-03
+39.7969E-09,-732.5730355406E-03
+40.1250E-09,-732.5730355406E-03
+40.4531E-09,-732.5730355406E-03
+40.7813E-09,-732.5730355406E-03
+41.1094E-09,-732.5730355406E-03
+41.4375E-09,-732.5730355406E-03
+41.7656E-09,-732.5730355406E-03
+42.0938E-09,-732.5730355406E-03
+42.4219E-09,-732.5730355406E-03
+42.7500E-09,-732.5730355406E-03
+43.0781E-09,-732.5730355406E-03
+43.4063E-09,-732.5730355406E-03
+43.7344E-09,-732.5730355406E-03
+44.0625E-09,-732.5730355406E-03
+44.3906E-09,-732.5730355406E-03
+44.7188E-09,-732.5730355406E-03
+45.0469E-09,-732.5730355406E-03
+45.3750E-09,-732.5730355406E-03
+45.7031E-09,-732.5730355406E-03
+46.0313E-09,-732.5730355406E-03
+46.3594E-09,-732.5730355406E-03
+46.6875E-09,-732.5730355406E-03
+47.0156E-09,-732.5730355406E-03
+47.3438E-09,-732.5730355406E-03
+47.6719E-09,-732.5730355406E-03
+48.0000E-09,-732.5730355406E-03
+48.3281E-09,-732.5730355406E-03
+48.6563E-09,-732.5730355406E-03
+48.9844E-09,-732.5730355406E-03
+49.3125E-09,-732.5730355406E-03
+49.6406E-09,-732.5730355406E-03
+49.9688E-09,-732.5730355406E-03
+50.2969E-09,-732.5730355406E-03
+50.6250E-09,-732.5730355406E-03
+50.9531E-09,-732.5730355406E-03
+51.2813E-09,-732.5730355406E-03
+51.6094E-09,-732.5730355406E-03
+51.9375E-09,-732.5730355406E-03
+52.2656E-09,-732.5730355406E-03
+52.5938E-09,-732.5730355406E-03
+52.9219E-09,-732.5730355406E-03
+53.2500E-09,-732.5730355406E-03
+53.5781E-09,-732.5730355406E-03
+53.9063E-09,-732.5730355406E-03
+54.2344E-09,-732.5730355406E-03
+54.5625E-09,-732.5730355406E-03
+54.8906E-09,-732.5730355406E-03
+55.2188E-09,-732.5730355406E-03
+55.5469E-09,-732.5730355406E-03
+55.8750E-09,-732.5730355406E-03
+56.2031E-09,-732.5730355406E-03
+56.5313E-09,-732.5730355406E-03
+56.8594E-09,-733.1415926055E-03
+57.1875E-09,-735.5105803763E-03
+57.5156E-09,-737.8795681470E-03
+57.8438E-09,-737.8795681470E-03
+58.1719E-09,-737.8795681470E-03
+58.5000E-09,-737.8795681470E-03
+58.8281E-09,-737.8795681470E-03
+59.1563E-09,-736.3634159738E-03
+59.4844E-09,-732.5730355406E-03
+59.8125E-09,-732.5730355406E-03
+60.1406E-09,-732.5730355406E-03
+60.4688E-09,-732.5730355406E-03
+60.7969E-09,-732.5730355406E-03
+61.1250E-09,-732.5730355406E-03
+61.4531E-09,-732.5730355406E-03
+61.7813E-09,-732.5730355406E-03
+62.1094E-09,-732.5730355406E-03
+62.4375E-09,-732.5730355406E-03
+62.7656E-09,-732.5730355406E-03
+63.0938E-09,-732.5730355406E-03
+63.4219E-09,-732.5730355406E-03
+63.7500E-09,-732.5730355406E-03
+64.0781E-09,-732.5730355406E-03
+64.4063E-09,-732.5730355406E-03
+64.7344E-09,-732.5730355406E-03
+65.0625E-09,-731.0568833673E-03
+65.3906E-09,-727.2665029341E-03
+65.7188E-09,-727.2665029341E-03
+66.0469E-09,-727.2665029341E-03
+66.3750E-09,-726.6979458691E-03
+66.7031E-09,-724.3289580983E-03
+67.0313E-09,-721.9599703276E-03
+67.3594E-09,-721.9599703276E-03
+67.6875E-09,-721.9599703276E-03
+68.0156E-09,-720.4438181543E-03
+68.3438E-09,-716.1796401670E-03
+68.6719E-09,-713.9527916624E-03
+69.0000E-09,-710.3993100063E-03
+69.3281E-09,-707.4617651706E-03
+69.6563E-09,-704.5242203349E-03
+69.9844E-09,-699.8810043042E-03
+70.3125E-09,-697.0855987347E-03
+70.6406E-09,-693.9111551219E-03
+70.9688E-09,-688.4151034937E-03
+71.2969E-09,-682.8242923548E-03
+71.6250E-09,-676.4754051292E-03
+71.9531E-09,-667.2837325786E-03
+72.2813E-09,-661.8350607059E-03
+72.6094E-09,-655.2492747032E-03
+72.9375E-09,-646.1523616635E-03
+73.2656E-09,-640.8458290571E-03
+73.5938E-09,-632.5069921040E-03
+73.9219E-09,-618.9563820553E-03
+74.2500E-09,-611.1387224118E-03
+74.5781E-09,-600.6677964651E-03
+74.9063E-09,-587.3067054381E-03
+75.2344E-09,-579.7733243271E-03
+75.5625E-09,-568.8286008262E-03
+75.8906E-09,-555.5622693100E-03
+76.2188E-09,-548.1710274653E-03
+76.5469E-09,-536.9894051873E-03
+76.8750E-09,-523.9125926928E-03
+77.2031E-09,-516.8056293805E-03
+77.5313E-09,-505.1502095484E-03
+77.8594E-09,-492.7367136297E-03
+78.1875E-09,-488.1408773544E-03
+78.5156E-09,-478.6175465160E-03
+78.8438E-09,-465.8250125540E-03
+79.1719E-09,-459.1444670404E-03
+79.5000E-09,-449.4316171804E-03
+79.8281E-09,-443.5565275089E-03
+80.1563E-09,-437.6814378374E-03
+80.4844E-09,-428.3002462653E-03
+80.8125E-09,-422.5672958601E-03
+81.1406E-09,-416.4553074115E-03
+81.4688E-09,-407.1688753502E-03
+81.7969E-09,-401.5780642112E-03
+82.1250E-09,-396.7453291589E-03
+82.4531E-09,-392.1968726390E-03
+82.7813E-09,-389.5436063358E-03
+83.1094E-09,-386.1322639459E-03
+83.4375E-09,-381.5838074261E-03
+83.7656E-09,-378.9305411228E-03
+84.0938E-09,-377.0353509062E-03
+84.4219E-09,-377.0353509062E-03
+84.7500E-09,-377.0353509062E-03
+85.0781E-09,-377.0353509062E-03
+85.4063E-09,-377.7934269929E-03
+85.7344E-09,-380.4466932961E-03
+86.0625E-09,-383.8580356860E-03
+86.3906E-09,-388.3117326950E-03
+86.7188E-09,-390.8228597320E-03
+87.0469E-09,-394.4711008990E-03
+87.3750E-09,-399.4933549730E-03
+87.7031E-09,-404.3734697807E-03
+88.0313E-09,-411.9068508917E-03
+88.3594E-09,-420.0561688231E-03
+88.6875E-09,-422.4251565938E-03
+89.0156E-09,-429.3426008844E-03
+89.3438E-09,-441.7560968032E-03
+89.6719E-09,-446.3519330784E-03
+90.0000E-09,-453.3167571244E-03
+90.3281E-09,-459.3339860621E-03
+90.6563E-09,-466.4883291298E-03
+90.9844E-09,-479.7546606460E-03
+91.3125E-09,-485.6297503175E-03
+91.6406E-09,-493.0209921622E-03
+91.9688E-09,-507.0453997651E-03
+92.2969E-09,-515.5737557398E-03
+92.6250E-09,-523.3440356278E-03
+92.9531E-09,-533.4833032866E-03
+93.2813E-09,-541.8695199951E-03
+93.6094E-09,-551.3928508335E-03
+93.9375E-09,-565.1329799039E-03
+94.2656E-09,-573.2349180798E-03
+94.5938E-09,-581.7158942991E-03
+94.9219E-09,-591.5708834255E-03
+95.2500E-09,-599.5306823352E-03
+95.5781E-09,-609.7647095048E-03
+95.9063E-09,-622.5572434669E-03
+96.2344E-09,-627.7216368071E-03
+96.5625E-09,-634.7812203640E-03
+96.8906E-09,-643.6886143820E-03
+97.2188E-09,-648.7108684560E-03
+97.5469E-09,-656.0073507899E-03
+97.8750E-09,-664.8199852971E-03
+98.2031E-09,-669.7001001048E-03
+98.5313E-09,-675.7173290425E-03
+98.8594E-09,-680.6448236057E-03
+99.1875E-09,-685.3827991472E-03
+99.5156E-09,-691.6369268620E-03
+99.8438E-09,-695.9958643602E-03
+100.1719E-09,-698.3648521309E-03
+100.5000E-09,-701.7761945208E-03
+100.8281E-09,-704.8558786228E-03
+101.1563E-09,-706.0403725081E-03
+101.4844E-09,-706.9879676164E-03
+101.8125E-09,-709.9255124522E-03
+102.1406E-09,-711.3469051146E-03
+102.4688E-09,-711.3469051146E-03
+102.7969E-09,-711.3469051146E-03
+103.1250E-09,-711.3469051146E-03
+103.4531E-09,-712.1997407121E-03
+103.7813E-09,-714.9951462816E-03
+104.1094E-09,-716.6534377211E-03
+104.4375E-09,-716.6534377211E-03
+104.7656E-09,-716.6534377211E-03
+105.0938E-09,-716.6534377211E-03
+105.4219E-09,-716.6534377211E-03
+105.7500E-09,-716.6534377211E-03
+106.0781E-09,-715.1372855478E-03
+106.4063E-09,-711.3469051146E-03
+106.7344E-09,-711.3469051146E-03
+107.0625E-09,-711.3469051146E-03
+107.3906E-09,-711.3469051146E-03
+107.7188E-09,-711.3469051146E-03
+108.0469E-09,-711.3469051146E-03
+108.3750E-09,-711.3469051146E-03
+108.7031E-09,-711.3469051146E-03
+109.0313E-09,-711.3469051146E-03
+109.3594E-09,-711.3469051146E-03
+109.6875E-09,-711.3469051146E-03
+110.0156E-09,-711.3469051146E-03
+110.3438E-09,-711.3469051146E-03
+110.6719E-09,-711.3469051146E-03
+111.0000E-09,-711.3469051146E-03
+111.3281E-09,-711.3469051146E-03
+111.6563E-09,-711.3469051146E-03
+111.9844E-09,-711.3469051146E-03
+112.3125E-09,-711.3469051146E-03
+112.6406E-09,-711.3469051146E-03
+112.9688E-09,-711.3469051146E-03
+113.2969E-09,-711.3469051146E-03
+113.6250E-09,-711.3469051146E-03
+113.9531E-09,-711.3469051146E-03
+114.2813E-09,-711.3469051146E-03
+114.6094E-09,-711.3469051146E-03
+114.9375E-09,-711.3469051146E-03
+115.2656E-09,-711.3469051146E-03
+115.5938E-09,-712.8630572879E-03
+115.9219E-09,-716.6534377211E-03
+116.2500E-09,-716.6534377211E-03
+116.5781E-09,-716.6534377211E-03
+116.9063E-09,-716.6534377211E-03
+117.2344E-09,-716.6534377211E-03
+117.5625E-09,-716.6534377211E-03
+117.8906E-09,-716.6534377211E-03
+118.2188E-09,-716.6534377211E-03
+118.5469E-09,-716.6534377211E-03
+118.8750E-09,-717.3167542969E-03
+119.2031E-09,-719.8278813339E-03
+119.5313E-09,-721.9599703276E-03
+119.8594E-09,-721.9599703276E-03
+120.1875E-09,-721.9599703276E-03
+120.5156E-09,-721.9599703276E-03
+120.8438E-09,-721.9599703276E-03
+121.1719E-09,-721.9599703276E-03
+121.5000E-09,-721.9599703276E-03
+121.8281E-09,-721.9599703276E-03
+122.1563E-09,-721.9599703276E-03
+122.4844E-09,-721.9599703276E-03
+122.8125E-09,-721.9599703276E-03
+123.1406E-09,-723.4761225009E-03
+123.4688E-09,-727.2665029341E-03
+123.7969E-09,-727.2665029341E-03
+124.1250E-09,-727.2665029341E-03
+124.4531E-09,-727.2665029341E-03
+124.7813E-09,-727.2665029341E-03
+125.1094E-09,-727.2665029341E-03
+125.4375E-09,-727.2665029341E-03
+125.7656E-09,-727.2665029341E-03
+126.0938E-09,-727.2665029341E-03
+126.4219E-09,-727.2665029341E-03
+126.7500E-09,-727.2665029341E-03
+127.0781E-09,-728.7826551074E-03
+127.4063E-09,-732.5730355406E-03
+127.7344E-09,-732.5730355406E-03
+128.0625E-09,-732.5730355406E-03
+128.3906E-09,-732.5730355406E-03
+128.7188E-09,-732.5730355406E-03
+129.0469E-09,-732.5730355406E-03
+129.3750E-09,-732.5730355406E-03
+129.7031E-09,-732.5730355406E-03
+130.0313E-09,-732.5730355406E-03
+130.3594E-09,-732.5730355406E-03
+130.6875E-09,-732.5730355406E-03
+131.0156E-09,-732.5730355406E-03
+131.3438E-09,-732.5730355406E-03
+131.6719E-09,-732.5730355406E-03
