x-axis,1
second,Volt
-78.0000E-09,-737.8795681470E-03
-77.6719E-09,-737.8795681470E-03
-77.3438E-09,-737.8795681470E-03
-77.0156E-09,-737.8795681470E-03
-76.6875E-09,-737.8795681470E-03
-76.3594E-09,-737.8795681470E-03
-76.0313E-09,-737.8795681470E-03
-75.7031E-09,-737.8795681470E-03
-75.3750E-09,-737.8795681470E-03
-75.0469E-09,-737.8795681470E-03
-74.7187E-09,-737.8795681470E-03
-74.3906E-09,-737.8795681470E-03
-74.0625E-09,-737.8795681470E-03
-73.7344E-09,-737.8795681470E-03
-73.4062E-09,-737.8795681470E-03
-73.0781E-09,-737.8795681470E-03
-72.7500E-09,-737.8795681470E-03
-72.4219E-09,-737.8795681470E-03
-72.0937E-09,-737.8795681470E-03
-71.7656E-09,-737.8795681470E-03
-71.4375E-09,-737.8795681470E-03
-71.1094E-09,-737.8795681470E-03
-70.7812E-09,-737.8795681470E-03
-70.4531E-09,-737.8795681470E-03
-70.1250E-09,-737.8795681470E-03
-69.7969E-09,-737.8795681470E-03
-69.4687E-09,-737.8795681470E-03
-69.1406E-09,-737.8795681470E-03
-68.8125E-09,-737.8795681470E-03
-68.4844E-09,-736.3634159738E-03
-68.1562E-09,-732.5730355406E-03
-67.8281E-09,-732.5730355406E-03
-67.5000E-09,-734.0891877138E-03
-67.1719E-09,-737.8795681470E-03
-66.8437E-09,-737.8795681470E-03
-66.5156E-09,-737.8795681470E-03
-66.1875E-09,-737.8795681470E-03
-65.8594E-09,-737.8795681470E-03
-65.5312E-09,-737.8795681470E-03
-65.2031E-09,-737.8795681470E-03
-64.8750E-09,-737.8795681470E-03
-64.5469E-09,-737.8795681470E-03
-64.2187E-09,-737.8795681470E-03
-63.8906E-09,-737.8795681470E-03
-63.5625E-09,-737.8795681470E-03
-63.2344E-09,-737.8795681470E-03
-62.9062E-09,-737.8795681470E-03
-62.5781E-09,-737.8795681470E-03
-62.2500E-09,-737.8795681470E-03
-61.9219E-09,-737.8795681470E-03
-61.5937E-09,-737.8795681470E-03
-61.2656E-09,-737.8795681470E-03
-60.9375E-09,-737.8795681470E-03
-60.6094E-09,-737.8795681470E-03
-60.2812E-09,-737.8795681470E-03
-59.9531E-09,-737.8795681470E-03
-59.6250E-09,-737.8795681470E-03
-59.2969E-09,-737.8795681470E-03
-58.9687E-09,-737.8795681470E-03
-58.6406E-09,-737.8795681470E-03
-58.3125E-09,-737.8795681470E-03
-57.9844E-09,-737.8795681470E-03
-57.6562E-09,-737.8795681470E-03
-57.3281E-09,-737.8795681470E-03
-57.0000E-09,-737.8795681470E-03
-56.6719E-09,-737.8795681470E-03
-56.3437E-09,-737.8795681470E-03
-56.0156E-09,-737.8795681470E-03
-55.6875E-09,-737.8795681470E-03
-55.3594E-09,-737.8795681470E-03
-55.0312E-09,-737.8795681470E-03
-54.7031E-09,-737.8795681470E-03
-54.3750E-09,-737.8795681470E-03
-54.0469E-09,-737.8795681470E-03
-53.7187E-09,-737.8795681470E-03
-53.3906E-09,-737.8795681470E-03
-53.0625E-09,-737.8795681470E-03
-52.7344E-09,-737.8795681470E-03
-52.4062E-09,-737.8795681470E-03
-52.0781E-09,-737.8795681470E-03
-51.7500E-09,-737.8795681470E-03
-51.4219E-09,-737.8795681470E-03
-51.0937E-09,-737.8795681470E-03
-50.7656E-09,-737.8795681470E-03
-50.4375E-09,-737.8795681470E-03
-50.1094E-09,-737.8795681470E-03
-49.7812E-09,-737.8795681470E-03
-49.4531E-09,-737.8795681470E-03
-49.1250E-09,-737.8795681470E-03
-48.7969E-09,-737.8795681470E-03
-48.4687E-09,-737.8795681470E-03
-48.1406E-09,-737.8795681470E-03
-47.8125E-09,-737.8795681470E-03
-47.4844E-09,-737.8795681470E-03
-47.1562E-09,-737.8795681470E-03
-46.8281E-09,-737.8795681470E-03
-46.5000E-09,-737.8795681470E-03
-46.1719E-09,-737.8795681470E-03
-45.8437E-09,-737.8795681470E-03
-45.5156E-09,-737.8795681470E-03
-45.1875E-09,-737.8795681470E-03
-44.8594E-09,-737.8795681470E-03
-44.5312E-09,-737.8795681470E-03
-44.2031E-09,-737.8795681470E-03
-43.8750E-09,-737.8795681470E-03
-43.5469E-09,-737.8795681470E-03
-43.2187E-09,-737.8795681470E-03
-42.8906E-09,-737.8795681470E-03
-42.5625E-09,-737.8795681470E-03
-42.2344E-09,-737.8795681470E-03
-41.9062E-09,-737.8795681470E-03
-41.5781E-09,-737.8795681470E-03
-41.2500E-09,-737.3110110821E-03
-40.9219E-09,-734.9420233113E-03
-40.5937E-09,-732.5730355406E-03
-40.2656E-09,-732.5730355406E-03
-39.9375E-09,-732.5730355406E-03
-39.6094E-09,-732.5730355406E-03
-39.2812E-09,-732.5730355406E-03
-38.9531E-09,-732.5730355406E-03
-38.6250E-09,-732.5730355406E-03
-38.2969E-09,-732.5730355406E-03
-37.9687E-09,-732.5730355406E-03
-37.6406E-09,-731.7201999431E-03
-37.3125E-09,-728.9247943736E-03
-36.9844E-09,-727.2665029341E-03
-36.6562E-09,-726.4136673366E-03
-36.3281E-09,-723.6182617671E-03
-36.0000E-09,-721.9599703276E-03
-35.6719E-09,-721.2018942409E-03
-35.3437E-09,-718.5486279377E-03
-35.0156E-09,-715.1372855478E-03
-34.6875E-09,-709.8307529413E-03
-34.3594E-09,-704.5242203349E-03
-34.0312E-09,-699.2176877284E-03
-33.7031E-09,-694.0059146327E-03
-33.3750E-09,-688.8415212925E-03
-33.0469E-09,-681.7819377356E-03
-32.7187E-09,-672.2112271418E-03
-32.3906E-09,-664.6778460308E-03
-32.0625E-09,-653.7331225300E-03
-31.7344E-09,-639.8982339488E-03
-31.4062E-09,-630.1380043333E-03
-31.0781E-09,-615.0712421113E-03
-30.7500E-09,-597.6354921186E-03
-30.4219E-09,-588.1595410356E-03
-30.0937E-09,-571.1028290861E-03
-29.7656E-09,-549.0238630628E-03
-29.4375E-09,-535.2363542370E-03
-29.1094E-09,-514.3418820990E-03
-28.7812E-09,-496.2901952858E-03
-28.4531E-09,-479.3756226027E-03
-28.1250E-09,-450.0001742454E-03
-27.7969E-09,-429.4373603952E-03
-27.4687E-09,-408.8745465451E-03
-27.1406E-09,-375.1401606896E-03
-26.8125E-09,-352.2083590687E-03
-26.4844E-09,-329.2765574479E-03
-26.1562E-09,-295.9212096357E-03
-25.8281E-09,-273.5579650798E-03
-25.5000E-09,-249.6785683506E-03
-25.1719E-09,-216.7022585818E-03
-24.8437E-09,-194.9075710909E-03
-24.5156E-09,-170.0805792534E-03
-24.1875E-09,-138.2413836145E-03
-23.8594E-09,-119.6685194918E-03
-23.5312E-09,-95.7891227626E-03
-23.2031E-09,-64.3289651671E-03
-22.8750E-09,-46.3246581094E-03
-22.5469E-09,-23.0138184452E-03
-22.2187E-09,+3.0450470331E-03
-21.8906E-09,+15.6006822181E-03
-21.5625E-09,+33.8418880529E-03
-21.2344E-09,+55.2575375004E-03
-20.9062E-09,+65.0177671159E-03
-20.5781E-09,+80.0845293379E-03
-20.2500E-09,+96.9517222657E-03
-19.9219E-09,+104.0586855779E-03
-19.5937E-09,+114.1979532367E-03
-19.2656E-09,+122.2525116573E-03
-18.9375E-09,+124.4793601618E-03
-18.6094E-09,+128.0328418179E-03
-18.2812E-09,+130.9703866536E-03
-17.9531E-09,+132.3917793161E-03
-17.6250E-09,+132.3917793161E-03
-17.2969E-09,+132.3917793161E-03
-16.9687E-09,+129.3594749695E-03
-16.6406E-09,+119.8835238865E-03
-16.3125E-09,+114.0084342151E-03
-15.9844E-09,+108.1333445436E-03
-15.6562E-09,+97.8993173740E-03
-15.3281E-09,+89.3709613993E-03
-15.0000E-09,+78.5683771646E-03
-14.6719E-09,+59.3321964661E-03
-14.3437E-09,+45.6394471512E-03
-14.0156E-09,+30.8095837063E-03
-13.6875E-09,+11.0048459428E-03
-13.3594E-09,-5.0568911429E-03
-13.0312E-09,-25.2880467051E-03
-12.7031E-09,-52.3892668025E-03
-12.3750E-09,-68.0245860895E-03
-12.0469E-09,-90.4825901562E-03
-11.7187E-09,-121.7532287301E-03
-11.3906E-09,-139.4732572553E-03
-11.0625E-09,-164.7740466469E-03
-10.7344E-09,-195.6656471775E-03
-10.4062E-09,-212.8171186378E-03
-10.0781E-09,-239.0655031377E-03
-9.7500E-09,-270.2413822008E-03
-9.4219E-09,-289.3354236330E-03
-9.0937E-09,-318.6634922349E-03
-8.7656E-09,-348.8917761897E-03
-8.4375E-09,-365.0482727862E-03
-8.1094E-09,-389.3540873141E-03
-7.7812E-09,-410.4854582292E-03
-7.4531E-09,-428.5845247978E-03
-7.1250E-09,-458.0547326659E-03
-6.7969E-09,-478.7596857823E-03
-6.4687E-09,-496.0532965088E-03
-6.1406E-09,-520.5012503029E-03
-5.8125E-09,-537.8422407848E-03
-5.4844E-09,-554.4251551801E-03
-5.1562E-09,-577.7359948443E-03
-4.8281E-09,-591.8551619579E-03
-4.5000E-09,-605.9743290716E-03
-4.1719E-09,-624.4524336835E-03
-3.8437E-09,-635.4919166952E-03
-3.5156E-09,-646.9104377502E-03
-3.1875E-09,-659.8924907339E-03
-2.8594E-09,-665.3411626066E-03
-2.5312E-09,-673.4431007826E-03
-2.2031E-09,-686.3303942555E-03
-1.8750E-09,-691.6369268620E-03
-1.5469E-09,-698.4596116417E-03
-1.2187E-09,-706.7984485948E-03
-890.6E-12,-709.4517148980E-03
-562.5E-12,-712.8630572879E-03
-234.4E-12,-717.3167542969E-03
+93.8E-12,-719.8278813339E-03
+421.9E-12,-721.9599703276E-03
+750.0E-12,-722.6232869034E-03
+1.0781E-09,-725.1344139404E-03
+1.4063E-09,-727.2665029341E-03
+1.7344E-09,-727.2665029341E-03
+2.0625E-09,-727.2665029341E-03
+2.3906E-09,-727.2665029341E-03
+2.7188E-09,-727.2665029341E-03
+3.0469E-09,-727.2665029341E-03
+3.3750E-09,-727.2665029341E-03
+3.7031E-09,-727.2665029341E-03
+4.0313E-09,-727.2665029341E-03
+4.3594E-09,-726.4136673366E-03
+4.6875E-09,-723.6182617671E-03
+5.0156E-09,-721.9599703276E-03
+5.3438E-09,-721.1071347301E-03
+5.6719E-09,-718.3117291606E-03
+6.0000E-09,-716.6534377211E-03
+6.3281E-09,-716.6534377211E-03
+6.6563E-09,-716.6534377211E-03
+6.9844E-09,-716.6534377211E-03
+7.3125E-09,-715.8953616345E-03
+7.6406E-09,-713.2420953312E-03
+7.9688E-09,-711.3469051146E-03
+8.2969E-09,-711.3469051146E-03
+8.6250E-09,-711.3469051146E-03
+8.9531E-09,-711.3469051146E-03
+9.2813E-09,-711.3469051146E-03
+9.6094E-09,-711.3469051146E-03
+9.9375E-09,-711.3469051146E-03
+10.2656E-09,-711.3469051146E-03
+10.5938E-09,-711.3469051146E-03
+10.9219E-09,-712.8630572879E-03
+11.2500E-09,-716.6534377211E-03
+11.5781E-09,-716.6534377211E-03
+11.9063E-09,-716.6534377211E-03
+12.2344E-09,-717.2219947861E-03
+12.5625E-09,-719.5909825568E-03
+12.8906E-09,-721.9599703276E-03
+13.2188E-09,-721.9599703276E-03
+13.5469E-09,-723.4761225009E-03
+13.8750E-09,-727.2665029341E-03
+14.2031E-09,-727.2665029341E-03
+14.5313E-09,-727.2665029341E-03
+14.8594E-09,-728.2140980424E-03
+15.1875E-09,-731.1516428781E-03
+15.5156E-09,-732.5730355406E-03
+15.8438E-09,-732.5730355406E-03
+16.1719E-09,-732.5730355406E-03
+16.5000E-09,-732.5730355406E-03
+16.8281E-09,-732.5730355406E-03
+17.1563E-09,-732.5730355406E-03
+17.4844E-09,-732.5730355406E-03
+17.8125E-09,-732.5730355406E-03
+18.1406E-09,-732.5730355406E-03
+18.4688E-09,-731.0568833673E-03
+18.7969E-09,-727.2665029341E-03
+19.1250E-09,-727.2665029341E-03
+19.4531E-09,-727.2665029341E-03
+19.7813E-09,-727.2665029341E-03
+20.1094E-09,-727.2665029341E-03
+20.4375E-09,-727.2665029341E-03
+20.7656E-09,-727.2665029341E-03
+21.0938E-09,-727.2665029341E-03
+21.4219E-09,-727.2665029341E-03
+21.7500E-09,-727.2665029341E-03
+22.0781E-09,-727.2665029341E-03
+22.4063E-09,-727.2665029341E-03
+22.7344E-09,-727.2665029341E-03
+23.0625E-09,-727.2665029341E-03
+23.3906E-09,-727.2665029341E-03
+23.7188E-09,-727.2665029341E-03
+24.0469E-09,-727.2665029341E-03
+24.3750E-09,-728.3088575532E-03
+24.7031E-09,-731.3885416552E-03
+25.0313E-09,-732.5730355406E-03
+25.3594E-09,-732.5730355406E-03
+25.6875E-09,-732.5730355406E-03
+26.0156E-09,-732.5730355406E-03
+26.3438E-09,-732.5730355406E-03
+26.6719E-09,-732.5730355406E-03
+27.0000E-09,-732.5730355406E-03
+27.3281E-09,-732.5730355406E-03
+27.6563E-09,-732.5730355406E-03
+27.9844E-09,-732.5730355406E-03
+28.3125E-09,-732.5730355406E-03
+28.6406E-09,-732.5730355406E-03
+28.9688E-09,-732.5730355406E-03
+29.2969E-09,-732.5730355406E-03
+29.6250E-09,-732.5730355406E-03
+29.9531E-09,-732.5730355406E-03
+30.2813E-09,-732.5730355406E-03
+30.6094E-09,-732.5730355406E-03
+30.9375E-09,-732.5730355406E-03
+31.2656E-09,-732.5730355406E-03
+31.5938E-09,-732.5730355406E-03
+31.9219E-09,-732.5730355406E-03
+32.2500E-09,-732.0044784756E-03
+32.5781E-09,-729.6354907048E-03
+32.9063E-09,-727.2665029341E-03
+33.2344E-09,-727.2665029341E-03
+33.5625E-09,-727.2665029341E-03
+33.8906E-09,-728.3088575532E-03
+34.2188E-09,-731.3885416552E-03
+34.5469E-09,-732.5730355406E-03
+34.8750E-09,-732.5730355406E-03
+35.2031E-09,-732.5730355406E-03
+35.5313E-09,-732.5730355406E-03
+35.8594E-09,-732.5730355406E-03
+36.1875E-09,-732.5730355406E-03
+36.5156E-09,-732.5730355406E-03
+36.8438E-09,-732.5730355406E-03
+37.1719E-09,-732.5730355406E-03
+37.5000E-09,-732.5730355406E-03
+37.8281E-09,-732.5730355406E-03
+38.1563E-09,-732.5730355406E-03
+38.4844E-09,-732.5730355406E-03
+38.8125E-09,-732.5730355406E-03
+39.1406E-09,-732.5730355406E-03
+39.4688E-09,-732.5730355406E-03
+39.7969E-09,-732.5730355406E-03
+40.1250E-09,-732.5730355406E-03
+40.4531E-09,-732.5730355406E-03
+40.7813E-09,-732.5730355406E-03
+41.1094E-09,-732.5730355406E-03
+41.4375E-09,-732.5730355406E-03
+41.7656E-09,-732.5730355406E-03
+42.0938E-09,-732.5730355406E-03
+42.4219E-09,-732.5730355406E-03
+42.7500E-09,-732.0044784756E-03
+43.0781E-09,-729.6354907048E-03
+43.4063E-09,-728.7826551074E-03
+43.7344E-09,-732.5730355406E-03
+44.0625E-09,-732.5730355406E-03
+44.3906E-09,-732.5730355406E-03
+44.7188E-09,-732.5730355406E-03
+45.0469E-09,-732.5730355406E-03
+45.3750E-09,-732.5730355406E-03
+45.7031E-09,-732.5730355406E-03
+46.0313E-09,-732.5730355406E-03
+46.3594E-09,-732.5730355406E-03
+46.6875E-09,-732.5730355406E-03
+47.0156E-09,-732.5730355406E-03
+47.3438E-09,-732.5730355406E-03
+47.6719E-09,-732.5730355406E-03
+48.0000E-09,-732.5730355406E-03
+48.3281E-09,-732.5730355406E-03
+48.6563E-09,-732.5730355406E-03
+48.9844E-09,-732.5730355406E-03
+49.3125E-09,-732.5730355406E-03
+49.6406E-09,-732.5730355406E-03
+49.9688E-09,-732.5730355406E-03
+50.2969E-09,-732.5730355406E-03
+50.6250E-09,-732.5730355406E-03
+50.9531E-09,-732.5730355406E-03
+51.2813E-09,-732.5730355406E-03
+51.6094E-09,-732.5730355406E-03
+51.9375E-09,-732.5730355406E-03
+52.2656E-09,-732.5730355406E-03
+52.5938E-09,-732.5730355406E-03
+52.9219E-09,-732.5730355406E-03
+53.2500E-09,-732.5730355406E-03
+53.5781E-09,-732.5730355406E-03
+53.9063E-09,-732.5730355406E-03
+54.2344E-09,-732.5730355406E-03
+54.5625E-09,-732.5730355406E-03
+54.8906E-09,-732.5730355406E-03
+55.2188E-09,-732.5730355406E-03
+55.5469E-09,-732.5730355406E-03
+55.8750E-09,-732.5730355406E-03
+56.2031E-09,-732.5730355406E-03
+56.5313E-09,-732.5730355406E-03
+56.8594E-09,-732.5730355406E-03
+57.1875E-09,-732.5730355406E-03
+57.5156E-09,-732.5730355406E-03
+57.8438E-09,-732.5730355406E-03
+58.1719E-09,-732.5730355406E-03
+58.5000E-09,-732.5730355406E-03
+58.8281E-09,-732.5730355406E-03
+59.1563E-09,-732.5730355406E-03
+59.4844E-09,-732.5730355406E-03
+59.8125E-09,-732.5730355406E-03
+60.1406E-09,-732.5730355406E-03
+60.4688E-09,-732.5730355406E-03
+60.7969E-09,-732.5730355406E-03
+61.1250E-09,-732.5730355406E-03
+61.4531E-09,-732.5730355406E-03
+61.7813E-09,-732.5730355406E-03
+62.1094E-09,-732.5730355406E-03
+62.4375E-09,-732.5730355406E-03
+62.7656E-09,-732.0044784756E-03
+63.0938E-09,-729.6354907048E-03
+63.4219E-09,-727.2665029341E-03
+63.7500E-09,-727.2665029341E-03
+64.0781E-09,-727.2665029341E-03
+64.4063E-09,-727.2665029341E-03
+64.7344E-09,-727.2665029341E-03
+65.0625E-09,-727.2665029341E-03
+65.3906E-09,-727.2665029341E-03
+65.7188E-09,-727.2665029341E-03
+66.0469E-09,-725.7503507608E-03
+66.3750E-09,-721.9599703276E-03
+66.7031E-09,-721.9599703276E-03
+67.0313E-09,-721.9599703276E-03
+67.3594E-09,-721.1071347301E-03
+67.6875E-09,-718.3117291606E-03
+68.0156E-09,-716.6534377211E-03
+68.3438E-09,-715.8006021236E-03
+68.6719E-09,-713.0051965541E-03
+69.0000E-09,-709.8307529413E-03
+69.3281E-09,-705.2822964215E-03
+69.6563E-09,-702.6290301183E-03
+69.9844E-09,-699.2176877284E-03
+70.3125E-09,-693.9111551219E-03
+70.6406E-09,-688.6046225154E-03
+70.9688E-09,-683.2980899089E-03
+71.2969E-09,-678.0863168133E-03
+71.6250E-09,-672.9219234730E-03
+71.9531E-09,-665.8623399162E-03
+72.2813E-09,-656.9549458982E-03
+72.6094E-09,-651.9326918242E-03
+72.9375E-09,-644.6362094903E-03
+73.2656E-09,-635.2550179181E-03
+73.5938E-09,-628.0059153396E-03
+73.9219E-09,-616.5873942846E-03
+74.2500E-09,-604.0791388550E-03
+74.5781E-09,-599.3411633135E-03
+74.9063E-09,-590.0547312522E-03
+75.2344E-09,-577.1674377793E-03
+75.5625E-09,-570.3447529995E-03
+75.8906E-09,-559.8264472974E-03
+76.2188E-09,-550.8716735239E-03
+76.5469E-09,-542.2959377938E-03
+76.8750E-09,-528.0820111693E-03
+77.2031E-09,-519.2693766621E-03
+77.5313E-09,-510.4567421549E-03
+77.8594E-09,-496.4323345521E-03
+78.1875E-09,-487.9039785774E-03
+78.5156E-09,-478.6175465160E-03
+78.8438E-09,-464.6878984240E-03
+79.1719E-09,-456.3016817156E-03
+79.5000E-09,-448.2945030504E-03
+79.8281E-09,-439.1028304999E-03
+80.1563E-09,-433.6541586272E-03
+80.4844E-09,-427.0683726245E-03
+80.8125E-09,-417.9714595848E-03
+81.1406E-09,-412.6649269783E-03
+81.4688E-09,-405.8422421985E-03
+81.7969E-09,-397.5981647563E-03
+82.1250E-09,-395.0870377193E-03
+82.4531E-09,-391.4387965524E-03
+82.7813E-09,-386.9850995434E-03
+83.1094E-09,-384.4739725064E-03
+83.4375E-09,-380.8257313394E-03
+83.7656E-09,-377.0353509062E-03
+84.0938E-09,-377.0353509062E-03
+84.4219E-09,-377.0353509062E-03
+84.7500E-09,-377.0353509062E-03
+85.0781E-09,-377.0353509062E-03
+85.4063E-09,-378.5515030795E-03
+85.7344E-09,-382.9104405777E-03
+86.0625E-09,-385.2794283484E-03
+86.3906E-09,-388.6907707383E-03
+86.7188E-09,-391.7704548403E-03
+87.0469E-09,-394.4711008990E-03
+87.3750E-09,-399.3038359513E-03
+87.7031E-09,-402.3835200533E-03
+88.0313E-09,-406.6003182852E-03
+88.3594E-09,-416.0762693682E-03
+88.6875E-09,-421.9513590397E-03
+89.0156E-09,-427.8264487111E-03
+89.3438E-09,-438.0604758808E-03
+89.6719E-09,-446.5888318555E-03
+90.0000E-09,-454.3591117436E-03
+90.3281E-09,-463.6455438049E-03
+90.6563E-09,-469.2363549439E-03
+90.9844E-09,-477.1013943428E-03
+91.3125E-09,-490.8415234131E-03
+91.6406E-09,-498.9434615891E-03
+91.9688E-09,-507.4244378084E-03
+92.2969E-09,-517.1846674239E-03
+92.6250E-09,-525.0023270674E-03
+92.9531E-09,-535.4732530141E-03
+93.2813E-09,-548.9291035519E-03
+93.6094E-09,-556.6046239292E-03
+93.9375E-09,-565.7962964797E-03
+94.2656E-09,-575.2722475627E-03
+94.5938E-09,-582.6634894074E-03
+94.9219E-09,-593.8451116854E-03
+95.2500E-09,-606.4481266258E-03
+95.5781E-09,-611.3282414335E-03
+95.9063E-09,-618.8616225445E-03
+96.2344E-09,-627.5794975409E-03
+96.5625E-09,-632.3174730824E-03
+96.8906E-09,-640.0877529705E-03
+97.2188E-09,-649.1846660101E-03
+97.5469E-09,-654.4911986166E-03
+97.8750E-09,-660.2715287772E-03
+98.2031E-09,-666.2887577149E-03
+98.5313E-09,-671.9269486093E-03
+98.8594E-09,-680.4553045840E-03
+99.1875E-09,-683.3928494198E-03
+99.5156E-09,-686.3303942555E-03
+99.8438E-09,-691.0683697970E-03
+100.1719E-09,-694.0059146327E-03
+100.5000E-09,-696.9434594685E-03
+100.8281E-09,-701.5866754991E-03
+101.1563E-09,-704.3820810686E-03
+101.4844E-09,-707.5565246814E-03
+101.8125E-09,-711.3469051146E-03
+102.1406E-09,-711.3469051146E-03
+102.4688E-09,-712.8630572879E-03
+102.7969E-09,-716.6534377211E-03
+103.1250E-09,-716.6534377211E-03
+103.4531E-09,-716.6534377211E-03
+103.7813E-09,-716.6534377211E-03
+104.1094E-09,-716.6534377211E-03
+104.4375E-09,-716.6534377211E-03
+104.7656E-09,-716.6534377211E-03
+105.0938E-09,-716.6534377211E-03
+105.4219E-09,-716.6534377211E-03
+105.7500E-09,-716.6534377211E-03
+106.0781E-09,-716.6534377211E-03
+106.4063E-09,-716.6534377211E-03
+106.7344E-09,-716.1796401670E-03
+107.0625E-09,-713.9527916624E-03
+107.3906E-09,-711.3469051146E-03
+107.7188E-09,-711.3469051146E-03
+108.0469E-09,-711.3469051146E-03
+108.3750E-09,-711.3469051146E-03
+108.7031E-09,-711.3469051146E-03
+109.0313E-09,-711.3469051146E-03
+109.3594E-09,-711.3469051146E-03
+109.6875E-09,-711.3469051146E-03
+110.0156E-09,-711.3469051146E-03
+110.3438E-09,-711.3469051146E-03
+110.6719E-09,-711.3469051146E-03
+111.0000E-09,-711.3469051146E-03
+111.3281E-09,-711.3469051146E-03
+111.6563E-09,-711.3469051146E-03
+111.9844E-09,-711.3469051146E-03
+112.3125E-09,-711.3469051146E-03
+112.6406E-09,-711.3469051146E-03
+112.9688E-09,-711.3469051146E-03
+113.2969E-09,-711.3469051146E-03
+113.6250E-09,-711.3469051146E-03
+113.9531E-09,-711.3469051146E-03
+114.2813E-09,-711.3469051146E-03
+114.6094E-09,-711.3469051146E-03
+114.9375E-09,-711.3469051146E-03
+115.2656E-09,-711.3469051146E-03
+115.5938E-09,-711.3469051146E-03
+115.9219E-09,-711.3469051146E-03
+116.2500E-09,-712.0102216904E-03
+116.5781E-09,-714.5213487274E-03
+116.9063E-09,-716.6534377211E-03
+117.2344E-09,-716.6534377211E-03
+117.5625E-09,-716.6534377211E-03
+117.8906E-09,-716.6534377211E-03
+118.2188E-09,-716.6534377211E-03
+118.5469E-09,-716.6534377211E-03
+118.8750E-09,-716.6534377211E-03
+119.2031E-09,-716.6534377211E-03
+119.5313E-09,-716.6534377211E-03
+119.8594E-09,-717.6010328294E-03
+120.1875E-09,-720.5385776651E-03
+120.5156E-09,-721.9599703276E-03
+120.8438E-09,-721.9599703276E-03
+121.1719E-09,-721.9599703276E-03
+121.5000E-09,-721.9599703276E-03
+121.8281E-09,-722.8128059251E-03
+122.1563E-09,-725.6082114946E-03
+122.4844E-09,-727.2665029341E-03
+122.8125E-09,-727.2665029341E-03
+123.1406E-09,-727.2665029341E-03
+123.4688E-09,-727.2665029341E-03
+123.7969E-09,-727.2665029341E-03
+124.1250E-09,-727.2665029341E-03
+124.4531E-09,-727.2665029341E-03
+124.7813E-09,-727.2665029341E-03
+125.1094E-09,-727.2665029341E-03
+125.4375E-09,-727.2665029341E-03
+125.7656E-09,-727.2665029341E-03
+126.0938E-09,-727.2665029341E-03
+126.4219E-09,-727.2665029341E-03
+126.7500E-09,-727.2665029341E-03
+127.0781E-09,-727.2665029341E-03
+127.4063E-09,-727.2665029341E-03
+127.7344E-09,-727.2665029341E-03
+128.0625E-09,-727.2665029341E-03
+128.3906E-09,-728.3088575532E-03
+128.7188E-09,-731.3885416552E-03
+129.0469E-09,-732.5730355406E-03
+129.3750E-09,-732.5730355406E-03
+129.7031E-09,-732.5730355406E-03
+130.0313E-09,-732.5730355406E-03
+130.3594E-09,-732.5730355406E-03
+130.6875E-09,-732.5730355406E-03
+131.0156E-09,-732.5730355406E-03
+131.3438E-09,-732.5730355406E-03
+131.6719E-09,-732.5730355406E-03
