x-axis,1
second,Volt
-78.0000E-09,-455.5969195389E-03
-77.6719E-09,-455.5969195389E-03
-77.3438E-09,-455.5969195389E-03
-77.0156E-09,-455.5969195389E-03
-76.6875E-09,-455.5969195389E-03
-76.3594E-09,-455.5969195389E-03
-76.0313E-09,-455.5969195389E-03
-75.7031E-09,-455.5969195389E-03
-75.3750E-09,-455.5969195389E-03
-75.0469E-09,-455.5969195389E-03
-74.7187E-09,-455.5969195389E-03
-74.3906E-09,-455.5969195389E-03
-74.0625E-09,-455.5969195389E-03
-73.7344E-09,-455.5969195389E-03
-73.4062E-09,-455.5969195389E-03
-73.0781E-09,-455.5969195389E-03
-72.7500E-09,-455.5969195389E-03
-72.4219E-09,-455.5969195389E-03
-72.0937E-09,-455.5969195389E-03
-71.7656E-09,-455.5969195389E-03
-71.4375E-09,-455.5969195389E-03
-71.1094E-09,-455.5969195389E-03
-70.7812E-09,-455.5969195389E-03
-70.4531E-09,-455.5969195389E-03
-70.1250E-09,-455.5969195389E-03
-69.7969E-09,-455.5969195389E-03
-69.4687E-09,-455.5969195389E-03
-69.1406E-09,-455.5969195389E-03
-68.8125E-09,-455.5969195389E-03
-68.4844E-09,-455.5969195389E-03
-68.1562E-09,-455.5969195389E-03
-67.8281E-09,-455.5969195389E-03
-67.5000E-09,-455.5969195389E-03
-67.1719E-09,-455.5969195389E-03
-66.8437E-09,-455.5969195389E-03
-66.5156E-09,-455.5969195389E-03
-66.1875E-09,-455.5969195389E-03
-65.8594E-09,-455.5969195389E-03
-65.5312E-09,-455.5969195389E-03
-65.2031E-09,-455.5969195389E-03
-64.8750E-09,-455.5969195389E-03
-64.5469E-09,-455.5969195389E-03
-64.2187E-09,-455.5969195389E-03
-63.8906E-09,-455.5969195389E-03
-63.5625E-09,-455.5969195389E-03
-63.2344E-09,-455.5969195389E-03
-62.9062E-09,-455.5969195389E-03
-62.5781E-09,-455.5969195389E-03
-62.2500E-09,-455.5969195389E-03
-61.9219E-09,-455.5969195389E-03
-61.5937E-09,-455.5969195389E-03
-61.2656E-09,-455.5969195389E-03
-60.9375E-09,-455.5969195389E-03
-60.6094E-09,-455.5969195389E-03
-60.2812E-09,-455.5969195389E-03
-59.9531E-09,-455.5969195389E-03
-59.6250E-09,-455.5969195389E-03
-59.2969E-09,-455.5969195389E-03
-58.9687E-09,-455.5969195389E-03
-58.6406E-09,-455.5969195389E-03
-58.3125E-09,-455.5969195389E-03
-57.9844E-09,-455.5969195389E-03
-57.6562E-09,-455.5969195389E-03
-57.3281E-09,-455.5969195389E-03
-57.0000E-09,-455.5969195389E-03
-56.6719E-09,-455.5969195389E-03
-56.3437E-09,-455.5969195389E-03
-56.0156E-09,-455.5969195389E-03
-55.6875E-09,-455.5969195389E-03
-55.3594E-09,-455.5969195389E-03
-55.0312E-09,-455.5969195389E-03
-54.7031E-09,-455.5969195389E-03
-54.3750E-09,-455.5969195389E-03
-54.0469E-09,-455.5969195389E-03
-53.7187E-09,-455.5969195389E-03
-53.3906E-09,-455.5969195389E-03
-53.0625E-09,-455.5969195389E-03
-52.7344E-09,-455.5969195389E-03
-52.4062E-09,-455.5969195389E-03
-52.0781E-09,-455.5969195389E-03
-51.7500E-09,-455.5969195389E-03
-51.4219E-09,-455.5969195389E-03
-51.0937E-09,-455.5969195389E-03
-50.7656E-09,-455.5969195389E-03
-50.4375E-09,-455.5969195389E-03
-50.1094E-09,-455.5969195389E-03
-49.7812E-09,-455.5969195389E-03
-49.4531E-09,-455.5969195389E-03
-49.1250E-09,-455.5969195389E-03
-48.7969E-09,-455.5969195389E-03
-48.4687E-09,-455.5969195389E-03
-48.1406E-09,-455.5969195389E-03
-47.8125E-09,-455.5969195389E-03
-47.4844E-09,-455.5969195389E-03
-47.1562E-09,-455.5969195389E-03
-46.8281E-09,-455.5969195389E-03
-46.5000E-09,-455.5969195389E-03
-46.1719E-09,-455.5969195389E-03
-45.8437E-09,-454.0807673657E-03
-45.5156E-09,-450.2903869325E-03
-45.1875E-09,-450.2903869325E-03
-44.8594E-09,-450.2903869325E-03
-44.5312E-09,-450.2903869325E-03
-44.2031E-09,-450.2903869325E-03
-43.8750E-09,-450.2903869325E-03
-43.5469E-09,-450.2903869325E-03
-43.2187E-09,-450.2903869325E-03
-42.8906E-09,-450.2903869325E-03
-42.5625E-09,-450.2903869325E-03
-42.2344E-09,-450.2903869325E-03
-41.9062E-09,-450.2903869325E-03
-41.5781E-09,-450.2903869325E-03
-41.2500E-09,-450.2903869325E-03
-40.9219E-09,-448.7742347592E-03
-40.5937E-09,-444.9838543260E-03
-40.2656E-09,-444.9838543260E-03
-39.9375E-09,-444.0362592177E-03
-39.6094E-09,-441.0987143820E-03
-39.2812E-09,-438.1611695462E-03
-38.9531E-09,-434.3707891130E-03
-38.6250E-09,-434.3707891130E-03
-38.2969E-09,-431.3384847665E-03
-37.9687E-09,-422.9048883026E-03
-37.6406E-09,-420.1094827331E-03
-37.3125E-09,-415.4188869470E-03
-36.9844E-09,-406.2272143965E-03
-36.6562E-09,-400.7785425238E-03
-36.3281E-09,-394.1927565211E-03
-36.0000E-09,-384.2430078839E-03
-35.6719E-09,-376.1410697080E-03
-35.3437E-09,-366.1439413154E-03
-35.0156E-09,-352.5933312667E-03
-34.6875E-09,-344.7756716232E-03
-34.3594E-09,-332.7885935032E-03
-34.0312E-09,-314.2157293805E-03
-33.7031E-09,-301.5179549293E-03
-33.3750E-09,-283.5136478716E-03
-33.0469E-09,-261.3399223374E-03
-32.7187E-09,-248.9264264186E-03
-32.3906E-09,-230.4483218068E-03
-32.0625E-09,-207.8955582292E-03
-31.7344E-09,-193.3973530722E-03
-31.4062E-09,-170.5603109622E-03
-31.0781E-09,-143.9328884189E-03
-30.7500E-09,-127.4921132899E-03
-30.4219E-09,-100.0592349046E-03
-30.0937E-09,-70.4942675256E-03
-29.7656E-09,-56.8488979661E-03
-29.4375E-09,-34.8646914535E-03
-29.1094E-09,-14.0175990709E-03
-28.7812E-09,+6.0714172250E-03
-28.4531E-09,+39.1424865047E-03
-28.1250E-09,+59.5631610886E-03
-27.7969E-09,+80.3628737158E-03
-27.4687E-09,+113.0549049522E-03
-27.1406E-09,+132.9070224711E-03
-26.8125E-09,+154.6543302066E-03
-26.4844E-09,+186.2092473130E-03
-26.1562E-09,+202.8395414636E-03
-25.8281E-09,+222.1231019175E-03
-25.5000E-09,+249.6033600583E-03
-25.1719E-09,+265.8072364102E-03
-24.8437E-09,+284.2853410221E-03
-24.5156E-09,+306.9328641104E-03
-24.1875E-09,+320.0570563604E-03
-23.8594E-09,+335.8345149136E-03
-23.5312E-09,+353.7440624605E-03
-23.2031E-09,+363.9307098747E-03
-22.8750E-09,+376.7706235922E-03
-22.5469E-09,+390.0369551084E-03
-22.2187E-09,+397.4281969531E-03
-21.8906E-09,+405.5775148845E-03
-21.5625E-09,+410.5050094477E-03
-21.2344E-09,+415.2429849892E-03
-20.9062E-09,+419.9809605307E-03
-20.5781E-09,+419.4124034657E-03
-20.2500E-09,+417.0434156949E-03
-19.9219E-09,+413.1582757509E-03
-19.5937E-09,+408.3255406986E-03
-19.2656E-09,+403.7297044233E-03
-18.9375E-09,+395.7225257582E-03
-18.6094E-09,+386.6256127185E-03
-18.2812E-09,+378.2867757654E-03
-17.9531E-09,+363.1252540326E-03
-17.6250E-09,+351.3750746897E-03
-17.2969E-09,+338.1087431735E-03
-16.9687E-09,+314.7031439985E-03
-16.6406E-09,+300.4418376186E-03
-16.3125E-09,+283.5272649354E-03
-15.9844E-09,+255.6679687514E-03
-15.6562E-09,+238.8955353344E-03
-15.3281E-09,+218.3327214843E-03
-15.0000E-09,+186.2092473129E-03
-14.6719E-09,+167.2099653915E-03
-14.3437E-09,+144.0412649936E-03
-14.0156E-09,+111.4439932680E-03
-13.6875E-09,+90.2178628421E-03
-13.3594E-09,+64.4432758963E-03
-13.0312E-09,+32.2250422141E-03
-12.7031E-09,+11.5674688532E-03
-12.3750E-09,-16.6708653742E-03
-12.0469E-09,-51.6371248705E-03
-11.7187E-09,-69.2150141295E-03
-11.3906E-09,-94.7527022982E-03
-11.0625E-09,-125.5495433179E-03
-10.7344E-09,-142.5588755119E-03
-10.4062E-09,-169.0441587889E-03
-10.0781E-09,-198.9881642112E-03
-9.7500E-09,-213.2020908357E-03
-9.4219E-09,-236.5129304999E-03
-9.0937E-09,-261.8137198915E-03
-8.7656E-09,-273.2322409465E-03
-8.4375E-09,-291.7577253138E-03
-8.1094E-09,-309.8094121269E-03
-7.7812E-09,-323.6916804635E-03
-7.4531E-09,-342.6435826295E-03
-7.1250E-09,-354.3937619725E-03
-6.7969E-09,-366.1439413154E-03
-6.4687E-09,-384.0534888623E-03
-6.1406E-09,-392.7239841032E-03
-5.8125E-09,-401.7735173875E-03
-5.4844E-09,-414.8503298820E-03
-5.1562E-09,-420.4411410210E-03
-4.8281E-09,-426.7900282466E-03
-4.5000E-09,-435.9817007971E-03
-4.1719E-09,-441.4303726699E-03
-3.8437E-09,-446.5000064993E-03
-3.5156E-09,-450.2903869325E-03
-3.1875E-09,-450.2903869325E-03
-2.8594E-09,-451.8065391057E-03
-2.5312E-09,-455.5969195389E-03
-2.2031E-09,-455.5969195389E-03
-1.8750E-09,-455.5969195389E-03
-1.5469E-09,-455.5969195389E-03
-1.2187E-09,-455.5969195389E-03
-890.6E-12,-454.0807673657E-03
-562.5E-12,-450.2903869325E-03
-234.4E-12,-450.2903869325E-03
+93.8E-12,-448.7742347592E-03
+421.9E-12,-444.5100567718E-03
+750.0E-12,-442.2832082673E-03
+1.0781E-09,-439.6773217195E-03
+1.4063E-09,-439.2035241653E-03
+1.7344E-09,-436.9766756608E-03
+2.0625E-09,-433.4231940047E-03
+2.3906E-09,-430.4856491690E-03
+2.7188E-09,-429.0642565065E-03
+3.0469E-09,-428.2114209091E-03
+3.3750E-09,-425.4160153396E-03
+3.7031E-09,-423.7577239001E-03
+4.0313E-09,-423.7577239001E-03
+4.3594E-09,-423.7577239001E-03
+4.6875E-09,-423.7577239001E-03
+5.0156E-09,-423.7577239001E-03
+5.3438E-09,-423.7577239001E-03
+5.6719E-09,-423.7577239001E-03
+6.0000E-09,-424.6105594975E-03
+6.3281E-09,-427.4059650670E-03
+6.6563E-09,-429.0642565065E-03
+6.9844E-09,-429.8223325932E-03
+7.3125E-09,-432.4755988964E-03
+7.6406E-09,-434.3707891130E-03
+7.9688E-09,-435.1288651997E-03
+8.2969E-09,-437.7821315029E-03
+8.6250E-09,-439.6773217195E-03
+8.9531E-09,-440.3406382953E-03
+9.2813E-09,-442.8517653323E-03
+9.6094E-09,-444.9838543260E-03
+9.9375E-09,-445.6471709018E-03
+10.2656E-09,-448.1582979388E-03
+10.5938E-09,-450.2903869325E-03
+10.9219E-09,-450.2903869325E-03
+11.2500E-09,-450.2903869325E-03
+11.5781E-09,-450.2903869325E-03
+11.9063E-09,-450.2903869325E-03
+12.2344E-09,-450.2903869325E-03
+12.5625E-09,-450.2903869325E-03
+12.8906E-09,-450.2903869325E-03
+13.2188E-09,-450.2903869325E-03
+13.5469E-09,-449.4375513350E-03
+13.8750E-09,-446.6421457655E-03
+14.2031E-09,-444.9838543260E-03
+14.5313E-09,-444.9838543260E-03
+14.8594E-09,-444.9838543260E-03
+15.1875E-09,-444.9838543260E-03
+15.5156E-09,-444.9838543260E-03
+15.8438E-09,-444.9838543260E-03
+16.1719E-09,-443.4677021527E-03
+16.5000E-09,-439.6773217195E-03
+16.8281E-09,-439.6773217195E-03
+17.1563E-09,-439.6773217195E-03
+17.4844E-09,-440.4353978061E-03
+17.8125E-09,-443.0886641094E-03
+18.1406E-09,-444.9838543260E-03
+18.4688E-09,-444.9838543260E-03
+18.7969E-09,-444.9838543260E-03
+19.1250E-09,-444.9838543260E-03
+19.4531E-09,-445.6471709018E-03
+19.7813E-09,-448.1582979388E-03
+20.1094E-09,-450.2903869325E-03
+20.4375E-09,-450.2903869325E-03
+20.7656E-09,-450.2903869325E-03
+21.0938E-09,-450.2903869325E-03
+21.4219E-09,-450.8589439974E-03
+21.7500E-09,-453.2279317682E-03
+22.0781E-09,-455.5969195389E-03
+22.4063E-09,-455.5969195389E-03
+22.7344E-09,-455.5969195389E-03
+23.0625E-09,-455.5969195389E-03
+23.3906E-09,-455.5969195389E-03
+23.7188E-09,-455.5969195389E-03
+24.0469E-09,-455.5969195389E-03
+24.3750E-09,-455.5969195389E-03
+24.7031E-09,-454.0807673657E-03
+25.0313E-09,-450.2903869325E-03
+25.3594E-09,-450.2903869325E-03
+25.6875E-09,-450.2903869325E-03
+26.0156E-09,-450.2903869325E-03
+26.3438E-09,-450.2903869325E-03
+26.6719E-09,-450.2903869325E-03
+27.0000E-09,-449.5323108458E-03
+27.3281E-09,-446.8790445426E-03
+27.6563E-09,-444.9838543260E-03
+27.9844E-09,-444.9838543260E-03
+28.3125E-09,-444.9838543260E-03
+28.6406E-09,-444.9838543260E-03
+28.9688E-09,-445.7419304126E-03
+29.2969E-09,-448.3951967159E-03
+29.6250E-09,-450.2903869325E-03
+29.9531E-09,-450.2903869325E-03
+30.2813E-09,-450.2903869325E-03
+30.6094E-09,-450.2903869325E-03
+30.9375E-09,-450.2903869325E-03
+31.2656E-09,-450.2903869325E-03
+31.5938E-09,-451.8065391058E-03
+31.9219E-09,-455.5969195389E-03
+32.2500E-09,-455.5969195389E-03
+32.5781E-09,-455.5969195389E-03
+32.9063E-09,-455.5969195389E-03
+33.2344E-09,-455.5969195389E-03
+33.5625E-09,-455.5969195389E-03
+33.8906E-09,-455.5969195389E-03
+34.2188E-09,-455.5969195389E-03
+34.5469E-09,-455.5969195389E-03
+34.8750E-09,-455.5969195389E-03
+35.2031E-09,-454.0807673657E-03
+35.5313E-09,-450.2903869325E-03
+35.8594E-09,-450.2903869325E-03
+36.1875E-09,-450.2903869325E-03
+36.5156E-09,-450.2903869325E-03
+36.8438E-09,-450.2903869325E-03
+37.1719E-09,-450.2903869325E-03
+37.5000E-09,-450.2903869325E-03
+37.8281E-09,-450.2903869325E-03
+38.1563E-09,-450.2903869325E-03
+38.4844E-09,-450.2903869325E-03
+38.8125E-09,-450.2903869325E-03
+39.1406E-09,-450.2903869325E-03
+39.4688E-09,-450.2903869325E-03
+39.7969E-09,-450.2903869325E-03
+40.1250E-09,-450.2903869325E-03
+40.4531E-09,-450.2903869325E-03
+40.7813E-09,-450.2903869325E-03
+41.1094E-09,-450.2903869325E-03
+41.4375E-09,-450.2903869325E-03
+41.7656E-09,-450.2903869325E-03
+42.0938E-09,-451.8065391057E-03
+42.4219E-09,-455.5969195389E-03
+42.7500E-09,-455.5969195389E-03
+43.0781E-09,-455.5969195389E-03
+43.4063E-09,-455.5969195389E-03
+43.7344E-09,-455.5969195389E-03
+44.0625E-09,-455.5969195389E-03
+44.3906E-09,-455.5969195389E-03
+44.7188E-09,-455.5969195389E-03
+45.0469E-09,-455.5969195389E-03
+45.3750E-09,-455.5969195389E-03
+45.7031E-09,-454.0807673657E-03
+46.0313E-09,-450.2903869325E-03
+46.3594E-09,-450.2903869325E-03
+46.6875E-09,-450.2903869325E-03
+47.0156E-09,-450.2903869325E-03
+47.3438E-09,-450.2903869325E-03
+47.6719E-09,-450.2903869325E-03
+48.0000E-09,-450.2903869325E-03
+48.3281E-09,-450.2903869325E-03
+48.6563E-09,-450.2903869325E-03
+48.9844E-09,-450.2903869325E-03
+49.3125E-09,-450.2903869325E-03
+49.6406E-09,-450.2903869325E-03
+49.9688E-09,-450.2903869325E-03
+50.2969E-09,-450.2903869325E-03
+50.6250E-09,-450.2903869325E-03
+50.9531E-09,-450.9537035083E-03
+51.2813E-09,-453.4648305453E-03
+51.6094E-09,-455.5969195389E-03
+51.9375E-09,-455.5969195389E-03
+52.2656E-09,-455.5969195389E-03
+52.5938E-09,-455.5969195389E-03
+52.9219E-09,-455.5969195389E-03
+53.2500E-09,-455.5969195389E-03
+53.5781E-09,-455.5969195389E-03
+53.9063E-09,-455.5969195389E-03
+54.2344E-09,-455.5969195389E-03
+54.5625E-09,-455.5969195389E-03
+54.8906E-09,-455.5969195389E-03
+55.2188E-09,-455.5969195389E-03
+55.5469E-09,-455.5969195389E-03
+55.8750E-09,-455.5969195389E-03
+56.2031E-09,-454.0807673657E-03
+56.5313E-09,-450.2903869325E-03
+56.8594E-09,-450.2903869325E-03
+57.1875E-09,-450.2903869325E-03
+57.5156E-09,-450.2903869325E-03
+57.8438E-09,-450.2903869325E-03
+58.1719E-09,-450.2903869325E-03
+58.5000E-09,-450.2903869325E-03
+58.8281E-09,-450.2903869325E-03
+59.1563E-09,-450.2903869325E-03
+59.4844E-09,-450.2903869325E-03
+59.8125E-09,-450.2903869325E-03
+60.1406E-09,-450.2903869325E-03
+60.4688E-09,-450.2903869325E-03
+60.7969E-09,-450.2903869325E-03
+61.1250E-09,-450.2903869325E-03
+61.4531E-09,-450.2903869325E-03
+61.7813E-09,-450.2903869325E-03
+62.1094E-09,-450.2903869325E-03
+62.4375E-09,-449.7218298675E-03
+62.7656E-09,-447.3528420967E-03
+63.0938E-09,-444.9838543260E-03
+63.4219E-09,-444.9838543260E-03
+63.7500E-09,-444.9838543260E-03
+64.0781E-09,-443.4677021527E-03
+64.4063E-09,-439.6773217195E-03
+64.7344E-09,-439.6773217195E-03
+65.0625E-09,-439.6773217195E-03
+65.3906E-09,-439.6773217195E-03
+65.7188E-09,-438.1611695462E-03
+66.0469E-09,-434.3707891130E-03
+66.3750E-09,-434.3707891130E-03
+66.7031E-09,-432.8546369397E-03
+67.0313E-09,-429.0642565065E-03
+67.3594E-09,-429.0642565065E-03
+67.6875E-09,-427.5481043333E-03
+68.0156E-09,-423.7577239001E-03
+68.3438E-09,-423.7577239001E-03
+68.6719E-09,-422.2415717268E-03
+69.0000E-09,-418.4511912936E-03
+69.3281E-09,-418.4511912936E-03
+69.6563E-09,-416.9350391203E-03
+69.9844E-09,-413.1446586871E-03
+70.3125E-09,-413.1446586871E-03
+70.6406E-09,-411.6285065138E-03
+70.9688E-09,-407.8381260806E-03
+71.2969E-09,-407.8381260806E-03
+71.6250E-09,-407.8381260806E-03
+71.9531E-09,-407.2695690156E-03
+72.2813E-09,-404.9005812449E-03
+72.6094E-09,-402.5315934741E-03
+72.9375E-09,-402.5315934741E-03
+73.2656E-09,-402.5315934741E-03
+73.5938E-09,-402.5315934741E-03
+73.9219E-09,-402.5315934741E-03
+74.2500E-09,-402.5315934741E-03
+74.5781E-09,-404.0477456474E-03
+74.9063E-09,-407.8381260806E-03
+75.2344E-09,-407.8381260806E-03
+75.5625E-09,-408.8804806997E-03
+75.8906E-09,-411.9601648017E-03
+76.2188E-09,-413.1446586871E-03
+76.5469E-09,-414.0922537954E-03
+76.8750E-09,-417.0297986311E-03
+77.2031E-09,-419.9673434669E-03
+77.5313E-09,-424.7053190084E-03
+77.8594E-09,-427.6428638441E-03
+78.1875E-09,-432.0965608531E-03
+78.5156E-09,-440.5301573170E-03
+78.8438E-09,-443.3255628865E-03
+79.1719E-09,-446.5000064993E-03
+79.5000E-09,-451.9012986166E-03
+79.8281E-09,-457.3499704893E-03
+80.1563E-09,-462.4196043187E-03
+80.4844E-09,-466.9680608386E-03
+80.8125E-09,-469.6213271418E-03
+81.1406E-09,-474.5488217050E-03
+81.4688E-09,-482.8876586580E-03
+81.7969E-09,-485.5409249612E-03
+82.1250E-09,-490.4684195244E-03
+82.4531E-09,-498.7124969666E-03
+82.7813E-09,-501.2236240036E-03
+83.1094E-09,-506.3880173439E-03
+83.4375E-09,-515.2006518511E-03
+83.7656E-09,-520.0807666588E-03
+84.0938E-09,-526.0979955965E-03
+84.4219E-09,-531.0254901597E-03
+84.7500E-09,-535.7634657012E-03
+85.0781E-09,-542.0175934160E-03
+85.4063E-09,-546.3765309141E-03
+85.7344E-09,-548.7455186849E-03
+86.0625E-09,-552.1568610748E-03
+86.3906E-09,-555.2365451767E-03
+86.7188E-09,-557.9371912354E-03
+87.0469E-09,-562.6751667769E-03
+87.3750E-09,-565.6127116126E-03
+87.7031E-09,-568.5502564484E-03
+88.0313E-09,-573.2882319899E-03
+88.3594E-09,-576.2257768256E-03
+88.6875E-09,-577.6471694880E-03
+89.0156E-09,-577.6471694880E-03
+89.3438E-09,-577.6471694880E-03
+89.6719E-09,-579.1633216613E-03
+90.0000E-09,-582.9537020945E-03
+90.3281E-09,-582.9537020945E-03
+90.6563E-09,-581.4375499212E-03
+90.9844E-09,-577.6471694880E-03
+91.3125E-09,-577.6471694880E-03
+91.6406E-09,-577.6471694880E-03
+91.9688E-09,-576.9838529122E-03
+92.2969E-09,-574.4727258752E-03
+92.6250E-09,-570.8244847083E-03
+92.9531E-09,-566.4655472101E-03
+93.2813E-09,-564.0965594393E-03
+93.6094E-09,-560.2114194953E-03
+93.9375E-09,-555.8524819971E-03
+94.2656E-09,-553.4834942264E-03
+94.5938E-09,-549.5983542823E-03
+94.9219E-09,-545.3341762950E-03
+95.2500E-09,-543.1073277905E-03
+95.5781E-09,-538.9852890694E-03
+95.9063E-09,-534.7211110820E-03
+96.2344E-09,-532.4942625775E-03
+96.5625E-09,-527.9931858131E-03
+96.8906E-09,-522.1180961416E-03
+97.2188E-09,-517.7591586434E-03
+97.5469E-09,-513.1159426128E-03
+97.8750E-09,-510.3205370433E-03
+98.2031E-09,-507.1460934305E-03
+98.5313E-09,-502.5028773998E-03
+98.8594E-09,-499.7074718303E-03
+99.1875E-09,-496.5330282175E-03
+99.5156E-09,-491.9845716977E-03
+99.8438E-09,-489.3313053944E-03
+100.1719E-09,-485.9199630046E-03
+100.5000E-09,-481.3715064847E-03
+100.8281E-09,-478.7182401815E-03
+101.1563E-09,-475.3068977916E-03
+101.4844E-09,-471.5165173584E-03
+101.8125E-09,-471.5165173584E-03
+102.1406E-09,-470.0003651851E-03
+102.4688E-09,-466.2099847519E-03
+102.7969E-09,-466.2099847519E-03
+103.1250E-09,-464.6938325786E-03
+103.4531E-09,-460.9034521454E-03
+103.7813E-09,-460.9034521454E-03
+104.1094E-09,-460.9034521454E-03
+104.4375E-09,-460.3348950804E-03
+104.7656E-09,-457.9659073097E-03
+105.0938E-09,-455.5969195389E-03
+105.4219E-09,-456.1654766039E-03
+105.7500E-09,-458.5344643747E-03
+106.0781E-09,-460.9034521454E-03
+106.4063E-09,-460.9034521454E-03
+106.7344E-09,-460.9034521454E-03
+107.0625E-09,-460.9034521454E-03
+107.3906E-09,-460.9034521454E-03
+107.7188E-09,-460.9034521454E-03
+108.0469E-09,-460.9034521454E-03
+108.3750E-09,-460.9034521454E-03
+108.7031E-09,-462.4196043187E-03
+109.0313E-09,-466.2099847519E-03
+109.3594E-09,-466.2099847519E-03
+109.6875E-09,-466.2099847519E-03
+110.0156E-09,-466.2099847519E-03
+110.3438E-09,-466.2099847519E-03
+110.6719E-09,-466.2099847519E-03
+111.0000E-09,-466.2099847519E-03
+111.3281E-09,-466.2099847519E-03
+111.6563E-09,-466.2099847519E-03
+111.9844E-09,-466.2099847519E-03
+112.3125E-09,-466.2099847519E-03
+112.6406E-09,-466.2099847519E-03
+112.9688E-09,-466.2099847519E-03
+113.2969E-09,-466.2099847519E-03
+113.6250E-09,-466.2099847519E-03
+113.9531E-09,-466.2099847519E-03
+114.2813E-09,-466.2099847519E-03
+114.6094E-09,-466.2099847519E-03
+114.9375E-09,-466.2099847519E-03
+115.2656E-09,-466.2099847519E-03
+115.5938E-09,-466.2099847519E-03
+115.9219E-09,-465.7361871978E-03
+116.2500E-09,-463.5093386932E-03
+116.5781E-09,-460.9034521454E-03
+116.9063E-09,-460.9034521454E-03
+117.2344E-09,-460.9034521454E-03
+117.5625E-09,-460.9034521454E-03
+117.8906E-09,-460.9034521454E-03
+118.2188E-09,-460.9034521454E-03
+118.5469E-09,-460.9034521454E-03
+118.8750E-09,-460.9034521454E-03
+119.2031E-09,-460.9034521454E-03
+119.5313E-09,-460.9034521454E-03
+119.8594E-09,-460.9034521454E-03
+120.1875E-09,-460.9034521454E-03
+120.5156E-09,-460.9034521454E-03
+120.8438E-09,-460.9034521454E-03
+121.1719E-09,-460.9034521454E-03
+121.5000E-09,-460.9034521454E-03
+121.8281E-09,-460.9034521454E-03
+122.1563E-09,-460.9034521454E-03
+122.4844E-09,-460.9034521454E-03
+122.8125E-09,-460.9034521454E-03
+123.1406E-09,-460.9034521454E-03
+123.4688E-09,-460.9034521454E-03
+123.7969E-09,-460.9034521454E-03
+124.1250E-09,-460.9034521454E-03
+124.4531E-09,-460.9034521454E-03
+124.7813E-09,-460.9034521454E-03
+125.1094E-09,-460.9034521454E-03
+125.4375E-09,-460.9034521454E-03
+125.7656E-09,-460.9034521454E-03
+126.0938E-09,-460.9034521454E-03
+126.4219E-09,-460.9034521454E-03
+126.7500E-09,-460.9034521454E-03
+127.0781E-09,-460.9034521454E-03
+127.4063E-09,-460.9034521454E-03
+127.7344E-09,-460.9034521454E-03
+128.0625E-09,-460.9034521454E-03
+128.3906E-09,-460.9034521454E-03
+128.7188E-09,-459.3872999721E-03
+129.0469E-09,-455.5969195389E-03
+129.3750E-09,-455.5969195389E-03
+129.7031E-09,-455.5969195389E-03
+130.0313E-09,-455.5969195389E-03
+130.3594E-09,-455.5969195389E-03
+130.6875E-09,-455.5969195389E-03
+131.0156E-09,-455.5969195389E-03
+131.3438E-09,-455.5969195389E-03
+131.6719E-09,-455.5969195389E-03
