x-axis,1
second,Volt
-78.0000E-09,-569.7122434103E-03
-77.6719E-09,-569.7122434103E-03
-77.3438E-09,-569.7122434103E-03
-77.0156E-09,-569.7122434103E-03
-76.6875E-09,-569.7122434103E-03
-76.3594E-09,-569.7122434103E-03
-76.0313E-09,-569.7122434103E-03
-75.7031E-09,-569.7122434103E-03
-75.3750E-09,-569.7122434103E-03
-75.0469E-09,-569.7122434103E-03
-74.7187E-09,-569.7122434103E-03
-74.3906E-09,-569.7122434103E-03
-74.0625E-09,-569.7122434103E-03
-73.7344E-09,-569.7122434103E-03
-73.4062E-09,-569.7122434103E-03
-73.0781E-09,-569.7122434103E-03
-72.7500E-09,-569.7122434103E-03
-72.4219E-09,-569.7122434103E-03
-72.0937E-09,-569.7122434103E-03
-71.7656E-09,-569.7122434103E-03
-71.4375E-09,-569.7122434103E-03
-71.1094E-09,-569.7122434103E-03
-70.7812E-09,-569.7122434103E-03
-70.4531E-09,-569.7122434103E-03
-70.1250E-09,-569.7122434103E-03
-69.7969E-09,-569.7122434103E-03
-69.4687E-09,-569.7122434103E-03
-69.1406E-09,-569.7122434103E-03
-68.8125E-09,-569.7122434103E-03
-68.4844E-09,-569.7122434103E-03
-68.1562E-09,-569.7122434103E-03
-67.8281E-09,-569.7122434103E-03
-67.5000E-09,-569.7122434103E-03
-67.1719E-09,-569.7122434103E-03
-66.8437E-09,-569.7122434103E-03
-66.5156E-09,-569.7122434103E-03
-66.1875E-09,-569.7122434103E-03
-65.8594E-09,-569.7122434103E-03
-65.5312E-09,-569.7122434103E-03
-65.2031E-09,-569.7122434103E-03
-64.8750E-09,-569.7122434103E-03
-64.5469E-09,-569.7122434103E-03
-64.2187E-09,-569.7122434103E-03
-63.8906E-09,-569.7122434103E-03
-63.5625E-09,-569.7122434103E-03
-63.2344E-09,-569.7122434103E-03
-62.9062E-09,-569.7122434103E-03
-62.5781E-09,-569.7122434103E-03
-62.2500E-09,-569.7122434103E-03
-61.9219E-09,-569.7122434103E-03
-61.5937E-09,-569.7122434103E-03
-61.2656E-09,-569.7122434103E-03
-60.9375E-09,-569.7122434103E-03
-60.6094E-09,-569.7122434103E-03
-60.2812E-09,-569.7122434103E-03
-59.9531E-09,-569.7122434103E-03
-59.6250E-09,-569.7122434103E-03
-59.2969E-09,-569.7122434103E-03
-58.9687E-09,-569.7122434103E-03
-58.6406E-09,-569.7122434103E-03
-58.3125E-09,-569.7122434103E-03
-57.9844E-09,-569.7122434103E-03
-57.6562E-09,-569.7122434103E-03
-57.3281E-09,-570.5650790078E-03
-57.0000E-09,-573.3604845773E-03
-56.6719E-09,-575.0187760168E-03
-56.3437E-09,-575.0187760168E-03
-56.0156E-09,-575.0187760168E-03
-55.6875E-09,-575.0187760168E-03
-55.3594E-09,-575.0187760168E-03
-55.0312E-09,-575.0187760168E-03
-54.7031E-09,-575.0187760168E-03
-54.3750E-09,-575.0187760168E-03
-54.0469E-09,-575.0187760168E-03
-53.7187E-09,-575.0187760168E-03
-53.3906E-09,-575.0187760168E-03
-53.0625E-09,-575.0187760168E-03
-52.7344E-09,-575.0187760168E-03
-52.4062E-09,-574.4502189518E-03
-52.0781E-09,-572.0812311811E-03
-51.7500E-09,-569.7122434103E-03
-51.4219E-09,-569.7122434103E-03
-51.0937E-09,-569.7122434103E-03
-50.7656E-09,-569.7122434103E-03
-50.4375E-09,-569.7122434103E-03
-50.1094E-09,-569.7122434103E-03
-49.7812E-09,-569.7122434103E-03
-49.4531E-09,-569.7122434103E-03
-49.1250E-09,-569.7122434103E-03
-48.7969E-09,-569.7122434103E-03
-48.4687E-09,-569.7122434103E-03
-48.1406E-09,-569.7122434103E-03
-47.8125E-09,-569.7122434103E-03
-47.4844E-09,-569.7122434103E-03
-47.1562E-09,-569.7122434103E-03
-46.8281E-09,-570.5650790078E-03
-46.5000E-09,-573.3604845773E-03
-46.1719E-09,-575.0187760168E-03
-45.8437E-09,-574.2606999302E-03
-45.5156E-09,-571.6074336269E-03
-45.1875E-09,-569.7122434103E-03
-44.8594E-09,-569.7122434103E-03
-44.5312E-09,-569.7122434103E-03
-44.2031E-09,-569.7122434103E-03
-43.8750E-09,-569.7122434103E-03
-43.5469E-09,-569.7122434103E-03
-43.2187E-09,-569.7122434103E-03
-42.8906E-09,-569.7122434103E-03
-42.5625E-09,-569.7122434103E-03
-42.2344E-09,-569.7122434103E-03
-41.9062E-09,-569.1436863453E-03
-41.5781E-09,-566.7746985746E-03
-41.2500E-09,-564.4057108038E-03
-40.9219E-09,-564.4057108038E-03
-40.5937E-09,-564.4057108038E-03
-40.2656E-09,-563.4581156955E-03
-39.9375E-09,-560.5205708598E-03
-39.6094E-09,-557.5830260241E-03
-39.2812E-09,-552.8450504826E-03
-38.9531E-09,-549.9075056468E-03
-38.6250E-09,-545.4538086378E-03
-38.2969E-09,-537.0202121740E-03
-37.9687E-09,-534.2248066045E-03
-37.6406E-09,-529.5342108184E-03
-37.3125E-09,-519.3949431596E-03
-36.9844E-09,-511.0087264511E-03
-36.6562E-09,-503.0015477860E-03
-36.3281E-09,-492.1989635513E-03
-36.0000E-09,-481.3016198059E-03
-35.6719E-09,-469.6461999738E-03
-35.3437E-09,-455.2427543276E-03
-35.0156E-09,-444.6296891147E-03
-34.6875E-09,-429.4681673818E-03
-34.3594E-09,-406.9154038043E-03
-34.0312E-09,-393.9333508206E-03
-33.7031E-09,-376.4028413170E-03
-33.3750E-09,-353.3762801853E-03
-33.0469E-09,-338.1673786971E-03
-32.7187E-09,-316.5148304724E-03
-32.3906E-09,-289.4136103750E-03
-32.0625E-09,-272.2621389148E-03
-31.7344E-09,-247.5299065882E-03
-31.4062E-09,-220.7129650233E-03
-31.0781E-09,-203.9879113618E-03
-30.7500E-09,-175.5126783573E-03
-30.4219E-09,-141.4940139693E-03
-30.0937E-09,-125.3375173728E-03
-29.7656E-09,-101.0317028449E-03
-29.4375E-09,-79.9003319298E-03
-29.1094E-09,-58.7689610147E-03
-28.7812E-09,-21.7179922802E-03
-28.4531E-09,-1.0130391638E-03
-28.1250E-09,+19.3128759092E-03
-27.7969E-09,+51.3415905698E-03
-27.4687E-09,+68.6825810517E-03
-27.1406E-09,+86.7816476202E-03
-26.8125E-09,+114.7357033151E-03
-26.4844E-09,+131.6502759983E-03
-26.1562E-09,+150.4600388980E-03
-25.8281E-09,+176.4241448655E-03
-25.5000E-09,+187.3214886109E-03
-25.1719E-09,+202.0092127896E-03
-24.8437E-09,+223.9934193021E-03
-24.5156E-09,+234.6064845151E-03
-24.1875E-09,+246.7357019014E-03
-23.8594E-09,+259.5282358634E-03
-23.5312E-09,+264.6926292036E-03
-23.2031E-09,+271.7522127605E-03
-22.8750E-09,+280.6596067785E-03
-22.5469E-09,+285.6818608525E-03
-22.2187E-09,+289.9460388398E-03
-21.8906E-09,+289.9460388398E-03
-21.5625E-09,+289.9460388398E-03
-21.2344E-09,+288.4298866666E-03
-20.9062E-09,+283.9761896576E-03
-20.5781E-09,+281.4650626206E-03
-20.2500E-09,+276.3006692803E-03
-19.9219E-09,+267.0142372190E-03
-19.5937E-09,+259.9072739067E-03
-19.2656E-09,+249.6732467371E-03
-18.9375E-09,+240.4341944311E-03
-18.6094E-09,+229.2999519086E-03
-18.2812E-09,+206.4629097986E-03
-17.9531E-09,+194.5705911894E-03
-17.6250E-09,+181.5411584503E-03
-17.2969E-09,+156.9984451453E-03
-16.9687E-09,+139.5153153971E-03
-16.6406E-09,+121.6531476057E-03
-16.3125E-09,+92.7514968025E-03
-15.9844E-09,+72.8993792836E-03
-15.6562E-09,+51.1520715481E-03
-15.3281E-09,+18.8390783551E-03
-15.0000E-09,-444.4820988E-06
-14.6719E-09,-23.1393849426E-03
-14.3437E-09,-55.1680996032E-03
-14.0156E-09,-74.0252422584E-03
-13.6875E-09,-98.9469936067E-03
-13.3594E-09,-134.3870506571E-03
-13.0312E-09,-152.6756362473E-03
-12.7031E-09,-177.0288305306E-03
-12.3750E-09,-208.3942286154E-03
-12.0469E-09,-226.2563964068E-03
-11.7187E-09,-251.3202870214E-03
-11.3906E-09,-282.3066470628E-03
-11.0625E-09,-299.6002577893E-03
-10.7344E-09,-324.0955913389E-03
-10.4062E-09,-350.4387353496E-03
-10.0781E-09,-364.9369405066E-03
-9.7500E-09,-386.2578304434E-03
-9.4219E-09,-407.9577584234E-03
-9.0937E-09,-419.6605580110E-03
-8.7656E-09,-435.8170546075E-03
-8.4375E-09,-447.9936517491E-03
-8.1094E-09,-459.0331347608E-03
-7.7812E-09,-478.0797964377E-03
-7.4531E-09,-489.9721150468E-03
-7.1250E-09,-499.9692434394E-03
-6.7969E-09,-514.1831700639E-03
-6.4687E-09,-522.9958045711E-03
-6.1406E-09,-530.2922869050E-03
-5.8125E-09,-539.6734784772E-03
-5.4844E-09,-545.4064288824E-03
-5.1562E-09,-551.5184173310E-03
-4.8281E-09,-559.9520137948E-03
-4.5000E-09,-562.7474193643E-03
-4.1719E-09,-565.9218629771E-03
-3.8437E-09,-569.7122434103E-03
-3.5156E-09,-569.7122434103E-03
-3.1875E-09,-571.2283955836E-03
-2.8594E-09,-575.0187760168E-03
-2.5312E-09,-575.0187760168E-03
-2.2031E-09,-575.0187760168E-03
-1.8750E-09,-575.0187760168E-03
-1.5469E-09,-575.0187760168E-03
-1.2187E-09,-573.5026238435E-03
-890.6E-12,-569.7122434103E-03
-562.5E-12,-569.7122434103E-03
-234.4E-12,-568.1960912370E-03
+93.8E-12,-563.8371537389E-03
+421.9E-12,-561.4681659681E-03
+750.0E-12,-559.0991781974E-03
+1.0781E-09,-558.6253806432E-03
+1.4063E-09,-556.3985321387E-03
+1.7344E-09,-552.8450504826E-03
+2.0625E-09,-549.9075056468E-03
+2.3906E-09,-548.4861129844E-03
+2.7188E-09,-547.5385178761E-03
+3.0469E-09,-544.6009730404E-03
+3.3750E-09,-543.1795803779E-03
+3.7031E-09,-543.1795803779E-03
+4.0313E-09,-543.1795803779E-03
+4.3594E-09,-543.1795803779E-03
+4.6875E-09,-543.1795803779E-03
+5.0156E-09,-543.1795803779E-03
+5.3438E-09,-543.1795803779E-03
+5.6719E-09,-543.1795803779E-03
+6.0000E-09,-543.1795803779E-03
+6.3281E-09,-544.6957325512E-03
+6.6563E-09,-548.4861129844E-03
+6.9844E-09,-548.4861129844E-03
+7.3125E-09,-550.0022651577E-03
+7.6406E-09,-553.7926455909E-03
+7.9688E-09,-553.7926455909E-03
+8.2969E-09,-555.3087977642E-03
+8.6250E-09,-559.0991781974E-03
+8.9531E-09,-559.0991781974E-03
+9.2813E-09,-560.6153303706E-03
+9.6094E-09,-564.4057108038E-03
+9.9375E-09,-564.4057108038E-03
+10.2656E-09,-565.9218629771E-03
+10.5938E-09,-569.7122434103E-03
+10.9219E-09,-569.7122434103E-03
+11.2500E-09,-569.7122434103E-03
+11.5781E-09,-569.7122434103E-03
+11.9063E-09,-569.7122434103E-03
+12.2344E-09,-569.7122434103E-03
+12.5625E-09,-569.7122434103E-03
+12.8906E-09,-569.7122434103E-03
+13.2188E-09,-568.7646483020E-03
+13.5469E-09,-565.8271034663E-03
+13.8750E-09,-564.4057108038E-03
+14.2031E-09,-564.4057108038E-03
+14.5313E-09,-564.4057108038E-03
+14.8594E-09,-562.8895586306E-03
+15.1875E-09,-559.0991781974E-03
+15.5156E-09,-559.0991781974E-03
+15.8438E-09,-559.0991781974E-03
+16.1719E-09,-559.0991781974E-03
+16.5000E-09,-559.0991781974E-03
+16.8281E-09,-559.0991781974E-03
+17.1563E-09,-559.0991781974E-03
+17.4844E-09,-559.0991781974E-03
+17.8125E-09,-559.0991781974E-03
+18.1406E-09,-559.8572542840E-03
+18.4688E-09,-562.5105205872E-03
+18.7969E-09,-564.4057108038E-03
+19.1250E-09,-564.4057108038E-03
+19.4531E-09,-564.4057108038E-03
+19.7813E-09,-565.9218629771E-03
+20.1094E-09,-569.7122434103E-03
+20.4375E-09,-569.7122434103E-03
+20.7656E-09,-569.7122434103E-03
+21.0938E-09,-569.7122434103E-03
+21.4219E-09,-569.7122434103E-03
+21.7500E-09,-569.7122434103E-03
+22.0781E-09,-569.7122434103E-03
+22.4063E-09,-569.7122434103E-03
+22.7344E-09,-569.7122434103E-03
+23.0625E-09,-569.7122434103E-03
+23.3906E-09,-569.7122434103E-03
+23.7188E-09,-569.7122434103E-03
+24.0469E-09,-569.7122434103E-03
+24.3750E-09,-569.7122434103E-03
+24.7031E-09,-569.7122434103E-03
+25.0313E-09,-569.7122434103E-03
+25.3594E-09,-568.1960912370E-03
+25.6875E-09,-564.4057108038E-03
+26.0156E-09,-564.4057108038E-03
+26.3438E-09,-564.4057108038E-03
+26.6719E-09,-564.4057108038E-03
+27.0000E-09,-564.4057108038E-03
+27.3281E-09,-564.4057108038E-03
+27.6563E-09,-564.4057108038E-03
+27.9844E-09,-564.4057108038E-03
+28.3125E-09,-564.4057108038E-03
+28.6406E-09,-564.4057108038E-03
+28.9688E-09,-564.4057108038E-03
+29.2969E-09,-564.4057108038E-03
+29.6250E-09,-565.1637868905E-03
+29.9531E-09,-567.8170531937E-03
+30.2813E-09,-569.7122434103E-03
+30.6094E-09,-569.7122434103E-03
+30.9375E-09,-569.7122434103E-03
+31.2656E-09,-569.7122434103E-03
+31.5938E-09,-569.7122434103E-03
+31.9219E-09,-569.7122434103E-03
+32.2500E-09,-569.7122434103E-03
+32.5781E-09,-569.7122434103E-03
+32.9063E-09,-569.7122434103E-03
+33.2344E-09,-569.7122434103E-03
+33.5625E-09,-569.7122434103E-03
+33.8906E-09,-569.7122434103E-03
+34.2188E-09,-569.7122434103E-03
+34.5469E-09,-569.7122434103E-03
+34.8750E-09,-569.7122434103E-03
+35.2031E-09,-569.7122434103E-03
+35.5313E-09,-569.7122434103E-03
+35.8594E-09,-569.7122434103E-03
+36.1875E-09,-568.8594078129E-03
+36.5156E-09,-566.0640022434E-03
+36.8438E-09,-564.4057108038E-03
+37.1719E-09,-564.4057108038E-03
+37.5000E-09,-564.4057108038E-03
+37.8281E-09,-564.4057108038E-03
+38.1563E-09,-564.4057108038E-03
+38.4844E-09,-564.4057108038E-03
+38.8125E-09,-564.4057108038E-03
+39.1406E-09,-564.4057108038E-03
+39.4688E-09,-564.4057108038E-03
+39.7969E-09,-564.4057108038E-03
+40.1250E-09,-564.4057108038E-03
+40.4531E-09,-564.4057108038E-03
+40.7813E-09,-564.4057108038E-03
+41.1094E-09,-564.4057108038E-03
+41.4375E-09,-564.4057108038E-03
+41.7656E-09,-565.9218629771E-03
+42.0938E-09,-569.7122434103E-03
+42.4219E-09,-569.7122434103E-03
+42.7500E-09,-569.7122434103E-03
+43.0781E-09,-569.7122434103E-03
+43.4063E-09,-569.7122434103E-03
+43.7344E-09,-569.7122434103E-03
+44.0625E-09,-569.7122434103E-03
+44.3906E-09,-569.7122434103E-03
+44.7188E-09,-569.7122434103E-03
+45.0469E-09,-569.7122434103E-03
+45.3750E-09,-569.7122434103E-03
+45.7031E-09,-569.7122434103E-03
+46.0313E-09,-569.7122434103E-03
+46.3594E-09,-569.7122434103E-03
+46.6875E-09,-569.7122434103E-03
+47.0156E-09,-569.7122434103E-03
+47.3438E-09,-569.7122434103E-03
+47.6719E-09,-569.7122434103E-03
+48.0000E-09,-569.7122434103E-03
+48.3281E-09,-569.7122434103E-03
+48.6563E-09,-569.7122434103E-03
+48.9844E-09,-569.7122434103E-03
+49.3125E-09,-569.7122434103E-03
+49.6406E-09,-569.7122434103E-03
+49.9688E-09,-569.7122434103E-03
+50.2969E-09,-569.7122434103E-03
+50.6250E-09,-569.7122434103E-03
+50.9531E-09,-569.7122434103E-03
+51.2813E-09,-569.7122434103E-03
+51.6094E-09,-569.7122434103E-03
+51.9375E-09,-569.7122434103E-03
+52.2656E-09,-569.7122434103E-03
+52.5938E-09,-569.7122434103E-03
+52.9219E-09,-569.7122434103E-03
+53.2500E-09,-569.7122434103E-03
+53.5781E-09,-569.7122434103E-03
+53.9063E-09,-569.7122434103E-03
+54.2344E-09,-569.7122434103E-03
+54.5625E-09,-569.7122434103E-03
+54.8906E-09,-569.7122434103E-03
+55.2188E-09,-569.7122434103E-03
+55.5469E-09,-569.7122434103E-03
+55.8750E-09,-569.7122434103E-03
+56.2031E-09,-569.7122434103E-03
+56.5313E-09,-569.7122434103E-03
+56.8594E-09,-569.7122434103E-03
+57.1875E-09,-569.7122434103E-03
+57.5156E-09,-569.7122434103E-03
+57.8438E-09,-569.7122434103E-03
+58.1719E-09,-569.7122434103E-03
+58.5000E-09,-569.7122434103E-03
+58.8281E-09,-569.7122434103E-03
+59.1563E-09,-569.7122434103E-03
+59.4844E-09,-569.7122434103E-03
+59.8125E-09,-569.7122434103E-03
+60.1406E-09,-569.0489268345E-03
+60.4688E-09,-566.5377997975E-03
+60.7969E-09,-564.4057108038E-03
+61.1250E-09,-564.4057108038E-03
+61.4531E-09,-564.4057108038E-03
+61.7813E-09,-564.4057108038E-03
+62.1094E-09,-564.4057108038E-03
+62.4375E-09,-564.4057108038E-03
+62.7656E-09,-562.8895586306E-03
+63.0938E-09,-559.0991781974E-03
+63.4219E-09,-559.0991781974E-03
+63.7500E-09,-557.5830260241E-03
+64.0781E-09,-553.7926455909E-03
+64.4063E-09,-553.7926455909E-03
+64.7344E-09,-552.8450504826E-03
+65.0625E-09,-549.9075056468E-03
+65.3906E-09,-546.9699608111E-03
+65.7188E-09,-543.1795803779E-03
+66.0469E-09,-543.1795803779E-03
+66.3750E-09,-541.6634282046E-03
+66.7031E-09,-537.0202121740E-03
+67.0313E-09,-534.2248066045E-03
+67.3594E-09,-529.5342108184E-03
+67.6875E-09,-521.1006143545E-03
+68.0156E-09,-518.3052087850E-03
+68.3438E-09,-515.1307651722E-03
+68.6719E-09,-510.5823086524E-03
+69.0000E-09,-507.9290423491E-03
+69.3281E-09,-503.0015477860E-03
+69.6563E-09,-494.6627108329E-03
+69.9844E-09,-492.0094445297E-03
+70.3125E-09,-487.0819499665E-03
+70.6406E-09,-478.8378725243E-03
+70.9688E-09,-476.3267454873E-03
+71.2969E-09,-472.6785043204E-03
+71.6250E-09,-467.5614907355E-03
+71.9531E-09,-462.5392366615E-03
+72.2813E-09,-456.7589065009E-03
+72.6094E-09,-452.3999690027E-03
+72.9375E-09,-450.0309812320E-03
+73.2656E-09,-446.1458412879E-03
+73.5938E-09,-441.7869037898E-03
+73.9219E-09,-439.4179160190E-03
+74.2500E-09,-435.5327760750E-03
+74.5781E-09,-431.7423956418E-03
+74.9063E-09,-431.7423956418E-03
+75.2344E-09,-430.7948005335E-03
+75.5625E-09,-427.8572556977E-03
+75.8906E-09,-426.4358630353E-03
+76.2188E-09,-425.4882679270E-03
+76.5469E-09,-422.5507230913E-03
+76.8750E-09,-421.1293304288E-03
+77.2031E-09,-421.1293304288E-03
+77.5313E-09,-421.1293304288E-03
+77.8594E-09,-421.1293304288E-03
+78.1875E-09,-422.0769255371E-03
+78.5156E-09,-425.0144703728E-03
+78.8438E-09,-426.4358630353E-03
+79.1719E-09,-427.2886986328E-03
+79.5000E-09,-430.0841042023E-03
+79.8281E-09,-431.7423956418E-03
+80.1563E-09,-432.5952312393E-03
+80.4844E-09,-435.3906368087E-03
+80.8125E-09,-438.5650804215E-03
+81.1406E-09,-443.1135369414E-03
+81.4688E-09,-445.7668032446E-03
+81.7969E-09,-449.1781456345E-03
+82.1250E-09,-453.7266021544E-03
+82.4531E-09,-456.3798684576E-03
+82.7813E-09,-459.7912108475E-03
+83.1094E-09,-464.9082244323E-03
+83.4375E-09,-469.9304785063E-03
+83.7656E-09,-475.7108086669E-03
+84.0938E-09,-480.7330627409E-03
+84.4219E-09,-485.6131775487E-03
+84.7500E-09,-491.6304064864E-03
+85.0781E-09,-496.5579010495E-03
+85.4063E-09,-501.2958765910E-03
+85.7344E-09,-507.0762067517E-03
+86.0625E-09,-510.1558908536E-03
+86.3906E-09,-514.3726890856E-03
+86.7188E-09,-523.9433996794E-03
+87.0469E-09,-529.9606286171E-03
+87.3750E-09,-534.0826673382E-03
+87.7031E-09,-538.8206428797E-03
+88.0313E-09,-541.7581877155E-03
+88.3594E-09,-546.2118847245E-03
+88.6875E-09,-554.7402406992E-03
+89.0156E-09,-557.6777855349E-03
+89.3438E-09,-560.6153303706E-03
+89.6719E-09,-565.2585464013E-03
+90.0000E-09,-568.0539519708E-03
+90.3281E-09,-571.2283955836E-03
+90.6563E-09,-575.8716116143E-03
+90.9844E-09,-578.6670171838E-03
+91.3125E-09,-581.8414607966E-03
+91.6406E-09,-586.3899173164E-03
+91.9688E-09,-589.0431836197E-03
+92.2969E-09,-590.9383738363E-03
+92.6250E-09,-591.6964499229E-03
+92.9531E-09,-594.3497162261E-03
+93.2813E-09,-596.2449064427E-03
+93.6094E-09,-596.2449064427E-03
+93.9375E-09,-596.2449064427E-03
+94.2656E-09,-596.2449064427E-03
+94.5938E-09,-596.2449064427E-03
+94.9219E-09,-596.2449064427E-03
+95.2500E-09,-596.2449064427E-03
+95.5781E-09,-596.2449064427E-03
+95.9063E-09,-596.2449064427E-03
+96.2344E-09,-596.2449064427E-03
+96.5625E-09,-596.2449064427E-03
+96.8906E-09,-596.2449064427E-03
+97.2188E-09,-595.2973113344E-03
+97.5469E-09,-592.3597664987E-03
+97.8750E-09,-590.9383738363E-03
+98.2031E-09,-590.9383738363E-03
+98.5313E-09,-590.9383738363E-03
+98.8594E-09,-589.4222216630E-03
+99.1875E-09,-585.6318412298E-03
+99.5156E-09,-585.6318412298E-03
+99.8438E-09,-584.1156890565E-03
+100.1719E-09,-580.3253086233E-03
+100.5000E-09,-580.3253086233E-03
+100.8281E-09,-578.8091564500E-03
+101.1563E-09,-575.0187760168E-03
+101.4844E-09,-575.0187760168E-03
+101.8125E-09,-573.5026238435E-03
+102.1406E-09,-569.7122434103E-03
+102.4688E-09,-569.7122434103E-03
+102.7969E-09,-568.1960912370E-03
+103.1250E-09,-564.4057108038E-03
+103.4531E-09,-564.4057108038E-03
+103.7813E-09,-564.4057108038E-03
+104.1094E-09,-564.4057108038E-03
+104.4375E-09,-564.4057108038E-03
+104.7656E-09,-564.4057108038E-03
+105.0938E-09,-564.4057108038E-03
+105.4219E-09,-564.4057108038E-03
+105.7500E-09,-564.4057108038E-03
+106.0781E-09,-564.4057108038E-03
+106.4063E-09,-564.4057108038E-03
+106.7344E-09,-564.4057108038E-03
+107.0625E-09,-564.4057108038E-03
+107.3906E-09,-564.4057108038E-03
+107.7188E-09,-564.4057108038E-03
+108.0469E-09,-564.4057108038E-03
+108.3750E-09,-564.4057108038E-03
+108.7031E-09,-565.3533059121E-03
+109.0313E-09,-568.2908507479E-03
+109.3594E-09,-569.7122434103E-03
+109.6875E-09,-569.7122434103E-03
+110.0156E-09,-569.7122434103E-03
+110.3438E-09,-569.7122434103E-03
+110.6719E-09,-569.7122434103E-03
+111.0000E-09,-569.7122434103E-03
+111.3281E-09,-569.7122434103E-03
+111.6563E-09,-569.7122434103E-03
+111.9844E-09,-569.7122434103E-03
+112.3125E-09,-569.7122434103E-03
+112.6406E-09,-569.7122434103E-03
+112.9688E-09,-569.7122434103E-03
+113.2969E-09,-569.7122434103E-03
+113.6250E-09,-569.7122434103E-03
+113.9531E-09,-569.7122434103E-03
+114.2813E-09,-571.2283955836E-03
+114.6094E-09,-575.0187760168E-03
+114.9375E-09,-575.0187760168E-03
+115.2656E-09,-575.0187760168E-03
+115.5938E-09,-575.0187760168E-03
+115.9219E-09,-575.0187760168E-03
+116.2500E-09,-575.0187760168E-03
+116.5781E-09,-575.0187760168E-03
+116.9063E-09,-575.0187760168E-03
+117.2344E-09,-575.0187760168E-03
+117.5625E-09,-575.0187760168E-03
+117.8906E-09,-573.5026238435E-03
+118.2188E-09,-569.7122434103E-03
+118.5469E-09,-569.7122434103E-03
+118.8750E-09,-569.7122434103E-03
+119.2031E-09,-569.7122434103E-03
+119.5313E-09,-569.7122434103E-03
+119.8594E-09,-571.2283955836E-03
+120.1875E-09,-575.0187760168E-03
+120.5156E-09,-575.0187760168E-03
+120.8438E-09,-575.0187760168E-03
+121.1719E-09,-575.0187760168E-03
+121.5000E-09,-575.0187760168E-03
+121.8281E-09,-575.0187760168E-03
+122.1563E-09,-575.0187760168E-03
+122.4844E-09,-575.0187760168E-03
+122.8125E-09,-575.0187760168E-03
+123.1406E-09,-575.0187760168E-03
+123.4688E-09,-575.0187760168E-03
+123.7969E-09,-575.0187760168E-03
+124.1250E-09,-575.0187760168E-03
+124.4531E-09,-575.0187760168E-03
+124.7813E-09,-575.0187760168E-03
+125.1094E-09,-575.0187760168E-03
+125.4375E-09,-575.0187760168E-03
+125.7656E-09,-575.0187760168E-03
+126.0938E-09,-575.0187760168E-03
+126.4219E-09,-575.0187760168E-03
+126.7500E-09,-575.0187760168E-03
+127.0781E-09,-575.0187760168E-03
+127.4063E-09,-575.0187760168E-03
+127.7344E-09,-575.0187760168E-03
+128.0625E-09,-575.0187760168E-03
+128.3906E-09,-575.0187760168E-03
+128.7188E-09,-575.0187760168E-03
+129.0469E-09,-575.0187760168E-03
+129.3750E-09,-575.0187760168E-03
+129.7031E-09,-574.1659404193E-03
+130.0313E-09,-571.3705348498E-03
+130.3594E-09,-569.7122434103E-03
+130.6875E-09,-569.7122434103E-03
+131.0156E-09,-569.7122434103E-03
+131.3438E-09,-571.2283955836E-03
+131.6719E-09,-576.5349281901E-03
