x-axis,1
second,Volt
-78.0000E-09,-737.8795681470E-03
-77.6719E-09,-737.8795681470E-03
-77.3438E-09,-737.8795681470E-03
-77.0156E-09,-737.8795681470E-03
-76.6875E-09,-737.8795681470E-03
-76.3594E-09,-737.8795681470E-03
-76.0313E-09,-737.8795681470E-03
-75.7031E-09,-737.8795681470E-03
-75.3750E-09,-737.8795681470E-03
-75.0469E-09,-737.8795681470E-03
-74.7187E-09,-737.8795681470E-03
-74.3906E-09,-737.8795681470E-03
-74.0625E-09,-737.8795681470E-03
-73.7344E-09,-737.8795681470E-03
-73.4062E-09,-737.8795681470E-03
-73.0781E-09,-737.8795681470E-03
-72.7500E-09,-737.8795681470E-03
-72.4219E-09,-737.8795681470E-03
-72.0937E-09,-737.8795681470E-03
-71.7656E-09,-737.8795681470E-03
-71.4375E-09,-737.8795681470E-03
-71.1094E-09,-737.8795681470E-03
-70.7812E-09,-737.8795681470E-03
-70.4531E-09,-737.8795681470E-03
-70.1250E-09,-737.8795681470E-03
-69.7969E-09,-737.8795681470E-03
-69.4687E-09,-737.8795681470E-03
-69.1406E-09,-737.8795681470E-03
-68.8125E-09,-737.8795681470E-03
-68.4844E-09,-737.8795681470E-03
-68.1562E-09,-737.8795681470E-03
-67.8281E-09,-737.8795681470E-03
-67.5000E-09,-737.8795681470E-03
-67.1719E-09,-737.8795681470E-03
-66.8437E-09,-737.8795681470E-03
-66.5156E-09,-737.8795681470E-03
-66.1875E-09,-737.8795681470E-03
-65.8594E-09,-737.8795681470E-03
-65.5312E-09,-737.8795681470E-03
-65.2031E-09,-737.8795681470E-03
-64.8750E-09,-737.8795681470E-03
-64.5469E-09,-737.8795681470E-03
-64.2187E-09,-737.8795681470E-03
-63.8906E-09,-737.8795681470E-03
-63.5625E-09,-737.8795681470E-03
-63.2344E-09,-737.8795681470E-03
-62.9062E-09,-737.8795681470E-03
-62.5781E-09,-737.8795681470E-03
-62.2500E-09,-737.8795681470E-03
-61.9219E-09,-737.8795681470E-03
-61.5937E-09,-737.8795681470E-03
-61.2656E-09,-737.8795681470E-03
-60.9375E-09,-737.8795681470E-03
-60.6094E-09,-737.8795681470E-03
-60.2812E-09,-737.8795681470E-03
-59.9531E-09,-737.8795681470E-03
-59.6250E-09,-737.8795681470E-03
-59.2969E-09,-737.8795681470E-03
-58.9687E-09,-737.8795681470E-03
-58.6406E-09,-737.8795681470E-03
-58.3125E-09,-737.8795681470E-03
-57.9844E-09,-737.8795681470E-03
-57.6562E-09,-737.8795681470E-03
-57.3281E-09,-737.8795681470E-03
-57.0000E-09,-737.8795681470E-03
-56.6719E-09,-737.8795681470E-03
-56.3437E-09,-737.8795681470E-03
-56.0156E-09,-737.8795681470E-03
-55.6875E-09,-737.8795681470E-03
-55.3594E-09,-737.8795681470E-03
-55.0312E-09,-737.8795681470E-03
-54.7031E-09,-737.8795681470E-03
-54.3750E-09,-737.8795681470E-03
-54.0469E-09,-737.8795681470E-03
-53.7187E-09,-737.8795681470E-03
-53.3906E-09,-737.8795681470E-03
-53.0625E-09,-737.8795681470E-03
-52.7344E-09,-737.8795681470E-03
-52.4062E-09,-737.8795681470E-03
-52.0781E-09,-737.8795681470E-03
-51.7500E-09,-737.8795681470E-03
-51.4219E-09,-737.8795681470E-03
-51.0937E-09,-737.8795681470E-03
-50.7656E-09,-737.8795681470E-03
-50.4375E-09,-737.8795681470E-03
-50.1094E-09,-737.8795681470E-03
-49.7812E-09,-737.8795681470E-03
-49.4531E-09,-737.8795681470E-03
-49.1250E-09,-737.8795681470E-03
-48.7969E-09,-737.8795681470E-03
-48.4687E-09,-737.8795681470E-03
-48.1406E-09,-737.8795681470E-03
-47.8125E-09,-737.8795681470E-03
-47.4844E-09,-737.8795681470E-03
-47.1562E-09,-737.8795681470E-03
-46.8281E-09,-737.8795681470E-03
-46.5000E-09,-737.8795681470E-03
-46.1719E-09,-737.8795681470E-03
-45.8437E-09,-737.8795681470E-03
-45.5156E-09,-737.8795681470E-03
-45.1875E-09,-737.8795681470E-03
-44.8594E-09,-737.8795681470E-03
-44.5312E-09,-737.8795681470E-03
-44.2031E-09,-737.8795681470E-03
-43.8750E-09,-737.8795681470E-03
-43.5469E-09,-737.8795681470E-03
-43.2187E-09,-736.3634159738E-03
-42.8906E-09,-732.5730355406E-03
-42.5625E-09,-732.5730355406E-03
-42.2344E-09,-732.5730355406E-03
-41.9062E-09,-732.5730355406E-03
-41.5781E-09,-732.5730355406E-03
-41.2500E-09,-732.5730355406E-03
-40.9219E-09,-732.5730355406E-03
-40.5937E-09,-732.5730355406E-03
-40.2656E-09,-732.5730355406E-03
-39.9375E-09,-732.5730355406E-03
-39.6094E-09,-732.5730355406E-03
-39.2812E-09,-732.5730355406E-03
-38.9531E-09,-732.5730355406E-03
-38.6250E-09,-732.5730355406E-03
-38.2969E-09,-732.5730355406E-03
-37.9687E-09,-732.5730355406E-03
-37.6406E-09,-732.5730355406E-03
-37.3125E-09,-731.9097189647E-03
-36.9844E-09,-729.3985919277E-03
-36.6562E-09,-727.2665029341E-03
-36.3281E-09,-726.6031863583E-03
-36.0000E-09,-724.0920593213E-03
-35.6719E-09,-720.4438181543E-03
-35.3437E-09,-716.0848806561E-03
-35.0156E-09,-713.7158928854E-03
-34.6875E-09,-709.8307529413E-03
-34.3594E-09,-705.4718154432E-03
-34.0312E-09,-703.1028276724E-03
-33.7031E-09,-697.7015355551E-03
-33.3750E-09,-689.0784200696E-03
-33.0469E-09,-684.4825837943E-03
-32.7187E-09,-674.9592529559E-03
-32.3906E-09,-662.1667189938E-03
-32.0625E-09,-655.4861734803E-03
-31.7344E-09,-643.7833738928E-03
-31.4062E-09,-631.8910552836E-03
-31.0781E-09,-620.3777747178E-03
-30.7500E-09,-601.5206320626E-03
-30.4219E-09,-589.9125919859E-03
-30.0937E-09,-576.4093616926E-03
-29.7656E-09,-553.0985220284E-03
-29.4375E-09,-538.9793549148E-03
-29.1094E-09,-521.8278834545E-03
-28.7812E-09,-494.1581062922E-03
-28.4531E-09,-477.6699514077E-03
-28.1250E-09,-456.6333400035E-03
-27.7969E-09,-424.6046253429E-03
-27.4687E-09,-405.7474826877E-03
-27.1406E-09,-382.3418835127E-03
-26.8125E-09,-350.6922068955E-03
-26.4844E-09,-332.4036213053E-03
-26.1562E-09,-306.5342748487E-03
-25.8281E-09,-271.3784963307E-03
-25.5000E-09,-253.5163285393E-03
-25.1719E-09,-226.9362857514E-03
-24.8437E-09,-192.1595452768E-03
-24.5156E-09,-174.8659345503E-03
-24.1875E-09,-147.3382966542E-03
-23.8594E-09,-112.8458347121E-03
-23.5312E-09,-95.9786417843E-03
-23.2031E-09,-70.7726119035E-03
-22.8750E-09,-44.8085059361E-03
-22.5469E-09,-30.8788578441E-03
-22.2187E-09,-7.0942206257E-03
-21.8906E-09,+18.1118092551E-03
-21.5625E-09,+29.3881910438E-03
-21.2344E-09,+47.0134600582E-03
-20.9062E-09,+61.8433235031E-03
-20.5781E-09,+74.7779967314E-03
-20.2500E-09,+92.6875442783E-03
-19.9219E-09,+101.3580395193E-03
-19.5937E-09,+108.8914206302E-03
-19.2656E-09,+118.1778526916E-03
-18.9375E-09,+123.7686638306E-03
-18.6094E-09,+128.6013988829E-03
-18.2812E-09,+132.3917793161E-03
-17.9531E-09,+132.3917793161E-03
-17.6250E-09,+132.3917793161E-03
-17.2969E-09,+131.5389437186E-03
-16.9687E-09,+128.7435381491E-03
-16.6406E-09,+124.0529423630E-03
-16.3125E-09,+114.9560293234E-03
-15.9844E-09,+109.6494967169E-03
-15.6562E-09,+101.3106597638E-03
-15.3281E-09,+87.0967331393E-03
-15.0000E-09,+76.7679464589E-03
-14.6719E-09,+62.6487793452E-03
-14.3437E-09,+44.1706747333E-03
-14.0156E-09,+31.6150395483E-03
-13.6875E-09,+13.3738337135E-03
-13.3594E-09,-9.1789298640E-03
-13.0312E-09,-23.6771350210E-03
-12.7031E-09,-46.5141771310E-03
-12.3750E-09,-72.5730426093E-03
-12.0469E-09,-86.6448299676E-03
-11.7187E-09,-111.7087205821E-03
-11.3906E-09,-141.8422450261E-03
-11.0625E-09,-157.8566023563E-03
-10.7344E-09,-182.3045561505E-03
-10.4062E-09,-203.2937877993E-03
-10.0781E-09,-224.6620574915E-03
-9.7500E-09,-261.5235072044E-03
-9.4219E-09,-281.9441817883E-03
-9.0937E-09,-302.7438944155E-03
-8.7656E-09,-336.3835207601E-03
-8.4375E-09,-359.1731831148E-03
-8.1094E-09,-380.8257313394E-03
-7.7812E-09,-409.4431036101E-03
-7.4531E-09,-428.8688033303E-03
-7.1250E-09,-451.3268073970E-03
-6.7969E-09,-482.5974459709E-03
-6.4687E-09,-498.8013223228E-03
-6.1406E-09,-517.2794269347E-03
-5.8125E-09,-540.6850261097E-03
-5.4844E-09,-556.4624846629E-03
-5.1562E-09,-574.1351334327E-03
-4.8281E-09,-592.8027570662E-03
-4.5000E-09,-605.6426707837E-03
-4.1719E-09,-621.8939268911E-03
-3.8437E-09,-639.0453983513E-03
-3.5156E-09,-646.5787794623E-03
-3.1875E-09,-657.5235029632E-03
-2.8594E-09,-670.6950749685E-03
-2.5312E-09,-677.9441775470E-03
-2.2031E-09,-687.8465464288E-03
-1.8750E-09,-696.5644214251E-03
-1.5469E-09,-701.3023969666E-03
-1.2187E-09,-707.5565246814E-03
-890.6E-12,-711.9154621796E-03
-562.5E-12,-714.2844499504E-03
-234.4E-12,-717.6957923402E-03
+93.8E-12,-720.7754764422E-03
+421.9E-12,-721.9599703276E-03
+750.0E-12,-722.9075654359E-03
+1.0781E-09,-725.8451102716E-03
+1.4063E-09,-727.2665029341E-03
+1.7344E-09,-727.2665029341E-03
+2.0625E-09,-727.2665029341E-03
+2.3906E-09,-727.2665029341E-03
+2.7188E-09,-727.2665029341E-03
+3.0469E-09,-727.2665029341E-03
+3.3750E-09,-727.2665029341E-03
+3.7031E-09,-727.2665029341E-03
+4.0313E-09,-727.2665029341E-03
+4.3594E-09,-727.2665029341E-03
+4.6875E-09,-726.6031863583E-03
+5.0156E-09,-724.0920593213E-03
+5.3438E-09,-721.9599703276E-03
+5.6719E-09,-721.9599703276E-03
+6.0000E-09,-721.9599703276E-03
+6.3281E-09,-720.4438181543E-03
+6.6563E-09,-716.6534377211E-03
+6.9844E-09,-716.6534377211E-03
+7.3125E-09,-716.6534377211E-03
+7.6406E-09,-716.6534377211E-03
+7.9688E-09,-716.6534377211E-03
+8.2969E-09,-715.1372855478E-03
+8.6250E-09,-711.3469051146E-03
+8.9531E-09,-711.3469051146E-03
+9.2813E-09,-711.3469051146E-03
+9.6094E-09,-711.3469051146E-03
+9.9375E-09,-711.3469051146E-03
+10.2656E-09,-711.3469051146E-03
+10.5938E-09,-711.3469051146E-03
+10.9219E-09,-712.8630572879E-03
+11.2500E-09,-716.6534377211E-03
+11.5781E-09,-716.6534377211E-03
+11.9063E-09,-716.6534377211E-03
+12.2344E-09,-717.6010328294E-03
+12.5625E-09,-720.5385776651E-03
+12.8906E-09,-721.9599703276E-03
+13.2188E-09,-722.8128059251E-03
+13.5469E-09,-725.6082114945E-03
+13.8750E-09,-727.2665029341E-03
+14.2031E-09,-727.2665029341E-03
+14.5313E-09,-727.2665029341E-03
+14.8594E-09,-728.7826551074E-03
+15.1875E-09,-732.5730355406E-03
+15.5156E-09,-732.5730355406E-03
+15.8438E-09,-732.5730355406E-03
+16.1719E-09,-732.5730355406E-03
+16.5000E-09,-732.5730355406E-03
+16.8281E-09,-732.5730355406E-03
+17.1563E-09,-732.5730355406E-03
+17.4844E-09,-732.5730355406E-03
+17.8125E-09,-732.5730355406E-03
+18.1406E-09,-732.5730355406E-03
+18.4688E-09,-732.5730355406E-03
+18.7969E-09,-731.0568833673E-03
+19.1250E-09,-727.2665029341E-03
+19.4531E-09,-727.2665029341E-03
+19.7813E-09,-727.2665029341E-03
+20.1094E-09,-727.2665029341E-03
+20.4375E-09,-727.2665029341E-03
+20.7656E-09,-727.2665029341E-03
+21.0938E-09,-727.2665029341E-03
+21.4219E-09,-727.2665029341E-03
+21.7500E-09,-727.2665029341E-03
+22.0781E-09,-727.2665029341E-03
+22.4063E-09,-727.2665029341E-03
+22.7344E-09,-727.2665029341E-03
+23.0625E-09,-727.2665029341E-03
+23.3906E-09,-727.2665029341E-03
+23.7188E-09,-727.2665029341E-03
+24.0469E-09,-727.2665029341E-03
+24.3750E-09,-727.2665029341E-03
+24.7031E-09,-728.1193385315E-03
+25.0313E-09,-730.9147441010E-03
+25.3594E-09,-732.5730355406E-03
+25.6875E-09,-732.5730355406E-03
+26.0156E-09,-732.5730355406E-03
+26.3438E-09,-732.5730355406E-03
+26.6719E-09,-732.5730355406E-03
+27.0000E-09,-732.5730355406E-03
+27.3281E-09,-732.5730355406E-03
+27.6563E-09,-732.5730355406E-03
+27.9844E-09,-732.5730355406E-03
+28.3125E-09,-732.5730355406E-03
+28.6406E-09,-732.5730355406E-03
+28.9688E-09,-732.5730355406E-03
+29.2969E-09,-732.5730355406E-03
+29.6250E-09,-732.5730355406E-03
+29.9531E-09,-732.5730355406E-03
+30.2813E-09,-732.5730355406E-03
+30.6094E-09,-732.5730355406E-03
+30.9375E-09,-732.5730355406E-03
+31.2656E-09,-732.5730355406E-03
+31.5938E-09,-732.5730355406E-03
+31.9219E-09,-732.5730355406E-03
+32.2500E-09,-732.5730355406E-03
+32.5781E-09,-732.5730355406E-03
+32.9063E-09,-732.5730355406E-03
+33.2344E-09,-732.5730355406E-03
+33.5625E-09,-732.5730355406E-03
+33.8906E-09,-732.5730355406E-03
+34.2188E-09,-732.5730355406E-03
+34.5469E-09,-732.5730355406E-03
+34.8750E-09,-732.5730355406E-03
+35.2031E-09,-732.5730355406E-03
+35.5313E-09,-732.5730355406E-03
+35.8594E-09,-732.5730355406E-03
+36.1875E-09,-732.5730355406E-03
+36.5156E-09,-732.5730355406E-03
+36.8438E-09,-732.5730355406E-03
+37.1719E-09,-732.5730355406E-03
+37.5000E-09,-732.5730355406E-03
+37.8281E-09,-732.5730355406E-03
+38.1563E-09,-732.5730355406E-03
+38.4844E-09,-732.5730355406E-03
+38.8125E-09,-732.5730355406E-03
+39.1406E-09,-732.5730355406E-03
+39.4688E-09,-732.5730355406E-03
+39.7969E-09,-732.5730355406E-03
+40.1250E-09,-732.5730355406E-03
+40.4531E-09,-732.5730355406E-03
+40.7813E-09,-732.5730355406E-03
+41.1094E-09,-732.5730355406E-03
+41.4375E-09,-732.5730355406E-03
+41.7656E-09,-732.5730355406E-03
+42.0938E-09,-732.5730355406E-03
+42.4219E-09,-732.5730355406E-03
+42.7500E-09,-732.5730355406E-03
+43.0781E-09,-732.5730355406E-03
+43.4063E-09,-732.5730355406E-03
+43.7344E-09,-732.5730355406E-03
+44.0625E-09,-732.5730355406E-03
+44.3906E-09,-732.5730355406E-03
+44.7188E-09,-732.5730355406E-03
+45.0469E-09,-732.5730355406E-03
+45.3750E-09,-732.5730355406E-03
+45.7031E-09,-732.5730355406E-03
+46.0313E-09,-732.5730355406E-03
+46.3594E-09,-732.5730355406E-03
+46.6875E-09,-732.5730355406E-03
+47.0156E-09,-732.5730355406E-03
+47.3438E-09,-734.0891877138E-03
+47.6719E-09,-737.8795681470E-03
+48.0000E-09,-737.8795681470E-03
+48.3281E-09,-737.8795681470E-03
+48.6563E-09,-737.8795681470E-03
+48.9844E-09,-737.8795681470E-03
+49.3125E-09,-737.8795681470E-03
+49.6406E-09,-737.8795681470E-03
+49.9688E-09,-737.8795681470E-03
+50.2969E-09,-737.8795681470E-03
+50.6250E-09,-737.8795681470E-03
+50.9531E-09,-737.8795681470E-03
+51.2813E-09,-736.3634159738E-03
+51.6094E-09,-732.5730355406E-03
+51.9375E-09,-732.5730355406E-03
+52.2656E-09,-732.5730355406E-03
+52.5938E-09,-732.5730355406E-03
+52.9219E-09,-732.5730355406E-03
+53.2500E-09,-732.5730355406E-03
+53.5781E-09,-732.5730355406E-03
+53.9063E-09,-732.5730355406E-03
+54.2344E-09,-732.5730355406E-03
+54.5625E-09,-732.5730355406E-03
+54.8906E-09,-732.5730355406E-03
+55.2188E-09,-732.5730355406E-03
+55.5469E-09,-732.5730355406E-03
+55.8750E-09,-732.5730355406E-03
+56.2031E-09,-732.5730355406E-03
+56.5313E-09,-732.5730355406E-03
+56.8594E-09,-732.5730355406E-03
+57.1875E-09,-732.5730355406E-03
+57.5156E-09,-732.5730355406E-03
+57.8438E-09,-732.5730355406E-03
+58.1719E-09,-732.5730355406E-03
+58.5000E-09,-732.5730355406E-03
+58.8281E-09,-732.5730355406E-03
+59.1563E-09,-732.5730355406E-03
+59.4844E-09,-732.5730355406E-03
+59.8125E-09,-732.5730355406E-03
+60.1406E-09,-732.5730355406E-03
+60.4688E-09,-732.5730355406E-03
+60.7969E-09,-732.5730355406E-03
+61.1250E-09,-732.5730355406E-03
+61.4531E-09,-732.5730355406E-03
+61.7813E-09,-732.5730355406E-03
+62.1094E-09,-732.5730355406E-03
+62.4375E-09,-732.5730355406E-03
+62.7656E-09,-732.5730355406E-03
+63.0938E-09,-732.5730355406E-03
+63.4219E-09,-732.5730355406E-03
+63.7500E-09,-732.5730355406E-03
+64.0781E-09,-732.5730355406E-03
+64.4063E-09,-732.5730355406E-03
+64.7344E-09,-731.7201999431E-03
+65.0625E-09,-728.9247943736E-03
+65.3906E-09,-727.2665029341E-03
+65.7188E-09,-727.2665029341E-03
+66.0469E-09,-727.2665029341E-03
+66.3750E-09,-725.7503507608E-03
+66.7031E-09,-721.9599703276E-03
+67.0313E-09,-721.9599703276E-03
+67.3594E-09,-721.9599703276E-03
+67.6875E-09,-721.2966537518E-03
+68.0156E-09,-718.7855267148E-03
+68.3438E-09,-715.1372855478E-03
+68.6719E-09,-711.3469051146E-03
+69.0000E-09,-711.3469051146E-03
+69.3281E-09,-709.8307529413E-03
+69.6563E-09,-704.8084988673E-03
+69.9844E-09,-699.9283840596E-03
+70.3125E-09,-693.9111551219E-03
+70.6406E-09,-689.5522176237E-03
+70.9688E-09,-687.1832298530E-03
+71.2969E-09,-681.7819377356E-03
+71.6250E-09,-673.1588222501E-03
+71.9531E-09,-668.5629859749E-03
+72.2813E-09,-660.5558073097E-03
+72.6094E-09,-652.0274513350E-03
+72.9375E-09,-647.5737543260E-03
+73.2656E-09,-639.5191959054E-03
+73.5938E-09,-630.7065613983E-03
+73.9219E-09,-623.4100790643E-03
+74.2500E-09,-613.0812923839E-03
+74.5781E-09,-604.4107971429E-03
+74.9063E-09,-595.3612638586E-03
+75.2344E-09,-581.4316157666E-03
+75.5625E-09,-573.0453990582E-03
+75.8906E-09,-563.5220682197E-03
+76.2188E-09,-549.6871796386E-03
+76.5469E-09,-541.4431021963E-03
+76.8750E-09,-531.6828725808E-03
+77.2031E-09,-518.0375030213E-03
+77.5313E-09,-510.0777041116E-03
+77.8594E-09,-501.3598291152E-03
+78.1875E-09,-491.5995994997E-03
+78.5156E-09,-483.7819398563E-03
+78.8438E-09,-473.3110139095E-03
+79.1719E-09,-459.9499228825E-03
+79.5000E-09,-452.4165417715E-03
+79.8281E-09,-442.9879704439E-03
+80.1563E-09,-434.1753359367E-03
+80.4844E-09,-429.2952211290E-03
+80.8125E-09,-421.7618400180E-03
+81.1406E-09,-413.0439650216E-03
+81.4688E-09,-408.3059894801E-03
+81.7969E-09,-402.0518617654E-03
+82.1250E-09,-397.2191267130E-03
+82.4531E-09,-392.6232904378E-03
+82.7813E-09,-386.1322639459E-03
+83.1094E-09,-382.3418835127E-03
+83.4375E-09,-382.3418835127E-03
+83.7656E-09,-381.3942884044E-03
+84.0938E-09,-378.4567435687E-03
+84.4219E-09,-377.0353509062E-03
+84.7500E-09,-377.0353509062E-03
+85.0781E-09,-377.0353509062E-03
+85.4063E-09,-378.5515030795E-03
+85.7344E-09,-382.3418835127E-03
+86.0625E-09,-382.3418835127E-03
+86.3906E-09,-383.8580356860E-03
+86.7188E-09,-388.5012517167E-03
+87.0469E-09,-391.2966572862E-03
+87.3750E-09,-395.9872530723E-03
+87.7031E-09,-405.1789256228E-03
+88.0313E-09,-410.6275974955E-03
+88.3594E-09,-415.6972313249E-03
+88.6875E-09,-421.0037639314E-03
+89.0156E-09,-426.3102965379E-03
+89.3438E-09,-434.6491334909E-03
+89.6719E-09,-447.4416674530E-03
+90.0000E-09,-452.6060607932E-03
+90.3281E-09,-459.6656443500E-03
+90.6563E-09,-469.2363549439E-03
+90.9844E-09,-476.7697360549E-03
+91.3125E-09,-487.7144595557E-03
+91.6406E-09,-500.8860315611E-03
+91.9688E-09,-508.1351341396E-03
+92.2969E-09,-518.0375030214E-03
+92.6250E-09,-527.3239350827E-03
+92.9531E-09,-534.4308983949E-03
+93.2813E-09,-546.0863182271E-03
+93.6094E-09,-558.9736116999E-03
+93.9375E-09,-565.7962964797E-03
+94.2656E-09,-575.3670070735E-03
+94.5938E-09,-581.3842360112E-03
+94.9219E-09,-588.5385790789E-03
+95.2500E-09,-601.8049105951E-03
+95.5781E-09,-607.6800002666E-03
+95.9063E-09,-615.0712421113E-03
+96.2344E-09,-628.2428141167E-03
+96.5625E-09,-633.9757645219E-03
+96.8906E-09,-640.0877529705E-03
+97.2188E-09,-649.3741850318E-03
+97.5469E-09,-654.9649961708E-03
+97.8750E-09,-661.3138833964E-03
+98.2031E-09,-670.5055559469E-03
+98.5313E-09,-675.9542278196E-03
+98.8594E-09,-681.0238616490E-03
+99.1875E-09,-685.5723181689E-03
+99.5156E-09,-688.2255844721E-03
+99.8438E-09,-691.6369268620E-03
+100.1719E-09,-696.1853833818E-03
+100.5000E-09,-698.8386496851E-03
+100.8281E-09,-702.2499920750E-03
+101.1563E-09,-706.0403725081E-03
+101.4844E-09,-706.0403725081E-03
+101.8125E-09,-707.5565246814E-03
+102.1406E-09,-711.3469051146E-03
+102.4688E-09,-711.3469051146E-03
+102.7969E-09,-711.3469051146E-03
+103.1250E-09,-711.9154621796E-03
+103.4531E-09,-714.2844499504E-03
+103.7813E-09,-716.6534377211E-03
+104.1094E-09,-716.6534377211E-03
+104.4375E-09,-716.6534377211E-03
+104.7656E-09,-716.6534377211E-03
+105.0938E-09,-716.6534377211E-03
+105.4219E-09,-716.6534377211E-03
+105.7500E-09,-716.6534377211E-03
+106.0781E-09,-716.6534377211E-03
+106.4063E-09,-716.6534377211E-03
+106.7344E-09,-716.6534377211E-03
+107.0625E-09,-716.6534377211E-03
+107.3906E-09,-715.1372855478E-03
+107.7188E-09,-711.3469051146E-03
+108.0469E-09,-711.3469051146E-03
+108.3750E-09,-711.3469051146E-03
+108.7031E-09,-711.3469051146E-03
+109.0313E-09,-711.3469051146E-03
+109.3594E-09,-711.3469051146E-03
+109.6875E-09,-711.3469051146E-03
+110.0156E-09,-711.3469051146E-03
+110.3438E-09,-711.3469051146E-03
+110.6719E-09,-711.3469051146E-03
+111.0000E-09,-711.3469051146E-03
+111.3281E-09,-711.3469051146E-03
+111.6563E-09,-711.3469051146E-03
+111.9844E-09,-711.3469051146E-03
+112.3125E-09,-711.3469051146E-03
+112.6406E-09,-711.3469051146E-03
+112.9688E-09,-711.3469051146E-03
+113.2969E-09,-711.3469051146E-03
+113.6250E-09,-711.3469051146E-03
+113.9531E-09,-711.3469051146E-03
+114.2813E-09,-711.3469051146E-03
+114.6094E-09,-711.3469051146E-03
+114.9375E-09,-711.3469051146E-03
+115.2656E-09,-711.3469051146E-03
+115.5938E-09,-711.3469051146E-03
+115.9219E-09,-712.8630572879E-03
+116.2500E-09,-716.6534377211E-03
+116.5781E-09,-716.6534377211E-03
+116.9063E-09,-716.6534377211E-03
+117.2344E-09,-716.6534377211E-03
+117.5625E-09,-716.6534377211E-03
+117.8906E-09,-716.6534377211E-03
+118.2188E-09,-716.6534377211E-03
+118.5469E-09,-716.6534377211E-03
+118.8750E-09,-718.1695898944E-03
+119.2031E-09,-721.9599703276E-03
+119.5313E-09,-721.9599703276E-03
+119.8594E-09,-721.9599703276E-03
+120.1875E-09,-721.9599703276E-03
+120.5156E-09,-721.9599703276E-03
+120.8438E-09,-721.9599703276E-03
+121.1719E-09,-721.9599703276E-03
+121.5000E-09,-721.9599703276E-03
+121.8281E-09,-721.9599703276E-03
+122.1563E-09,-721.9599703276E-03
+122.4844E-09,-721.9599703276E-03
+122.8125E-09,-721.9599703276E-03
+123.1406E-09,-722.6232869034E-03
+123.4688E-09,-725.1344139404E-03
+123.7969E-09,-727.2665029341E-03
+124.1250E-09,-727.2665029341E-03
+124.4531E-09,-727.2665029341E-03
+124.7813E-09,-727.2665029341E-03
+125.1094E-09,-727.2665029341E-03
+125.4375E-09,-727.2665029341E-03
+125.7656E-09,-727.2665029341E-03
+126.0938E-09,-727.2665029341E-03
+126.4219E-09,-727.2665029341E-03
+126.7500E-09,-727.2665029341E-03
+127.0781E-09,-727.2665029341E-03
+127.4063E-09,-727.2665029341E-03
+127.7344E-09,-728.2140980424E-03
+128.0625E-09,-731.1516428781E-03
+128.3906E-09,-732.5730355406E-03
+128.7188E-09,-732.5730355406E-03
+129.0469E-09,-732.5730355406E-03
+129.3750E-09,-732.5730355406E-03
+129.7031E-09,-732.5730355406E-03
+130.0313E-09,-732.5730355406E-03
+130.3594E-09,-732.5730355406E-03
+130.6875E-09,-732.5730355406E-03
+131.0156E-09,-732.5730355406E-03
+131.3438E-09,-732.5730355406E-03
+131.6719E-09,-732.5730355406E-03
