x-axis,1
second,Volt
-78.0000E-09,-1.0015645245039E+00
-77.6719E-09,-1.0015645245039E+00
-77.3438E-09,-1.0015645245039E+00
-77.0156E-09,-1.0015645245039E+00
-76.6875E-09,-1.0015645245039E+00
-76.3594E-09,-1.0015645245039E+00
-76.0313E-09,-1.0015645245039E+00
-75.7031E-09,-1.0015645245039E+00
-75.3750E-09,-1.0015645245039E+00
-75.0469E-09,-1.0015645245039E+00
-74.7187E-09,-1.0015645245039E+00
-74.3906E-09,-1.0015645245039E+00
-74.0625E-09,-1.0015645245039E+00
-73.7344E-09,-1.0015645245039E+00
-73.4062E-09,-1.0015645245039E+00
-73.0781E-09,-1.0015645245039E+00
-72.7500E-09,-1.0015645245039E+00
-72.4219E-09,-1.0015645245039E+00
-72.0937E-09,-1.0015645245039E+00
-71.7656E-09,-1.0015645245039E+00
-71.4375E-09,-1.0015645245039E+00
-71.1094E-09,-1.0015645245039E+00
-70.7812E-09,-1.0015645245039E+00
-70.4531E-09,-1.0015645245039E+00
-70.1250E-09,-1.0015645245039E+00
-69.7969E-09,-1.0015645245039E+00
-69.4687E-09,-1.0015645245039E+00
-69.1406E-09,-1.0015645245039E+00
-68.8125E-09,-1.0015645245039E+00
-68.4844E-09,-1.0015645245039E+00
-68.1562E-09,-1.0015645245039E+00
-67.8281E-09,-1.0015645245039E+00
-67.5000E-09,-1.0015645245039E+00
-67.1719E-09,-1.0015645245039E+00
-66.8437E-09,-1.0015645245039E+00
-66.5156E-09,-1.0015645245039E+00
-66.1875E-09,-1.0015645245039E+00
-65.8594E-09,-1.0015645245039E+00
-65.5312E-09,-1.0015645245039E+00
-65.2031E-09,-1.0015645245039E+00
-64.8750E-09,-1.0015645245039E+00
-64.5469E-09,-1.0015645245039E+00
-64.2187E-09,-1.0015645245039E+00
-63.8906E-09,-1.0015645245039E+00
-63.5625E-09,-1.0015645245039E+00
-63.2344E-09,-1.0015645245039E+00
-62.9062E-09,-1.0015645245039E+00
-62.5781E-09,-1.0015645245039E+00
-62.2500E-09,-1.0015645245039E+00
-61.9219E-09,-1.0015645245039E+00
-61.5937E-09,-1.0015645245039E+00
-61.2656E-09,-1.0015645245039E+00
-60.9375E-09,-1.0015645245039E+00
-60.6094E-09,-1.0015645245039E+00
-60.2812E-09,-1.0015645245039E+00
-59.9531E-09,-1.0015645245039E+00
-59.6250E-09,-1.0015645245039E+00
-59.2969E-09,-1.0015645245039E+00
-58.9687E-09,-1.0015645245039E+00
-58.6406E-09,-1.0015645245039E+00
-58.3125E-09,-1.0015645245039E+00
-57.9844E-09,-1.0015645245039E+00
-57.6562E-09,-1.0015645245039E+00
-57.3281E-09,-1.0015645245039E+00
-57.0000E-09,-1.0015645245039E+00
-56.6719E-09,-1.0015645245039E+00
-56.3437E-09,-1.0015645245039E+00
-56.0156E-09,-1.0015645245039E+00
-55.6875E-09,-1.0015645245039E+00
-55.3594E-09,-1.0015645245039E+00
-55.0312E-09,-1.0015645245039E+00
-54.7031E-09,-1.0015645245039E+00
-54.3750E-09,-1.0015645245039E+00
-54.0469E-09,-1.0015645245039E+00
-53.7187E-09,-1.0015645245039E+00
-53.3906E-09,-1.0015645245039E+00
-53.0625E-09,-1.0015645245039E+00
-52.7344E-09,-1.0015645245039E+00
-52.4062E-09,-1.0015645245039E+00
-52.0781E-09,-1.0015645245039E+00
-51.7500E-09,-1.0015645245039E+00
-51.4219E-09,-1.0015645245039E+00
-51.0937E-09,-1.0015645245039E+00
-50.7656E-09,-1.0015645245039E+00
-50.4375E-09,-1.0015645245039E+00
-50.1094E-09,-1.0015645245039E+00
-49.7812E-09,-1.0015645245039E+00
-49.4531E-09,-1.0015645245039E+00
-49.1250E-09,-1.0015645245039E+00
-48.7969E-09,-1.0015645245039E+00
-48.4687E-09,-1.0015645245039E+00
-48.1406E-09,-1.0015645245039E+00
-47.8125E-09,-1.0015645245039E+00
-47.4844E-09,-1.0015645245039E+00
-47.1562E-09,-1.0015645245039E+00
-46.8281E-09,-1.0015645245039E+00
-46.5000E-09,-1.0015645245039E+00
-46.1719E-09,-1.0015645245039E+00
-45.8437E-09,-1.0015645245039E+00
-45.5156E-09,-1.0015645245039E+00
-45.1875E-09,-1.0015645245039E+00
-44.8594E-09,-1.0015645245039E+00
-44.5312E-09,-1.0015645245039E+00
-44.2031E-09,-1.0015645245039E+00
-43.8750E-09,-1.0015645245039E+00
-43.5469E-09,-1.0015645245039E+00
-43.2187E-09,-1.0015645245039E+00
-42.8906E-09,-1.0015645245039E+00
-42.5625E-09,-1.0015645245039E+00
-42.2344E-09,-1.0015645245039E+00
-41.9062E-09,-1.0010907269498E+00
-41.5781E-09,-998.8638784453E-03
-41.2500E-09,-996.2579918974E-03
-40.9219E-09,-996.2579918974E-03
-40.5937E-09,-996.2579918974E-03
-40.2656E-09,-995.3103967891E-03
-39.9375E-09,-992.3728519534E-03
-39.6094E-09,-990.9514592910E-03
-39.2812E-09,-990.0986236935E-03
-38.9531E-09,-987.3032181240E-03
-38.6250E-09,-984.1287745112E-03
-38.2969E-09,-979.4855584805E-03
-37.9687E-09,-976.6901529110E-03
-37.6406E-09,-973.5157092982E-03
-37.3125E-09,-968.1144171809E-03
-36.9844E-09,-962.6657453082E-03
-36.6562E-09,-956.0799593055E-03
-36.3281E-09,-946.9830462658E-03
-36.0000E-09,-941.6765136593E-03
-35.6719E-09,-933.3376767063E-03
-35.3437E-09,-919.7870666576E-03
-35.0156E-09,-911.9694070141E-03
-34.6875E-09,-901.4984810674E-03
-34.3594E-09,-888.0426305295E-03
-34.0312E-09,-880.3671101523E-03
-33.7031E-09,-866.6269810819E-03
-33.3750E-09,-845.1165721235E-03
-33.0469E-09,-835.2142032418E-03
-32.7187E-09,-818.8681876236E-03
-32.3906E-09,-796.9787406218E-03
-32.0625E-09,-784.9916625018E-03
-31.7344E-09,-764.2867093855E-03
-31.4062E-09,-738.2278439072E-03
-31.0781E-09,-724.1560565490E-03
-30.7500E-09,-700.6083181077E-03
-30.4219E-09,-674.8337311619E-03
-30.0937E-09,-661.1883616024E-03
-29.7656E-09,-639.2041550898E-03
-29.4375E-09,-618.3570627072E-03
-29.1094E-09,-598.2680464112E-03
-28.7812E-09,-565.1969771316E-03
-28.4531E-09,-544.7763025477E-03
-28.1250E-09,-523.9765899205E-03
-27.7969E-09,-491.2845586841E-03
-27.4687E-09,-471.4324411652E-03
-27.1406E-09,-449.6851334297E-03
-26.8125E-09,-417.2773807259E-03
-26.4844E-09,-397.8516810057E-03
-26.1562E-09,-375.3936769390E-03
-25.8281E-09,-344.1230383651E-03
-25.5000E-09,-327.9191620131E-03
-25.1719E-09,-307.9249052280E-03
-24.8437E-09,-280.7289256198E-03
-24.5156E-09,-264.9514670666E-03
-24.1875E-09,-245.7626661235E-03
-23.8594E-09,-223.3994215676E-03
-23.5312E-09,-210.7016471164E-03
-23.2031E-09,-194.2134922319E-03
-22.8750E-09,-176.4934637067E-03
-22.5469E-09,-166.5910948250E-03
-22.2187E-09,-153.2773835534E-03
-21.8906E-09,-140.7691281238E-03
-21.5625E-09,-136.0311525823E-03
-21.2344E-09,-128.2608726942E-03
-20.9062E-09,-120.6801118278E-03
-20.5781E-09,-120.6801118278E-03
-20.2500E-09,-120.6801118278E-03
-19.9219E-09,-120.6801118278E-03
-19.5937E-09,-120.6801118278E-03
-19.2656E-09,-122.6700615553E-03
-18.9375E-09,-128.6872904930E-03
-18.6094E-09,-134.3254813874E-03
-18.2812E-09,-144.7490275787E-03
-17.9531E-09,-153.5616620859E-03
-17.6250E-09,-163.8904487663E-03
-17.2969E-09,-183.5056675082E-03
-16.9687E-09,-197.7669738881E-03
-16.6406E-09,-213.1653943980E-03
-16.3125E-09,-237.2343101488E-03
-15.9844E-09,-254.0067435657E-03
-15.6562E-09,-273.0534052426E-03
-15.3281E-09,-301.3864989807E-03
-15.0000E-09,-320.3857809022E-03
-14.6719E-09,-343.5544813001E-03
-14.3437E-09,-375.3936769390E-03
-14.0156E-09,-393.9665410617E-03
-13.6875E-09,-419.3620899641E-03
-13.3594E-09,-454.6126279929E-03
-13.0312E-09,-472.6169350506E-03
-12.7031E-09,-498.9600790614E-03
-12.3750E-09,-534.4948956226E-03
-12.0469E-09,-554.4417726524E-03
-11.7187E-09,-582.3484485918E-03
-11.3906E-09,-613.1452896116E-03
-11.0625E-09,-630.1546218056E-03
-10.7344E-09,-656.6399050826E-03
-10.4062E-09,-687.1524675698E-03
-10.0781E-09,-703.7353819651E-03
-9.7500E-09,-729.4152094000E-03
-9.4219E-09,-755.2845558566E-03
-9.0937E-09,-769.0720646824E-03
-8.7656E-09,-788.9241822013E-03
-8.4375E-09,-803.8961849125E-03
-8.1094E-09,-818.1101115370E-03
-7.7812E-09,-841.7999892445E-03
-7.4531E-09,-856.4877134231E-03
-7.1250E-09,-869.6592854285E-03
-6.7969E-09,-888.4216685729E-03
-6.4687E-09,-899.8875693833E-03
-6.1406E-09,-910.5953941071E-03
-5.8125E-09,-924.5250421991E-03
-5.4844E-09,-932.9112589076E-03
-5.1562E-09,-942.4345897460E-03
-4.8281E-09,-955.4166427297E-03
-4.5000E-09,-960.8653146024E-03
-4.1719E-09,-967.4511006051E-03
-3.8437E-09,-975.7899375581E-03
-3.5156E-09,-978.4432038614E-03
-3.1875E-09,-981.8545462513E-03
-2.8594E-09,-986.4030027711E-03
-2.5312E-09,-989.0562690744E-03
-2.2031E-09,-990.9514592910E-03
-1.8750E-09,-991.6147758668E-03
-1.5469E-09,-994.1259029038E-03
-1.2187E-09,-996.2579918974E-03
-890.6E-12,-996.2579918974E-03
-562.5E-12,-996.2579918974E-03
-234.4E-12,-994.7418397242E-03
+93.8E-12,-990.9514592910E-03
+421.9E-12,-990.9514592910E-03
+750.0E-12,-990.9514592910E-03
+1.0781E-09,-990.4776617368E-03
+1.4063E-09,-988.2508132323E-03
+1.7344E-09,-985.6449266845E-03
+2.0625E-09,-985.6449266845E-03
+2.3906E-09,-984.1287745112E-03
+2.7188E-09,-980.3383940780E-03
+3.0469E-09,-980.3383940780E-03
+3.3750E-09,-978.8222419047E-03
+3.7031E-09,-975.0318614715E-03
+4.0313E-09,-975.0318614715E-03
+4.3594E-09,-975.0318614715E-03
+4.6875E-09,-975.0318614715E-03
+5.0156E-09,-975.0318614715E-03
+5.3438E-09,-975.0318614715E-03
+5.6719E-09,-975.0318614715E-03
+6.0000E-09,-975.0318614715E-03
+6.3281E-09,-975.0318614715E-03
+6.6563E-09,-975.0318614715E-03
+6.9844E-09,-975.0318614715E-03
+7.3125E-09,-976.5480136448E-03
+7.6406E-09,-980.3383940780E-03
+7.9688E-09,-980.3383940780E-03
+8.2969E-09,-981.8545462513E-03
+8.6250E-09,-985.6449266845E-03
+8.9531E-09,-985.6449266845E-03
+9.2813E-09,-987.1610788578E-03
+9.6094E-09,-990.9514592910E-03
+9.9375E-09,-990.9514592910E-03
+10.2656E-09,-992.4676114642E-03
+10.5938E-09,-996.2579918974E-03
+10.9219E-09,-996.2579918974E-03
+11.2500E-09,-996.2579918974E-03
+11.5781E-09,-996.2579918974E-03
+11.9063E-09,-996.2579918974E-03
+12.2344E-09,-996.2579918974E-03
+12.5625E-09,-996.2579918974E-03
+12.8906E-09,-996.2579918974E-03
+13.2188E-09,-996.2579918974E-03
+13.5469E-09,-996.2579918974E-03
+13.8750E-09,-996.2579918974E-03
+14.2031E-09,-996.2579918974E-03
+14.5313E-09,-996.2579918974E-03
+14.8594E-09,-994.7418397242E-03
+15.1875E-09,-990.9514592910E-03
+15.5156E-09,-990.9514592910E-03
+15.8438E-09,-990.9514592910E-03
+16.1719E-09,-990.9514592910E-03
+16.5000E-09,-990.9514592910E-03
+16.8281E-09,-990.9514592910E-03
+17.1563E-09,-990.9514592910E-03
+17.4844E-09,-990.9514592910E-03
+17.8125E-09,-990.9514592910E-03
+18.1406E-09,-990.9514592910E-03
+18.4688E-09,-990.9514592910E-03
+18.7969E-09,-992.4676114642E-03
+19.1250E-09,-996.2579918974E-03
+19.4531E-09,-996.2579918974E-03
+19.7813E-09,-996.2579918974E-03
+20.1094E-09,-996.2579918974E-03
+20.4375E-09,-996.2579918974E-03
+20.7656E-09,-996.2579918974E-03
+21.0938E-09,-996.8265489624E-03
+21.4219E-09,-999.1955367332E-03
+21.7500E-09,-1.0015645245039E+00
+22.0781E-09,-1.0015645245039E+00
+22.4063E-09,-1.0015645245039E+00
+22.7344E-09,-1.0015645245039E+00
+23.0625E-09,-1.0015645245039E+00
+23.3906E-09,-1.0015645245039E+00
+23.7188E-09,-1.0015645245039E+00
+24.0469E-09,-1.0015645245039E+00
+24.3750E-09,-1.0015645245039E+00
+24.7031E-09,-1.0015645245039E+00
+25.0313E-09,-1.0015645245039E+00
+25.3594E-09,-1.0015645245039E+00
+25.6875E-09,-1.0008064484173E+00
+26.0156E-09,-998.1531821140E-03
+26.3438E-09,-996.2579918974E-03
+26.6719E-09,-996.2579918974E-03
+27.0000E-09,-996.2579918974E-03
+27.3281E-09,-996.2579918974E-03
+27.6563E-09,-996.2579918974E-03
+27.9844E-09,-996.2579918974E-03
+28.3125E-09,-996.2579918974E-03
+28.6406E-09,-996.2579918974E-03
+28.9688E-09,-996.2579918974E-03
+29.2969E-09,-996.2579918974E-03
+29.6250E-09,-996.2579918974E-03
+29.9531E-09,-996.2579918974E-03
+30.2813E-09,-996.2579918974E-03
+30.6094E-09,-996.2579918974E-03
+30.9375E-09,-996.2579918974E-03
+31.2656E-09,-996.2579918974E-03
+31.5938E-09,-996.2579918974E-03
+31.9219E-09,-996.2579918974E-03
+32.2500E-09,-996.2579918974E-03
+32.5781E-09,-996.2579918974E-03
+32.9063E-09,-996.2579918974E-03
+33.2344E-09,-996.2579918974E-03
+33.5625E-09,-996.2579918974E-03
+33.8906E-09,-996.2579918974E-03
+34.2188E-09,-997.2055870057E-03
+34.5469E-09,-1.0001431318415E+00
+34.8750E-09,-1.0000483723306E+00
+35.2031E-09,-996.2579918974E-03
+35.5313E-09,-996.2579918974E-03
+35.8594E-09,-996.2579918974E-03
+36.1875E-09,-996.2579918974E-03
+36.5156E-09,-996.2579918974E-03
+36.8438E-09,-996.2579918974E-03
+37.1719E-09,-996.2579918974E-03
+37.5000E-09,-996.2579918974E-03
+37.8281E-09,-996.2579918974E-03
+38.1563E-09,-996.2579918974E-03
+38.4844E-09,-996.2579918974E-03
+38.8125E-09,-996.2579918974E-03
+39.1406E-09,-996.2579918974E-03
+39.4688E-09,-996.2579918974E-03
+39.7969E-09,-996.2579918974E-03
+40.1250E-09,-996.2579918974E-03
+40.4531E-09,-996.2579918974E-03
+40.7813E-09,-996.2579918974E-03
+41.1094E-09,-996.2579918974E-03
+41.4375E-09,-996.2579918974E-03
+41.7656E-09,-997.7741440707E-03
+42.0938E-09,-1.0015645245039E+00
+42.4219E-09,-1.0015645245039E+00
+42.7500E-09,-1.0015645245039E+00
+43.0781E-09,-1.0015645245039E+00
+43.4063E-09,-1.0015645245039E+00
+43.7344E-09,-1.0015645245039E+00
+44.0625E-09,-1.0015645245039E+00
+44.3906E-09,-1.0015645245039E+00
+44.7188E-09,-1.0015645245039E+00
+45.0469E-09,-1.0015645245039E+00
+45.3750E-09,-1.0015645245039E+00
+45.7031E-09,-1.0015645245039E+00
+46.0313E-09,-1.0015645245039E+00
+46.3594E-09,-1.0015645245039E+00
+46.6875E-09,-1.0015645245039E+00
+47.0156E-09,-1.0015645245039E+00
+47.3438E-09,-1.0000483723306E+00
+47.6719E-09,-996.2579918974E-03
+48.0000E-09,-996.2579918974E-03
+48.3281E-09,-996.2579918974E-03
+48.6563E-09,-996.2579918974E-03
+48.9844E-09,-996.2579918974E-03
+49.3125E-09,-996.2579918974E-03
+49.6406E-09,-996.2579918974E-03
+49.9688E-09,-996.2579918974E-03
+50.2969E-09,-996.2579918974E-03
+50.6250E-09,-996.2579918974E-03
+50.9531E-09,-996.2579918974E-03
+51.2813E-09,-997.7741440707E-03
+51.6094E-09,-1.0015645245039E+00
+51.9375E-09,-1.0015645245039E+00
+52.2656E-09,-1.0015645245039E+00
+52.5938E-09,-1.0015645245039E+00
+52.9219E-09,-1.0015645245039E+00
+53.2500E-09,-1.0015645245039E+00
+53.5781E-09,-1.0015645245039E+00
+53.9063E-09,-1.0015645245039E+00
+54.2344E-09,-1.0015645245039E+00
+54.5625E-09,-1.0015645245039E+00
+54.8906E-09,-1.0015645245039E+00
+55.2188E-09,-1.0015645245039E+00
+55.5469E-09,-1.0015645245039E+00
+55.8750E-09,-1.0015645245039E+00
+56.2031E-09,-1.0015645245039E+00
+56.5313E-09,-1.0015645245039E+00
+56.8594E-09,-1.0000483723306E+00
+57.1875E-09,-996.2579918974E-03
+57.5156E-09,-996.2579918974E-03
+57.8438E-09,-996.2579918974E-03
+58.1719E-09,-996.2579918974E-03
+58.5000E-09,-996.2579918974E-03
+58.8281E-09,-996.2579918974E-03
+59.1563E-09,-996.2579918974E-03
+59.4844E-09,-996.2579918974E-03
+59.8125E-09,-996.2579918974E-03
+60.1406E-09,-996.2579918974E-03
+60.4688E-09,-996.2579918974E-03
+60.7969E-09,-996.2579918974E-03
+61.1250E-09,-995.6894348325E-03
+61.4531E-09,-993.3204470617E-03
+61.7813E-09,-990.9514592910E-03
+62.1094E-09,-990.3829022260E-03
+62.4375E-09,-988.0139144552E-03
+62.7656E-09,-985.6449266845E-03
+63.0938E-09,-985.1711291303E-03
+63.4219E-09,-982.9442806258E-03
+63.7500E-09,-978.8222419047E-03
+64.0781E-09,-974.5580639174E-03
+64.4063E-09,-972.3312154128E-03
+64.7344E-09,-968.7777337567E-03
+65.0625E-09,-965.8401889210E-03
+65.3906E-09,-961.3864919120E-03
+65.7188E-09,-952.0053003398E-03
+66.0469E-09,-946.2723499346E-03
+66.3750E-09,-940.1603614860E-03
+66.7031E-09,-930.8739294247E-03
+67.0313E-09,-925.2831182857E-03
+67.3594E-09,-917.4180788868E-03
+67.6875E-09,-903.5831903056E-03
+68.0156E-09,-895.3391128634E-03
+68.3438E-09,-884.0627310747E-03
+68.6719E-09,-866.5322215711E-03
+69.0000E-09,-858.4302833951E-03
+69.3281E-09,-846.9170028293E-03
+69.6563E-09,-828.0598601741E-03
+69.9844E-09,-814.9356679241E-03
+70.3125E-09,-799.1582093709E-03
+70.6406E-09,-780.5853452482E-03
+70.9688E-09,-767.8875707970E-03
+71.2969E-09,-749.8832637393E-03
+71.6250E-09,-727.0462216293E-03
+71.9531E-09,-712.1215986735E-03
+72.2813E-09,-691.5114050680E-03
+72.6094E-09,-668.9586414905E-03
+72.9375E-09,-654.4604363334E-03
+73.2656E-09,-633.1395463967E-03
+73.5938E-09,-610.8710613516E-03
+73.9219E-09,-596.7992739934E-03
+74.2500E-09,-573.2515355521E-03
+74.5781E-09,-547.4769486063E-03
+74.9063E-09,-533.8315790468E-03
+75.2344E-09,-512.7949676425E-03
+75.5625E-09,-494.8854200957E-03
+75.8906E-09,-477.7339486354E-03
+76.2188E-09,-450.3484500055E-03
+76.5469E-09,-435.8028650931E-03
+76.8750E-09,-419.3620899641E-03
+77.2031E-09,-392.2608698667E-03
+77.5313E-09,-378.1417027530E-03
+77.8594E-09,-364.0225356394E-03
+78.1875E-09,-344.6915954300E-03
+78.5156E-09,-330.8567068489E-03
+78.8438E-09,-316.2637421810E-03
+79.1719E-09,-298.7332326775E-03
+79.5000E-09,-290.6312945015E-03
+79.8281E-09,-280.6341661089E-03
+80.1563E-09,-267.8416321469E-03
+80.4844E-09,-262.6772388066E-03
+80.8125E-09,-255.6176552498E-03
+81.1406E-09,-247.3735778076E-03
+81.4688E-09,-244.8624507706E-03
+81.7969E-09,-241.2142096036E-03
+82.1250E-09,-237.4238291704E-03
+82.4531E-09,-237.4238291704E-03
+82.7813E-09,-238.9399813437E-03
+83.1094E-09,-243.3936783527E-03
+83.4375E-09,-245.9048053897E-03
+83.7656E-09,-251.0691987300E-03
+84.0938E-09,-260.3556307913E-03
+84.4219E-09,-267.4625941036E-03
+84.7500E-09,-279.1180139357E-03
+85.0781E-09,-292.5738644735E-03
+85.4063E-09,-301.7655370241E-03
+85.7344E-09,-315.6951851161E-03
+86.0625E-09,-327.7296429915E-03
+86.3906E-09,-339.0060247803E-03
+86.7188E-09,-358.9055220546E-03
+87.0469E-09,-373.5932462332E-03
+87.3750E-09,-388.2809704119E-03
+87.7031E-09,-412.6341646952E-03
+88.0313E-09,-429.8330159109E-03
+88.3594E-09,-446.6528290832E-03
+88.6875E-09,-470.7217448340E-03
+89.0156E-09,-487.4941782509E-03
+89.3438E-09,-506.5408399278E-03
+89.6719E-09,-534.1158575793E-03
+90.0000E-09,-550.4618731975E-03
+90.3281E-09,-570.2192312056E-03
+90.6563E-09,-597.5099703246E-03
+90.9844E-09,-613.4295681441E-03
+91.3125E-09,-632.3814703101E-03
+91.6406E-09,-655.5975504635E-03
+91.9688E-09,-671.0907304842E-03
+92.2969E-09,-690.7533289814E-03
+92.6250E-09,-713.0218140265E-03
+92.9531E-09,-725.5774492114E-03
+93.2813E-09,-743.8186550462E-03
+93.6094E-09,-765.8028615588E-03
+93.9375E-09,-777.9320789450E-03
+94.2656E-09,-795.3678289378E-03
+94.5938E-09,-812.8035789305E-03
+94.9219E-09,-822.2795300135E-03
+95.2500E-09,-837.8200897896E-03
+95.5781E-09,-854.5925232065E-03
+95.9063E-09,-861.5573472525E-03
+96.2344E-09,-871.9335136884E-03
+96.5625E-09,-881.0304267281E-03
+96.8906E-09,-887.8531115079E-03
+97.2188E-09,-897.3290625909E-03
+97.5469E-09,-903.2041522623E-03
+97.8750E-09,-909.0792419338E-03
+98.2031E-09,-918.4604335060E-03
+98.5313E-09,-924.1933839112E-03
+98.8594E-09,-928.7892201865E-03
+99.1875E-09,-934.2852718146E-03
+99.5156E-09,-939.8760829536E-03
+99.8438E-09,-943.1926658326E-03
+100.1719E-09,-944.0455014301E-03
+100.5000E-09,-946.8409069996E-03
+100.8281E-09,-948.4991984391E-03
+101.1563E-09,-949.2572745257E-03
+101.4844E-09,-951.9105408290E-03
+101.8125E-09,-953.8057310456E-03
+102.1406E-09,-953.8057310456E-03
+102.4688E-09,-953.8057310456E-03
+102.7969E-09,-953.8057310456E-03
+103.1250E-09,-953.8057310456E-03
+103.4531E-09,-953.8057310456E-03
+103.7813E-09,-952.2895788723E-03
+104.1094E-09,-948.4991984391E-03
+104.4375E-09,-948.4991984391E-03
+104.7656E-09,-948.4991984391E-03
+105.0938E-09,-948.0254008849E-03
+105.4219E-09,-945.7985523804E-03
+105.7500E-09,-943.1926658326E-03
+106.0781E-09,-943.1926658326E-03
+106.4063E-09,-943.1926658326E-03
+106.7344E-09,-943.1926658326E-03
+107.0625E-09,-943.1926658326E-03
+107.3906E-09,-943.1926658326E-03
+107.7188E-09,-943.1926658326E-03
+108.0469E-09,-943.1926658326E-03
+108.3750E-09,-943.1926658326E-03
+108.7031E-09,-943.1926658326E-03
+109.0313E-09,-943.1926658326E-03
+109.3594E-09,-943.1926658326E-03
+109.6875E-09,-943.1926658326E-03
+110.0156E-09,-943.1926658326E-03
+110.3438E-09,-943.1926658326E-03
+110.6719E-09,-944.0455014301E-03
+111.0000E-09,-946.8409069996E-03
+111.3281E-09,-948.4991984391E-03
+111.6563E-09,-948.4991984391E-03
+111.9844E-09,-948.4991984391E-03
+112.3125E-09,-950.0153506124E-03
+112.6406E-09,-953.8057310456E-03
+112.9688E-09,-953.8057310456E-03
+113.2969E-09,-953.8057310456E-03
+113.6250E-09,-954.4690476214E-03
+113.9531E-09,-956.9801746584E-03
+114.2813E-09,-959.1122636521E-03
+114.6094E-09,-959.1122636521E-03
+114.9375E-09,-959.1122636521E-03
+115.2656E-09,-959.1122636521E-03
+115.5938E-09,-959.6808207170E-03
+115.9219E-09,-962.0498084878E-03
+116.2500E-09,-964.4187962585E-03
+116.5781E-09,-964.4187962585E-03
+116.9063E-09,-964.4187962585E-03
+117.2344E-09,-964.4187962585E-03
+117.5625E-09,-964.4187962585E-03
+117.8906E-09,-964.4187962585E-03
+118.2188E-09,-964.4187962585E-03
+118.5469E-09,-964.4187962585E-03
+118.8750E-09,-965.9349484318E-03
+119.2031E-09,-969.7253288650E-03
+119.5313E-09,-969.7253288650E-03
+119.8594E-09,-969.7253288650E-03
+120.1875E-09,-970.5781644625E-03
+120.5156E-09,-973.3735700320E-03
+120.8438E-09,-975.0318614715E-03
+121.1719E-09,-975.0318614715E-03
+121.5000E-09,-975.0318614715E-03
+121.8281E-09,-976.5480136448E-03
+122.1563E-09,-980.3383940780E-03
+122.4844E-09,-980.3383940780E-03
+122.8125E-09,-981.8545462513E-03
+123.1406E-09,-985.6449266845E-03
+123.4688E-09,-985.6449266845E-03
+123.7969E-09,-985.6449266845E-03
+124.1250E-09,-985.6449266845E-03
+124.4531E-09,-985.6449266845E-03
+124.7813E-09,-985.6449266845E-03
+125.1094E-09,-986.3082432603E-03
+125.4375E-09,-988.8193702973E-03
+125.7656E-09,-990.9514592910E-03
+126.0938E-09,-990.9514592910E-03
+126.4219E-09,-990.9514592910E-03
+126.7500E-09,-990.9514592910E-03
+127.0781E-09,-990.9514592910E-03
+127.4063E-09,-990.9514592910E-03
+127.7344E-09,-990.0038641826E-03
+128.0625E-09,-987.0663193469E-03
+128.3906E-09,-985.6449266845E-03
+128.7188E-09,-985.6449266845E-03
+129.0469E-09,-985.6449266845E-03
+129.3750E-09,-985.6449266845E-03
+129.7031E-09,-985.6449266845E-03
+130.0313E-09,-985.6449266845E-03
+130.3594E-09,-985.6449266845E-03
+130.6875E-09,-986.4977622820E-03
+131.0156E-09,-989.2931678514E-03
+131.3438E-09,-990.9514592910E-03
+131.6719E-09,-990.9514592910E-03
