ANALOG
Ch 1 Scale 200mV/, Pos 37.500mV, Coup AC, BW Limit Off, Inv Off, Imp 1M Ohm
     Probe 1.0000000 : 1, Skew 0.0s

TRIGGER
Sweep Mode Auto, Coup DC, Noise Rej Off, HF Rej Off, Holdoff 40.0ns
Mode Edge, Source Ch 1, Slope Rising, Level -1.16250V

HORIZONTAL
Mode Normal, Ref Center, Main Scale 50.00ms/, Main Delay 0.0s

ACQUISITION
Mode Normal, Realtime On, Vectors On, Persistence Off

MEASUREMENTS
Frequency(1), Cur 500Hz
Pk-Pk(1), Cur 740mV
Std Dev(1), Cur 209.90mV

