x-axis,1,2
second,Volt,Volt
-110.0000E-06,+998.5929541E-03,+1.0203014966E+00
-109.5900E-06,+1.0020818270E+00,+1.0203014966E+00
-109.1800E-06,+1.0098348779E+00,+1.0199138441E+00
-108.7700E-06,+1.0175879288E+00,+1.0284422000E+00
-108.3600E-06,+1.0102225305E+00,+1.0261162848E+00
-107.9500E-06,+1.0094472254E+00,+1.0203014966E+00
-107.5400E-06,+1.0191385390E+00,+1.0203014966E+00
-107.1300E-06,+1.0226274119E+00,+1.0311557679E+00
-106.7200E-06,+1.0020818270E+00,+1.0276668950E+00
-106.3100E-06,+998.9806067E-03,+1.0206891492E+00
-105.9000E-06,+1.0094472254E+00,+1.0284422000E+00
-105.4900E-06,+1.0036324372E+00,+1.0203014966E+00
-105.0800E-06,+1.0024694796E+00,+1.0203014966E+00
-104.6700E-06,+1.0106101830E+00,+1.0214644542E+00
-104.2600E-06,+1.0028571321E+00,+1.0203014966E+00
-103.8500E-06,+1.0129360983E+00,+1.0203014966E+00
-103.4400E-06,+1.0094472254E+00,+1.0203014966E+00
-103.0300E-06,+1.0175879288E+00,+1.0311557679E+00
-102.6200E-06,+1.0203014966E+00,+1.0203014966E+00
-102.2100E-06,+1.0094472254E+00,+1.0203014966E+00
-101.8000E-06,+1.0082842677E+00,+1.0203014966E+00
-101.3900E-06,+1.0094472254E+00,+1.0203014966E+00
-100.9800E-06,+998.5929541E-03,+1.0203014966E+00
-100.5700E-06,+1.0090595728E+00,+1.0098348779E+00
-100.1600E-06,+1.0175879288E+00,+1.0203014966E+00
-99.7500E-06,+1.0094472254E+00,+1.0203014966E+00
-99.3400E-06,+1.0113854881E+00,+1.0292175051E+00
-98.9300E-06,+1.0094472254E+00,+1.0203014966E+00
-98.5200E-06,+1.0117731406E+00,+1.0203014966E+00
-98.1100E-06,+998.5929541E-03,+1.0237903695E+00
-97.7000E-06,+998.5929541E-03,+1.0311557679E+00
-97.2900E-06,+1.0013065219E+00,+1.0203014966E+00
-96.8800E-06,+1.0044077423E+00,+1.0253409797E+00
-96.4700E-06,+1.0024694796E+00,+1.0292175051E+00
-96.0600E-06,+1.0009188694E+00,+1.0203014966E+00
-95.6500E-06,+1.0137114034E+00,+1.0203014966E+00
-95.2400E-06,+1.0020818270E+00,+1.0276668950E+00
-94.8300E-06,+1.0090595728E+00,+1.0307681153E+00
-94.4200E-06,+1.0203014966E+00,+1.0284422000E+00
-94.0100E-06,+998.5929541E-03,+1.0253409797E+00
-93.6000E-06,+1.0113854881E+00,+1.0292175051E+00
-93.1900E-06,+1.0094472254E+00,+1.0203014966E+00
-92.7800E-06,+1.0071213101E+00,+1.0203014966E+00
-92.3700E-06,+1.0168126237E+00,+1.0237903695E+00
-91.9600E-06,+1.0094472254E+00,+1.0206891492E+00
-91.5500E-06,+1.0067336576E+00,+1.0230150644E+00
-91.1400E-06,+997.8176490E-03,+1.0203014966E+00
-90.7300E-06,+1.0094472254E+00,+1.0203014966E+00
-90.3200E-06,+1.0191385390E+00,+1.0203014966E+00
-89.9100E-06,+1.0051830474E+00,+1.0311557679E+00
-89.5000E-06,+1.0055706999E+00,+1.0237903695E+00
-89.0900E-06,+1.0199138441E+00,+1.0311557679E+00
-88.6800E-06,+1.0121607932E+00,+1.0284422000E+00
-88.2700E-06,+1.0036324372E+00,+1.0261162848E+00
-87.8600E-06,+1.0183632339E+00,+1.0292175051E+00
-87.4500E-06,+1.0094472254E+00,+1.0299928102E+00
-87.0400E-06,+1.0094472254E+00,+1.0203014966E+00
-86.6300E-06,+1.0168126237E+00,+1.0237903695E+00
-86.2200E-06,+1.0094472254E+00,+1.0311557679E+00
-85.8100E-06,+1.0175879288E+00,+1.0230150644E+00
-85.4000E-06,+1.0144867084E+00,+1.0203014966E+00
-84.9900E-06,+1.0113854881E+00,+1.0203014966E+00
-84.5800E-06,+1.0191385390E+00,+1.0311557679E+00
-84.1700E-06,+1.0160373186E+00,+1.0245656746E+00
-83.7600E-06,+1.0133237508E+00,+1.0276668950E+00
-83.3500E-06,+1.0094472254E+00,+1.0206891492E+00
-82.9400E-06,+1.0203014966E+00,+1.0311557679E+00
-82.5300E-06,+1.0044077423E+00,+1.0261162848E+00
-82.1200E-06,+1.0272792424E+00,+1.0311557679E+00
-81.7100E-06,+1.0094472254E+00,+1.0214644542E+00
-81.3000E-06,+1.0071213101E+00,+1.0311557679E+00
-80.8900E-06,+1.0055706999E+00,+1.0237903695E+00
-80.4800E-06,+1.0098348779E+00,+1.0206891492E+00
-80.0700E-06,+1.0094472254E+00,+1.0311557679E+00
-79.6600E-06,+1.0094472254E+00,+1.0203014966E+00
-79.2500E-06,+1.0164249712E+00,+1.0311557679E+00
-78.8400E-06,+1.0094472254E+00,+1.0299928102E+00
-78.4300E-06,+1.0094472254E+00,+1.0245656746E+00
-78.0200E-06,+1.0168126237E+00,+1.0276668950E+00
-77.6100E-06,+1.0098348779E+00,+1.0203014966E+00
-77.2000E-06,+1.0094472254E+00,+1.0230150644E+00
-76.7900E-06,+1.0144867084E+00,+1.0253409797E+00
-76.3800E-06,+1.0113854881E+00,+1.0222397593E+00
-75.9700E-06,+1.0106101830E+00,+1.0299928102E+00
-75.5600E-06,+1.0203014966E+00,+1.0268915899E+00
-75.1500E-06,+1.0024694796E+00,+1.0311557679E+00
-74.7400E-06,+1.0094472254E+00,+1.0206891492E+00
-74.3300E-06,+1.0013065219E+00,+1.0284422000E+00
-73.9200E-06,+1.0094472254E+00,+1.0311557679E+00
-73.5100E-06,+1.0094472254E+00,+1.0203014966E+00
-73.1000E-06,+1.0094472254E+00,+1.0203014966E+00
-72.6900E-06,+1.0137114034E+00,+1.0245656746E+00
-72.2800E-06,+1.0168126237E+00,+1.0237903695E+00
-71.8700E-06,+999.3682592E-03,+1.0311557679E+00
-71.4600E-06,+1.0175879288E+00,+1.0203014966E+00
-71.0500E-06,+1.0152620135E+00,+1.0203014966E+00
-70.6400E-06,+1.0094472254E+00,+1.0203014966E+00
-70.2300E-06,+1.0094472254E+00,+1.0203014966E+00
-69.8200E-06,+1.0203014966E+00,+1.0203014966E+00
-69.4100E-06,+998.5929541E-03,+1.0237903695E+00
-69.0000E-06,+1.0094472254E+00,+1.0307681153E+00
-68.5900E-06,+1.0094472254E+00,-998.5929541E-03
-68.1800E-06,+998.5929541E-03,-1.0044077423E+00
-67.7700E-06,+989.6769456E-03,-989.6769456E-03
-67.3600E-06,+976.8844116E-03,-998.5929541E-03
-66.9500E-06,+972.6202337E-03,-998.5929541E-03
-66.5400E-06,+951.6869963E-03,-1.0094472254E+00
-66.1300E-06,+945.0969030E-03,-998.5929541E-03
-65.7200E-06,+944.3215979E-03,-1.0013065219E+00
-65.3100E-06,+939.2821149E-03,-1.0044077423E+00
-64.9000E-06,+933.4673267E-03,-1.0075089626E+00
-64.4900E-06,+922.6130554E-03,-999.7559118E-03
-64.0800E-06,+907.4946062E-03,-1.0051830474E+00
-63.6700E-06,+911.7587842E-03,-1.0059583525E+00
-63.2600E-06,+900.9045130E-03,-1.0090595728E+00
-62.8500E-06,+879.1959705E-03,-1.0094472254E+00
-62.4400E-06,+884.2354536E-03,-1.0094472254E+00
-62.0300E-06,+861.3639534E-03,-998.5929541E-03
-61.6200E-06,+859.8133433E-03,-1.0094472254E+00
-61.2100E-06,+855.1615127E-03,-1.0028571321E+00
-60.8000E-06,+850.5096822E-03,-1.0094472254E+00
-60.3900E-06,+846.6331568E-03,-998.5929541E-03
-59.9800E-06,+830.3517499E-03,-1.0013065219E+00
-59.5700E-06,+846.6331568E-03,-1.0094472254E+00
-59.1600E-06,+824.9246143E-03,-1.0094472254E+00
-58.7500E-06,+814.0703430E-03,-1.0094472254E+00
-58.3400E-06,+809.8061651E-03,-998.5929541E-03
-57.9300E-06,+806.7049447E-03,-1.0020818270E+00
-57.5200E-06,+792.3618006E-03,-1.0094472254E+00
-57.1100E-06,+776.0803937E-03,-1.0094472254E+00
-56.7000E-06,+770.6532581E-03,-1.0094472254E+00
-56.2900E-06,+770.6532581E-03,-1.0183632339E+00
-55.8800E-06,+759.7989868E-03,-999.7559118E-03
-55.4700E-06,+759.7989868E-03,-1.0094472254E+00
-55.0600E-06,+745.0681902E-03,-1.0094472254E+00
-54.6500E-06,+738.4780969E-03,-998.9806067E-03
-54.2400E-06,+738.0904444E-03,-1.0094472254E+00
-53.8300E-06,+721.4213850E-03,-1.0094472254E+00
-53.4200E-06,+725.2979104E-03,-1.0094472254E+00
-53.0100E-06,+716.3819019E-03,-1.0094472254E+00
-52.6000E-06,+698.9375374E-03,-1.0094472254E+00
-52.1900E-06,+705.5276306E-03,-1.0094472254E+00
-51.7800E-06,+695.0610119E-03,-1.0094472254E+00
-51.3700E-06,+667.5376813E-03,-1.0094472254E+00
-50.9600E-06,+672.9648169E-03,-1.0044077423E+00
-50.5500E-06,+662.1105457E-03,-1.0024694796E+00
-50.1400E-06,+652.4192321E-03,-1.0094472254E+00
-49.7300E-06,+646.9920964E-03,-1.0094472254E+00
-49.3200E-06,+655.1327999E-03,-1.0094472254E+00
-48.9100E-06,+640.0143506E-03,-1.0094472254E+00
-48.5000E-06,+640.4020032E-03,-1.0094472254E+00
-48.0900E-06,+623.7329438E-03,-1.0094472254E+00
-47.6800E-06,+618.6934607E-03,-1.0075089626E+00
-47.2700E-06,+618.6934607E-03,-1.0082842677E+00
-46.8600E-06,+614.4292827E-03,-1.0203014966E+00
-46.4500E-06,+596.9849182E-03,-1.0094472254E+00
-46.0400E-06,+586.5182995E-03,-1.0094472254E+00
-45.6300E-06,+586.1306470E-03,-1.0094472254E+00
-45.2200E-06,+575.2763757E-03,-1.0094472254E+00
-44.8100E-06,+575.2763757E-03,-1.0094472254E+00
-44.4000E-06,+564.4221045E-03,-1.0106101830E+00
-43.9900E-06,+553.5678333E-03,-1.0203014966E+00
-43.5800E-06,+553.5678333E-03,-1.0168126237E+00
-43.1700E-06,+553.1801807E-03,-1.0098348779E+00
-42.7600E-06,+539.9999942E-03,-1.0094472254E+00
-42.3500E-06,+537.6740790E-03,-1.0152620135E+00
-41.9400E-06,+527.9827653E-03,-1.0113854881E+00
-41.5300E-06,+521.0050195E-03,-1.0094472254E+00
-41.1200E-06,+510.1507483E-03,-1.0094472254E+00
-40.7100E-06,+506.6618754E-03,-1.0094472254E+00
-40.3000E-06,+498.9088245E-03,-1.0203014966E+00
-39.8900E-06,+499.2964771E-03,-1.0094472254E+00
-39.4800E-06,+493.4816889E-03,-1.0144867084E+00
-39.0700E-06,+488.4422058E-03,-1.0094472254E+00
-38.6600E-06,+478.7508922E-03,-1.0191385390E+00
-38.2500E-06,+462.4694854E-03,-1.0137114034E+00
-37.8400E-06,+470.2225362E-03,-1.0094472254E+00
-37.4300E-06,+466.7336633E-03,-1.0094472254E+00
-37.0200E-06,+453.1658243E-03,-1.0175879288E+00
-36.6100E-06,+450.8399090E-03,-1.0144867084E+00
-36.2000E-06,+443.0868581E-03,-1.0183632339E+00
-35.7900E-06,+424.4795360E-03,-1.0203014966E+00
-35.3800E-06,+427.5807564E-03,-1.0137114034E+00
-34.9700E-06,+423.3165784E-03,-1.0094472254E+00
-34.5600E-06,+401.6080359E-03,-1.0094472254E+00
-34.1500E-06,+412.4623071E-03,-1.0175879288E+00
-33.7400E-06,+406.6475190E-03,-1.0152620135E+00
-33.3300E-06,+401.6080359E-03,-1.0113854881E+00
-32.9200E-06,+400.4450783E-03,-1.0191385390E+00
-32.5100E-06,+397.3438579E-03,-1.0160373186E+00
-32.1000E-06,+379.8994934E-03,-1.0094472254E+00
-31.6900E-06,+369.8205273E-03,-1.0203014966E+00
-31.2800E-06,+379.8994934E-03,-1.0094472254E+00
-30.8700E-06,+364.0057391E-03,-1.0152620135E+00
-30.4600E-06,+369.0452222E-03,-1.0183632339E+00
-30.0500E-06,+348.4996373E-03,-1.0191385390E+00
-29.6400E-06,+351.9885102E-03,-1.0160373186E+00
-29.2300E-06,+343.8478068E-03,-1.0094472254E+00
-28.8200E-06,+336.8700610E-03,-1.0199138441E+00
-28.4100E-06,+328.3417050E-03,-1.0175879288E+00
-28.0000E-06,+320.5886541E-03,-1.0203014966E+00
-27.5900E-06,+316.7121287E-03,-1.0183632339E+00
-27.1800E-06,+314.7738660E-03,-999.7559118E-03
-26.7700E-06,+303.9195947E-03,-1.0137114034E+00
-26.3600E-06,+303.9195947E-03,-1.0203014966E+00
-25.9500E-06,+293.0653235E-03,-1.0199138441E+00
-25.5400E-06,+287.6381879E-03,-1.0203014966E+00
-25.1300E-06,+292.2900184E-03,-1.0144867084E+00
-24.7200E-06,+273.2950437E-03,-1.0203014966E+00
-24.3100E-06,+271.3567810E-03,-1.0203014966E+00
-23.9000E-06,+282.2110523E-03,-1.0203014966E+00
-23.4900E-06,+267.8679081E-03,-1.0129360983E+00
-23.0800E-06,+260.1148572E-03,-1.0094472254E+00
-22.6700E-06,+257.7889420E-03,-1.0203014966E+00
-22.2600E-06,+243.8334504E-03,-1.0203014966E+00
-21.8500E-06,+238.7939673E-03,-1.0203014966E+00
-21.4400E-06,+238.7939673E-03,-1.0203014966E+00
-21.0300E-06,+229.8779588E-03,-1.0160373186E+00
-20.6200E-06,+220.5742977E-03,-1.0203014966E+00
-20.2100E-06,+238.0186622E-03,-1.0203014966E+00
-19.8000E-06,+230.6532639E-03,-1.0284422000E+00
-19.3900E-06,+222.9002130E-03,-1.0152620135E+00
-18.9800E-06,+206.2311536E-03,-1.0272792424E+00
-18.5700E-06,+206.2311536E-03,-1.0203014966E+00
-18.1600E-06,+195.3768823E-03,-1.0203014966E+00
-17.7500E-06,+188.0114840E-03,-1.0241780221E+00
-17.3400E-06,+184.5226111E-03,-1.0203014966E+00
-16.9300E-06,+168.2412042E-03,-1.0203014966E+00
-16.5200E-06,+167.8535517E-03,-1.0203014966E+00
-16.1100E-06,+164.7523313E-03,-1.0203014966E+00
-15.7000E-06,+163.9770262E-03,-1.0191385390E+00
-15.2900E-06,+162.8140686E-03,-1.0203014966E+00
-14.8800E-06,+155.8363228E-03,-1.0094472254E+00
-14.4700E-06,+162.4264161E-03,-1.0199138441E+00
-14.0600E-06,+162.8140686E-03,-1.0175879288E+00
-13.6500E-06,+141.1055261E-03,-1.0203014966E+00
-13.2400E-06,+139.1672634E-03,-1.0094472254E+00
-12.8300E-06,+131.4142125E-03,-1.0203014966E+00
-12.4200E-06,+119.3969836E-03,-1.0203014966E+00
-12.0100E-06,+119.3969836E-03,-1.0168126237E+00
-11.6000E-06,+130.2512549E-03,-1.0098348779E+00
-11.1900E-06,+103.1155768E-03,-1.0175879288E+00
-10.7800E-06,+107.7674073E-03,-1.0210768017E+00
-10.3700E-06,+106.6044497E-03,-1.0203014966E+00
-9.9600E-06,+97.6884412E-03,-1.0203014966E+00
-9.5500E-06,+97.6884412E-03,-1.0160373186E+00
-9.1400E-06,+86.8341699E-03,-1.0129360983E+00
-8.7300E-06,+76.3675512E-03,-1.0203014966E+00
-8.3200E-06,+84.1206021E-03,-1.0203014966E+00
-7.9100E-06,+81.0193818E-03,-1.0152620135E+00
-7.5000E-06,+67.0638902E-03,-1.0183632339E+00
-7.0900E-06,+65.1256274E-03,-1.0106101830E+00
-6.6800E-06,+51.9454409E-03,-1.0245656746E+00
-6.2700E-06,+46.9059579E-03,-1.0129360983E+00
-5.8600E-06,+54.6590087E-03,-1.0098348779E+00
-5.4500E-06,+51.5577884E-03,-1.0284422000E+00
-5.0400E-06,+49.2318731E-03,-1.0203014966E+00
-4.6300E-06,+43.4170850E-03,-1.0203014966E+00
-4.2200E-06,+43.4170850E-03,-1.0203014966E+00
-3.8100E-06,+39.1529070E-03,-1.0094472254E+00
-3.4000E-06,+25.1974154E-03,-1.0203014966E+00
-2.9900E-06,+32.1751612E-03,-1.0203014966E+00
-2.5800E-06,+29.8492459E-03,-1.0203014966E+00
-2.1700E-06,+10.8542712E-03,-1.0203014966E+00
-1.7600E-06,+17.8320170E-03,-1.0203014966E+00
-1.3500E-06,+10.8542712E-03,-1.0203014966E+00
-940.0E-09,+4.2641780E-03,-1.0160373186E+00
-530.0E-09,-3.4888729E-03,-1.0203014966E+00
-120.0E-09,+0.0E+00,-1.0094472254E+00
+290.0E-09,-13.5678391E-03,-1.0203014966E+00
+700.0E-09,-15.8937543E-03,-1.0203014966E+00
+1.1100E-06,-10.8542712E-03,-1.0222397593E+00
+1.5200E-06,-12.0172289E-03,-1.0191385390E+00
+1.9300E-06,-19.3826272E-03,-1.0268915899E+00
+2.3400E-06,-43.4170850E-03,-1.0203014966E+00
+2.7500E-06,-32.5628137E-03,-1.0098348779E+00
+3.1600E-06,-35.2763815E-03,-1.0175879288E+00
+3.5700E-06,-43.4170850E-03,-1.0203014966E+00
+3.9800E-06,-59.3108393E-03,-1.0183632339E+00
+4.3900E-06,-53.1083986E-03,-1.0106101830E+00
+4.8000E-06,-50.0071782E-03,-1.0203014966E+00
+5.2100E-06,-46.9059579E-03,-1.0203014966E+00
+5.6200E-06,-64.7379749E-03,-1.0203014966E+00
+6.0300E-06,-59.6984918E-03,-1.0203014966E+00
+6.4400E-06,-70.9404156E-03,-1.0152620135E+00
+6.8500E-06,-67.0638902E-03,-1.0183632339E+00
+7.2600E-06,-75.9798987E-03,-1.0106101830E+00
+7.6700E-06,-80.2440767E-03,-1.0203014966E+00
+8.0800E-06,-86.8341699E-03,-1.0203014966E+00
+8.4900E-06,-76.3675512E-03,-1.0094472254E+00
+8.9000E-06,-78.6934665E-03,-1.0175879288E+00
+9.3100E-06,-86.8341699E-03,-1.0195261915E+00
+9.7200E-06,-97.6884412E-03,-1.0183632339E+00
+10.1300E-06,-97.6884412E-03,-1.0203014966E+00
+10.5400E-06,-108.5427124E-03,-1.0203014966E+00
+10.9500E-06,-108.5427124E-03,-1.0203014966E+00
+11.3600E-06,-119.0093311E-03,-1.0203014966E+00
+11.7700E-06,-119.3969836E-03,-1.0230150644E+00
+12.1800E-06,-119.3969836E-03,-1.0203014966E+00
+12.5900E-06,-130.2512549E-03,-1.0203014966E+00
+13.0000E-06,-121.7228989E-03,-1.0191385390E+00
+13.4100E-06,-136.8413481E-03,-1.0203014966E+00
+13.8200E-06,-137.6166532E-03,-1.0203014966E+00
+14.2300E-06,-141.1055261E-03,-1.0203014966E+00
+14.6400E-06,-141.1055261E-03,-1.0203014966E+00
+15.0500E-06,-146.9203143E-03,-1.0203014966E+00
+15.4600E-06,-141.1055261E-03,-1.0203014966E+00
+15.8700E-06,-141.1055261E-03,-1.0106101830E+00
+16.2800E-06,-169.4041619E-03,-1.0094472254E+00
+16.6900E-06,-166.6905941E-03,-1.0237903695E+00
+17.1000E-06,-162.4264161E-03,-1.0203014966E+00
+17.5100E-06,-170.9547720E-03,-1.0121607932E+00
+17.9200E-06,-167.8535517E-03,-1.0253409797E+00
+18.3300E-06,-175.6066026E-03,-1.0203014966E+00
+18.7400E-06,-163.9770262E-03,-1.0299928102E+00
+19.1500E-06,-184.5226111E-03,-1.0160373186E+00
+19.5600E-06,-188.0114840E-03,-1.0203014966E+00
+19.9700E-06,-184.5226111E-03,-1.0203014966E+00
+20.3800E-06,-181.8090433E-03,-1.0203014966E+00
+20.7900E-06,-195.3768823E-03,-1.0203014966E+00
+21.2000E-06,-186.4608738E-03,-1.0203014966E+00
+21.6100E-06,-215.9224672E-03,-1.0203014966E+00
+22.0200E-06,-212.8212468E-03,-1.0203014966E+00
+22.4300E-06,-206.2311536E-03,-1.0203014966E+00
+22.8400E-06,-206.6188061E-03,-1.0098348779E+00
+23.2500E-06,-217.0854248E-03,-1.0203014966E+00
+23.6600E-06,-222.9002130E-03,-1.0203014966E+00
+24.0700E-06,-217.0854248E-03,-1.0203014966E+00
+24.4800E-06,-229.1026537E-03,-1.0203014966E+00
+24.8900E-06,-223.6755181E-03,-1.0245656746E+00
+25.3000E-06,-227.9396961E-03,-1.0237903695E+00
+25.7100E-06,-238.7939673E-03,-1.0203014966E+00
+26.1200E-06,-249.6482385E-03,-1.0203014966E+00
+26.5300E-06,-238.0186622E-03,-1.0203014966E+00
+26.9400E-06,-238.7939673E-03,-1.0203014966E+00
+27.3500E-06,-249.6482385E-03,-1.0203014966E+00
+27.7600E-06,-256.2383318E-03,-1.0203014966E+00
+28.1700E-06,-260.5025098E-03,-1.0168126237E+00
+28.5800E-06,-260.8901623E-03,-1.0203014966E+00
+28.9900E-06,-260.5025098E-03,-1.0203014966E+00
+29.4000E-06,-266.3172979E-03,-1.0203014966E+00
+29.8100E-06,-262.4407725E-03,-1.0203014966E+00
+30.2200E-06,-260.5025098E-03,-1.0203014966E+00
+30.6300E-06,-271.3567810E-03,-1.0203014966E+00
+31.0400E-06,-285.6999252E-03,-1.0203014966E+00
+31.4500E-06,-282.2110523E-03,-1.0203014966E+00
+31.8600E-06,-282.2110523E-03,-1.0203014966E+00
+32.2700E-06,-281.4357472E-03,-1.0152620135E+00
+32.6800E-06,-293.0653235E-03,-1.0203014966E+00
+33.0900E-06,-273.6826963E-03,-1.0214644542E+00
+33.5000E-06,-293.0653235E-03,-1.0203014966E+00
+33.9100E-06,-285.6999252E-03,-1.0203014966E+00
+34.3200E-06,-293.0653235E-03,-1.0307681153E+00
+34.7300E-06,-301.2060269E-03,-1.0175879288E+00
+35.1400E-06,-308.9590778E-03,-1.0253409797E+00
+35.5500E-06,-305.8578575E-03,-1.0222397593E+00
+35.9600E-06,-303.9195947E-03,-1.0203014966E+00
+36.3700E-06,-321.3639592E-03,-1.0203014966E+00
+36.7800E-06,-310.8973405E-03,-1.0203014966E+00
+37.1900E-06,-314.7738660E-03,-1.0203014966E+00
+37.6000E-06,-322.9145694E-03,-1.0203014966E+00
+38.0100E-06,-325.6281372E-03,-1.0203014966E+00
+38.4200E-06,-327.5663999E-03,-1.0203014966E+00
+38.8300E-06,-335.3194508E-03,-1.0191385390E+00
+39.2400E-06,-336.4824085E-03,-1.0203014966E+00
+39.6500E-06,-343.8478068E-03,-1.0203014966E+00
+40.0600E-06,-346.5613746E-03,-1.0203014966E+00
+40.4700E-06,-347.3366797E-03,-1.0203014966E+00
+40.8800E-06,-336.4824085E-03,-1.0203014966E+00
+41.2900E-06,-358.1909509E-03,-1.0203014966E+00
+41.7000E-06,-355.8650357E-03,-1.0191385390E+00
+42.1100E-06,-353.9267729E-03,-1.0203014966E+00
+42.5200E-06,-350.8255526E-03,-1.0203014966E+00
+42.9300E-06,-358.1909509E-03,-1.0203014966E+00
+43.3400E-06,-358.1909509E-03,-1.0203014966E+00
+43.7500E-06,-369.0452222E-03,-1.0203014966E+00
+44.1600E-06,-362.0674764E-03,-1.0203014966E+00
+44.5700E-06,-370.2081798E-03,-1.0203014966E+00
+44.9800E-06,-373.3094002E-03,-1.0203014966E+00
+45.3900E-06,-383.3883663E-03,-1.0203014966E+00
+45.8000E-06,-380.6747985E-03,-1.0303804628E+00
+46.2100E-06,-388.0401968E-03,-1.0203014966E+00
+46.6200E-06,-384.9389765E-03,-1.0144867084E+00
+47.0300E-06,-388.8155019E-03,-1.0203014966E+00
+47.4400E-06,-390.7537647E-03,-1.0299928102E+00
+47.8500E-06,-381.8377561E-03,-1.0311557679E+00
+48.2600E-06,-390.7537647E-03,-1.0203014966E+00
+48.6700E-06,-401.2203834E-03,-1.0199138441E+00
+49.0800E-06,-401.6080359E-03,-1.0230150644E+00
+49.4900E-06,-407.4228241E-03,-1.0203014966E+00
+49.9000E-06,-401.6080359E-03,-1.0222397593E+00
+50.3100E-06,-411.2993495E-03,-1.0203014966E+00
+50.7200E-06,-412.4623071E-03,-1.0245656746E+00
+51.1300E-06,-415.9511800E-03,-1.0203014966E+00
+51.5400E-06,-422.9289258E-03,-1.0203014966E+00
+51.9500E-06,-412.4623071E-03,-1.0284422000E+00
+52.3600E-06,-422.5412733E-03,-1.0203014966E+00
+52.7700E-06,-432.2325869E-03,-1.0203014966E+00
+53.1800E-06,-412.4623071E-03,-1.0214644542E+00
+53.5900E-06,-425.6424936E-03,-1.0203014966E+00
+54.0000E-06,-419.8277055E-03,-1.0203014966E+00
+54.4100E-06,-434.5585022E-03,-1.0203014966E+00
+54.8200E-06,-442.3115531E-03,-1.0284422000E+00
+55.2300E-06,-434.1708496E-03,-1.0203014966E+00
+55.6400E-06,-445.0251209E-03,-1.0222397593E+00
+56.0500E-06,-425.6424936E-03,-1.0203014966E+00
+56.4600E-06,-445.0251209E-03,-1.0203014966E+00
+56.8700E-06,-441.5362480E-03,-1.0203014966E+00
+57.2800E-06,-435.3338073E-03,-1.0206891492E+00
+57.6900E-06,-455.8793921E-03,-1.0203014966E+00
+58.1000E-06,-461.6941803E-03,-1.0203014966E+00
+58.5100E-06,-455.8793921E-03,-1.0292175051E+00
+58.9200E-06,-457.0423497E-03,-1.0203014966E+00
+59.3300E-06,-451.6152141E-03,-1.0203014966E+00
+59.7400E-06,-455.8793921E-03,-1.0203014966E+00
+60.1500E-06,-477.5879346E-03,-1.0203014966E+00
+60.5600E-06,-464.0200955E-03,-1.0203014966E+00
+60.9700E-06,-466.7336633E-03,-1.0203014966E+00
+61.3800E-06,-466.7336633E-03,-1.0203014966E+00
+61.7900E-06,-477.5879346E-03,-1.0299928102E+00
+62.2000E-06,-477.5879346E-03,-1.0203014966E+00
+62.6100E-06,-477.2002820E-03,-1.0203014966E+00
+63.0200E-06,-477.9755871E-03,-1.0307681153E+00
+63.4300E-06,-480.3015024E-03,-1.0203014966E+00
+63.8400E-06,-482.6274177E-03,-1.0311557679E+00
+64.2500E-06,-488.4422058E-03,-1.0203014966E+00
+64.6600E-06,-479.9138498E-03,-1.0299928102E+00
+65.0700E-06,-492.7063838E-03,-1.0203014966E+00
+65.4800E-06,-495.8076042E-03,-1.0203014966E+00
+65.8900E-06,-488.4422058E-03,-1.0203014966E+00
+66.3000E-06,-493.8693414E-03,-1.0230150644E+00
+66.7100E-06,-504.3359601E-03,-1.0203014966E+00
+67.1200E-06,-490.3804685E-03,-1.0203014966E+00
+67.5300E-06,-519.8420619E-03,-1.0299928102E+00
+67.9400E-06,-512.4766636E-03,-1.0268915899E+00
+68.3500E-06,-517.5161466E-03,-1.0203014966E+00
+68.7600E-06,-520.2297145E-03,-1.0203014966E+00
+69.1700E-06,-512.8643161E-03,-1.0203014966E+00
+69.5800E-06,-510.9260534E-03,-1.0311557679E+00
+69.9900E-06,-512.0890110E-03,-1.0222397593E+00
+70.4000E-06,-511.3137059E-03,-1.0203014966E+00
+70.8100E-06,-527.5951128E-03,-1.0203014966E+00
+71.2200E-06,-521.0050195E-03,-1.0237903695E+00
+71.6300E-06,-531.8592908E-03,-1.0203014966E+00
+72.0400E-06,-531.8592908E-03,-1.0230150644E+00
+72.4500E-06,-526.0445026E-03,-1.0261162848E+00
+72.8600E-06,-533.7975535E-03,-1.0183632339E+00
+73.2700E-06,-531.8592908E-03,-1.0214644542E+00
+73.6800E-06,-527.5951128E-03,-1.0203014966E+00
+74.0900E-06,-524.4938924E-03,-1.0203014966E+00
+74.5000E-06,-542.7135620E-03,-1.0203014966E+00
+74.9100E-06,-542.7135620E-03,-1.0203014966E+00
+75.3200E-06,-537.6740790E-03,-1.0311557679E+00
+75.7300E-06,-544.6518247E-03,-1.0203014966E+00
+76.1400E-06,-562.0961892E-03,-1.0299928102E+00
+76.5500E-06,-542.7135620E-03,-1.0268915899E+00
+76.9600E-06,-546.2024349E-03,-1.0203014966E+00
+77.3700E-06,-532.6345959E-03,-1.0307681153E+00
+77.7800E-06,-564.4221045E-03,-1.0121607932E+00
+78.1900E-06,-558.6073163E-03,-1.0253409797E+00
+78.6000E-06,-553.5678333E-03,-1.0222397593E+00
+79.0100E-06,-564.4221045E-03,-1.0106101830E+00
+79.4200E-06,-560.1579265E-03,-1.0245656746E+00
+79.8300E-06,-571.7875028E-03,-1.0311557679E+00
+80.2400E-06,-553.9554858E-03,-1.0203014966E+00
+80.6500E-06,-572.5628079E-03,-1.0284422000E+00
+81.0600E-06,-564.4221045E-03,-1.0261162848E+00
+81.4700E-06,-564.4221045E-03,-1.0222397593E+00
+81.8800E-06,-566.7480198E-03,-1.0203014966E+00
+82.2900E-06,-568.6862825E-03,-1.0203014966E+00
+82.7000E-06,-586.1306470E-03,-1.0203014966E+00
+83.1100E-06,-575.2763757E-03,-1.0203014966E+00
+83.5200E-06,-583.4170792E-03,-1.0203014966E+00
+83.9300E-06,-580.3158588E-03,-1.0203014966E+00
+84.3400E-06,-586.1306470E-03,-1.0203014966E+00
+84.7500E-06,-584.9676894E-03,-1.0203014966E+00
+85.1600E-06,-594.6590030E-03,-1.0245656746E+00
+85.5700E-06,-593.4960453E-03,-1.0203014966E+00
+85.9800E-06,-596.9849182E-03,-1.0199138441E+00
+86.3900E-06,-586.1306470E-03,-1.0230150644E+00
+86.8000E-06,-591.9454352E-03,-1.0152620135E+00
+87.2100E-06,-588.0689097E-03,-1.0292175051E+00
+87.6200E-06,-605.5132742E-03,-1.0203014966E+00
+88.0300E-06,-601.2490962E-03,-1.0203014966E+00
+88.4400E-06,-593.4960453E-03,-1.0203014966E+00
+88.8500E-06,-587.2936046E-03,-1.0203014966E+00
+89.2600E-06,-605.1256217E-03,-1.0230150644E+00
+89.6700E-06,-591.9454352E-03,-1.0203014966E+00
+90.0800E-06,-598.9231810E-03,-1.0292175051E+00
+90.4900E-06,-598.1478759E-03,-1.0311557679E+00
+90.9000E-06,-618.6934607E-03,-1.0203014966E+00
+91.3100E-06,-607.8391895E-03,-1.0203014966E+00
+91.7200E-06,-608.2268420E-03,-1.0203014966E+00
+92.1300E-06,-621.4070285E-03,-1.0257286322E+00
+92.5400E-06,-618.6934607E-03,-1.0203014966E+00
+92.9500E-06,-607.8391895E-03,-1.0183632339E+00
+93.3600E-06,-629.5477320E-03,-1.0203014966E+00
+93.7700E-06,-625.2835540E-03,-1.0245656746E+00
+94.1800E-06,-625.6712065E-03,-1.0203014966E+00
+94.5900E-06,-629.5477320E-03,-1.0203014966E+00
+95.0000E-06,-626.8341641E-03,-1.0203014966E+00
+95.4100E-06,-623.7329438E-03,-1.0253409797E+00
+95.8200E-06,-631.4859947E-03,-1.0292175051E+00
+96.2300E-06,-622.1823336E-03,-1.0203014966E+00
+96.6400E-06,-640.4020032E-03,-1.0160373186E+00
+97.0500E-06,-633.0366048E-03,-1.0203014966E+00
+97.4600E-06,-640.4020032E-03,-1.0203014966E+00
+97.8700E-06,-629.5477320E-03,-1.0175879288E+00
+98.2800E-06,-646.2167914E-03,-1.0203014966E+00
+98.6900E-06,-642.3402659E-03,-1.0203014966E+00
+99.1000E-06,-650.0933168E-03,-1.0203014966E+00
+99.5100E-06,-646.9920964E-03,-1.0203014966E+00
+99.9200E-06,-643.8908761E-03,-1.0203014966E+00
+100.3300E-06,-651.2562744E-03,-1.0203014966E+00
+100.7400E-06,-659.3969779E-03,-1.0230150644E+00
+101.1500E-06,-657.0710626E-03,-1.0203014966E+00
+101.5600E-06,-660.1722830E-03,-1.0292175051E+00
+101.9700E-06,-671.8018593E-03,-1.0311557679E+00
+102.3800E-06,-655.5204524E-03,-1.0137114034E+00
+102.7900E-06,-654.7451473E-03,-1.0203014966E+00
+103.2000E-06,-661.7228931E-03,-1.0203014966E+00
+103.6100E-06,-651.2562744E-03,-1.0203014966E+00
+104.0200E-06,-662.1105457E-03,-1.0210768017E+00
+104.4300E-06,-664.0488084E-03,-1.0183632339E+00
+104.8400E-06,-652.4192321E-03,-1.0203014966E+00
+105.2500E-06,-666.3747237E-03,-1.0203014966E+00
+105.6600E-06,-669.4759440E-03,-1.0203014966E+00
+106.0700E-06,-672.9648169E-03,-1.0203014966E+00
+106.4800E-06,-670.2512491E-03,-1.0203014966E+00
+106.8900E-06,-678.7796051E-03,-1.0203014966E+00
+107.3000E-06,-669.0882915E-03,-1.0222397593E+00
+107.7100E-06,-672.9648169E-03,-1.0214644542E+00
+108.1200E-06,-677.2289949E-03,-1.0268915899E+00
+108.5300E-06,-672.9648169E-03,-1.0276668950E+00
+108.9400E-06,-672.9648169E-03,-1.0203014966E+00
+109.3500E-06,-683.8190882E-03,-1.0121607932E+00
+109.7600E-06,-678.7796051E-03,-1.0203014966E+00
+110.1700E-06,-683.8190882E-03,-1.0292175051E+00
+110.5800E-06,-682.6561305E-03,-1.0299928102E+00
+110.9900E-06,-683.8190882E-03,-1.0203014966E+00
+111.4000E-06,-679.9425627E-03,-1.0237903695E+00
+111.8100E-06,-683.4314356E-03,-1.0311557679E+00
+112.2200E-06,-689.2462238E-03,-1.0203014966E+00
+112.6300E-06,-689.6338763E-03,-1.0253409797E+00
+113.0400E-06,-694.6733594E-03,-1.0292175051E+00
+113.4500E-06,-703.2017154E-03,-1.0191385390E+00
+113.8600E-06,-701.2634526E-03,-1.0268915899E+00
+114.2700E-06,-705.5276306E-03,-1.0203014966E+00
+114.6800E-06,-683.4314356E-03,-1.0102225305E+00
+115.0900E-06,-691.9597916E-03,-1.0284422000E+00
+115.5000E-06,-705.5276306E-03,-1.0203014966E+00
+115.9100E-06,-696.6116221E-03,-1.0203014966E+00
+116.3200E-06,-705.5276306E-03,-1.0288298526E+00
+116.7300E-06,-705.5276306E-03,-1.0203014966E+00
+117.1400E-06,-716.3819019E-03,-1.0164249712E+00
+117.5500E-06,-705.5276306E-03,-1.0203014966E+00
+117.9600E-06,-721.8090375E-03,-1.0203014966E+00
+118.3700E-06,-722.1966900E-03,-1.0203014966E+00
+118.7800E-06,-705.5276306E-03,-1.0222397593E+00
+119.1900E-06,-716.3819019E-03,-1.0203014966E+00
+119.6000E-06,-722.9719951E-03,-1.0311557679E+00
+120.0100E-06,-705.5276306E-03,-1.0237903695E+00
+120.4200E-06,-706.3029357E-03,-1.0307681153E+00
+120.8300E-06,-705.5276306E-03,-1.0175879288E+00
+121.2400E-06,-716.3819019E-03,-1.0203014966E+00
+121.6500E-06,-707.4658934E-03,-1.0183632339E+00
+122.0600E-06,-716.3819019E-03,-1.0203014966E+00
+122.4700E-06,-722.9719951E-03,-1.0203014966E+00
+122.8800E-06,-720.2584273E-03,-1.0129360983E+00
+123.2900E-06,-737.3151393E-03,-1.0199138441E+00
+123.7000E-06,-716.3819019E-03,-1.0203014966E+00
+124.1100E-06,-727.2361731E-03,-1.0253409797E+00
+124.5200E-06,-718.3201646E-03,-1.0203014966E+00
+124.9300E-06,-728.3991307E-03,-1.0203014966E+00
+125.3400E-06,-720.6460799E-03,-1.0203014966E+00
+125.7500E-06,-730.7250460E-03,-1.0164249712E+00
+126.1600E-06,-737.7027918E-03,-1.0098348779E+00
+126.5700E-06,-727.2361731E-03,-1.0284422000E+00
+126.9800E-06,-727.2361731E-03,-1.0203014966E+00
+127.3900E-06,-738.0904444E-03,-1.0203014966E+00
+127.8000E-06,-738.0904444E-03,-1.0299928102E+00
+128.2100E-06,-738.0904444E-03,-1.0203014966E+00
+128.6200E-06,-738.0904444E-03,-1.0203014966E+00
+129.0300E-06,-727.6238257E-03,-1.0203014966E+00
+129.4400E-06,-743.5175800E-03,-1.0311557679E+00
+129.8500E-06,-742.3546223E-03,-1.0203014966E+00
+130.2600E-06,-738.0904444E-03,-1.0203014966E+00
+130.6700E-06,-748.9447156E-03,-1.0203014966E+00
+131.0800E-06,-744.6805376E-03,-1.0203014966E+00
+131.4900E-06,-759.7989868E-03,-1.0203014966E+00
+131.9000E-06,-759.4113343E-03,-1.0206891492E+00
+132.3100E-06,-748.9447156E-03,-1.0203014966E+00
+132.7200E-06,-753.9841987E-03,-1.0203014966E+00
+133.1300E-06,-750.8829783E-03,-1.0203014966E+00
+133.5400E-06,-759.7989868E-03,-1.0203014966E+00
+133.9500E-06,-759.7989868E-03,-1.0245656746E+00
+134.3600E-06,-741.5793173E-03,-1.0276668950E+00
+134.7700E-06,-760.1866394E-03,-1.0307681153E+00
+135.1800E-06,-762.5125546E-03,-1.0284422000E+00
+135.5900E-06,-759.7989868E-03,-1.0253409797E+00
+136.0000E-06,-759.7989868E-03,-1.0203014966E+00
+136.4100E-06,-750.1076732E-03,-1.0214644542E+00
+136.8200E-06,-762.1249021E-03,-1.0203014966E+00
+137.2300E-06,-763.2878597E-03,-1.0203014966E+00
+137.6400E-06,-749.3323681E-03,-1.0203014966E+00
+138.0500E-06,-762.5125546E-03,-1.0311557679E+00
+138.4600E-06,-753.9841987E-03,-1.0261162848E+00
+138.8700E-06,-770.6532581E-03,-1.0203014966E+00
+139.2800E-06,-770.6532581E-03,-1.0203014966E+00
+139.6900E-06,-770.6532581E-03,-1.0203014966E+00
+140.1000E-06,-767.1643852E-03,-1.0203014966E+00
+140.5100E-06,-802.4407667E-03,-1.0203014966E+00
+140.9200E-06,-770.6532581E-03,-1.0203014966E+00
+141.3300E-06,-770.6532581E-03,-1.0203014966E+00
+141.7400E-06,-768.7149954E-03,-1.0311557679E+00
+142.1500E-06,-780.3445717E-03,-1.0203014966E+00
+142.5600E-06,-774.9174361E-03,-1.0137114034E+00
+142.9700E-06,-770.6532581E-03,-1.0241780221E+00
+143.3800E-06,-781.1198768E-03,-1.0203014966E+00
+143.7900E-06,-786.9346649E-03,-1.0203014966E+00
+144.2000E-06,-781.5075293E-03,-1.0261162848E+00
+144.6100E-06,-779.5692666E-03,-1.0222397593E+00
+145.0200E-06,-782.6704870E-03,-1.0214644542E+00
+145.4300E-06,-781.5075293E-03,-1.0203014966E+00
+145.8400E-06,-781.5075293E-03,-1.0164249712E+00
+146.2500E-06,-781.5075293E-03,-1.0307681153E+00
+146.6600E-06,-789.6482327E-03,-1.0203014966E+00
+147.0700E-06,-787.3223175E-03,-1.0203014966E+00
+147.4800E-06,-790.4235378E-03,-1.0203014966E+00
+147.8900E-06,-792.3618006E-03,-1.0203014966E+00
+148.3000E-06,-792.3618006E-03,-1.0245656746E+00
+148.7100E-06,-792.3618006E-03,-1.0203014966E+00
+149.1200E-06,-792.3618006E-03,-1.0203014966E+00
+149.5300E-06,-792.3618006E-03,-1.0203014966E+00
+149.9400E-06,-797.4012836E-03,-1.0261162848E+00
+150.3500E-06,-794.3000633E-03,-1.0203014966E+00
+150.7600E-06,-782.6704870E-03,-1.0203014966E+00
+151.1700E-06,-790.0358853E-03,-1.0226274119E+00
+151.5800E-06,-781.5075293E-03,-1.0203014966E+00
+151.9900E-06,-792.3618006E-03,-1.0203014966E+00
+152.4000E-06,-811.3567752E-03,-1.0203014966E+00
+152.8100E-06,-803.2160718E-03,-1.0203014966E+00
+153.2200E-06,-801.2778091E-03,-1.0292175051E+00
+153.6300E-06,-803.2160718E-03,-1.0214644542E+00
+154.0400E-06,-803.2160718E-03,-1.0245656746E+00
+154.4500E-06,-799.3395464E-03,-1.0203014966E+00
+154.8600E-06,-782.2828344E-03,-1.0311557679E+00
+155.2700E-06,-803.2160718E-03,-1.0203014966E+00
+155.6800E-06,-802.4407667E-03,-1.0253409797E+00
+156.0900E-06,-819.1098261E-03,-1.0203014966E+00
+156.5000E-06,-803.2160718E-03,-1.0214644542E+00
+156.9100E-06,-809.8061651E-03,-1.0094472254E+00
+157.3200E-06,-806.7049447E-03,-1.0203014966E+00
+157.7300E-06,-814.0703430E-03,-1.0206891492E+00
+158.1400E-06,-805.9296396E-03,-1.0230150644E+00
+158.5500E-06,-819.8851312E-03,-1.0203014966E+00
+158.9600E-06,-821.0480888E-03,-1.0203014966E+00
+159.3700E-06,-835.7788855E-03,-1.0311557679E+00
+159.7800E-06,-820.6604363E-03,-1.0203014966E+00
+160.1900E-06,-824.9246143E-03,-1.0203014966E+00
+160.6000E-06,-814.0703430E-03,-1.0203014966E+00
+161.0100E-06,-805.9296396E-03,-1.0203014966E+00
+161.4200E-06,-809.0308600E-03,-1.0203014966E+00
+161.8300E-06,-814.0703430E-03,-1.0203014966E+00
+162.2400E-06,-814.0703430E-03,-1.0191385390E+00
+162.6500E-06,-820.6604363E-03,-1.0245656746E+00
+163.0600E-06,-828.8011397E-03,-1.0276668950E+00
+163.4700E-06,-803.9913769E-03,-1.0203014966E+00
+163.8800E-06,-833.0653177E-03,-1.0175879288E+00
+164.2900E-06,-814.0703430E-03,-1.0203014966E+00
+164.7000E-06,-822.9863516E-03,-1.0203014966E+00
+165.1100E-06,-824.9246143E-03,-1.0203014966E+00
+165.5200E-06,-824.9246143E-03,-1.0203014966E+00
+165.9300E-06,-824.9246143E-03,-1.0276668950E+00
+166.3400E-06,-835.0035804E-03,-1.0307681153E+00
+166.7500E-06,-827.6381821E-03,-1.0203014966E+00
+167.1600E-06,-829.9640974E-03,-1.0203014966E+00
+167.5700E-06,-826.8628770E-03,-1.0203014966E+00
+167.9800E-06,-835.7788855E-03,-1.0203014966E+00
+168.3900E-06,-829.1887923E-03,-1.0245656746E+00
+168.8000E-06,-824.9246143E-03,-1.0311557679E+00
+169.2100E-06,-835.7788855E-03,-1.0307681153E+00
+169.6200E-06,-835.7788855E-03,-1.0203014966E+00
+170.0300E-06,-829.9640974E-03,-1.0203014966E+00
+170.4400E-06,-822.9863516E-03,-1.0203014966E+00
+170.8500E-06,-824.9246143E-03,-1.0203014966E+00
+171.2600E-06,-838.1048008E-03,-1.0203014966E+00
+171.6700E-06,-828.4134872E-03,-1.0276668950E+00
+172.0800E-06,-836.1665381E-03,-1.0206891492E+00
+172.4900E-06,-838.4924533E-03,-1.0311557679E+00
+172.9000E-06,-835.0035804E-03,-1.0253409797E+00
+173.3100E-06,-844.6948940E-03,-1.0292175051E+00
+173.7200E-06,-845.4701991E-03,-1.0203014966E+00
+174.1300E-06,-835.7788855E-03,-1.0245656746E+00
+174.5400E-06,-850.1220297E-03,-1.0276668950E+00
+174.9500E-06,-846.2455042E-03,-1.0203014966E+00
+175.3600E-06,-833.0653177E-03,-1.0284422000E+00
+175.7700E-06,-857.4874280E-03,-1.0261162848E+00
+176.1800E-06,-835.7788855E-03,-1.0203014966E+00
+176.5900E-06,-857.4874280E-03,-1.0299928102E+00
+177.0000E-06,-846.6331568E-03,-1.0245656746E+00
+177.4100E-06,-842.7566313E-03,-1.0203014966E+00
+177.8200E-06,-846.6331568E-03,-1.0206891492E+00
+178.2300E-06,-852.0602924E-03,-1.0203014966E+00
+178.6400E-06,-845.8578517E-03,-1.0203014966E+00
+179.0500E-06,-846.6331568E-03,-1.0222397593E+00
+179.4600E-06,-847.7961144E-03,-1.0203014966E+00
+179.8700E-06,-850.8973348E-03,-1.0268915899E+00
+180.2800E-06,-843.1442839E-03,-1.0276668950E+00
+180.6900E-06,-847.4084618E-03,-1.0206891492E+00
+181.1000E-06,-865.6281314E-03,-1.0284422000E+00
+181.5100E-06,-852.4479449E-03,-1.0261162848E+00
+181.9200E-06,-848.5714195E-03,-1.0222397593E+00
+182.3300E-06,-847.7961144E-03,-1.0311557679E+00
+182.7400E-06,-870.6676145E-03,-1.0268915899E+00
+183.1500E-06,-864.8528263E-03,-1.0276668950E+00
+183.5600E-06,-857.4874280E-03,-1.0206891492E+00
+183.9700E-06,-857.4874280E-03,-1.0230150644E+00
+184.3800E-06,-851.6726398E-03,-1.0261162848E+00
+184.7900E-06,-857.4874280E-03,-1.0203014966E+00
+185.2000E-06,-856.3244704E-03,-1.0203014966E+00
+185.6100E-06,-857.4874280E-03,-1.0203014966E+00
+186.0200E-06,-868.3416992E-03,-1.0203014966E+00
+186.4300E-06,-857.8750805E-03,-1.0203014966E+00
+186.8400E-06,-857.4874280E-03,-1.0203014966E+00
+187.2500E-06,-863.3022162E-03,-1.0311557679E+00
+187.6600E-06,-866.4034365E-03,-1.0222397593E+00
+188.0700E-06,-858.6503856E-03,-1.0214644542E+00
+188.4800E-06,-861.7516060E-03,-1.0311557679E+00
+188.8900E-06,-868.3416992E-03,-1.0276668950E+00
+189.3000E-06,-858.2627331E-03,-1.0199138441E+00
+189.7100E-06,-868.3416992E-03,-1.0175879288E+00
+190.1200E-06,-868.3416992E-03,-1.0203014966E+00
+190.5300E-06,-877.2577078E-03,-1.0222397593E+00
+190.9400E-06,-858.6503856E-03,-1.0203014966E+00
+191.3500E-06,-864.0775213E-03,-1.0203014966E+00
+191.7600E-06,-875.7070976E-03,-1.0203014966E+00
+192.1700E-06,-867.9540467E-03,-1.0203014966E+00
+192.5800E-06,-868.3416992E-03,-1.0203014966E+00
+192.9900E-06,-873.3811823E-03,-1.0144867084E+00
+193.4000E-06,-870.2799620E-03,-1.0203014966E+00
+193.8100E-06,-869.5046569E-03,-1.0214644542E+00
+194.2200E-06,-868.3416992E-03,-1.0245656746E+00
+194.6300E-06,-868.3416992E-03,-1.0203014966E+00
+195.0400E-06,-878.8083179E-03,-1.0307681153E+00
+195.4500E-06,-868.3416992E-03,-1.0203014966E+00
+195.8600E-06,-879.1959705E-03,-1.0253409797E+00
+196.2700E-06,-879.1959705E-03,-1.0203014966E+00
+196.6800E-06,-878.0330128E-03,-1.0203014966E+00
+197.0900E-06,-874.9317925E-03,-1.0203014966E+00
+197.5000E-06,-872.2182247E-03,-1.0311557679E+00
+197.9100E-06,-879.1959705E-03,-1.0203014966E+00
+198.3200E-06,-881.9095383E-03,-1.0203014966E+00
+198.7300E-06,-879.1959705E-03,-1.0261162848E+00
+199.1400E-06,-879.1959705E-03,-1.0203014966E+00
+199.5500E-06,-878.0330128E-03,-1.0203014966E+00
+199.9600E-06,-879.1959705E-03,-1.0311557679E+00
+200.3700E-06,-886.5613688E-03,-1.0203014966E+00
+200.7800E-06,-900.5168604E-03,-1.0307681153E+00
+201.1900E-06,-879.1959705E-03,-1.0203014966E+00
+201.6000E-06,-879.1959705E-03,-1.0203014966E+00
+202.0100E-06,-881.1342332E-03,-1.0222397593E+00
+202.4200E-06,-890.0502417E-03,-1.0203014966E+00
+202.8300E-06,-881.5218857E-03,-1.0245656746E+00
+203.2400E-06,-886.5613688E-03,-1.0311557679E+00
+203.6500E-06,-890.0502417E-03,-1.0203014966E+00
+204.0600E-06,-898.1909452E-03,-1.0230150644E+00
+204.4700E-06,-889.2749366E-03,-1.0203014966E+00
+204.8800E-06,-888.1119790E-03,-1.0183632339E+00
+205.2900E-06,-890.0502417E-03,-1.0299928102E+00
+205.7000E-06,-879.1959705E-03,-1.0245656746E+00
+206.1100E-06,-890.0502417E-03,-1.0203014966E+00
+206.5200E-06,-900.9045130E-03,-1.0307681153E+00
+206.9300E-06,-898.1909452E-03,-1.0230150644E+00
+207.3400E-06,-895.8650299E-03,-1.0311557679E+00
+207.7500E-06,-890.0502417E-03,-1.0222397593E+00
+208.1600E-06,-890.0502417E-03,-1.0214644542E+00
+208.5700E-06,-890.0502417E-03,-1.0311557679E+00
+208.9800E-06,-893.5391146E-03,-1.0237903695E+00
+209.3900E-06,-900.9045130E-03,-1.0203014966E+00
+209.8000E-06,-898.1909452E-03,-1.0230150644E+00
+210.2100E-06,-884.2354536E-03,-1.0203014966E+00
+210.6200E-06,-890.0502417E-03,-1.0311557679E+00
+211.0300E-06,-891.2131994E-03,-1.0299928102E+00
+211.4400E-06,-890.0502417E-03,-1.0268915899E+00
+211.8500E-06,-900.9045130E-03,-1.0237903695E+00
+212.2600E-06,-890.0502417E-03,-1.0307681153E+00
+212.6700E-06,-892.7638095E-03,-1.0284422000E+00
+213.0800E-06,-895.0897248E-03,-1.0261162848E+00
+213.4900E-06,-891.9885044E-03,-1.0203014966E+00
+213.9000E-06,-900.9045130E-03,-1.0203014966E+00
+214.3100E-06,-890.0502417E-03,-1.0203014966E+00
+214.7200E-06,-907.8822588E-03,-1.0311557679E+00
+215.1300E-06,-890.4378943E-03,-1.0203014966E+00
+215.5400E-06,-900.9045130E-03,-1.0203014966E+00
+215.9500E-06,-900.9045130E-03,-1.0203014966E+00
+216.3600E-06,-902.8427757E-03,-1.0203014966E+00
+216.7700E-06,-909.4328689E-03,-1.0203014966E+00
+217.1800E-06,-900.9045130E-03,-1.0245656746E+00
+217.5900E-06,-908.2699113E-03,-1.0203014966E+00
+218.0000E-06,-890.8255468E-03,-1.0206891492E+00
+218.4100E-06,-892.7638095E-03,-1.0203014966E+00
+218.8200E-06,-895.0897248E-03,-1.0203014966E+00
+219.2300E-06,-911.7587842E-03,-1.0203014966E+00
+219.6400E-06,-909.4328689E-03,-1.0203014966E+00
+220.0500E-06,-900.9045130E-03,-1.0245656746E+00
+220.4600E-06,-919.1241825E-03,-1.0203014966E+00
+220.8700E-06,-901.2921655E-03,-1.0206891492E+00
+221.2800E-06,-903.6180808E-03,-1.0203014966E+00
+221.6900E-06,-900.9045130E-03,-1.0261162848E+00
+222.1000E-06,-900.9045130E-03,-1.0311557679E+00
+222.5100E-06,-902.0674706E-03,-1.0203014966E+00
+222.9200E-06,-907.4946062E-03,-1.0203014966E+00
+223.3300E-06,-900.9045130E-03,-1.0276668950E+00
+223.7400E-06,-911.7587842E-03,-1.0206891492E+00
+224.1500E-06,-911.7587842E-03,-1.0203014966E+00
+224.5600E-06,-911.7587842E-03,-1.0261162848E+00
+224.9700E-06,-911.7587842E-03,-1.0203014966E+00
+225.3800E-06,-911.7587842E-03,-1.0311557679E+00
+225.7900E-06,-918.3488775E-03,-1.0245656746E+00
+226.2000E-06,-908.2699113E-03,-1.0237903695E+00
+226.6100E-06,-911.3711317E-03,-1.0203014966E+00
+227.0200E-06,-911.7587842E-03,-1.0284422000E+00
+227.4300E-06,-905.9439960E-03,-1.0203014966E+00
+227.8400E-06,-911.7587842E-03,-1.0222397593E+00
+228.2500E-06,-911.7587842E-03,-1.0299928102E+00
+228.6600E-06,-907.4946062E-03,-1.0245656746E+00
+229.0700E-06,-911.7587842E-03,-1.0203014966E+00
+229.4800E-06,-912.1464367E-03,-1.0307681153E+00
+229.8900E-06,-928.0401911E-03,-1.0284422000E+00
+230.3000E-06,-906.7193011E-03,-1.0253409797E+00
+230.7100E-06,-911.7587842E-03,-1.0311557679E+00
+231.1200E-06,-902.0674706E-03,-1.0203014966E+00
+231.5300E-06,-918.3488775E-03,-1.0203014966E+00
+231.9400E-06,-919.1241825E-03,-1.0276668950E+00
+232.3500E-06,-911.7587842E-03,-1.0311557679E+00
+232.7600E-06,-922.6130554E-03,-1.0311557679E+00
+233.1700E-06,-922.6130554E-03,-1.0253409797E+00
+233.5800E-06,-920.6747927E-03,-1.0203014966E+00
+233.9900E-06,-922.6130554E-03,-1.0203014966E+00
+234.4000E-06,-911.7587842E-03,-1.0203014966E+00
+234.8100E-06,-915.2476571E-03,-1.0168126237E+00
+235.2200E-06,-912.5340893E-03,-1.0203014966E+00
+235.6300E-06,-928.0401911E-03,-1.0284422000E+00
+236.0400E-06,-923.3883605E-03,-1.0261162848E+00
+236.4500E-06,-920.6747927E-03,-1.0292175051E+00
+236.8600E-06,-914.0846995E-03,-1.0311557679E+00
+237.2700E-06,-918.3488775E-03,-1.0268915899E+00
+237.6800E-06,-929.9784538E-03,-1.0311557679E+00
+238.0900E-06,-923.0007080E-03,-1.0206891492E+00
+238.5000E-06,-922.6130554E-03,-1.0311557679E+00
+238.9100E-06,-921.8377504E-03,-1.0203014966E+00
+239.3200E-06,-922.6130554E-03,-1.0222397593E+00
+239.7300E-06,-922.6130554E-03,-1.0203014966E+00
+240.1400E-06,-922.6130554E-03,-1.0245656746E+00
+240.5500E-06,-918.7365300E-03,-1.0203014966E+00
+240.9600E-06,-933.8549792E-03,-1.0206891492E+00
+241.3700E-06,-930.7537589E-03,-1.0311557679E+00
+241.7800E-06,-927.6525385E-03,-1.0311557679E+00
+242.1900E-06,-933.4673267E-03,-1.0292175051E+00
+242.6000E-06,-932.3043691E-03,-1.0214644542E+00
+243.0100E-06,-922.6130554E-03,-1.0311557679E+00
+243.4200E-06,-915.2476571E-03,-1.0203014966E+00
+243.8300E-06,-922.6130554E-03,-1.0203014966E+00
+244.2400E-06,-925.3266233E-03,-1.0230150644E+00
+244.6500E-06,-917.5735724E-03,-1.0203014966E+00
+245.0600E-06,-933.4673267E-03,-1.0292175051E+00
+245.4700E-06,-932.3043691E-03,-1.0203014966E+00
+245.8800E-06,-931.1414114E-03,-1.0311557679E+00
+246.2900E-06,-936.9561996E-03,-1.0276668950E+00
+246.7000E-06,-933.4673267E-03,-1.0206891492E+00
+247.1100E-06,-925.3266233E-03,-1.0230150644E+00
+247.5200E-06,-922.6130554E-03,-1.0261162848E+00
+247.9300E-06,-924.5513182E-03,-1.0292175051E+00
+248.3400E-06,-943.1586403E-03,-1.0203014966E+00
+248.7500E-06,-920.2871402E-03,-1.0203014966E+00
+249.1600E-06,-929.9784538E-03,-1.0237903695E+00
+249.5700E-06,-933.0796741E-03,-1.0307681153E+00
+249.9800E-06,-933.4673267E-03,-1.0203014966E+00
+250.3900E-06,-938.5068098E-03,-1.0253409797E+00
+250.8000E-06,-933.4673267E-03,-1.0203014966E+00
+251.2100E-06,-941.9956827E-03,-1.0299928102E+00
+251.6200E-06,-933.4673267E-03,-1.0203014966E+00
+252.0300E-06,-944.3215979E-03,-1.0276668950E+00
+252.4400E-06,-933.8549792E-03,-1.0206891492E+00
+252.8500E-06,-941.6080301E-03,-1.0230150644E+00
+253.2600E-06,-939.2821149E-03,-1.0253409797E+00
+253.6700E-06,-933.4673267E-03,-1.0203014966E+00
+254.0800E-06,-933.4673267E-03,-1.0299928102E+00
+254.4900E-06,-931.1414114E-03,-1.0245656746E+00
+254.9000E-06,-944.3215979E-03,-1.0311557679E+00
+255.3100E-06,-954.4005641E-03,-1.0206891492E+00
+255.7200E-06,-933.4673267E-03,-1.0203014966E+00
+256.1300E-06,-938.5068098E-03,-1.0203014966E+00
+256.5400E-06,-942.3833352E-03,-1.0203014966E+00
+256.9500E-06,-943.1586403E-03,-1.0214644542E+00
+257.3600E-06,-937.7315047E-03,-1.0268915899E+00
+257.7700E-06,-940.8327250E-03,-1.0203014966E+00
+258.1800E-06,-933.4673267E-03,-1.0307681153E+00
+258.5900E-06,-936.1808945E-03,-1.0203014966E+00
+259.0000E-06,-944.3215979E-03,-1.0311557679E+00
+259.4100E-06,-944.3215979E-03,-1.0203014966E+00
+259.8200E-06,-936.9561996E-03,-1.0214644542E+00
+260.2300E-06,-933.4673267E-03,-1.0245656746E+00
+260.6400E-06,-944.3215979E-03,-1.0203014966E+00
+261.0500E-06,-933.8549792E-03,-1.0203014966E+00
+261.4600E-06,-944.3215979E-03,-1.0203014966E+00
+261.8700E-06,-933.4673267E-03,-1.0311557679E+00
+262.2800E-06,-937.3438521E-03,-1.0203014966E+00
+262.6900E-06,-945.4845556E-03,-1.0203014966E+00
+263.1000E-06,-937.7315047E-03,-1.0179755813E+00
+263.5100E-06,-940.8327250E-03,-1.0276668950E+00
+263.9200E-06,-955.1758692E-03,-1.0203014966E+00
+264.3300E-06,-952.4623014E-03,-1.0230150644E+00
+264.7400E-06,-944.3215979E-03,-1.0311557679E+00
+265.1500E-06,-944.3215979E-03,-1.0222397593E+00
+265.5600E-06,-945.4845556E-03,-1.0203014966E+00
+265.9700E-06,-944.3215979E-03,-1.0245656746E+00
+266.3800E-06,-955.1758692E-03,-1.0237903695E+00
+266.7900E-06,-933.8549792E-03,-1.0203014966E+00
+267.2000E-06,-952.4623014E-03,-1.0203014966E+00
+267.6100E-06,-949.3610810E-03,-1.0203014966E+00
+268.0200E-06,-946.2598606E-03,-1.0203014966E+00
+268.4300E-06,-945.4845556E-03,-1.0214644542E+00
+268.8400E-06,-944.3215979E-03,-1.0268915899E+00
+269.2500E-06,-944.3215979E-03,-1.0237903695E+00
+269.6600E-06,-944.3215979E-03,-1.0307681153E+00
+270.0700E-06,-955.1758692E-03,-1.0203014966E+00
+270.4800E-06,-949.3610810E-03,-1.0261162848E+00
+270.8900E-06,-933.4673267E-03,-1.0222397593E+00
+271.3000E-06,-945.4845556E-03,-1.0203014966E+00
+271.7100E-06,-948.5857759E-03,-1.0203014966E+00
+272.1200E-06,-947.8104708E-03,-1.0276668950E+00
+272.5300E-06,-965.6424879E-03,-1.0206891492E+00
+272.9400E-06,-936.1808945E-03,-1.0230150644E+00
+273.3500E-06,-949.3610810E-03,-1.0253409797E+00
+273.7600E-06,-955.1758692E-03,-1.0203014966E+00
+274.1700E-06,-946.6475132E-03,-1.0106101830E+00
+274.5800E-06,-955.1758692E-03,-1.0203014966E+00
+274.9900E-06,-958.6647421E-03,-1.0203014966E+00
+275.4000E-06,-954.7882166E-03,-1.0311557679E+00
+275.8100E-06,-952.4623014E-03,-1.0284422000E+00
+276.2200E-06,-960.9906573E-03,-1.0203014966E+00
+276.6300E-06,-957.1141319E-03,-1.0311557679E+00
+277.0400E-06,-966.0301404E-03,-1.0214644542E+00
+277.4500E-06,-961.7659624E-03,-1.0245656746E+00
+277.8600E-06,-947.8104708E-03,-1.0276668950E+00
+278.2700E-06,-944.7092505E-03,-1.0206891492E+00
+278.6800E-06,-955.1758692E-03,-1.0203014966E+00
+279.0900E-06,-960.9906573E-03,-1.0203014966E+00
+279.5000E-06,-944.3215979E-03,-1.0292175051E+00
+279.9100E-06,-966.0301404E-03,-1.0203014966E+00
+280.3200E-06,-957.1141319E-03,-1.0268915899E+00
+280.7300E-06,-955.1758692E-03,-1.0276668950E+00
+281.1400E-06,-955.1758692E-03,-1.0311557679E+00
+281.5500E-06,-952.4623014E-03,-1.0203014966E+00
+281.9600E-06,-965.2548353E-03,-1.0261162848E+00
+282.3700E-06,-964.0918777E-03,-1.0222397593E+00
+282.7800E-06,-955.1758692E-03,-1.0299928102E+00
+283.1900E-06,-955.1758692E-03,-1.0268915899E+00
+283.6000E-06,-951.2993437E-03,-1.0237903695E+00
+284.0100E-06,-966.0301404E-03,-1.0203014966E+00
+284.4200E-06,-957.8894370E-03,-1.0311557679E+00
+284.8300E-06,-949.3610810E-03,-1.0203014966E+00
+285.2400E-06,-957.1141319E-03,-1.0203014966E+00
+285.6500E-06,-955.1758692E-03,-1.0203014966E+00
+286.0600E-06,-955.1758692E-03,-1.0245656746E+00
+286.4700E-06,-951.6869963E-03,-1.0311557679E+00
+286.8800E-06,-965.6424879E-03,-1.0206891492E+00
+287.2900E-06,-955.1758692E-03,-1.0284422000E+00
+287.7000E-06,-955.1758692E-03,-1.0253409797E+00
+288.1100E-06,-966.0301404E-03,-1.0292175051E+00
+288.5200E-06,-955.1758692E-03,-1.0214644542E+00
+288.9300E-06,-959.4400472E-03,-1.0268915899E+00
+289.3400E-06,-958.6647421E-03,-1.0237903695E+00
+289.7500E-06,-966.0301404E-03,-1.0311557679E+00
+290.1600E-06,-974.1708438E-03,-1.0284422000E+00
+290.5700E-06,-966.0301404E-03,-1.0195261915E+00
+290.9800E-06,-966.0301404E-03,-1.0311557679E+00
+291.3900E-06,-956.3388268E-03,-1.0311557679E+00
+291.8000E-06,-970.2943184E-03,-1.0311557679E+00
+292.2100E-06,-951.2993437E-03,-1.0237903695E+00
+292.6200E-06,-977.2720642E-03,-1.0307681153E+00
+293.0300E-06,-957.8894370E-03,-1.0230150644E+00
+293.4400E-06,-966.0301404E-03,-1.0261162848E+00
+293.8500E-06,-973.0078862E-03,-1.0292175051E+00
+294.2600E-06,-966.0301404E-03,-1.0214644542E+00
+294.6700E-06,-963.7042251E-03,-1.0311557679E+00
+295.0800E-06,-966.0301404E-03,-1.0311557679E+00
+295.4900E-06,-976.1091066E-03,-1.0206891492E+00
+295.9000E-06,-966.0301404E-03,-1.0284422000E+00
+296.3100E-06,-971.8449286E-03,-1.0261162848E+00
+296.7200E-06,-966.0301404E-03,-1.0311557679E+00
+297.1300E-06,-955.1758692E-03,-1.0311557679E+00
+297.5400E-06,-961.7659624E-03,-1.0245656746E+00
+297.9500E-06,-962.5412675E-03,-1.0203014966E+00
+298.3600E-06,-965.6424879E-03,-1.0311557679E+00
+298.7700E-06,-966.0301404E-03,-1.0203014966E+00
+299.1800E-06,-971.0696235E-03,-1.0253409797E+00
+299.5900E-06,-976.8844116E-03,-1.0222397593E+00
+300.0000E-06,-967.1930980E-03,-1.0214644542E+00
+300.4100E-06,-955.1758692E-03,-1.0160373186E+00
+300.8200E-06,-955.1758692E-03,-1.0203014966E+00
+301.2300E-06,-966.4177929E-03,-1.0206891492E+00
+301.6400E-06,-963.3165726E-03,-1.0203014966E+00
+302.0500E-06,-971.0696235E-03,-1.0203014966E+00
+302.4600E-06,-959.0523946E-03,-1.0183632339E+00
+302.8700E-06,-966.0301404E-03,-1.0203014966E+00
+303.2800E-06,-972.6202337E-03,-1.0245656746E+00
+303.6900E-06,-962.5412675E-03,-1.0276668950E+00
+304.1000E-06,-976.1091066E-03,-1.0203014966E+00
+304.5100E-06,-960.6030048E-03,-1.0203014966E+00
+304.9200E-06,-966.0301404E-03,-1.0203014966E+00
+305.3300E-06,-957.1141319E-03,-1.0292175051E+00
+305.7400E-06,-964.8671828E-03,-1.0203014966E+00
+306.1500E-06,-966.0301404E-03,-1.0203014966E+00
+306.5600E-06,-966.0301404E-03,-1.0237903695E+00
+306.9700E-06,-966.0301404E-03,-1.0206891492E+00
+307.3800E-06,-971.4572760E-03,-1.0284422000E+00
+307.7900E-06,-971.8449286E-03,-1.0311557679E+00
+308.2000E-06,-959.0523946E-03,-1.0203014966E+00
+308.6100E-06,-967.1930980E-03,-1.0203014966E+00
+309.0200E-06,-972.6202337E-03,-1.0311557679E+00
+309.4300E-06,-969.5190133E-03,-1.0311557679E+00
+309.8400E-06,-976.8844116E-03,-1.0203014966E+00
+310.2500E-06,-976.8844116E-03,-1.0230150644E+00
+310.6600E-06,-976.8844116E-03,-1.0203014966E+00
+311.0700E-06,-976.8844116E-03,-1.0203014966E+00
+311.4800E-06,-967.1930980E-03,-1.0203014966E+00
+311.8900E-06,-970.2943184E-03,-1.0268915899E+00
+312.3000E-06,-976.8844116E-03,-1.0237903695E+00
+312.7100E-06,-966.4177929E-03,-1.0203014966E+00
+313.1200E-06,-974.1708438E-03,-1.0203014966E+00
+313.5300E-06,-971.8449286E-03,-1.0261162848E+00
+313.9400E-06,-976.8844116E-03,-1.0292175051E+00
+314.3500E-06,-985.4127676E-03,-1.0299928102E+00
+314.7600E-06,-966.0301404E-03,-1.0311557679E+00
+315.1700E-06,-980.3732845E-03,-1.0237903695E+00
+315.5800E-06,-966.0301404E-03,-1.0206891492E+00
+315.9900E-06,-968.7437082E-03,-1.0311557679E+00
+316.4000E-06,-976.8844116E-03,-1.0203014966E+00
+316.8100E-06,-969.9066658E-03,-1.0272792424E+00
+317.2200E-06,-966.0301404E-03,-1.0299928102E+00
+317.6300E-06,-963.7042251E-03,-1.0203014966E+00
+318.0400E-06,-980.3732845E-03,-1.0276668950E+00
+318.4500E-06,-976.8844116E-03,-1.0203014966E+00
+318.8600E-06,-976.8844116E-03,-1.0203014966E+00
+319.2700E-06,-976.8844116E-03,-1.0261162848E+00
+319.6800E-06,-966.0301404E-03,-1.0222397593E+00
+320.0900E-06,-978.0473693E-03,-1.0214644542E+00
+320.5000E-06,-976.8844116E-03,-1.0203014966E+00
+320.9100E-06,-966.0301404E-03,-1.0237903695E+00
+321.3200E-06,-986.5757253E-03,-1.0311557679E+00
+321.7300E-06,-966.0301404E-03,-1.0311557679E+00
+322.1400E-06,-981.9238947E-03,-1.0203014966E+00
+322.5500E-06,-966.0301404E-03,-1.0203014966E+00
+322.9600E-06,-968.3560557E-03,-1.0299928102E+00
+323.3700E-06,-983.4745049E-03,-1.0311557679E+00
+323.7800E-06,-976.8844116E-03,-1.0203014966E+00
+324.1900E-06,-987.3510303E-03,-1.0203014966E+00
+324.6000E-06,-979.5979795E-03,-1.0230150644E+00
+325.0100E-06,-981.9238947E-03,-1.0253409797E+00
+325.4200E-06,-978.8226744E-03,-1.0292175051E+00
+325.8300E-06,-967.1930980E-03,-1.0214644542E+00
+326.2400E-06,-976.8844116E-03,-1.0311557679E+00
+326.6500E-06,-984.2498100E-03,-1.0203014966E+00
+327.0600E-06,-976.4967591E-03,-1.0307681153E+00
+327.4700E-06,-971.4572760E-03,-1.0311557679E+00
+327.8800E-06,-976.8844116E-03,-1.0203014966E+00
+328.2900E-06,-987.7386829E-03,-1.0183632339E+00
+328.7000E-06,-976.8844116E-03,-1.0203014966E+00
+329.1100E-06,-979.2103269E-03,-1.0203014966E+00
+329.5200E-06,-973.3955388E-03,-1.0203014966E+00
+329.9300E-06,-977.2720642E-03,-1.0098348779E+00
+330.3400E-06,-957.8894370E-03,-1.0284422000E+00
+330.7500E-06,-987.7386829E-03,-1.0261162848E+00
+331.1600E-06,-981.9238947E-03,-1.0292175051E+00
+331.5700E-06,-987.7386829E-03,-1.0214644542E+00
+331.9800E-06,-974.5584964E-03,-1.0268915899E+00
+332.3900E-06,-976.8844116E-03,-1.0276668950E+00
+332.8000E-06,-977.2720642E-03,-1.0203014966E+00
+333.2100E-06,-979.5979795E-03,-1.0284422000E+00
+333.6200E-06,-981.9238947E-03,-1.0195261915E+00
+334.0300E-06,-998.5929541E-03,-1.0222397593E+00
+334.4400E-06,-986.5757253E-03,-1.0203014966E+00
+334.8500E-06,-976.8844116E-03,-1.0203014966E+00
+335.2600E-06,-969.5190133E-03,-1.0237903695E+00
+335.6700E-06,-998.2053016E-03,-1.0203014966E+00
+336.0800E-06,-976.8844116E-03,-1.0311557679E+00
+336.4900E-06,-982.6991998E-03,-1.0203014966E+00
+336.9000E-06,-976.8844116E-03,-1.0203014966E+00
+337.3100E-06,-987.7386829E-03,-1.0203014966E+00
+337.7200E-06,-992.0028609E-03,-1.0203014966E+00
+338.1300E-06,-987.7386829E-03,-1.0241780221E+00
+338.5400E-06,-967.1930980E-03,-1.0203014966E+00
+338.9500E-06,-993.1658185E-03,-1.0284422000E+00
+339.3600E-06,-981.9238947E-03,-1.0253409797E+00
+339.7700E-06,-976.8844116E-03,-1.0222397593E+00
+340.1800E-06,-988.9016405E-03,-1.0203014966E+00
+340.5900E-06,-987.7386829E-03,-1.0137114034E+00
+341.0000E-06,-987.7386829E-03,-1.0276668950E+00
+341.4100E-06,-976.8844116E-03,-1.0203014966E+00
+341.8200E-06,-976.8844116E-03,-1.0257286322E+00
+342.2300E-06,-976.8844116E-03,-1.0203014966E+00
+342.6400E-06,-994.7164287E-03,-1.0292175051E+00
+343.0500E-06,-986.5757253E-03,-1.0311557679E+00
+343.4600E-06,-981.1485896E-03,-1.0268915899E+00
+343.8700E-06,-984.2498100E-03,-1.0237903695E+00
+344.2800E-06,-977.2720642E-03,-1.0203014966E+00
+344.6900E-06,-982.3115473E-03,-1.0284422000E+00
+345.1000E-06,-982.6991998E-03,-1.0261162848E+00
+345.5100E-06,-985.8004202E-03,-1.0292175051E+00
+345.9200E-06,-987.7386829E-03,-1.0299928102E+00
+346.3300E-06,-987.7386829E-03,-1.0203014966E+00
+346.7400E-06,-980.3732845E-03,-1.0276668950E+00
+347.1500E-06,-987.7386829E-03,-1.0203014966E+00
+347.5600E-06,-990.4522507E-03,-1.0230150644E+00
+347.9700E-06,-981.1485896E-03,-1.0261162848E+00
+348.3800E-06,-987.7386829E-03,-1.0113854881E+00
+348.7900E-06,-976.8844116E-03,-1.0203014966E+00
+349.2000E-06,-987.7386829E-03,-1.0203014966E+00
+349.6100E-06,-976.8844116E-03,-1.0203014966E+00
+350.0200E-06,-977.2720642E-03,-1.0203014966E+00
+350.4300E-06,-985.0251151E-03,-1.0203014966E+00
+350.8400E-06,-981.9238947E-03,-1.0261162848E+00
+351.2500E-06,-974.9461489E-03,-1.0113854881E+00
+351.6600E-06,-978.0473693E-03,-1.0299928102E+00
+352.0700E-06,-976.8844116E-03,-1.0245656746E+00
+352.4800E-06,-987.7386829E-03,-1.0203014966E+00
+352.8900E-06,-987.7386829E-03,-1.0203014966E+00
+353.3000E-06,-979.5979795E-03,-1.0203014966E+00
+353.7100E-06,-976.8844116E-03,-1.0261162848E+00
+354.1200E-06,-987.7386829E-03,-1.0203014966E+00
+354.5300E-06,-987.7386829E-03,-1.0299928102E+00
+354.9400E-06,-994.3287761E-03,-1.0311557679E+00
+355.3500E-06,-987.7386829E-03,-1.0203014966E+00
+355.7600E-06,-987.7386829E-03,-1.0307681153E+00
+356.1700E-06,-987.7386829E-03,-1.0203014966E+00
+356.5800E-06,-993.5534711E-03,-1.0203014966E+00
+356.9900E-06,-987.7386829E-03,-1.0203014966E+00
+357.4000E-06,-979.2103269E-03,-1.0203014966E+00
+357.8100E-06,-985.4127676E-03,-1.0268915899E+00
+358.2200E-06,-991.2275558E-03,-1.0203014966E+00
+358.6300E-06,-988.1263354E-03,-1.0203014966E+00
+359.0400E-06,-995.8793863E-03,-1.0203014966E+00
+359.4500E-06,-998.5929541E-03,-1.0253409797E+00
+359.8600E-06,-989.6769456E-03,-1.0292175051E+00
+360.2700E-06,-987.7386829E-03,-1.0203014966E+00
+360.6800E-06,-987.7386829E-03,-1.0203014966E+00
+361.0900E-06,-987.7386829E-03,-1.0203014966E+00
+361.5000E-06,-998.2053016E-03,-1.0203014966E+00
+361.9100E-06,-990.4522507E-03,-1.0284422000E+00
+362.3200E-06,-987.7386829E-03,-1.0261162848E+00
+362.7300E-06,-998.5929541E-03,-1.0222397593E+00
+363.1400E-06,-996.2670389E-03,-1.0299928102E+00
+363.5500E-06,-985.4127676E-03,-1.0203014966E+00
+363.9600E-06,-995.1040812E-03,-1.0311557679E+00
+364.3700E-06,-987.3510303E-03,-1.0307681153E+00
+364.7800E-06,-976.8844116E-03,-1.0284422000E+00
+365.1900E-06,-992.7781660E-03,-1.0261162848E+00
+365.6000E-06,-996.6546914E-03,-1.0292175051E+00
+366.0100E-06,-988.9016405E-03,-1.0214644542E+00
+366.4200E-06,-992.0028609E-03,-1.0203014966E+00
+366.8300E-06,-991.6152083E-03,-1.0203014966E+00
+367.2400E-06,-987.7386829E-03,-1.0307681153E+00
+367.6500E-06,-998.5929541E-03,-1.0203014966E+00
+368.0600E-06,-987.7386829E-03,-1.0203014966E+00
+368.4700E-06,-996.6546914E-03,-1.0203014966E+00
+368.8800E-06,-987.7386829E-03,-1.0203014966E+00
+369.2900E-06,-998.5929541E-03,-1.0203014966E+00
+369.7000E-06,-987.7386829E-03,-1.0237903695E+00
+370.1100E-06,-977.2720642E-03,-1.0307681153E+00
+370.5200E-06,-990.4522507E-03,-1.0284422000E+00
+370.9300E-06,-987.7386829E-03,-1.0253409797E+00
+371.3400E-06,-987.7386829E-03,-1.0203014966E+00
+371.7500E-06,-987.7386829E-03,-1.0214644542E+00
+372.1600E-06,-987.7386829E-03,-1.0203014966E+00
+372.5700E-06,-995.1040812E-03,-1.0203014966E+00
+372.9800E-06,-988.1263354E-03,-1.0307681153E+00
+373.3900E-06,-987.7386829E-03,-1.0203014966E+00
+373.8000E-06,-987.7386829E-03,-1.0203014966E+00
+374.2100E-06,-987.7386829E-03,-1.0203014966E+00
+374.6200E-06,-978.0473693E-03,-1.0106101830E+00
+375.0300E-06,-987.7386829E-03,-1.0268915899E+00
+375.4400E-06,-987.7386829E-03,-1.0276668950E+00
+375.8500E-06,-987.7386829E-03,-1.0203014966E+00
+376.2600E-06,-995.8793863E-03,-1.0284422000E+00
+376.6700E-06,-992.7781660E-03,-1.0203014966E+00
+377.0800E-06,-998.5929541E-03,-1.0222397593E+00
+377.4900E-06,-997.4299965E-03,-1.0203014966E+00
+377.9000E-06,-994.3287761E-03,-1.0203014966E+00
+378.3100E-06,-987.7386829E-03,-1.0237903695E+00
+378.7200E-06,-998.2053016E-03,-1.0307681153E+00
+379.1300E-06,-987.7386829E-03,-1.0203014966E+00
+379.5400E-06,-987.7386829E-03,-1.0203014966E+00
+379.9500E-06,-998.5929541E-03,-1.0203014966E+00
+380.3600E-06,-997.4299965E-03,-1.0203014966E+00
+380.7700E-06,-998.5929541E-03,-1.0268915899E+00
+381.1800E-06,-998.5929541E-03,-1.0203014966E+00
+381.5900E-06,-987.7386829E-03,-1.0203014966E+00
+382.0000E-06,-987.7386829E-03,-1.0203014966E+00
+382.4100E-06,-987.7386829E-03,-1.0203014966E+00
+382.8200E-06,-989.6769456E-03,-1.0203014966E+00
+383.2300E-06,-988.9016405E-03,-1.0203014966E+00
+383.6400E-06,-1.0009188694E+00,-1.0311557679E+00
+384.0500E-06,-995.1040812E-03,-1.0129360983E+00
+384.4600E-06,-998.2053016E-03,-1.0203014966E+00
+384.8700E-06,-985.0251151E-03,-1.0203014966E+00
+385.2800E-06,-998.5929541E-03,-1.0261162848E+00
+385.6900E-06,-998.5929541E-03,-1.0292175051E+00
+386.1000E-06,-997.4299965E-03,-1.0214644542E+00
+386.5100E-06,-992.0028609E-03,-1.0203014966E+00
+386.9200E-06,-987.7386829E-03,-1.0203014966E+00
+387.3300E-06,-988.1263354E-03,-1.0203014966E+00
+387.7400E-06,-990.4522507E-03,-1.0230150644E+00
+388.1500E-06,-993.5534711E-03,-1.0253409797E+00
+388.5600E-06,-989.6769456E-03,-1.0203014966E+00
+388.9700E-06,-998.5929541E-03,-1.0214644542E+00
+389.3800E-06,-998.5929541E-03,-1.0245656746E+00
+389.7900E-06,-995.1040812E-03,-1.0203014966E+00
+390.2000E-06,-988.5139880E-03,-1.0203014966E+00
+390.6100E-06,-987.7386829E-03,-1.0284422000E+00
+391.0200E-06,-998.5929541E-03,-1.0203014966E+00
+391.4300E-06,-998.5929541E-03,-1.0222397593E+00
+391.8400E-06,-988.9016405E-03,-1.0214644542E+00
+392.2500E-06,-992.0028609E-03,-1.0311557679E+00
+392.6600E-06,-991.2275558E-03,-1.0203014966E+00
+393.0700E-06,-988.1263354E-03,-1.0098348779E+00
+393.4800E-06,-990.4522507E-03,-1.0203014966E+00
+393.8900E-06,-1.0086719203E+00,-1.0253409797E+00
+394.3000E-06,-1.0055706999E+00,-1.0203014966E+00
+394.7100E-06,-998.5929541E-03,-1.0214644542E+00
+395.1200E-06,-1.0051830474E+00,-1.0245656746E+00
+395.5300E-06,-995.1040812E-03,-1.0241780221E+00
+395.9400E-06,-987.3510303E-03,-1.0206891492E+00
+396.3500E-06,-995.8793863E-03,-1.0203014966E+00
+396.7600E-06,-987.7386829E-03,-1.0253409797E+00
+397.1700E-06,-987.7386829E-03,-1.0311557679E+00
+397.5800E-06,-998.5929541E-03,-1.0203014966E+00
+397.9900E-06,-987.7386829E-03,-1.0203014966E+00
+398.4000E-06,-995.1040812E-03,-1.0276668950E+00
+398.8100E-06,-988.1263354E-03,-1.0203014966E+00
+399.2200E-06,-987.7386829E-03,-1.0203014966E+00
+399.6300E-06,-987.7386829E-03,-1.0203014966E+00
+400.0400E-06,-998.5929541E-03,-1.0292175051E+00
+400.4500E-06,-990.0645982E-03,-1.0299928102E+00
+400.8600E-06,-998.5929541E-03,-1.0203014966E+00
+401.2700E-06,-1.0024694796E+00,-1.0276668950E+00
+401.6800E-06,-998.5929541E-03,-1.0307681153E+00
+402.0900E-06,-990.4522507E-03,-1.0230150644E+00
+402.5000E-06,-997.8176490E-03,-1.0253409797E+00
+402.9100E-06,-1.0075089627E+00,-1.0203014966E+00
+403.3200E-06,-998.5929541E-03,-1.0203014966E+00
+403.7300E-06,-992.0028609E-03,-1.0203014966E+00
+404.1400E-06,-998.5929541E-03,-1.0203014966E+00
+404.5500E-06,-998.5929541E-03,-1.0311557679E+00
+404.9600E-06,-998.5929541E-03,-1.0203014966E+00
+405.3700E-06,-992.7781660E-03,-1.0253409797E+00
+405.7800E-06,-996.6546914E-03,-1.0203014966E+00
+406.1900E-06,-988.9016405E-03,-1.0214644542E+00
+406.6000E-06,-1.0009188694E+00,-1.0203014966E+00
+407.0100E-06,-1.0024694796E+00,-1.0237903695E+00
+407.4200E-06,-988.5139880E-03,-1.0206891492E+00
+407.8300E-06,-998.5929541E-03,-1.0311557679E+00
+408.2400E-06,-998.5929541E-03,-1.0253409797E+00
+408.6500E-06,-1.0113854881E+00,-1.0222397593E+00
+409.0600E-06,-998.5929541E-03,-1.0299928102E+00
+409.4700E-06,-1.0051830474E+00,-1.0245656746E+00
+409.8800E-06,-998.5929541E-03,-1.0237903695E+00
+410.2900E-06,-988.1263354E-03,-1.0311557679E+00
+410.7000E-06,-998.5929541E-03,-1.0203014966E+00
+411.1100E-06,-998.5929541E-03,-1.0253409797E+00
+411.5200E-06,-1.0005312168E+00,-1.0203014966E+00
+411.9300E-06,-990.0645982E-03,-1.0214644542E+00
+412.3400E-06,-1.0051830474E+00,-1.0203014966E+00
+412.7500E-06,-998.5929541E-03,-1.0237903695E+00
+413.1600E-06,-1.0090595728E+00,-1.0307681153E+00
+413.5700E-06,-1.0067336576E+00,-1.0203014966E+00
+413.9800E-06,-993.5534711E-03,-1.0203014966E+00
+414.3900E-06,-996.6546914E-03,-1.0203014966E+00
+414.8000E-06,-998.5929541E-03,-1.0214644542E+00
+415.2100E-06,-994.3287761E-03,-1.0268915899E+00
+415.6200E-06,-1.0020818270E+00,-1.0311557679E+00
+416.0300E-06,-998.5929541E-03,-1.0307681153E+00
+416.4400E-06,-1.0013065219E+00,-1.0284422000E+00
+416.8500E-06,-998.5929541E-03,-1.0203014966E+00
+417.2600E-06,-998.5929541E-03,-1.0292175051E+00
+417.6700E-06,-997.4299965E-03,-1.0311557679E+00
+418.0800E-06,-1.0051830474E+00,-1.0245656746E+00
+418.4900E-06,-991.2275558E-03,-1.0203014966E+00
+418.9000E-06,-1.0090595728E+00,-1.0203014966E+00
+419.3100E-06,-998.5929541E-03,-1.0311557679E+00
+419.7200E-06,-1.0044077423E+00,-1.0311557679E+00
+420.1300E-06,-993.5534710E-03,-1.0292175051E+00
+420.5400E-06,-999.7559118E-03,-1.0214644542E+00
+420.9500E-06,-1.0005312169E+00,-1.0245656746E+00
+421.3600E-06,-998.5929541E-03,-1.0276668950E+00
+421.7700E-06,-998.5929541E-03,-1.0206891492E+00
+422.1800E-06,-987.7386829E-03,-1.0203014966E+00
+422.5900E-06,-997.8176490E-03,-1.0253409797E+00
+423.0000E-06,-1.0055706999E+00,-1.0311557679E+00
+423.4100E-06,-998.5929541E-03,-1.0311557679E+00
+423.8200E-06,-1.0028571321E+00,-1.0311557679E+00
+424.2300E-06,-998.5929541E-03,-1.0276668950E+00
+424.6400E-06,-1.0090595728E+00,-1.0311557679E+00
+425.0500E-06,-990.4522507E-03,-1.0230150644E+00
+425.4600E-06,-1.0028571321E+00,-1.0203014966E+00
+425.8700E-06,-1.0005312168E+00,-1.0222397593E+00
+426.2800E-06,-990.0645982E-03,-1.0299928102E+00
+426.6900E-06,-1.0028571321E+00,-1.0268915899E+00
+427.1000E-06,-1.0059583525E+00,-1.0276668950E+00
+427.5100E-06,-998.9806067E-03,-1.0203014966E+00
+427.9200E-06,-987.7386829E-03,-1.0230150644E+00
+428.3300E-06,-998.5929541E-03,-1.0311557679E+00
+428.7400E-06,-1.0094472254E+00,-1.0292175051E+00
+429.1500E-06,-999.7559118E-03,-1.0299928102E+00
+429.5600E-06,-998.5929541E-03,-1.0245656746E+00
+429.9700E-06,-995.1040812E-03,-1.0276668950E+00
+430.3800E-06,-988.1263354E-03,-1.0203014966E+00
+430.7900E-06,-998.5929541E-03,-1.0121607932E+00
+431.2000E-06,-998.5929541E-03,-1.0261162848E+00
+431.6100E-06,-989.6769456E-03,-1.0203014966E+00
+432.0200E-06,-999.7559118E-03,-1.0299928102E+00
+432.4300E-06,-996.2670389E-03,-1.0268915899E+00
+432.8400E-06,-1.0059583525E+00,-1.0203014966E+00
+433.2500E-06,-998.9806067E-03,-1.0206891492E+00
+433.6600E-06,-995.8793863E-03,-1.0311557679E+00
+434.0700E-06,-1.0036324372E+00,-1.0261162848E+00
+434.4800E-06,-996.6546914E-03,-1.0203014966E+00
+434.8900E-06,-998.5929541E-03,-1.0311557679E+00
+435.3000E-06,-998.5929541E-03,-1.0245656746E+00
+435.7100E-06,-998.5929541E-03,-1.0276668950E+00
+436.1200E-06,-1.0090595728E+00,-1.0206891492E+00
+436.5300E-06,-1.0013065219E+00,-1.0203014966E+00
+436.9400E-06,-998.5929541E-03,-1.0261162848E+00
+437.3500E-06,-998.5929541E-03,-1.0203014966E+00
+437.7600E-06,-999.7559118E-03,-1.0214644542E+00
+438.1700E-06,-998.5929541E-03,-1.0203014966E+00
+438.5800E-06,-1.0094472254E+00,-1.0276668950E+00
+438.9900E-06,-988.1263354E-03,-1.0311557679E+00
+439.4000E-06,-1.0067336576E+00,-1.0230150644E+00
+439.8100E-06,-993.5534711E-03,-1.0261162848E+00
+440.2200E-06,-1.0075089627E+00,-1.0203014966E+00
+440.6300E-06,-999.7559118E-03,-1.0311557679E+00
+441.0400E-06,-1.0051830474E+00,-1.0311557679E+00
+441.4500E-06,-1.0059583525E+00,-1.0237903695E+00
+441.8600E-06,-998.5929541E-03,-1.0203014966E+00
+442.2700E-06,-995.8793863E-03,-1.0284422000E+00
+442.6800E-06,-998.5929541E-03,-1.0311557679E+00
+443.0900E-06,-998.5929541E-03,-1.0222397593E+00
+443.5000E-06,-999.7559118E-03,-1.0214644542E+00
+443.9100E-06,-992.0028609E-03,-1.0245656746E+00
+444.3200E-06,-1.0094472254E+00,-1.0311557679E+00
+444.7300E-06,-1.0094472254E+00,-1.0203014966E+00
+445.1400E-06,-1.0067336576E+00,-1.0203014966E+00
+445.5500E-06,-1.0094472254E+00,-1.0203014966E+00
+445.9600E-06,-1.0075089627E+00,-1.0203014966E+00
+446.3700E-06,-998.5929541E-03,-1.0214644542E+00
+446.7800E-06,-998.5929541E-03,-1.0203014966E+00
+447.1900E-06,-1.0094472254E+00,-1.0203014966E+00
+447.6000E-06,-1.0094472254E+00,-1.0098348779E+00
+448.0100E-06,-995.8793863E-03,-1.0230150644E+00
+448.4200E-06,-992.7781660E-03,-1.0203014966E+00
+448.8300E-06,-1.0075089627E+00,-1.0292175051E+00
+449.2400E-06,-998.5929541E-03,-1.0203014966E+00
+449.6500E-06,-998.5929541E-03,-1.0203014966E+00
+450.0600E-06,-1.0094472254E+00,-1.0203014966E+00
+450.4700E-06,-1.0094472254E+00,-1.0203014966E+00
+450.8800E-06,-998.5929541E-03,-1.0284422000E+00
+451.2900E-06,-1.0036324372E+00,-1.0203014966E+00
+451.7000E-06,-1.0183632339E+00,-1.0222397593E+00
+452.1100E-06,-1.0179755813E+00,-1.0299928102E+00
+452.5200E-06,-998.5929541E-03,-1.0203014966E+00
+452.9300E-06,-1.0059583525E+00,-1.0203014966E+00
+453.3400E-06,-998.5929541E-03,-1.0203014966E+00
+453.7500E-06,-1.0094472254E+00,-1.0284422000E+00
+454.1600E-06,-1.0086719203E+00,-1.0253409797E+00
+454.5700E-06,-998.5929541E-03,-1.0203014966E+00
+454.9800E-06,-1.0094472254E+00,-1.0214644542E+00
+455.3900E-06,-1.0028571321E+00,-1.0311557679E+00
+455.8000E-06,-1.0020818270E+00,-1.0203014966E+00
+456.2100E-06,-998.9806067E-03,-1.0203014966E+00
+456.6200E-06,-998.5929541E-03,-1.0203014966E+00
+457.0300E-06,-992.7781660E-03,-1.0203014966E+00
+457.4400E-06,-1.0075089627E+00,-1.0292175051E+00
+457.8500E-06,-998.5929541E-03,-1.0203014966E+00
+458.2600E-06,-1.0137114034E+00,-1.0245656746E+00
+458.6700E-06,-1.0020818270E+00,-1.0276668950E+00
+459.0800E-06,-998.9806067E-03,-1.0307681153E+00
+459.4900E-06,-998.5929541E-03,-1.0284422000E+00
+459.9000E-06,-1.0094472254E+00,-1.0253409797E+00
+460.3100E-06,-1.0005312168E+00,-1.0203014966E+00
+460.7200E-06,-1.0082842677E+00,-1.0203014966E+00
+461.1300E-06,-998.5929541E-03,-1.0245656746E+00
+461.5400E-06,-998.5929541E-03,-1.0311557679E+00
+461.9500E-06,-988.1263354E-03,-1.0307681153E+00
+462.3600E-06,-1.0067336576E+00,-1.0203014966E+00
+462.7700E-06,-1.0086719203E+00,-1.0203014966E+00
+463.1800E-06,-998.5929541E-03,-1.0203014966E+00
+463.5900E-06,-1.0191385390E+00,-1.0311557679E+00
+464.0000E-06,-998.5929541E-03,-1.0203014966E+00
+464.4100E-06,-1.0059583525E+00,-1.0203014966E+00
+464.8200E-06,-1.0094472254E+00,-1.0206891492E+00
+465.2300E-06,-1.0148743610E+00,-1.0230150644E+00
+465.6400E-06,-1.0094472254E+00,-1.0203014966E+00
+466.0500E-06,-1.0005312168E+00,-1.0203014966E+00
+466.4600E-06,-997.4299965E-03,-1.0203014966E+00
+466.8700E-06,-1.0009188694E+00,-1.0160373186E+00
+467.2800E-06,-998.5929541E-03,-1.0203014966E+00
+467.6900E-06,-1.0199138441E+00,-1.0307681153E+00
+468.1000E-06,-1.0067336576E+00,-1.0284422000E+00
+468.5100E-06,-998.5929541E-03,-1.0253409797E+00
+468.9200E-06,-1.0094472254E+00,-1.0222397593E+00
+469.3300E-06,-998.5929541E-03,-1.0214644542E+00
+469.7400E-06,-1.0094472254E+00,-1.0268915899E+00
+470.1500E-06,-998.5929541E-03,-1.0203014966E+00
+470.5600E-06,-998.5929541E-03,-1.0203014966E+00
+470.9700E-06,-1.0013065219E+00,-1.0230150644E+00
+471.3800E-06,-1.0036324372E+00,-1.0203014966E+00
+471.7900E-06,-998.5929541E-03,-1.0183632339E+00
+472.2000E-06,-1.0191385390E+00,-1.0311557679E+00
+472.6100E-06,-998.5929541E-03,-1.0311557679E+00
+473.0200E-06,-998.5929541E-03,-1.0237903695E+00
+473.4300E-06,-1.0094472254E+00,-1.0203014966E+00
+473.8400E-06,-1.0067336576E+00,-1.0203014966E+00
+474.2500E-06,-997.8176490E-03,-1.0361952509E+00
+474.6600E-06,-1.0005312168E+00,-1.0203014966E+00
+475.0700E-06,-999.7559118E-03,-1.0214644542E+00
+475.4800E-06,-1.0051830474E+00,-1.0268915899E+00
+475.8900E-06,-1.0020818270E+00,-1.0237903695E+00
+476.3000E-06,-1.0090595728E+00,-1.0102225305E+00
+476.7100E-06,-1.0013065219E+00,-1.0311557679E+00
+477.1200E-06,-1.0203014966E+00,-1.0253409797E+00
+477.5300E-06,-996.6546914E-03,-1.0292175051E+00
+477.9400E-06,-998.5929541E-03,-1.0203014966E+00
+478.3500E-06,-1.0051830474E+00,-1.0245656746E+00
+478.7600E-06,-998.5929541E-03,-1.0276668950E+00
+479.1700E-06,-1.0090595728E+00,-1.0206891492E+00
+479.5800E-06,-1.0067336576E+00,-1.0203014966E+00
+479.9900E-06,-1.0144867084E+00,-1.0311557679E+00
+480.4000E-06,-1.0094472254E+00,-1.0292175051E+00
+480.8100E-06,-998.5929541E-03,-1.0203014966E+00
+481.2200E-06,-1.0028571321E+00,-1.0245656746E+00
+481.6300E-06,-1.0059583525E+00,-1.0203014966E+00
+482.0400E-06,-1.0090595728E+00,-1.0307681153E+00
+482.4500E-06,-1.0040200897E+00,-1.0230150644E+00
+482.8600E-06,-1.0036324372E+00,-1.0203014966E+00
+483.2700E-06,-998.5929541E-03,-1.0311557679E+00
+483.6800E-06,-999.7559118E-03,-1.0203014966E+00
+484.0900E-06,-1.0094472254E+00,-1.0203014966E+00
+484.5000E-06,-998.5929541E-03,-1.0203014966E+00
+484.9100E-06,-1.0094472254E+00,-1.0311557679E+00
+485.3200E-06,-998.5929541E-03,-1.0230150644E+00
+485.7300E-06,-1.0144867084E+00,-1.0253409797E+00
+486.1400E-06,-1.0203014966E+00,-1.0203014966E+00
+486.5500E-06,-988.9016405E-03,-1.0203014966E+00
+486.9600E-06,-1.0137114034E+00,-1.0311557679E+00
+487.3700E-06,-998.5929541E-03,-1.0237903695E+00
+487.7800E-06,-998.5929541E-03,-1.0307681153E+00
+488.1900E-06,-1.0067336576E+00,-1.0311557679E+00
+488.6000E-06,-1.0036324372E+00,-1.0203014966E+00
+489.0100E-06,-998.5929541E-03,-1.0292175051E+00
+489.4200E-06,-999.7559118E-03,-1.0299928102E+00
+489.8300E-06,-1.0028571321E+00,-1.0245656746E+00
+490.2400E-06,-1.0059583525E+00,-1.0276668950E+00
+490.6500E-06,-1.0199138441E+00,-1.0307681153E+00
+491.0600E-06,-1.0148743610E+00,-1.0284422000E+00
+491.4700E-06,-1.0044077423E+00,-1.0203014966E+00
+491.8800E-06,-1.0005312168E+00,-1.0292175051E+00
+492.2900E-06,-1.0191385390E+00,-1.0311557679E+00
+492.7000E-06,-1.0094472254E+00,-1.0311557679E+00
+493.1100E-06,-1.0168126237E+00,-1.0237903695E+00
+493.5200E-06,-998.9806067E-03,-1.0307681153E+00
+493.9300E-06,-1.0013065219E+00,-1.0203014966E+00
+494.3400E-06,-1.0102225305E+00,-1.0203014966E+00
+494.7500E-06,-998.5929541E-03,-1.0222397593E+00
+495.1600E-06,-1.0094472254E+00,-1.0299928102E+00
+495.5700E-06,-1.0117731406E+00,-1.0245656746E+00
+495.9800E-06,-994.7164287E-03,-1.0276668950E+00
+496.3900E-06,-1.0086719203E+00,-1.0206891492E+00
+496.8000E-06,-1.0040200898E+00,-1.0230150644E+00
+497.2100E-06,-1.0094472254E+00,-1.0261162848E+00
+497.6200E-06,-1.0075089627E+00,-1.0222397593E+00
+498.0300E-06,-999.7559118E-03,-1.0299928102E+00
+498.4400E-06,-1.0094472254E+00,-1.0354199458E+00
+498.8500E-06,-1.0094472254E+00,-1.0203014966E+00
+499.2600E-06,-998.5929541E-03,-1.0307681153E+00
+499.6700E-06,-1.0094472254E+00,-1.0203014966E+00
+500.0800E-06,-998.5929541E-03,-1.0203014966E+00
+500.4900E-06,-1.0024694796E+00,-1.0203014966E+00
+500.9000E-06,-1.0094472254E+00,-1.0299928102E+00
+501.3100E-06,-1.0051830474E+00,-1.0311557679E+00
+501.7200E-06,-1.0020818270E+00,-1.0203014966E+00
+502.1300E-06,-1.0086719203E+00,-1.0203014966E+00
+502.5400E-06,-1.0121607932E+00,-1.0203014966E+00
+502.9500E-06,-1.0044077423E+00,-1.0311557679E+00
+503.3600E-06,-1.0055706999E+00,-1.0292175051E+00
+503.7700E-06,-999.7559118E-03,-1.0299928102E+00
+504.1800E-06,-1.0137114034E+00,-1.0203014966E+00
+504.5900E-06,-1.0094472254E+00,-1.0385211662E+00
+505.0000E-06,-999.3682592E-03,-1.0307681153E+00
+505.4100E-06,-998.5929541E-03,-1.0203014966E+00
+505.8200E-06,-1.0036324372E+00,-1.0261162848E+00
+506.2300E-06,-1.0005312168E+00,-1.0292175051E+00
+506.6400E-06,-1.0203014966E+00,-1.0323187255E+00
+507.0500E-06,-1.0137114034E+00,-1.0203014966E+00
+507.4600E-06,-1.0133237508E+00,-1.0237903695E+00
+507.8700E-06,-1.0199138441E+00,-1.0203014966E+00
+508.2800E-06,-1.0067336576E+00,-1.0203014966E+00
+508.6900E-06,-1.0094472254E+00,-1.0203014966E+00
+509.1000E-06,-1.0094472254E+00,-1.0222397593E+00
+509.5100E-06,-1.0082842677E+00,-1.0203014966E+00
+509.9200E-06,-1.0160373186E+00,-1.0203014966E+00
+510.3300E-06,-1.0094472254E+00,-1.0237903695E+00
+510.7400E-06,-998.5929541E-03,-1.0311557679E+00
+511.1500E-06,-1.0148743610E+00,-1.0203014966E+00
+511.5600E-06,-1.0094472254E+00,-1.0203014966E+00
+511.9700E-06,-1.0183632339E+00,-1.0292175051E+00
+512.3800E-06,-999.7559118E-03,-1.0311557679E+00
+512.7900E-06,-1.0028571321E+00,-1.0245656746E+00
+513.2000E-06,-1.0203014966E+00,-1.0276668950E+00
+513.6100E-06,-998.9806067E-03,-1.0203014966E+00
+514.0200E-06,-1.0148743610E+00,-1.0284422000E+00
+514.4300E-06,-1.0102225305E+00,-1.0203014966E+00
+514.8400E-06,-1.0094472254E+00,-1.0222397593E+00
+515.2500E-06,-999.7559118E-03,-1.0203014966E+00
+515.6600E-06,-1.0028571321E+00,-1.0268915899E+00
+516.0700E-06,-1.0059583525E+00,-1.0164249712E+00
+516.4800E-06,-1.0090595728E+00,-1.0307681153E+00
+516.8900E-06,-1.0067336576E+00,-1.0230150644E+00
+517.3000E-06,-1.0102225305E+00,-1.0253409797E+00
+517.7100E-06,-1.0005312168E+00,-1.0222397593E+00
+518.1200E-06,-1.0082842677E+00,-1.0311557679E+00
+518.5300E-06,-1.0094472254E+00,-1.0203014966E+00
+518.9400E-06,-1.0203014966E+00,-1.0203014966E+00
+519.3500E-06,-988.1263354E-03,-1.0203014966E+00
+519.7600E-06,-1.0094472254E+00,-1.0203014966E+00
+520.1700E-06,-1.0036324372E+00,-1.0261162848E+00
+520.5800E-06,-1.0094472254E+00,-1.0203014966E+00
+520.9900E-06,-1.0082842677E+00,-1.0203014966E+00
+521.4000E-06,-1.0094472254E+00,-1.0203014966E+00
+521.8100E-06,-1.0094472254E+00,-1.0203014966E+00
+522.2200E-06,-1.0094472254E+00,-1.0307681153E+00
+522.6300E-06,-1.0094472254E+00,-1.0284422000E+00
+523.0400E-06,-1.0094472254E+00,-1.0253409797E+00
+523.4500E-06,-1.0094472254E+00,-1.0203014966E+00
+523.8600E-06,-1.0106101830E+00,-1.0311557679E+00
+524.2700E-06,-1.0051830474E+00,-1.0245656746E+00
+524.6800E-06,-1.0094472254E+00,-1.0276668950E+00
+525.0900E-06,-988.5139880E-03,-1.0203014966E+00
+525.5000E-06,-1.0121607932E+00,-1.0203014966E+00
+525.9100E-06,-1.0036324372E+00,-1.0311557679E+00
+526.3200E-06,-1.0113854881E+00,-1.0292175051E+00
+526.7300E-06,-1.0082842677E+00,-1.0311557679E+00
+527.1400E-06,-1.0117731406E+00,-1.0245656746E+00
+527.5500E-06,-1.0094472254E+00,-1.0203014966E+00
+527.9600E-06,-998.9806067E-03,-1.0203014966E+00
+528.3700E-06,-1.0121607932E+00,-1.0203014966E+00
+528.7800E-06,-1.0094472254E+00,-1.0203014966E+00
+529.1900E-06,-1.0094472254E+00,-1.0203014966E+00
+529.6000E-06,-1.0191385390E+00,-1.0203014966E+00
+530.0100E-06,-1.0137114034E+00,-1.0311557679E+00
+530.4200E-06,-1.0094472254E+00,-1.0203014966E+00
+530.8300E-06,-1.0199138441E+00,-1.0307681153E+00
+531.2400E-06,-1.0013065219E+00,-1.0284422000E+00
+531.6500E-06,-1.0195261915E+00,-1.0203014966E+00
+532.0600E-06,-1.0094472254E+00,-1.0292175051E+00
+532.4700E-06,-999.7559118E-03,-1.0203014966E+00
+532.8800E-06,-1.0137114034E+00,-1.0203014966E+00
+533.2900E-06,-1.0094472254E+00,-1.0203014966E+00
+533.7000E-06,-1.0199138441E+00,-1.0311557679E+00
+534.1100E-06,-1.0121607932E+00,-1.0230150644E+00
+534.5200E-06,-992.7781660E-03,-1.0203014966E+00
+534.9300E-06,-1.0094472254E+00,-1.0311557679E+00
+535.3400E-06,-1.0082842677E+00,-1.0203014966E+00
+535.7500E-06,-1.0160373186E+00,-1.0203014966E+00
+536.1600E-06,-1.0094472254E+00,-1.0276668950E+00
+536.5700E-06,-1.0094472254E+00,-1.0307681153E+00
+536.9800E-06,-1.0094472254E+00,-1.0230150644E+00
+537.3900E-06,-992.7781660E-03,-1.0203014966E+00
+537.8000E-06,-1.0075089626E+00,-1.0203014966E+00
+538.2100E-06,-1.0020818270E+00,-1.0106101830E+00
+538.6200E-06,-1.0094472254E+00,-1.0203014966E+00
+539.0300E-06,-1.0020818270E+00,-1.0203014966E+00
+539.4400E-06,-1.0090595728E+00,-1.0203014966E+00
+539.8500E-06,-1.0094472254E+00,-1.0311557679E+00
+540.2600E-06,-1.0094472254E+00,-1.0311557679E+00
+540.6700E-06,-1.0094472254E+00,-1.0311557679E+00
+541.0800E-06,-1.0191385390E+00,-1.0203014966E+00
+541.4900E-06,-1.0028571321E+00,-1.0203014966E+00
+541.9000E-06,-998.2053016E-03,-1.0276668950E+00
+542.3100E-06,-998.9806067E-03,-1.0307681153E+00
+542.7200E-06,-1.0013065219E+00,-1.0203014966E+00
+543.1300E-06,-1.0144867084E+00,-1.0152620135E+00
+543.5400E-06,-1.0094472254E+00,-1.0113854881E+00
+543.9500E-06,-1.0106101830E+00,-1.0214644542E+00
+544.3600E-06,-1.0094472254E+00,-1.0203014966E+00
+544.7700E-06,-998.5929541E-03,-1.0276668950E+00
+545.1800E-06,-998.2053016E-03,-1.0206891492E+00
+545.5900E-06,-1.0094472254E+00,-1.0230150644E+00
+546.0000E-06,-1.0094472254E+00,-1.0253409797E+00
+546.4100E-06,-1.0075089626E+00,-1.0311557679E+00
+546.8200E-06,-1.0094472254E+00,-1.0203014966E+00
+547.2300E-06,-1.0160373186E+00,-1.0203014966E+00
+547.6400E-06,-1.0133237508E+00,-1.0203014966E+00
+548.0500E-06,-1.0094472254E+00,-1.0203014966E+00
+548.4600E-06,-1.0094472254E+00,-1.0311557679E+00
+548.8700E-06,-1.0137114034E+00,-1.0253409797E+00
+549.2800E-06,-1.0094472254E+00,-1.0203014966E+00
+549.6900E-06,-999.7559118E-03,-1.0299928102E+00
+550.1000E-06,-1.0160373186E+00,-1.0203014966E+00
+550.5100E-06,-1.0020818270E+00,-1.0276668949E+00
+550.9200E-06,-1.0094472254E+00,-1.0307681153E+00
+551.3300E-06,-1.0040200898E+00,-1.0284422000E+00
+551.7400E-06,-1.0086719203E+00,-1.0203014966E+00
+552.1500E-06,-1.0075089626E+00,-1.0203014966E+00
+552.5600E-06,-1.0094472254E+00,-1.0299928102E+00
+552.9700E-06,-1.0094472254E+00,-1.0311557679E+00
+553.3800E-06,-1.0020818270E+00,-1.0203014966E+00
+553.7900E-06,-998.9806067E-03,-1.0311557679E+00
+554.2000E-06,-1.0067336576E+00,-1.0203014966E+00
+554.6100E-06,-1.0094472254E+00,-1.0253409797E+00
+555.0200E-06,-998.5929541E-03,-1.0203014966E+00
+555.4300E-06,-999.7559118E-03,-1.0203014966E+00
+555.8400E-06,-1.0137114034E+00,-1.0203014966E+00
+556.2500E-06,-1.0133237508E+00,-1.0203014966E+00
+556.6600E-06,-998.9806067E-03,-1.0199138441E+00
+557.0700E-06,-1.0148743610E+00,-1.0203014966E+00
+557.4800E-06,-1.0144867084E+00,-1.0203014966E+00
+557.8900E-06,-1.0094472254E+00,-1.0311557679E+00
+558.3000E-06,-1.0094472254E+00,-1.0299928102E+00
+558.7100E-06,-1.0051830474E+00,-1.0268915899E+00
+559.1200E-06,-998.5929541E-03,-1.0203014966E+00
+559.5300E-06,-1.0098348779E+00,-1.0206891492E+00
+559.9400E-06,-1.0013065219E+00,-1.0311557679E+00
+560.3500E-06,-1.0094472254E+00,-1.0203014966E+00
+560.7600E-06,-1.0203014966E+00,-1.0203014966E+00
+561.1700E-06,-1.0106101830E+00,-1.0203014966E+00
+561.5800E-06,-1.0051830474E+00,-1.0245656746E+00
+561.9900E-06,-1.0129360983E+00,-1.0203014966E+00
+562.4000E-06,-1.0094472254E+00,-1.0102225305E+00
+562.8100E-06,-1.0094472254E+00,-1.0203014966E+00
+563.2200E-06,-998.5929541E-03,-1.0152620135E+00
+563.6300E-06,-1.0075089626E+00,-1.0203014966E+00
+564.0400E-06,-1.0214644542E+00,-1.0214644542E+00
+564.4500E-06,-1.0028571321E+00,-1.0203014966E+00
+564.8600E-06,-1.0168126237E+00,-1.0276668949E+00
+565.2700E-06,-1.0094472254E+00,-1.0206891492E+00
+565.6800E-06,-1.0121607932E+00,-1.0203014966E+00
+566.0900E-06,-1.0253409797E+00,-1.0261162848E+00
+566.5000E-06,-1.0164249712E+00,-1.0292175051E+00
+566.9100E-06,-1.0094472254E+00,-1.0214644542E+00
+567.3200E-06,-1.0160373186E+00,-1.0203014966E+00
+567.7300E-06,-1.0129360983E+00,-1.0203014966E+00
+568.1400E-06,-1.0203014966E+00,-1.0203014966E+00
+568.5500E-06,-998.5929541E-03,-1.0203014966E+00
+568.9600E-06,-1.0210768017E+00,-1.0203014966E+00
+569.3700E-06,-1.0075089626E+00,-1.0203014966E+00
+569.7800E-06,-1.0082842677E+00,-1.0203014966E+00
+570.1900E-06,-1.0160373186E+00,-1.0311557679E+00
+570.6000E-06,-1.0133237508E+00,-1.0203014966E+00
+571.0100E-06,-999.3682592E-03,-1.0206891492E+00
+571.4200E-06,-1.0094472254E+00,-1.0203014966E+00
+571.8300E-06,-1.0144867084E+00,-1.0203014966E+00
+572.2400E-06,-1.0183632339E+00,-1.0203014966E+00
+572.6500E-06,-998.5929541E-03,-1.0214644542E+00
+573.0600E-06,-1.0160373186E+00,-1.0245656746E+00
+573.4700E-06,-1.0094472254E+00,-1.0203014966E+00
+573.8800E-06,-1.0094472254E+00,-1.0203014966E+00
+574.2900E-06,-1.0094472254E+00,-1.0284422000E+00
+574.7000E-06,-1.0094472254E+00,-1.0203014966E+00
+575.1100E-06,-1.0203014966E+00,-1.0203014966E+00
+575.5200E-06,-1.0094472254E+00,-1.0203014966E+00
+575.9300E-06,-1.0137114034E+00,-1.0203014966E+00
+576.3400E-06,-1.0094472254E+00,-1.0237903695E+00
+576.7500E-06,-1.0199138441E+00,-1.0311557679E+00
+577.1600E-06,-1.0013065219E+00,-1.0230150644E+00
+577.5700E-06,-1.0044077423E+00,-1.0311557679E+00
+577.9800E-06,-1.0005312169E+00,-1.0222397593E+00
+578.3900E-06,-1.0106101830E+00,-1.0203014966E+00
+578.8000E-06,-998.5929541E-03,-1.0226274119E+00
+579.2100E-06,-1.0059583525E+00,-1.0311557679E+00
+579.6200E-06,-1.0094472254E+00,-1.0307681153E+00
+580.0300E-06,-1.0094472254E+00,-1.0203014966E+00
+580.4400E-06,-1.0203014966E+00,-1.0253409797E+00
+580.8500E-06,-1.0113854881E+00,-1.0311557679E+00
+581.2600E-06,-1.0106101830E+00,-1.0299928102E+00
+581.6700E-06,-1.0137114034E+00,-1.0311557679E+00
+582.0800E-06,-1.0168126237E+00,-1.0203014966E+00
+582.4900E-06,-1.0094472254E+00,-1.0206891492E+00
+582.9000E-06,-1.0094472254E+00,-1.0230150644E+00
+583.3100E-06,-1.0094472254E+00,-1.0261162848E+00
+583.7200E-06,-1.0094472254E+00,-1.0222397593E+00
+584.1300E-06,-1.0009188694E+00,-1.0203014966E+00
+584.5400E-06,-1.0051830474E+00,-1.0203014966E+00
+584.9500E-06,-1.0020818270E+00,-1.0276668949E+00
+585.3600E-06,-998.9806067E-03,-1.0203014966E+00
+585.7700E-06,-1.0121607932E+00,-1.0230150644E+00
+586.1800E-06,-1.0044077423E+00,-1.0253409797E+00
+586.5900E-06,-1.0113854881E+00,-1.0222397593E+00
+587.0000E-06,-1.0094472254E+00,-1.0214644542E+00
+587.4100E-06,-1.0160373186E+00,-1.0245656746E+00
+587.8200E-06,-998.5929541E-03,-1.0203014966E+00
+588.2300E-06,-998.9806067E-03,-1.0206891492E+00
+588.6400E-06,-1.0094472254E+00,-1.0203014966E+00
+589.0500E-06,-1.0044077423E+00,-1.0311557679E+00
+589.4600E-06,-1.0164249712E+00,-1.0203014966E+00
+589.8700E-06,-1.0106101830E+00,-1.0203014966E+00
+590.2800E-06,-1.0094472254E+00,-1.0268915899E+00
+590.6900E-06,-1.0203014966E+00,-1.0203014966E+00
+591.1000E-06,-1.0094472254E+00,-1.0203014966E+00
+591.5100E-06,-1.0067336576E+00,-1.0203014966E+00
+591.9200E-06,-1.0152620135E+00,-1.0203014966E+00
+592.3300E-06,-1.0203014966E+00,-1.0311557679E+00
+592.7400E-06,-1.0094472254E+00,-1.0299928102E+00
+593.1500E-06,-998.5929541E-03,-1.0245656746E+00
+593.5600E-06,-998.5929541E-03,-1.0276668949E+00
+593.9700E-06,-1.0098348779E+00,-1.0311557679E+00
+594.3800E-06,-1.0203014966E+00,-1.0230150644E+00
+594.7900E-06,-1.0152620135E+00,-1.0203014966E+00
+595.2000E-06,-1.0005312169E+00,-1.0183632339E+00
+595.6100E-06,-1.0094472254E+00,-1.0214644542E+00
+596.0200E-06,-1.0094472254E+00,-1.0311557679E+00
+596.4300E-06,-1.0094472254E+00,-1.0237903695E+00
+596.8400E-06,-1.0195261915E+00,-1.0203014966E+00
+597.2500E-06,-1.0094472254E+00,-1.0230150644E+00
+597.6600E-06,-1.0086719203E+00,-1.0311557679E+00
+598.0700E-06,-1.0113854881E+00,-1.0222397593E+00
+598.4800E-06,-1.0094472254E+00,-1.0106101830E+00
+598.8900E-06,-998.5929541E-03,-1.0203014966E+00
+599.3000E-06,-1.0129360983E+00,-1.0203014966E+00
+599.7100E-06,-1.0098348779E+00,-1.0311557679E+00
+600.1200E-06,-1.0175879288E+00,-1.0284422000E+00
+600.5300E-06,-1.0144867085E+00,-1.0203014966E+00
+600.9400E-06,-1.0024694796E+00,-1.0311557679E+00
+601.3500E-06,-1.0094472254E+00,-1.0203014966E+00
+601.7600E-06,-1.0117731406E+00,-1.0245656746E+00
+602.1700E-06,-1.0203014966E+00,-1.0203014966E+00
+602.5800E-06,-1.0195261915E+00,-1.0206891492E+00
+602.9900E-06,-1.0013065219E+00,-1.0230150644E+00
+603.4000E-06,-1.0094472254E+00,-1.0203014966E+00
+603.8100E-06,-1.0183632339E+00,-1.0311557679E+00
+604.2200E-06,-1.0082842677E+00,-1.0203014966E+00
+604.6300E-06,-1.0071213101E+00,-1.0203014966E+00
+605.0400E-06,-998.5929541E-03,-1.0237903695E+00
+605.4500E-06,-1.0199138441E+00,-1.0311557679E+00
+605.8600E-06,-1.0094472254E+00,-1.0284422000E+00
+606.2700E-06,-1.0036324372E+00,-1.0203014966E+00
+606.6800E-06,-1.0183632339E+00,-1.0292175051E+00
+607.0900E-06,-1.0082842677E+00,-1.0214644542E+00
+607.5000E-06,-998.5929541E-03,-1.0203014966E+00
+607.9100E-06,-1.0094472254E+00,-1.0203014966E+00
+608.3200E-06,-1.0199138441E+00,-1.0311557679E+00
+608.7300E-06,-1.0175879288E+00,-1.0284422000E+00
+609.1400E-06,-1.0160373186E+00,-1.0261162848E+00
+609.5500E-06,-998.5929541E-03,-1.0222397593E+00
+609.9600E-06,-998.5929541E-03,-1.0214644542E+00
+610.3700E-06,-1.0094472254E+00,-1.0311557679E+00
+610.7800E-06,-1.0203014966E+00,-1.0203014966E+00
+611.1900E-06,-998.9806067E-03,-1.0203014966E+00
+611.6000E-06,-1.0094472254E+00,-1.0311557679E+00
+612.0100E-06,-1.0036324372E+00,-1.0203014966E+00
+612.4200E-06,-1.0113854881E+00,-1.0222397593E+00
+612.8300E-06,-1.0179755814E+00,-1.0203014966E+00
+613.2400E-06,-1.0094472254E+00,-1.0245656746E+00
+613.6500E-06,-1.0094472254E+00,-1.0311557679E+00
+614.0600E-06,-1.0094472254E+00,-1.0206891492E+00
+614.4700E-06,-1.0013065219E+00,-1.0203014966E+00
+614.8800E-06,-1.0094472254E+00,-1.0253409797E+00
+615.2900E-06,-1.0005312169E+00,-1.0292175051E+00
+615.7000E-06,-1.0191385390E+00,-1.0203014966E+00
+616.1100E-06,-1.0094472254E+00,-1.0203014966E+00
+616.5200E-06,-1.0094472254E+00,-1.0203014966E+00
+616.9300E-06,-1.0098348779E+00,-1.0303804627E+00
+617.3400E-06,-1.0094472254E+00,-1.0230150644E+00
+617.7500E-06,-1.0044077423E+00,-1.0203014966E+00
+618.1600E-06,-1.0183632339E+00,-1.0381335136E+00
+618.5700E-06,-1.0179755814E+00,-1.0214644542E+00
+618.9800E-06,-1.0094472254E+00,-1.0245656746E+00
+619.3900E-06,-1.0129360983E+00,-1.0237903695E+00
+619.8000E-06,-1.0203014966E+00,-1.0206891492E+00
+620.2100E-06,-1.0094472254E+00,-1.0203014966E+00
+620.6200E-06,-1.0195261915E+00,-1.0203014966E+00
+621.0300E-06,-1.0113854881E+00,-1.0203014966E+00
+621.4400E-06,-1.0191385390E+00,-1.0214644542E+00
+621.8500E-06,-1.0094472254E+00,-1.0203014966E+00
+622.2600E-06,-1.0020818270E+00,-1.0237903695E+00
+622.6700E-06,-1.0094472254E+00,-1.0206891492E+00
+623.0800E-06,-1.0094472254E+00,-1.0311557679E+00
+623.4900E-06,-1.0144867085E+00,-1.0203014966E+00
+623.9000E-06,-1.0094472254E+00,-1.0203014966E+00
+624.3100E-06,-1.0203014966E+00,-1.0299928102E+00
+624.7200E-06,-1.0071213101E+00,-1.0203014966E+00
+625.1300E-06,-1.0203014966E+00,-1.0237903695E+00
+625.5400E-06,-1.0199138441E+00,-1.0203014966E+00
+625.9500E-06,-1.0175879288E+00,-1.0203014966E+00
+626.3600E-06,-1.0086719203E+00,-1.0261162848E+00
+626.7700E-06,-1.0094472254E+00,-1.0203014966E+00
+627.1800E-06,-998.5929541E-03,-1.0311557679E+00
+627.5900E-06,-1.0094472254E+00,-1.0203014966E+00
+628.0000E-06,-1.0203014966E+00,-1.0311557679E+00
+628.4100E-06,-998.9806067E-03,-1.0307681153E+00
+628.8200E-06,-1.0013065219E+00,-1.0203014966E+00
+629.2300E-06,-1.0094472254E+00,-1.0253409797E+00
+629.6400E-06,-1.0094472254E+00,-1.0292175051E+00
+630.0500E-06,-1.0094472254E+00,-1.0311557679E+00
+630.4600E-06,-1.0094472254E+00,-1.0245656746E+00
+630.8700E-06,-1.0315434204E+00,-1.0276668949E+00
+631.2800E-06,-1.0090595728E+00,-1.0206891492E+00
+631.6900E-06,-1.0094472254E+00,-1.0203014966E+00
+632.1000E-06,-1.0144867085E+00,-1.0203014966E+00
+632.5100E-06,-1.0094472254E+00,-1.0203014966E+00
+632.9200E-06,-1.0094472254E+00,-1.0203014966E+00
+633.3300E-06,-1.0094472254E+00,-1.0203014966E+00
+633.7400E-06,-1.0168126237E+00,-1.0276668949E+00
+634.1500E-06,-999.7559118E-03,-1.0307681153E+00
+634.5600E-06,-1.0148743610E+00,-1.0203014966E+00
+634.9700E-06,-1.0094472254E+00,-1.0311557679E+00
+635.3800E-06,-1.0094472254E+00,-1.0292175051E+00
+635.7900E-06,-1.0094472254E+00,-1.0203014966E+00
+636.2000E-06,-1.0094472254E+00,-1.0203014966E+00
+636.6100E-06,-1.0203014966E+00,-1.0237903695E+00
+637.0200E-06,-1.0203014966E+00,-1.0311557679E+00
+637.4300E-06,-1.0094472254E+00,-1.0203014966E+00
+637.8400E-06,-1.0094472254E+00,-1.0253409797E+00
+638.2500E-06,-1.0164249711E+00,-1.0133237508E+00
+638.6600E-06,-1.0106101830E+00,-1.0311557679E+00
+639.0700E-06,-1.0051830474E+00,-1.0203014966E+00
+639.4800E-06,-1.0094472254E+00,-1.0311557679E+00
+639.8900E-06,-1.0098348779E+00,-1.0307681153E+00
+640.3000E-06,-1.0175879288E+00,-1.0203014966E+00
+640.7100E-06,-1.0144867085E+00,-1.0253409797E+00
+641.1200E-06,-1.0094472254E+00,-1.0222397593E+00
+641.5300E-06,-1.0203014966E+00,-1.0299928102E+00
+641.9400E-06,-1.0268915899E+00,-1.0311557679E+00
+642.3500E-06,-1.0129360983E+00,-1.0237903695E+00
+642.7600E-06,-1.0094472254E+00,-1.0203014966E+00
+643.1700E-06,-1.0094472254E+00,-1.0203014966E+00
+643.5800E-06,-1.0144867085E+00,-1.0203014966E+00
+643.9900E-06,-1.0075089626E+00,-1.0311557679E+00
+644.4000E-06,-1.0203014966E+00,-1.0203014966E+00
+644.8100E-06,-1.0137114033E+00,-1.0203014966E+00
+645.2200E-06,-1.0203014966E+00,-1.0276668949E+00
+645.6300E-06,-1.0094472254E+00,-1.0203014966E+00
+646.0400E-06,-1.0013065219E+00,-1.0230150644E+00
+646.4500E-06,-1.0094472254E+00,-1.0203014966E+00
+646.8600E-06,-1.0203014966E+00,-1.0292175051E+00
+647.2700E-06,-1.0094472254E+00,-1.0311557679E+00
+647.6800E-06,-1.0203014966E+00,-1.0268915899E+00
+648.0900E-06,-1.0168126237E+00,-1.0164249712E+00
+648.5000E-06,-1.0203014966E+00,-1.0203014966E+00
+648.9100E-06,-1.0203014966E+00,-1.0203014966E+00
+649.3200E-06,-1.0044077423E+00,-1.0195261915E+00
+649.7300E-06,-1.0094472254E+00,-1.0222397593E+00
+650.1400E-06,-1.0094472254E+00,-1.0203014966E+00
+650.5500E-06,-1.0051830474E+00,-1.0245656746E+00
+650.9600E-06,-1.0168126237E+00,-1.0203014966E+00
+651.3700E-06,-1.0195261915E+00,-1.0206891492E+00
+651.7800E-06,-1.0148743610E+00,-1.0284422001E+00
+652.1900E-06,-1.0144867085E+00,-1.0261162848E+00
+652.6000E-06,-1.0113854881E+00,-1.0203014966E+00
+653.0100E-06,-1.0094472254E+00,-1.0106101830E+00
+653.4200E-06,-1.0094472254E+00,-1.0311557679E+00
+653.8300E-06,-1.0203014966E+00,-1.0237903695E+00
+654.2400E-06,-1.0094472254E+00,-1.0203014966E+00
+654.6500E-06,-1.0013065219E+00,-1.0230150644E+00
+655.0600E-06,-1.0094472254E+00,-1.0311557679E+00
+655.4700E-06,-1.0094472254E+00,-1.0203014966E+00
+655.8800E-06,-1.0191385390E+00,-1.0311557679E+00
+656.2900E-06,-1.0137114033E+00,-1.0203014966E+00
+656.7000E-06,-1.0203014966E+00,-1.0237903695E+00
+657.1100E-06,-999.3682592E-03,-1.0203014966E+00
+657.5200E-06,-1.0121607932E+00,-1.0230150644E+00
+657.9300E-06,-1.0144867085E+00,-1.0253409797E+00
+658.3400E-06,-1.0094472254E+00,-1.0222397593E+00
+658.7500E-06,-1.0094472254E+00,-1.0203014966E+00
+659.1600E-06,-1.0094472254E+00,-1.0203014966E+00
+659.5700E-06,-1.0203014966E+00,-1.0237903695E+00
+659.9800E-06,-1.0203014966E+00,-1.0199138441E+00
+660.3900E-06,-1.0284422001E+00,-1.0311557679E+00
+660.8000E-06,-1.0152620135E+00,-1.0253409797E+00
+661.2100E-06,-1.0005312169E+00,-1.0203014966E+00
+661.6200E-06,-1.0082842677E+00,-1.0203014966E+00
+662.0300E-06,-1.0071213101E+00,-1.0268915899E+00
+662.4400E-06,-1.0094472254E+00,-1.0203014966E+00
+662.8500E-06,-1.0199138441E+00,-1.0203014966E+00
+663.2600E-06,-1.0067336576E+00,-1.0230150644E+00
+663.6700E-06,-1.0152620135E+00,-1.0311557679E+00
+664.0800E-06,-1.0164249711E+00,-1.0311557679E+00
+664.4900E-06,-1.0106101830E+00,-1.0203014966E+00
+664.9000E-06,-1.0051830474E+00,-1.0203014966E+00
+665.3100E-06,-1.0055707000E+00,-1.0311557679E+00
+665.7200E-06,-998.5929541E-03,-1.0203014966E+00
+666.1300E-06,-1.0094472254E+00,-1.0311557679E+00
+666.5400E-06,-1.0094472254E+00,-1.0253409797E+00
+666.9500E-06,-1.0183632339E+00,-1.0311557679E+00
+667.3600E-06,-1.0191385390E+00,-1.0214644542E+00
+667.7700E-06,-1.0028571321E+00,-1.0311557679E+00
+668.1800E-06,-1.0094472254E+00,-1.0311557679E+00
+668.5900E-06,-999.3682592E-03,-1.0203014966E+00
+669.0000E-06,-1.0175879288E+00,-1.0284422001E+00
+669.4100E-06,-1.0203014966E+00,-1.0261162848E+00
+669.8200E-06,-1.0113854881E+00,-1.0203014966E+00
+670.2300E-06,-1.0094472254E+00,-1.0203014966E+00
+670.6400E-06,-1.0028571321E+00,-1.0268915899E+00
+671.0500E-06,-1.0203014966E+00,-1.0237903695E+00
+671.4600E-06,-1.0203014966E+00,-1.0311557679E+00
+671.8700E-06,-1.0094472254E+00,-1.0230150644E+00
+672.2800E-06,-1.0144867085E+00,-1.0261162848E+00
+672.6900E-06,-1.0005312169E+00,-1.0222397593E+00
+673.1000E-06,-1.0179755814E+00,-1.0203014966E+00
+673.5100E-06,-1.0117731407E+00,-1.0268915899E+00
+673.9200E-06,-1.0055707000E+00,-1.0311557679E+00
+674.3300E-06,-1.0098348779E+00,-1.0203014966E+00
+674.7400E-06,-1.0121607932E+00,-1.0284422001E+00
+675.1500E-06,-1.0086719203E+00,-1.0144867085E+00
+675.5600E-06,-1.0094472254E+00,-1.0311557679E+00
+675.9700E-06,-1.0082842678E+00,-1.0203014966E+00
+676.3800E-06,-1.0160373186E+00,-1.0245656746E+00
+676.7900E-06,-1.0203014966E+00,-1.0203014966E+00
+677.2000E-06,-1.0094472254E+00,-1.0311557679E+00
+677.6100E-06,-1.0094472254E+00,-1.0203014966E+00
+678.0200E-06,-1.0144867085E+00,-1.0311557679E+00
+678.4300E-06,-1.0094472254E+00,-1.0203014966E+00
+678.8400E-06,-1.0203014966E+00,-1.0203014966E+00
+679.2500E-06,-1.0094472254E+00,-1.0203014966E+00
+679.6600E-06,-1.0203014966E+00,-1.0203014966E+00
+680.0700E-06,-1.0094472254E+00,-1.0098348779E+00
+680.4800E-06,-1.0094472254E+00,-1.0284422001E+00
+680.8900E-06,-1.0036324372E+00,-1.0203014966E+00
+681.3000E-06,-1.0164249711E+00,-1.0222397593E+00
+681.7100E-06,-1.0106101830E+00,-1.0203014966E+00
+682.1200E-06,-1.0137114033E+00,-1.0203014966E+00
+682.5300E-06,-1.0206891491E+00,-1.0203014966E+00
+682.9400E-06,-1.0094472254E+00,-1.0206891492E+00
+683.3500E-06,-1.0257286323E+00,-1.0203014966E+00
+683.7600E-06,-1.0203014966E+00,-1.0203014966E+00
+684.1700E-06,-1.0094472254E+00,-1.0203014966E+00
+684.5800E-06,-1.0106101830E+00,-1.0311557679E+00
+684.9900E-06,-1.0179755813E+00,-1.0203014966E+00
+685.4000E-06,-1.0020818270E+00,-1.0203014966E+00
+685.8100E-06,-999.3682592E-03,-1.0206891492E+00
+686.2200E-06,-1.0175879288E+00,-1.0311557679E+00
+686.6300E-06,-1.0094472254E+00,-1.0261162848E+00
+687.0400E-06,-1.0203014966E+00,-1.0203014966E+00
+687.4500E-06,-1.0082842678E+00,-1.0203014966E+00
+687.8600E-06,-1.0094472254E+00,-1.0203014966E+00
+688.2700E-06,-1.0020818270E+00,-1.0237903695E+00
+688.6800E-06,-998.9806067E-03,-1.0203014966E+00
+689.0900E-06,-1.0094472254E+00,-1.0230150644E+00
+689.5000E-06,-1.0152620135E+00,-1.0203014966E+00
+689.9100E-06,-1.0075089626E+00,-1.0292175051E+00
+690.3200E-06,-1.0203014966E+00,-1.0214644542E+00
+690.7300E-06,-1.0094472254E+00,-1.0245656746E+00
+691.1400E-06,-1.0203014966E+00,-1.0203014966E+00
+691.5500E-06,-1.0098348779E+00,-1.0206891492E+00
+691.9600E-06,-1.0013065219E+00,-1.0203014966E+00
+692.3700E-06,-1.0094472254E+00,-1.0203014966E+00
+692.7800E-06,-1.0075089626E+00,-1.0203014966E+00
+693.1900E-06,-1.0106101830E+00,-1.0106101830E+00
+693.6000E-06,-998.5929541E-03,-1.0245656746E+00
+694.0100E-06,-1.0129360983E+00,-1.0203014966E+00
+694.4200E-06,-1.0195261915E+00,-1.0206891492E+00
+694.8300E-06,-1.0175879288E+00,-1.0230150644E+00
+695.2400E-06,-1.0094472254E+00,-1.0203014966E+00
+695.6500E-06,-1.0183632339E+00,-1.0203014966E+00
+696.0600E-06,-1.0191385390E+00,-1.0311557679E+00
+696.4700E-06,-1.0094472254E+00,-1.0203014966E+00
+696.8800E-06,-1.0094472254E+00,-1.0203014966E+00
+697.2900E-06,-1.0199138440E+00,-1.0206891492E+00
+697.7000E-06,-1.0203014966E+00,-1.0203014966E+00
+698.1100E-06,-1.0203014966E+00,-1.0261162848E+00
+698.5200E-06,-1.0094472254E+00,-1.0311557679E+00
+698.9300E-06,-1.0094472254E+00,-1.0203014966E+00
+699.3400E-06,-1.0094472254E+00,-1.0203014966E+00
+699.7500E-06,-1.0129360983E+00,-1.0237903695E+00
+700.1600E-06,-1.0203014966E+00,-1.0307681153E+00
+700.5700E-06,-1.0067336576E+00,-1.0311557679E+00
+700.9800E-06,-1.0094472254E+00,-1.0203014966E+00
+701.3900E-06,-1.0203014966E+00,-1.0203014966E+00
+701.8000E-06,-1.0191385390E+00,-1.0203014966E+00
+702.2100E-06,-1.0094472254E+00,-1.0203014966E+00
+702.6200E-06,-1.0094472254E+00,-1.0276668949E+00
+703.0300E-06,-1.0199138440E+00,-1.0203014966E+00
+703.4400E-06,-1.0121607932E+00,-1.0230150644E+00
+703.8500E-06,-1.0203014966E+00,-1.0203014966E+00
+704.2600E-06,-1.0005312169E+00,-1.0311557679E+00
+704.6700E-06,-1.0106101830E+00,-1.0203014966E+00
+705.0800E-06,-1.0094472254E+00,-1.0203014966E+00
+705.4900E-06,-1.0203014966E+00,-1.0272792424E+00
+705.9000E-06,-1.0199138440E+00,-1.0311557679E+00
+706.3100E-06,-1.0013065219E+00,-1.0203014966E+00
+706.7200E-06,-1.0036324372E+00,-1.0253409797E+00
+707.1300E-06,-1.0183632339E+00,-1.0272792424E+00
+707.5400E-06,-1.0179755814E+00,-1.0214644542E+00
+707.9500E-06,-1.0028571321E+00,-1.0203014966E+00
+708.3600E-06,-991.2275558E-03,-1.0276668949E+00
+708.7700E-06,-1.0094472254E+00,-1.0203014966E+00
+709.1800E-06,-1.0121607932E+00,-1.0284422001E+00
+709.5900E-06,-1.0152620135E+00,-1.0261162848E+00
