ANALOG
Ch 1 Scale 160mV/, Pos 0.0V, Coup DC, BW Limit Off, Inv Off, Imp 1M Ohm
     Probe 1.0000000 : 1, Skew 0.0s
Ch 2 Scale 160mV/, Pos 0.0V, Coup DC, BW Limit Off, Inv Off, Imp 1M Ohm
     Probe 1.0000000 : 1, Skew 0.0s

TRIGGER
Sweep Mode Auto, Coup DC, Noise Rej Off, HF Rej Off, Holdoff 40.0ns
Mode Edge, Source Ch 2, Slope Falling, Level 294.000mV

HORIZONTAL
Mode Normal, Ref Center, Main Scale 940.0ns/, Main Delay 289.760000us

ACQUISITION
Mode Normal, Realtime On, Vectors On, Persistence Off

